ID	Age	Smoke	Cigarettes	Hypertension	Diabetes	FH Angina	FH MI	FH Stroke	Angina
1	37	1	15	1	no	no	no	no	no
2	45	3	0	1	no	no	no	no	no
3	60	3	0	1	no	no	yes	no	yes
4	57	3	0	1	no	no	no	no	no
5	65	1	20	2	no	no	yes	no	yes
6	56	1	20	1	no	no	no	no	yes
7	42	3	0	1	no	no	no	no	no
8	52	1	30	1	no	no	no	no	yes
9	61	2	0	1	no	no	yes	no	yes
10	59	2	0	1	no	no	yes	no	yes
11	49	2	0	1	no	no	no	yes	no
12	56	2	0	1	no	no	no	yes	no
13	38	3	0	1	no	no	no	no	no
14	66	1	12	1	no	no	yes	no	yes
15	49	3	0	1	no	no	no	no	no
16	48	1	12	1	no	yes	no	no	yes
17	61	1	10	1	no	no	yes	no	yes
18	57	1	30	1	no	yes	yes	no	yes
19	52	1	NA	1	no	no	no	no	no
20	43	3	0	1	no	no	no	no	no
21	53	2	0	2	no	no	yes	no	yes
22	58	1	30	2	no	no	no	no	yes
23	41	1	4	1	no	yes	no	no	no
24	53	1	24	1	no	yes	no	no	yes
25	61	3	0	1	no	no	no	no	no
26	64	1	20	3	no	no	no	no	yes
27	48	1	40	3	no	no	no	no	yes
28	59	1	26	1	no	yes	no	no	yes
29	41	3	0	1	no	no	no	no	no
30	53	2	0	1	no	no	no	no	no
31	69	1	25	1	no	no	no	no	yes
32	61	1	10	3	yes	no	yes	no	yes
33	57	3	0	1	no	yes	yes	no	yes
34	57	2	0	1	no	no	yes	no	yes
35	45	3	0	1	no	no	yes	no	no
36	69	3	0	1	NA	no	no	no	no
37	51	3	0	2	no	no	no	no	no
38	55	3	0	2	no	no	no	yes	no
39	47	1	5	2	no	no	no	no	no
40	39	3	0	1	no	no	yes	no	no
41	47	2	0	2	no	no	no	yes	yes
42	62	1	20	2	no	no	yes	no	yes
43	54	2	0	1	no	no	yes	no	yes
44	48	3	0	3	NA	yes	yes	no	yes
45	37	1	10	1	no	no	yes	no	no
46	74	3	0	1	no	no	no	no	no
47	54	1	25	1	no	no	yes	no	yes
48	63	3	0	1	no	no	no	no	no
49	63	1	30	1	no	no	no	no	yes
50	58	3	0	1	no	no	no	no	no
51	58	3	0	1	no	no	no	no	no
52	69	3	0	1	no	no	no	no	no
53	38	1	15	1	no	no	yes	no	yes
54	58	2	0	1	no	no	yes	no	yes
55	38	1	15	1	no	no	yes	yes	yes
56	46	2	0	1	no	no	no	no	yes
57	59	1	40	1	no	no	yes	no	yes
58	60	2	0	1	yes	no	yes	no	yes
59	49	3	0	1	yes	yes	no	no	no
60	31	1	40	2	no	no	no	no	yes
61	53	1	5	1	no	no	no	no	yes
62	68	2	0	1	no	yes	yes	no	yes
63	47	3	0	1	no	no	no	no	no
64	62	3	0	1	no	no	no	no	no
65	45	1	30	1	no	no	yes	no	no
66	48	3	0	2	no	yes	no	no	yes
67	39	2	0	1	no	no	yes	no	no
68	55	1	10	1	no	no	yes	no	yes
69	42	3	0	1	no	no	yes	no	no
70	68	1	5	1	no	no	no	no	yes
71	51	3	0	1	no	no	no	no	no
72	59	2	0	1	yes	no	no	no	yes
73	38	1	20	1	no	no	no	no	no
74	64	1	30	3	no	no	no	no	yes
75	43	1	20	1	yes	no	yes	no	no
76	59	2	0	1	no	no	no	no	yes
77	61	1	10	2	no	yes	no	no	yes
78	41	3	0	1	no	no	yes	no	no
79	41	3	0	1	no	no	no	no	no
80	56	3	0	1	no	no	yes	no	yes
81	56	2	0	1	no	no	yes	no	yes
82	68	3	0	1	no	no	no	no	yes
83	65	3	0	1	no	no	no	no	no
84	51	2	0	1	no	no	yes	no	yes
85	48	1	40	1	no	no	yes	no	yes
86	48	1	10	1	no	no	yes	no	yes
87	47	3	0	1	no	no	no	no	no
88	46	2	0	1	no	yes	no	no	no
89	52	3	0	1	no	no	no	no	no
90	54	1	30	1	no	no	no	no	no
91	60	3	0	2	yes	no	yes	no	yes
92	44	2	0	1	no	no	no	no	no
93	51	3	0	1	no	no	no	no	no
94	58	1	40	1	no	no	yes	no	yes
95	70	2	0	1	no	yes	yes	no	yes
96	67	3	0	3	no	no	yes	yes	yes
97	64	2	0	2	no	no	yes	no	yes
98	29	3	0	1	no	no	no	no	no
99	48	3	0	3	no	no	no	no	yes
100	39	3	0	1	no	no	no	no	no
101	51	3	0	1	no	no	no	yes	no
102	38	3	0	1	no	no	no	no	yes
103	49	3	0	1	no	no	no	no	no
104	73	1	10	1	no	no	no	no	yes
105	51	3	0	1	no	no	no	no	no
106	64	2	0	1	yes	no	yes	no	yes
107	49	1	20	1	no	yes	no	no	yes
108	55	1	20	2	no	yes	yes	no	yes
109	41	3	0	1	no	no	no	no	no
110	41	3	0	2	no	no	no	no	no
111	56	1	34	3	no	no	no	no	yes
112	44	3	0	1	no	no	no	no	no
113	50	2	0	1	no	no	no	no	no
114	53	2	0	2	no	no	no	no	no
115	41	3	0	1	no	no	no	no	no
116	48	2	0	2	no	no	no	no	yes
117	39	1	10	1	no	no	no	no	yes
118	49	2	0	1	no	yes	yes	yes	yes
119	51	3	0	1	no	yes	no	no	no
120	44	3	0	1	no	no	no	no	no
121	59	2	0	1	no	no	yes	no	yes
122	48	3	0	1	no	no	no	no	no
123	66	2	0	1	no	no	yes	no	yes
124	57	2	0	1	no	no	yes	no	yes
125	59	1	24	1	no	no	no	no	yes
126	53	3	0	1	no	no	no	no	no
127	64	1	20	1	no	no	no	no	yes
128	49	1	20	1	no	no	no	no	no
129	51	1	10	2	no	no	no	no	no
130	63	2	0	1	no	no	no	no	yes
131	56	3	0	1	no	no	no	no	no
132	40	1	15	1	no	no	yes	no	yes
133	56	3	0	2	no	no	no	no	yes
134	43	3	0	1	no	no	no	no	no
135	37	1	20	1	no	no	no	no	no
136	39	1	20	2	no	yes	no	no	yes
137	56	1	20	1	no	no	yes	no	yes
138	53	1	26	1	no	no	no	no	yes
139	55	1	10	1	no	no	yes	no	yes
140	59	1	30	1	no	no	no	no	yes
141	41	3	0	1	no	no	no	no	no
142	52	2	0	1	no	no	no	no	no
143	46	1	10	1	no	yes	yes	no	no
144	43	1	20	2	no	no	yes	no	yes
145	53	2	0	1	no	no	no	no	no
146	61	1	20	2	no	no	yes	no	yes
147	55	3	0	2	no	no	no	no	no
148	41	3	0	1	no	no	no	no	no
149	29	1	20	1	no	no	no	no	yes
150	33	2	0	2	no	no	yes	no	yes
151	45	2	0	3	no	no	no	no	no
152	40	3	0	1	no	no	no	no	no
153	56	3	0	1	no	no	yes	no	no
154	46	1	10	2	no	no	no	no	no
155	53	2	0	1	no	no	yes	yes	yes
156	57	1	20	1	no	no	no	yes	yes
157	56	1	25	1	no	no	no	no	yes
158	46	2	0	1	no	no	yes	no	no
159	46	1	20	1	no	no	yes	no	yes
160	63	1	20	2	no	no	no	no	yes
161	64	1	32	1	no	no	no	no	yes
162	49	1	20	1	no	no	no	no	no
163	55	3	0	1	no	yes	yes	no	no
164	45	1	20	1	no	no	no	no	no
165	58	3	0	2	no	no	no	no	no
166	64	2	0	1	no	no	yes	no	yes
167	64	1	15	2	no	no	yes	no	yes
168	58	3	0	3	no	no	no	no	no
169	66	1	40	1	no	no	yes	no	yes
170	45	3	0	1	no	no	no	no	no
171	67	1	25	2	no	no	no	no	yes
172	41	3	0	1	no	no	no	no	no
173	49	3	0	1	no	no	no	no	no
174	37	3	0	1	no	no	no	no	no
175	53	2	0	1	no	no	no	yes	no
176	58	1	30	1	no	no	yes	no	yes
177	49	3	0	1	no	no	no	no	no
178	48	1	13	1	no	no	no	no	no
179	59	1	30	1	no	no	no	no	yes
180	49	1	3	2	no	no	no	no	no
181	48	1	15	2	no	no	no	no	yes
182	68	3	0	3	no	no	no	no	yes
183	44	3	0	2	no	no	no	no	no
184	42	1	30	1	no	no	no	yes	no
185	65	3	0	2	no	no	no	no	no
186	59	3	0	2	no	no	no	no	no
187	49	1	6	1	no	no	no	no	no
188	51	1	30	2	no	no	no	no	yes
189	50	3	0	1	no	no	no	no	no
190	39	1	15	1	no	yes	no	no	yes
191	39	2	0	1	no	no	no	no	no
192	59	3	0	3	no	no	no	no	yes
193	51	1	25	1	no	no	yes	no	yes
194	70	1	15	1	no	no	yes	no	yes
195	54	3	0	2	no	no	no	no	no
196	58	2	0	3	no	no	no	no	no
197	57	3	0	1	no	no	no	no	no
198	65	1	10	1	no	no	no	no	no
199	73	1	15	2	no	no	yes	no	yes
200	53	3	0	1	no	no	no	no	no