ranges of every chromosome : (1, 16)
    selection method is: LinearRankingSelection
    crossover method is: UniformCrossover
    pc: The probability of crossover: 1.000000
    pe: Gene exchange probability: 0.500000
    mutation method is: RandomIntMutation
    pm: The probability of mutation: 0.100000
    pbm: The probability of big mutation: -1.000000
    alpha: intensive factor: -1.000000
best_fit = [
    (0, [1, 12, 16, 9, 12, 13, 11, 5, 10, 15], 0.7766497461928934),
    (1, [1, 12, 16, 9, 12, 13, 11, 5, 10, 15], 0.7766497461928934),
    (2, [1, 12, 16, 9, 12, 13, 11, 5, 10, 15], 0.7766497461928934),
    (3, [1, 12, 16, 9, 12, 13, 11, 5, 10, 15], 0.7766497461928934),
    (4, [1, 12, 16, 9, 12, 13, 11, 5, 10, 15], 0.7766497461928934),
    (5, [13, 13, 10, 16, 2, 15, 2, 2, 10, 12], 0.7817258883248731),
    (6, [13, 13, 10, 16, 2, 15, 2, 2, 10, 12], 0.7817258883248731),
    (7, [13, 13, 10, 16, 2, 15, 2, 2, 10, 12], 0.7817258883248731),
    (8, [12, 4, 13, 6, 12, 2, 11, 13, 10, 3], 0.7918781725888325),
    (9, [10, 1, 4, 2, 10, 12, 15, 10, 15, 2], 0.817258883248731),
    (10, [10, 1, 4, 2, 10, 12, 15, 10, 15, 2], 0.817258883248731),
    (11, [10, 1, 4, 2, 10, 12, 15, 10, 15, 2], 0.817258883248731),
    (12, [10, 1, 4, 2, 10, 12, 15, 10, 15, 2], 0.817258883248731),
    (13, [10, 1, 4, 2, 10, 12, 15, 10, 15, 2], 0.817258883248731),
    (14, [10, 1, 4, 2, 10, 12, 15, 10, 15, 2], 0.817258883248731),
    (15, [10, 1, 4, 2, 10, 12, 15, 10, 15, 2], 0.817258883248731),
    (16, [10, 1, 4, 2, 10, 12, 15, 10, 15, 2], 0.817258883248731),
    (17, [10, 1, 4, 2, 10, 12, 15, 10, 15, 2], 0.817258883248731),
    (18, [10, 1, 4, 2, 10, 12, 15, 10, 15, 2], 0.817258883248731),
    (19, [10, 1, 4, 2, 10, 12, 15, 10, 15, 2], 0.817258883248731),
    (20, [10, 1, 4, 2, 10, 12, 15, 10, 15, 2], 0.817258883248731),
    (21, [10, 1, 4, 2, 10, 12, 15, 10, 15, 2], 0.817258883248731),
    (22, [10, 1, 4, 2, 10, 12, 15, 10, 15, 2], 0.817258883248731),
    (23, [4, 10, 15, 16, 1, 12, 4, 5, 3, 12], 0.8324873096446701),
    (24, [4, 10, 15, 16, 1, 12, 4, 5, 3, 12], 0.8324873096446701),
    (25, [4, 10, 15, 16, 1, 12, 4, 5, 3, 12], 0.8324873096446701),
    (26, [4, 10, 15, 16, 1, 12, 4, 5, 3, 12], 0.8324873096446701),
    (27, [4, 10, 15, 16, 1, 12, 4, 5, 3, 12], 0.8324873096446701),
    (28, [4, 10, 15, 16, 1, 12, 4, 5, 3, 12], 0.8324873096446701),
    (29, [4, 10, 15, 16, 1, 12, 4, 5, 3, 12], 0.8324873096446701),
    (30, [4, 10, 15, 16, 1, 12, 4, 5, 3, 12], 0.8324873096446701),
    (31, [4, 10, 15, 16, 1, 12, 4, 5, 3, 12], 0.8324873096446701),
    (32, [4, 10, 15, 16, 1, 12, 4, 5, 3, 12], 0.8324873096446701),
    (33, [4, 10, 15, 16, 1, 12, 4, 5, 3, 12], 0.8324873096446701),
    (34, [4, 10, 15, 16, 1, 12, 4, 5, 3, 12], 0.8324873096446701),
    (35, [4, 10, 15, 16, 1, 12, 4, 5, 3, 12], 0.8324873096446701),
    (36, [4, 10, 15, 16, 1, 12, 4, 5, 3, 12], 0.8324873096446701),
    (37, [4, 10, 15, 16, 1, 12, 4, 5, 3, 12], 0.8324873096446701),
    (38, [4, 10, 15, 16, 1, 12, 4, 5, 3, 12], 0.8324873096446701),
    (39, [4, 10, 15, 16, 1, 12, 4, 5, 3, 12], 0.8324873096446701),
    (40, [4, 10, 15, 16, 1, 12, 4, 5, 3, 12], 0.8324873096446701),
    (41, [4, 10, 15, 16, 1, 12, 4, 5, 3, 12], 0.8324873096446701),
    (42, [4, 10, 15, 16, 1, 12, 4, 5, 3, 12], 0.8324873096446701),
    (43, [4, 10, 15, 16, 1, 12, 4, 5, 3, 12], 0.8324873096446701),
    (44, [4, 10, 15, 16, 1, 12, 4, 5, 3, 12], 0.8324873096446701),
    (45, [4, 10, 15, 16, 1, 12, 4, 5, 3, 12], 0.8324873096446701),
    (46, [4, 10, 15, 16, 1, 12, 4, 5, 3, 12], 0.8324873096446701),
    (47, [4, 10, 15, 16, 1, 12, 4, 5, 3, 12], 0.8324873096446701),
    (48, [4, 10, 15, 16, 1, 12, 4, 5, 3, 12], 0.8324873096446701),
    (49, [4, 10, 15, 16, 1, 12, 4, 5, 3, 12], 0.8324873096446701),
    (50, [4, 10, 15, 16, 1, 12, 4, 5, 3, 12], 0.8324873096446701),
    (51, [4, 10, 15, 16, 1, 12, 4, 5, 3, 12], 0.8324873096446701),
    (52, [4, 10, 15, 16, 1, 12, 4, 5, 3, 12], 0.8324873096446701),
    (53, [4, 10, 15, 16, 1, 12, 4, 5, 3, 12], 0.8324873096446701),
    (54, [4, 10, 15, 16, 1, 12, 4, 5, 3, 12], 0.8324873096446701),
    (55, [4, 10, 15, 16, 1, 12, 4, 5, 3, 12], 0.8324873096446701),
    (56, [4, 10, 15, 16, 1, 12, 4, 5, 3, 12], 0.8324873096446701),
    (57, [4, 10, 15, 16, 1, 12, 4, 5, 3, 12], 0.8324873096446701),
    (58, [4, 10, 15, 16, 1, 12, 4, 5, 3, 12], 0.8324873096446701),
    (59, [4, 10, 15, 16, 1, 12, 4, 5, 3, 12], 0.8324873096446701),
    (60, [4, 10, 15, 16, 1, 12, 4, 5, 3, 12], 0.8324873096446701),
    (61, [4, 10, 15, 16, 1, 12, 4, 5, 3, 12], 0.8324873096446701),
    (62, [4, 10, 15, 16, 1, 12, 4, 5, 3, 12], 0.8324873096446701),
    (63, [4, 10, 15, 16, 1, 12, 4, 5, 3, 12], 0.8324873096446701),
    (64, [4, 10, 15, 16, 1, 12, 4, 5, 3, 12], 0.8324873096446701),
    (65, [4, 10, 15, 16, 1, 12, 4, 5, 3, 12], 0.8324873096446701),
    (66, [4, 10, 15, 16, 1, 12, 4, 5, 3, 12], 0.8324873096446701),
    (67, [4, 10, 15, 16, 1, 12, 4, 5, 3, 12], 0.8324873096446701),
    (68, [4, 10, 15, 16, 1, 12, 4, 5, 3, 12], 0.8324873096446701),
    (69, [4, 10, 15, 16, 1, 12, 4, 5, 3, 12], 0.8324873096446701),
    (70, [4, 10, 15, 16, 1, 12, 4, 5, 3, 12], 0.8324873096446701),
    (71, [4, 10, 15, 16, 1, 12, 4, 5, 3, 12], 0.8324873096446701),
    (72, [4, 10, 15, 16, 1, 12, 4, 5, 3, 12], 0.8324873096446701),
    (73, [4, 10, 15, 16, 1, 12, 4, 5, 3, 12], 0.8324873096446701),
    (74, [4, 10, 15, 16, 1, 12, 4, 5, 3, 12], 0.8324873096446701),
    (75, [4, 10, 15, 16, 1, 12, 4, 5, 3, 12], 0.8324873096446701),
    (76, [4, 10, 15, 16, 1, 12, 4, 5, 3, 12], 0.8324873096446701),
    (77, [4, 10, 15, 16, 1, 12, 4, 5, 3, 12], 0.8324873096446701),
    (78, [4, 10, 15, 16, 1, 12, 4, 5, 3, 12], 0.8324873096446701),
    (79, [4, 10, 15, 16, 1, 12, 4, 5, 3, 12], 0.8324873096446701),
    (80, [4, 10, 15, 16, 1, 12, 4, 5, 3, 12], 0.8324873096446701),
    (81, [4, 10, 15, 16, 1, 12, 4, 5, 3, 12], 0.8324873096446701),
    (82, [4, 10, 15, 16, 1, 12, 4, 5, 3, 12], 0.8324873096446701),
    (83, [4, 10, 15, 16, 1, 12, 4, 5, 3, 12], 0.8324873096446701),
    (84, [4, 10, 15, 16, 1, 12, 4, 5, 3, 12], 0.8324873096446701),
    (85, [4, 10, 15, 16, 1, 12, 4, 5, 3, 12], 0.8324873096446701),
    (86, [4, 10, 15, 16, 1, 12, 4, 5, 3, 12], 0.8324873096446701),
    (87, [4, 10, 15, 16, 1, 12, 4, 5, 3, 12], 0.8324873096446701),
    (88, [4, 10, 15, 16, 1, 12, 4, 5, 3, 12], 0.8324873096446701),
    (89, [4, 10, 15, 16, 1, 12, 4, 5, 3, 12], 0.8324873096446701),
    (90, [4, 10, 15, 16, 1, 12, 4, 5, 3, 12], 0.8324873096446701),
    (91, [4, 10, 15, 16, 1, 12, 4, 5, 3, 12], 0.8324873096446701),
    (92, [4, 10, 15, 16, 1, 12, 4, 5, 3, 12], 0.8324873096446701),
    (93, [4, 10, 15, 16, 1, 12, 4, 5, 3, 12], 0.8324873096446701),
    (94, [4, 10, 15, 16, 1, 12, 4, 5, 3, 12], 0.8324873096446701),
    (95, [4, 10, 15, 16, 1, 12, 4, 5, 3, 12], 0.8324873096446701),
    (96, [4, 10, 15, 16, 1, 12, 4, 5, 3, 12], 0.8324873096446701),
    (97, [4, 10, 15, 16, 1, 12, 4, 5, 3, 12], 0.8324873096446701),
    (98, [4, 10, 15, 16, 1, 12, 4, 5, 3, 12], 0.8324873096446701),
    (99, [4, 10, 15, 16, 1, 12, 4, 5, 3, 12], 0.8324873096446701),
    (100, [4, 10, 15, 16, 1, 12, 4, 5, 3, 12], 0.8324873096446701),
    (101, [4, 10, 15, 16, 1, 12, 4, 5, 3, 12], 0.8324873096446701),
    (102, [4, 10, 15, 16, 1, 12, 4, 5, 3, 12], 0.8324873096446701),
    (103, [4, 10, 15, 16, 1, 12, 4, 5, 3, 12], 0.8324873096446701),
    (104, [4, 10, 15, 16, 1, 12, 4, 5, 3, 12], 0.8324873096446701),
    (105, [4, 10, 15, 16, 1, 12, 4, 5, 3, 12], 0.8324873096446701),
    (106, [4, 10, 15, 16, 1, 12, 4, 5, 3, 12], 0.8324873096446701),
    (107, [4, 10, 15, 16, 1, 12, 4, 5, 3, 12], 0.8324873096446701),
    (108, [4, 10, 15, 16, 1, 12, 4, 5, 3, 12], 0.8324873096446701),
    (109, [4, 10, 15, 16, 1, 12, 4, 5, 3, 12], 0.8324873096446701),
    (110, [4, 10, 15, 16, 1, 12, 4, 5, 3, 12], 0.8324873096446701),
    (111, [4, 10, 15, 16, 1, 12, 4, 5, 3, 12], 0.8324873096446701),
    (112, [4, 10, 15, 16, 1, 12, 4, 5, 3, 12], 0.8324873096446701),
    (113, [4, 10, 15, 16, 1, 12, 4, 5, 3, 12], 0.8324873096446701),
    (114, [4, 10, 15, 16, 1, 12, 4, 5, 3, 12], 0.8324873096446701),
    (115, [4, 10, 15, 16, 1, 12, 4, 5, 3, 12], 0.8324873096446701),
    (116, [4, 10, 15, 16, 1, 12, 4, 5, 3, 12], 0.8324873096446701),
    (117, [4, 10, 15, 16, 1, 12, 4, 5, 3, 12], 0.8324873096446701),
    (118, [4, 10, 15, 16, 1, 12, 4, 5, 3, 12], 0.8324873096446701),
    (119, [4, 10, 15, 16, 1, 12, 4, 5, 3, 12], 0.8324873096446701),
    (120, [4, 10, 15, 16, 1, 12, 4, 5, 3, 12], 0.8324873096446701),
    (121, [4, 10, 15, 16, 1, 12, 4, 5, 3, 12], 0.8324873096446701),
    (122, [4, 10, 15, 16, 1, 12, 4, 5, 3, 12], 0.8324873096446701),
    (123, [4, 10, 15, 16, 1, 12, 4, 5, 3, 12], 0.8324873096446701),
    (124, [4, 10, 15, 16, 1, 12, 4, 5, 3, 12], 0.8324873096446701),
    (125, [4, 10, 15, 16, 1, 12, 4, 5, 3, 12], 0.8324873096446701),
    (126, [4, 10, 15, 16, 1, 12, 4, 5, 3, 12], 0.8324873096446701),
    (127, [4, 10, 15, 16, 1, 12, 4, 5, 3, 12], 0.8324873096446701),
    (128, [4, 10, 15, 16, 1, 12, 4, 5, 3, 12], 0.8324873096446701),
    (129, [4, 10, 15, 16, 1, 12, 4, 5, 3, 12], 0.8324873096446701),
    (130, [4, 10, 15, 16, 1, 12, 4, 5, 3, 12], 0.8324873096446701),
    (131, [4, 10, 15, 16, 1, 12, 4, 5, 3, 12], 0.8324873096446701),
    (132, [4, 10, 15, 16, 1, 12, 4, 5, 3, 12], 0.8324873096446701),
    (133, [4, 10, 15, 16, 1, 12, 4, 5, 3, 12], 0.8324873096446701),
    (134, [4, 10, 15, 16, 1, 12, 4, 5, 3, 12], 0.8324873096446701),
    (135, [4, 10, 15, 16, 1, 12, 4, 5, 3, 12], 0.8324873096446701),
    (136, [4, 10, 15, 16, 1, 12, 4, 5, 3, 12], 0.8324873096446701),
    (137, [4, 10, 15, 16, 1, 12, 4, 5, 3, 12], 0.8324873096446701),
    (138, [4, 10, 15, 16, 1, 12, 4, 5, 3, 12], 0.8324873096446701),
    (139, [4, 10, 15, 16, 1, 12, 4, 5, 3, 12], 0.8324873096446701),
    (140, [4, 10, 15, 16, 1, 12, 4, 5, 3, 12], 0.8324873096446701),
    (141, [4, 10, 15, 16, 1, 12, 4, 5, 3, 12], 0.8324873096446701),
    (142, [4, 10, 15, 16, 1, 12, 4, 5, 3, 12], 0.8324873096446701),
    (143, [4, 10, 15, 16, 1, 12, 4, 5, 3, 12], 0.8324873096446701),
    (144, [4, 10, 15, 16, 1, 12, 4, 5, 3, 12], 0.8324873096446701),
    (145, [4, 10, 15, 16, 1, 12, 4, 5, 3, 12], 0.8324873096446701),
    (146, [4, 10, 15, 16, 1, 12, 4, 5, 3, 12], 0.8324873096446701),
    (147, [4, 10, 15, 16, 1, 12, 4, 5, 3, 12], 0.8324873096446701),
    (148, [4, 10, 15, 16, 1, 12, 4, 5, 3, 12], 0.8324873096446701),
    (149, [4, 10, 15, 16, 1, 12, 4, 5, 3, 12], 0.8324873096446701),
    (150, [4, 10, 15, 16, 1, 12, 4, 5, 3, 12], 0.8324873096446701),
    (151, [4, 10, 15, 16, 1, 12, 4, 5, 3, 12], 0.8324873096446701),
    (152, [4, 10, 15, 16, 1, 12, 4, 5, 3, 12], 0.8324873096446701),
    (153, [4, 10, 15, 16, 1, 12, 4, 5, 3, 12], 0.8324873096446701),
    (154, [4, 10, 15, 16, 1, 12, 4, 5, 3, 12], 0.8324873096446701),
    (155, [4, 10, 15, 16, 1, 12, 4, 5, 3, 12], 0.8324873096446701),
    (156, [4, 10, 15, 16, 1, 12, 4, 5, 3, 12], 0.8324873096446701),
    (157, [4, 10, 15, 16, 1, 12, 4, 5, 3, 12], 0.8324873096446701),
    (158, [4, 10, 15, 16, 1, 12, 4, 5, 3, 12], 0.8324873096446701),
    (159, [4, 10, 15, 16, 1, 12, 4, 5, 3, 12], 0.8324873096446701),
    (160, [4, 10, 15, 16, 1, 12, 4, 5, 3, 12], 0.8324873096446701),
    (161, [4, 10, 15, 16, 1, 12, 4, 5, 3, 12], 0.8324873096446701),
    (162, [4, 10, 15, 16, 1, 12, 4, 5, 3, 12], 0.8324873096446701),
    (163, [4, 10, 15, 16, 1, 12, 4, 5, 3, 12], 0.8324873096446701),
    (164, [4, 10, 15, 16, 1, 12, 4, 5, 3, 12], 0.8324873096446701),
    (165, [4, 10, 15, 16, 1, 12, 4, 5, 3, 12], 0.8324873096446701),
    (166, [4, 10, 15, 16, 1, 12, 4, 5, 3, 12], 0.8324873096446701),
    (167, [4, 10, 15, 16, 1, 12, 4, 5, 3, 12], 0.8324873096446701),
    (168, [4, 10, 15, 16, 1, 12, 4, 5, 3, 12], 0.8324873096446701),
    (169, [4, 10, 15, 16, 1, 12, 4, 5, 3, 12], 0.8324873096446701),
    (170, [4, 10, 15, 16, 1, 12, 4, 5, 3, 12], 0.8324873096446701),
    (171, [4, 10, 15, 16, 1, 12, 4, 5, 3, 12], 0.8324873096446701),
    (172, [4, 10, 15, 16, 1, 12, 4, 5, 3, 12], 0.8324873096446701),
    (173, [4, 10, 15, 16, 1, 12, 4, 5, 3, 12], 0.8324873096446701),
    (174, [4, 10, 15, 16, 1, 12, 4, 5, 3, 12], 0.8324873096446701),
    (175, [4, 10, 15, 16, 1, 12, 4, 5, 3, 12], 0.8324873096446701),
    (176, [4, 10, 15, 16, 1, 12, 4, 5, 3, 12], 0.8324873096446701),
    (177, [4, 10, 15, 16, 1, 12, 4, 5, 3, 12], 0.8324873096446701),
    (178, [4, 10, 15, 16, 1, 12, 4, 5, 3, 12], 0.8324873096446701),
    (179, [4, 10, 15, 16, 1, 12, 4, 5, 3, 12], 0.8324873096446701),
    (180, [4, 10, 15, 16, 1, 12, 4, 5, 3, 12], 0.8324873096446701),
    (181, [4, 10, 15, 16, 1, 12, 4, 5, 3, 12], 0.8324873096446701),
    (182, [4, 10, 15, 16, 1, 12, 4, 5, 3, 12], 0.8324873096446701),
    (183, [4, 10, 15, 16, 1, 12, 4, 5, 3, 12], 0.8324873096446701),
    (184, [4, 10, 15, 16, 1, 12, 4, 5, 3, 12], 0.8324873096446701),
    (185, [4, 10, 15, 16, 1, 12, 4, 5, 3, 12], 0.8324873096446701),
    (186, [4, 10, 15, 16, 1, 12, 4, 5, 3, 12], 0.8324873096446701),
    (187, [4, 10, 15, 16, 1, 12, 4, 5, 3, 12], 0.8324873096446701),
    (188, [4, 10, 15, 16, 1, 12, 4, 5, 3, 12], 0.8324873096446701),
    (189, [4, 10, 15, 16, 1, 12, 4, 5, 3, 12], 0.8324873096446701),
    (190, [4, 10, 15, 16, 1, 12, 4, 5, 3, 12], 0.8324873096446701),
    (191, [4, 10, 15, 16, 1, 12, 4, 5, 3, 12], 0.8324873096446701),
    (192, [4, 10, 15, 16, 1, 12, 4, 5, 3, 12], 0.8324873096446701),
    (193, [4, 10, 15, 16, 1, 12, 4, 5, 3, 12], 0.8324873096446701),
    (194, [4, 10, 15, 16, 1, 12, 4, 5, 3, 12], 0.8324873096446701),
    (195, [4, 10, 15, 16, 1, 12, 4, 5, 3, 12], 0.8324873096446701),
    (196, [4, 10, 15, 16, 1, 12, 4, 5, 3, 12], 0.8324873096446701),
    (197, [4, 10, 15, 16, 1, 12, 4, 5, 3, 12], 0.8324873096446701),
    (198, [4, 10, 15, 16, 1, 12, 4, 5, 3, 12], 0.8324873096446701),
    (199, [4, 10, 15, 16, 1, 12, 4, 5, 3, 12], 0.8324873096446701),
    (200, [4, 10, 15, 16, 1, 12, 4, 5, 3, 12], 0.8324873096446701),
    (201, [4, 10, 15, 16, 1, 12, 4, 5, 3, 12], 0.8324873096446701),
    (202, [4, 10, 15, 16, 1, 12, 4, 5, 3, 12], 0.8324873096446701),
    (203, [4, 10, 15, 16, 1, 12, 4, 5, 3, 12], 0.8324873096446701),
    (204, [4, 10, 15, 16, 1, 12, 4, 5, 3, 12], 0.8324873096446701),
    (205, [4, 10, 15, 16, 1, 12, 4, 5, 3, 12], 0.8324873096446701),
    (206, [4, 10, 15, 16, 1, 12, 4, 5, 3, 12], 0.8324873096446701),
    (207, [4, 10, 15, 16, 1, 12, 4, 5, 3, 12], 0.8324873096446701),
    (208, [4, 10, 15, 16, 1, 12, 4, 5, 3, 12], 0.8324873096446701),
    (209, [4, 10, 15, 16, 1, 12, 4, 5, 3, 12], 0.8324873096446701),
    (210, [4, 10, 15, 16, 1, 12, 4, 5, 3, 12], 0.8324873096446701),
    (211, [4, 10, 15, 16, 1, 12, 4, 5, 3, 12], 0.8324873096446701),
    (212, [4, 10, 15, 16, 1, 12, 4, 5, 3, 12], 0.8324873096446701),
    (213, [4, 10, 15, 16, 1, 12, 4, 5, 3, 12], 0.8324873096446701),
    (214, [4, 10, 15, 16, 1, 12, 4, 5, 3, 12], 0.8324873096446701),
    (215, [4, 10, 15, 16, 1, 12, 4, 5, 3, 12], 0.8324873096446701),
    (216, [4, 10, 15, 16, 1, 12, 4, 5, 3, 12], 0.8324873096446701),
    (217, [4, 10, 15, 16, 1, 12, 4, 5, 3, 12], 0.8324873096446701),
    (218, [4, 10, 15, 16, 1, 12, 4, 5, 3, 12], 0.8324873096446701),
    (219, [4, 10, 15, 16, 1, 12, 4, 5, 3, 12], 0.8324873096446701),
    (220, [4, 10, 15, 16, 1, 12, 4, 5, 3, 12], 0.8324873096446701),
    (221, [4, 10, 15, 16, 1, 12, 4, 5, 3, 12], 0.8324873096446701),
    (222, [4, 10, 15, 16, 1, 12, 4, 5, 3, 12], 0.8324873096446701),
    (223, [4, 10, 15, 16, 1, 12, 4, 5, 3, 12], 0.8324873096446701),
    (224, [10, 4, 12, 2, 10, 4, 10, 10, 11, 11], 0.8375634517766497),
    (225, [10, 4, 12, 2, 10, 4, 10, 10, 11, 11], 0.8375634517766497),
    (226, [10, 4, 12, 2, 10, 4, 10, 10, 11, 11], 0.8375634517766497),
    (227, [10, 4, 12, 2, 10, 4, 10, 10, 11, 11], 0.8375634517766497),
    (228, [10, 4, 12, 2, 10, 4, 10, 10, 11, 11], 0.8375634517766497),
    (229, [10, 4, 12, 2, 10, 4, 10, 10, 11, 11], 0.8375634517766497),
    (230, [10, 4, 12, 2, 10, 4, 10, 10, 11, 11], 0.8375634517766497),
    (231, [10, 4, 12, 2, 10, 4, 10, 10, 11, 11], 0.8375634517766497),
    (232, [10, 4, 12, 2, 10, 4, 10, 10, 11, 11], 0.8375634517766497),
    (233, [10, 4, 12, 2, 10, 4, 10, 10, 11, 11], 0.8375634517766497),
    (234, [10, 4, 12, 2, 10, 4, 10, 10, 11, 11], 0.8375634517766497),
    (235, [10, 4, 12, 2, 10, 4, 10, 10, 11, 11], 0.8375634517766497),
    (236, [10, 4, 12, 2, 10, 4, 10, 10, 11, 11], 0.8375634517766497),
    (237, [10, 4, 12, 2, 10, 4, 10, 10, 11, 11], 0.8375634517766497),
    (238, [10, 4, 12, 2, 10, 4, 10, 10, 11, 11], 0.8375634517766497),
    (239, [10, 4, 12, 2, 10, 4, 10, 10, 11, 11], 0.8375634517766497),
    (240, [10, 4, 12, 2, 10, 4, 10, 10, 11, 11], 0.8375634517766497),
    (241, [10, 4, 12, 2, 10, 4, 10, 10, 11, 11], 0.8375634517766497),
    (242, [10, 4, 12, 2, 10, 4, 10, 10, 11, 11], 0.8375634517766497),
    (243, [10, 4, 12, 2, 10, 4, 10, 10, 11, 11], 0.8375634517766497),
    (244, [10, 4, 12, 2, 10, 4, 10, 10, 11, 11], 0.8375634517766497),
    (245, [10, 4, 12, 2, 10, 4, 10, 10, 11, 11], 0.8375634517766497),
    (246, [10, 4, 12, 2, 10, 4, 10, 10, 11, 11], 0.8375634517766497),
    (247, [10, 4, 12, 2, 10, 4, 10, 10, 11, 11], 0.8375634517766497),
    (248, [10, 4, 12, 2, 10, 4, 10, 10, 11, 11], 0.8375634517766497),
    (249, [10, 4, 12, 2, 10, 4, 10, 10, 11, 11], 0.8375634517766497),
    (250, [10, 4, 12, 2, 10, 4, 10, 10, 11, 11], 0.8375634517766497),
    (251, [10, 4, 12, 2, 10, 4, 10, 10, 11, 11], 0.8375634517766497),
    (252, [10, 4, 12, 2, 10, 4, 10, 10, 11, 11], 0.8375634517766497),
    (253, [10, 4, 12, 2, 10, 4, 10, 10, 11, 11], 0.8375634517766497),
    (254, [10, 4, 12, 2, 10, 4, 10, 10, 11, 11], 0.8375634517766497),
    (255, [10, 4, 12, 2, 10, 4, 10, 10, 11, 11], 0.8375634517766497),
    (256, [10, 4, 12, 2, 10, 4, 10, 10, 11, 11], 0.8375634517766497),
    (257, [10, 4, 12, 2, 10, 4, 10, 10, 11, 11], 0.8375634517766497),
    (258, [10, 4, 12, 2, 10, 4, 10, 10, 11, 11], 0.8375634517766497),
    (259, [10, 4, 12, 2, 10, 4, 10, 10, 11, 11], 0.8375634517766497),
    (260, [10, 4, 12, 2, 10, 4, 10, 10, 11, 11], 0.8375634517766497),
    (261, [10, 4, 12, 2, 10, 4, 10, 10, 11, 11], 0.8375634517766497),
    (262, [10, 4, 12, 2, 10, 4, 10, 10, 11, 11], 0.8375634517766497),
    (263, [10, 4, 12, 2, 10, 4, 10, 10, 11, 11], 0.8375634517766497),
    (264, [10, 4, 12, 2, 10, 4, 10, 10, 11, 11], 0.8375634517766497),
    (265, [10, 4, 12, 2, 10, 4, 10, 10, 11, 11], 0.8375634517766497),
    (266, [10, 4, 12, 2, 10, 4, 10, 10, 11, 11], 0.8375634517766497),
    (267, [10, 4, 12, 2, 10, 4, 10, 10, 11, 11], 0.8375634517766497),
    (268, [10, 4, 12, 2, 10, 4, 10, 10, 11, 11], 0.8375634517766497),
    (269, [10, 4, 12, 2, 10, 4, 10, 10, 11, 11], 0.8375634517766497),
    (270, [10, 4, 12, 2, 10, 4, 10, 10, 11, 11], 0.8375634517766497),
    (271, [10, 4, 12, 2, 10, 4, 10, 10, 11, 11], 0.8375634517766497),
    (272, [10, 4, 12, 2, 10, 4, 10, 10, 11, 11], 0.8375634517766497),
    (273, [10, 4, 12, 2, 10, 4, 10, 10, 11, 11], 0.8375634517766497),
    (274, [10, 4, 12, 2, 10, 4, 10, 10, 11, 11], 0.8375634517766497),
    (275, [10, 4, 12, 2, 10, 4, 10, 10, 11, 11], 0.8375634517766497),
    (276, [10, 4, 12, 2, 10, 4, 10, 10, 11, 11], 0.8375634517766497),
    (277, [10, 4, 12, 2, 10, 4, 10, 10, 11, 11], 0.8375634517766497),
    (278, [10, 4, 12, 2, 10, 4, 10, 10, 11, 11], 0.8375634517766497),
    (279, [10, 4, 12, 2, 10, 4, 10, 10, 11, 11], 0.8375634517766497),
    (280, [10, 4, 12, 2, 10, 4, 10, 10, 11, 11], 0.8375634517766497),
    (281, [10, 4, 12, 2, 10, 4, 10, 10, 11, 11], 0.8375634517766497),
    (282, [10, 4, 12, 2, 10, 4, 10, 10, 11, 11], 0.8375634517766497),
    (283, [10, 4, 12, 2, 10, 4, 10, 10, 11, 11], 0.8375634517766497),
    (284, [10, 4, 12, 2, 10, 4, 10, 10, 11, 11], 0.8375634517766497),
    (285, [10, 4, 12, 2, 10, 4, 10, 10, 11, 11], 0.8375634517766497),
    (286, [10, 4, 12, 2, 10, 4, 10, 10, 11, 11], 0.8375634517766497),
    (287, [10, 4, 12, 2, 10, 4, 10, 10, 11, 11], 0.8375634517766497),
    (288, [10, 4, 12, 2, 10, 4, 10, 10, 11, 11], 0.8375634517766497),
    (289, [10, 4, 12, 2, 10, 4, 10, 10, 11, 11], 0.8375634517766497),
    (290, [10, 4, 12, 2, 10, 4, 10, 10, 11, 11], 0.8375634517766497),
    (291, [10, 4, 12, 2, 10, 4, 10, 10, 11, 11], 0.8375634517766497),
    (292, [10, 4, 12, 2, 10, 4, 10, 10, 11, 11], 0.8375634517766497),
    (293, [10, 4, 12, 2, 10, 4, 10, 10, 11, 11], 0.8375634517766497),
    (294, [10, 4, 12, 2, 10, 4, 10, 10, 11, 11], 0.8375634517766497),
    (295, [10, 4, 12, 2, 10, 4, 10, 10, 11, 11], 0.8375634517766497),
    (296, [10, 4, 12, 2, 10, 4, 10, 10, 11, 11], 0.8375634517766497),
    (297, [10, 4, 12, 2, 10, 4, 10, 10, 11, 11], 0.8375634517766497),
    (298, [10, 4, 12, 2, 10, 4, 10, 10, 11, 11], 0.8375634517766497),
    (299, [10, 4, 12, 2, 10, 4, 10, 10, 11, 11], 0.8375634517766497),
]

