ranges of every chromosome : (1, 5)
    selection method is: RouletteWheelSelection
    crossover method is: UniformCrossover
    pc: The probability of crossover: 0.800000
    pe: Gene exchange probability: 0.500000
    mutation method is: RandomIntMutation
    pm: The probability of mutation: 0.100000
    pbm: The probability of big mutation: -1.000000
    alpha: intensive factor: -1.000000
best_fit = [
    (0, [1, 4, 5, 1, 1, 4, 1, 5, 5, 2], 0.7817258883248731),
    (1, [1, 4, 5, 1, 1, 4, 1, 5, 5, 2], 0.7817258883248731),
    (2, [1, 4, 5, 1, 1, 4, 1, 5, 5, 2], 0.7817258883248731),
    (3, [1, 4, 5, 1, 1, 4, 1, 5, 5, 2], 0.7817258883248731),
    (4, [1, 4, 5, 1, 1, 4, 1, 5, 5, 2], 0.7817258883248731),
    (5, [1, 4, 5, 1, 1, 4, 1, 5, 5, 2], 0.7817258883248731),
    (6, [1, 4, 5, 1, 1, 4, 1, 5, 5, 2], 0.7817258883248731),
    (7, [1, 4, 5, 1, 1, 4, 1, 5, 5, 2], 0.7817258883248731),
    (8, [1, 4, 5, 1, 1, 4, 1, 5, 5, 2], 0.7817258883248731),
    (9, [1, 4, 1, 2, 1, 2, 3, 3, 5, 5], 0.8223350253807107),
    (10, [1, 4, 1, 2, 1, 2, 3, 3, 5, 5], 0.8223350253807107),
    (11, [1, 4, 1, 2, 1, 2, 3, 3, 5, 5], 0.8223350253807107),
    (12, [1, 4, 1, 2, 1, 2, 3, 3, 5, 5], 0.8223350253807107),
    (13, [1, 4, 1, 2, 1, 2, 3, 3, 5, 5], 0.8223350253807107),
    (14, [1, 4, 1, 2, 1, 2, 3, 3, 5, 5], 0.8223350253807107),
    (15, [1, 4, 1, 2, 1, 2, 3, 3, 5, 5], 0.8223350253807107),
    (16, [1, 4, 1, 2, 1, 2, 3, 3, 5, 5], 0.8223350253807107),
    (17, [1, 4, 1, 2, 1, 2, 3, 3, 5, 5], 0.8223350253807107),
    (18, [1, 4, 1, 2, 1, 2, 3, 3, 5, 5], 0.8223350253807107),
    (19, [1, 4, 1, 2, 1, 2, 3, 3, 5, 5], 0.8223350253807107),
    (20, [1, 4, 1, 2, 1, 2, 3, 3, 5, 5], 0.8223350253807107),
    (21, [1, 4, 1, 2, 1, 2, 3, 3, 5, 5], 0.8223350253807107),
    (22, [1, 4, 1, 2, 1, 2, 3, 3, 5, 5], 0.8223350253807107),
    (23, [1, 4, 1, 2, 1, 2, 3, 3, 5, 5], 0.8223350253807107),
    (24, [1, 4, 1, 2, 1, 2, 3, 3, 5, 5], 0.8223350253807107),
    (25, [1, 4, 1, 2, 1, 2, 3, 3, 5, 5], 0.8223350253807107),
    (26, [1, 4, 1, 2, 1, 2, 3, 3, 5, 5], 0.8223350253807107),
    (27, [1, 4, 1, 2, 1, 2, 3, 3, 5, 5], 0.8223350253807107),
    (28, [1, 4, 1, 2, 1, 2, 3, 3, 5, 5], 0.8223350253807107),
    (29, [1, 4, 1, 2, 1, 2, 3, 3, 5, 5], 0.8223350253807107),
    (30, [1, 4, 1, 2, 1, 2, 3, 3, 5, 5], 0.8223350253807107),
    (31, [1, 4, 1, 2, 1, 2, 3, 3, 5, 5], 0.8223350253807107),
    (32, [1, 4, 1, 2, 1, 2, 3, 3, 5, 5], 0.8223350253807107),
    (33, [1, 4, 1, 2, 1, 2, 3, 3, 5, 5], 0.8223350253807107),
    (34, [1, 4, 1, 2, 1, 2, 3, 3, 5, 5], 0.8223350253807107),
    (35, [1, 4, 1, 2, 1, 2, 3, 3, 5, 5], 0.8223350253807107),
    (36, [1, 4, 1, 2, 1, 2, 3, 3, 5, 5], 0.8223350253807107),
    (37, [1, 4, 1, 2, 1, 2, 3, 3, 5, 5], 0.8223350253807107),
    (38, [1, 4, 1, 2, 1, 2, 3, 3, 5, 5], 0.8223350253807107),
    (39, [1, 4, 1, 2, 1, 2, 3, 3, 5, 5], 0.8223350253807107),
    (40, [1, 4, 1, 2, 1, 2, 3, 3, 5, 5], 0.8223350253807107),
    (41, [1, 4, 1, 2, 1, 2, 3, 3, 5, 5], 0.8223350253807107),
    (42, [1, 4, 1, 2, 1, 2, 3, 3, 5, 5], 0.8223350253807107),
    (43, [1, 4, 1, 2, 1, 2, 3, 3, 5, 5], 0.8223350253807107),
    (44, [1, 4, 1, 2, 1, 2, 3, 3, 5, 5], 0.8223350253807107),
    (45, [1, 4, 1, 2, 1, 2, 3, 3, 5, 5], 0.8223350253807107),
    (46, [1, 4, 1, 2, 1, 2, 3, 3, 5, 5], 0.8223350253807107),
    (47, [1, 4, 1, 2, 1, 2, 3, 3, 5, 5], 0.8223350253807107),
    (48, [1, 4, 1, 2, 1, 2, 3, 3, 5, 5], 0.8223350253807107),
    (49, [1, 4, 1, 2, 1, 2, 3, 3, 5, 5], 0.8223350253807107),
    (50, [1, 4, 1, 2, 1, 2, 3, 3, 5, 5], 0.8223350253807107),
    (51, [4, 1, 5, 2, 1, 3, 3, 4, 3, 3], 0.8274111675126904),
    (52, [4, 1, 5, 2, 1, 3, 3, 4, 3, 3], 0.8274111675126904),
    (53, [4, 1, 5, 2, 1, 3, 3, 4, 3, 3], 0.8274111675126904),
    (54, [4, 1, 5, 2, 1, 3, 3, 4, 3, 3], 0.8274111675126904),
    (55, [4, 1, 5, 2, 1, 3, 3, 4, 3, 3], 0.8274111675126904),
    (56, [4, 1, 5, 2, 1, 3, 3, 4, 3, 3], 0.8274111675126904),
    (57, [4, 1, 5, 2, 1, 3, 3, 4, 3, 3], 0.8274111675126904),
    (58, [4, 1, 5, 2, 1, 3, 3, 4, 3, 3], 0.8274111675126904),
    (59, [4, 1, 5, 2, 1, 3, 3, 4, 3, 3], 0.8274111675126904),
    (60, [4, 1, 5, 2, 1, 3, 3, 4, 3, 3], 0.8274111675126904),
    (61, [4, 1, 5, 2, 1, 3, 3, 4, 3, 3], 0.8274111675126904),
    (62, [4, 1, 5, 2, 1, 3, 3, 4, 3, 3], 0.8274111675126904),
    (63, [4, 1, 5, 2, 1, 3, 3, 4, 3, 3], 0.8274111675126904),
    (64, [4, 1, 5, 2, 1, 3, 3, 4, 3, 3], 0.8274111675126904),
    (65, [4, 1, 5, 2, 1, 3, 3, 4, 3, 3], 0.8274111675126904),
    (66, [4, 1, 5, 2, 1, 3, 3, 4, 3, 3], 0.8274111675126904),
    (67, [4, 1, 5, 2, 1, 3, 3, 4, 3, 3], 0.8274111675126904),
    (68, [4, 1, 5, 2, 1, 3, 3, 4, 3, 3], 0.8274111675126904),
    (69, [4, 1, 5, 2, 1, 3, 3, 4, 3, 3], 0.8274111675126904),
    (70, [4, 1, 5, 2, 1, 3, 3, 4, 3, 3], 0.8274111675126904),
    (71, [4, 1, 5, 2, 1, 3, 3, 4, 3, 3], 0.8274111675126904),
    (72, [4, 1, 5, 2, 1, 3, 3, 4, 3, 3], 0.8274111675126904),
    (73, [4, 1, 5, 2, 1, 3, 3, 4, 3, 3], 0.8274111675126904),
    (74, [4, 1, 5, 2, 1, 3, 3, 4, 3, 3], 0.8274111675126904),
    (75, [4, 1, 5, 2, 1, 3, 3, 4, 3, 3], 0.8274111675126904),
    (76, [4, 1, 5, 2, 1, 3, 3, 4, 3, 3], 0.8274111675126904),
    (77, [4, 1, 5, 2, 1, 3, 3, 4, 3, 3], 0.8274111675126904),
    (78, [4, 1, 5, 2, 1, 3, 3, 4, 3, 3], 0.8274111675126904),
    (79, [4, 1, 5, 2, 1, 3, 3, 4, 3, 3], 0.8274111675126904),
    (80, [4, 1, 5, 2, 1, 3, 3, 4, 3, 3], 0.8274111675126904),
    (81, [4, 1, 5, 2, 1, 3, 3, 4, 3, 3], 0.8274111675126904),
    (82, [4, 1, 5, 2, 1, 3, 3, 4, 3, 3], 0.8274111675126904),
    (83, [4, 1, 5, 2, 1, 3, 3, 4, 3, 3], 0.8274111675126904),
    (84, [4, 1, 5, 2, 1, 3, 3, 4, 3, 3], 0.8274111675126904),
    (85, [4, 1, 5, 2, 1, 3, 3, 4, 3, 3], 0.8274111675126904),
    (86, [4, 1, 5, 2, 1, 3, 3, 4, 3, 3], 0.8274111675126904),
    (87, [4, 1, 5, 2, 1, 3, 3, 4, 3, 3], 0.8274111675126904),
    (88, [4, 1, 5, 2, 1, 3, 3, 4, 3, 3], 0.8274111675126904),
    (89, [4, 1, 5, 2, 1, 3, 3, 4, 3, 3], 0.8274111675126904),
    (90, [4, 1, 5, 2, 1, 3, 3, 4, 3, 3], 0.8274111675126904),
    (91, [4, 1, 5, 2, 1, 3, 3, 4, 3, 3], 0.8274111675126904),
    (92, [4, 1, 5, 2, 1, 3, 3, 4, 3, 3], 0.8274111675126904),
    (93, [4, 1, 5, 2, 1, 3, 3, 4, 3, 3], 0.8274111675126904),
    (94, [4, 1, 5, 2, 1, 3, 3, 4, 3, 3], 0.8274111675126904),
    (95, [4, 1, 5, 2, 1, 3, 3, 4, 3, 3], 0.8274111675126904),
    (96, [4, 1, 5, 2, 1, 3, 3, 4, 3, 3], 0.8274111675126904),
    (97, [4, 1, 5, 2, 1, 3, 3, 4, 3, 3], 0.8274111675126904),
    (98, [4, 1, 5, 2, 1, 3, 3, 4, 3, 3], 0.8274111675126904),
    (99, [4, 1, 5, 2, 1, 3, 3, 4, 3, 3], 0.8274111675126904),
]

