ranges of every chromosome : (1, 16)
    selection method is: LinearRankingSelection
    crossover method is: SinglePointCrossover
    pc: The probability of crossover: 1.000000
    pe: Gene exchange probability: 0.500000
    mutation method is: RandomIntMutation
    pm: The probability of mutation: 0.200000
    pbm: The probability of big mutation: -1.000000
    alpha: intensive factor: -1.000000
best_fit = [
    (0, [4, 5, 11, 12, 10, 16, 10, 12, 15, 6], 0.7715736040609137),
    (1, [4, 5, 11, 12, 10, 16, 10, 12, 15, 6], 0.7715736040609137),
    (2, [4, 6, 1, 5, 15, 2, 15, 1, 5, 5], 0.7817258883248731),
    (3, [4, 6, 1, 5, 15, 2, 15, 1, 5, 5], 0.7817258883248731),
    (4, [4, 6, 1, 5, 15, 2, 15, 1, 5, 5], 0.7817258883248731),
    (5, [1, 4, 4, 11, 12, 10, 13, 15, 6, 15], 0.8071065989847716),
    (6, [1, 4, 4, 11, 12, 10, 13, 15, 6, 15], 0.8071065989847716),
    (7, [1, 4, 4, 11, 12, 10, 13, 15, 6, 15], 0.8071065989847716),
    (8, [1, 4, 4, 11, 12, 10, 13, 15, 6, 15], 0.8071065989847716),
    (9, [1, 4, 4, 11, 12, 10, 13, 15, 6, 15], 0.8071065989847716),
    (10, [1, 4, 4, 11, 12, 10, 13, 15, 6, 15], 0.8071065989847716),
    (11, [1, 4, 4, 11, 12, 10, 13, 15, 6, 15], 0.8071065989847716),
    (12, [1, 4, 6, 2, 10, 10, 6, 2, 3, 7], 0.8274111675126904),
    (13, [1, 4, 6, 2, 10, 10, 6, 2, 3, 7], 0.8274111675126904),
    (14, [1, 4, 6, 2, 10, 10, 6, 2, 3, 7], 0.8274111675126904),
    (15, [1, 4, 6, 2, 10, 10, 6, 2, 3, 7], 0.8274111675126904),
    (16, [1, 4, 6, 2, 10, 10, 6, 2, 3, 7], 0.8274111675126904),
    (17, [4, 4, 7, 16, 6, 16, 10, 1, 3, 1], 0.8375634517766497),
    (18, [4, 4, 7, 16, 6, 16, 10, 1, 3, 1], 0.8375634517766497),
    (19, [4, 4, 7, 16, 6, 16, 10, 1, 3, 1], 0.8375634517766497),
    (20, [4, 4, 7, 16, 6, 16, 10, 1, 3, 1], 0.8375634517766497),
    (21, [4, 4, 7, 16, 6, 16, 10, 1, 3, 1], 0.8375634517766497),
    (22, [4, 4, 7, 16, 6, 16, 10, 1, 3, 1], 0.8375634517766497),
    (23, [4, 4, 7, 16, 6, 16, 10, 1, 3, 1], 0.8375634517766497),
    (24, [4, 4, 7, 16, 6, 16, 10, 1, 3, 1], 0.8375634517766497),
    (25, [4, 4, 7, 16, 6, 16, 10, 1, 3, 1], 0.8375634517766497),
    (26, [4, 4, 7, 16, 6, 16, 10, 1, 3, 1], 0.8375634517766497),
    (27, [4, 4, 7, 16, 6, 16, 10, 1, 3, 1], 0.8375634517766497),
    (28, [4, 4, 7, 16, 6, 16, 10, 1, 3, 1], 0.8375634517766497),
    (29, [4, 4, 7, 16, 6, 16, 10, 1, 3, 1], 0.8375634517766497),
    (30, [4, 4, 7, 16, 6, 16, 10, 1, 3, 1], 0.8375634517766497),
    (31, [4, 4, 7, 16, 6, 16, 10, 1, 3, 1], 0.8375634517766497),
    (32, [4, 4, 7, 16, 6, 16, 10, 1, 3, 1], 0.8375634517766497),
    (33, [4, 4, 7, 16, 6, 16, 10, 1, 3, 1], 0.8375634517766497),
    (34, [4, 4, 7, 16, 6, 16, 10, 1, 3, 1], 0.8375634517766497),
    (35, [4, 4, 7, 16, 6, 16, 10, 1, 3, 1], 0.8375634517766497),
    (36, [4, 4, 7, 16, 6, 16, 10, 1, 3, 1], 0.8375634517766497),
    (37, [4, 4, 7, 16, 6, 16, 10, 1, 3, 1], 0.8375634517766497),
    (38, [4, 4, 7, 16, 6, 16, 10, 1, 3, 1], 0.8375634517766497),
    (39, [4, 4, 7, 16, 6, 16, 10, 1, 3, 1], 0.8375634517766497),
    (40, [4, 4, 7, 16, 6, 16, 10, 1, 3, 1], 0.8375634517766497),
    (41, [4, 4, 7, 16, 6, 16, 10, 1, 3, 1], 0.8375634517766497),
    (42, [4, 4, 7, 16, 6, 16, 10, 1, 3, 1], 0.8375634517766497),
    (43, [4, 4, 7, 16, 6, 16, 10, 1, 3, 1], 0.8375634517766497),
    (44, [4, 4, 7, 16, 6, 16, 10, 1, 3, 1], 0.8375634517766497),
    (45, [4, 4, 7, 16, 6, 16, 10, 1, 3, 1], 0.8375634517766497),
    (46, [4, 4, 7, 16, 6, 16, 10, 1, 3, 1], 0.8375634517766497),
    (47, [4, 4, 7, 16, 6, 16, 10, 1, 3, 1], 0.8375634517766497),
    (48, [4, 4, 7, 16, 6, 16, 10, 1, 3, 1], 0.8375634517766497),
    (49, [4, 4, 7, 16, 6, 16, 10, 1, 3, 1], 0.8375634517766497),
    (50, [4, 4, 7, 16, 6, 16, 10, 1, 3, 1], 0.8375634517766497),
    (51, [4, 4, 7, 16, 6, 16, 10, 1, 3, 1], 0.8375634517766497),
    (52, [4, 4, 7, 16, 6, 16, 10, 1, 3, 1], 0.8375634517766497),
    (53, [4, 4, 7, 16, 6, 16, 10, 1, 3, 1], 0.8375634517766497),
    (54, [4, 4, 7, 16, 6, 16, 10, 1, 3, 1], 0.8375634517766497),
    (55, [4, 4, 7, 16, 6, 16, 10, 1, 3, 1], 0.8375634517766497),
    (56, [4, 4, 7, 16, 6, 16, 10, 1, 3, 1], 0.8375634517766497),
    (57, [4, 4, 7, 16, 6, 16, 10, 1, 3, 1], 0.8375634517766497),
    (58, [4, 4, 7, 16, 6, 16, 10, 1, 3, 1], 0.8375634517766497),
    (59, [4, 4, 7, 16, 6, 16, 10, 1, 3, 1], 0.8375634517766497),
    (60, [4, 4, 7, 16, 6, 16, 10, 1, 3, 1], 0.8375634517766497),
    (61, [4, 4, 7, 16, 6, 16, 10, 1, 3, 1], 0.8375634517766497),
    (62, [4, 4, 7, 16, 6, 16, 10, 1, 3, 1], 0.8375634517766497),
    (63, [4, 4, 7, 16, 6, 16, 10, 1, 3, 1], 0.8375634517766497),
    (64, [4, 4, 7, 16, 6, 16, 10, 1, 3, 1], 0.8375634517766497),
    (65, [4, 4, 7, 16, 6, 16, 10, 1, 3, 1], 0.8375634517766497),
    (66, [4, 4, 7, 16, 6, 16, 10, 1, 3, 1], 0.8375634517766497),
    (67, [4, 4, 7, 16, 6, 16, 10, 1, 3, 1], 0.8375634517766497),
    (68, [4, 4, 7, 16, 6, 16, 10, 1, 3, 1], 0.8375634517766497),
    (69, [4, 4, 7, 16, 6, 16, 10, 1, 3, 1], 0.8375634517766497),
    (70, [4, 4, 7, 16, 6, 16, 10, 1, 3, 1], 0.8375634517766497),
    (71, [4, 4, 7, 16, 6, 16, 10, 1, 3, 1], 0.8375634517766497),
    (72, [4, 4, 7, 16, 6, 16, 10, 1, 3, 1], 0.8375634517766497),
    (73, [4, 4, 7, 16, 6, 16, 10, 1, 3, 1], 0.8375634517766497),
    (74, [4, 4, 7, 16, 6, 16, 10, 1, 3, 1], 0.8375634517766497),
    (75, [4, 4, 7, 16, 6, 16, 10, 1, 3, 1], 0.8375634517766497),
    (76, [4, 4, 7, 16, 6, 16, 10, 1, 3, 1], 0.8375634517766497),
    (77, [4, 4, 7, 16, 6, 16, 10, 1, 3, 1], 0.8375634517766497),
    (78, [4, 4, 7, 16, 6, 16, 10, 1, 3, 1], 0.8375634517766497),
    (79, [4, 4, 7, 16, 6, 16, 10, 1, 3, 1], 0.8375634517766497),
    (80, [4, 4, 7, 16, 6, 16, 10, 1, 3, 1], 0.8375634517766497),
    (81, [4, 4, 7, 16, 6, 16, 10, 1, 3, 1], 0.8375634517766497),
    (82, [4, 4, 7, 16, 6, 16, 10, 1, 3, 1], 0.8375634517766497),
    (83, [4, 4, 7, 16, 6, 16, 10, 1, 3, 1], 0.8375634517766497),
    (84, [4, 4, 7, 16, 6, 16, 10, 1, 3, 1], 0.8375634517766497),
    (85, [4, 4, 7, 16, 6, 16, 10, 1, 3, 1], 0.8375634517766497),
    (86, [4, 4, 7, 16, 6, 16, 10, 1, 3, 1], 0.8375634517766497),
    (87, [4, 4, 7, 16, 6, 16, 10, 1, 3, 1], 0.8375634517766497),
    (88, [4, 4, 7, 16, 6, 16, 10, 1, 3, 1], 0.8375634517766497),
    (89, [4, 4, 7, 16, 6, 16, 10, 1, 3, 1], 0.8375634517766497),
    (90, [4, 4, 7, 16, 6, 16, 10, 1, 3, 1], 0.8375634517766497),
    (91, [4, 4, 7, 16, 6, 16, 10, 1, 3, 1], 0.8375634517766497),
    (92, [4, 4, 7, 16, 6, 16, 10, 1, 3, 1], 0.8375634517766497),
    (93, [4, 4, 7, 16, 6, 16, 10, 1, 3, 1], 0.8375634517766497),
    (94, [4, 4, 7, 16, 6, 16, 10, 1, 3, 1], 0.8375634517766497),
    (95, [4, 4, 7, 16, 6, 16, 10, 1, 3, 1], 0.8375634517766497),
    (96, [4, 4, 7, 16, 6, 16, 10, 1, 3, 1], 0.8375634517766497),
    (97, [4, 4, 7, 16, 6, 16, 10, 1, 3, 1], 0.8375634517766497),
    (98, [4, 4, 7, 16, 6, 16, 10, 1, 3, 1], 0.8375634517766497),
    (99, [4, 4, 7, 16, 6, 16, 10, 1, 3, 1], 0.8375634517766497),
    (100, [4, 4, 7, 16, 6, 16, 10, 1, 3, 1], 0.8375634517766497),
    (101, [4, 4, 7, 16, 6, 16, 10, 1, 3, 1], 0.8375634517766497),
    (102, [4, 4, 7, 16, 6, 16, 10, 1, 3, 1], 0.8375634517766497),
    (103, [4, 4, 7, 16, 6, 16, 10, 1, 3, 1], 0.8375634517766497),
    (104, [4, 4, 7, 16, 6, 16, 10, 1, 3, 1], 0.8375634517766497),
    (105, [4, 4, 7, 16, 6, 16, 10, 1, 3, 1], 0.8375634517766497),
    (106, [4, 4, 7, 16, 6, 16, 10, 1, 3, 1], 0.8375634517766497),
    (107, [4, 4, 7, 16, 6, 16, 10, 1, 3, 1], 0.8375634517766497),
    (108, [4, 4, 7, 16, 6, 16, 10, 1, 3, 1], 0.8375634517766497),
    (109, [4, 4, 7, 16, 6, 16, 10, 1, 3, 1], 0.8375634517766497),
    (110, [4, 4, 7, 16, 6, 16, 10, 1, 3, 1], 0.8375634517766497),
    (111, [4, 4, 7, 16, 6, 16, 10, 1, 3, 1], 0.8375634517766497),
    (112, [4, 4, 7, 16, 6, 16, 10, 1, 3, 1], 0.8375634517766497),
    (113, [4, 4, 7, 16, 6, 16, 10, 1, 3, 1], 0.8375634517766497),
    (114, [4, 4, 7, 16, 6, 16, 10, 1, 3, 1], 0.8375634517766497),
    (115, [4, 4, 7, 16, 6, 16, 10, 1, 3, 1], 0.8375634517766497),
    (116, [4, 4, 7, 16, 6, 16, 10, 1, 3, 1], 0.8375634517766497),
    (117, [4, 4, 7, 16, 6, 16, 10, 1, 3, 1], 0.8375634517766497),
    (118, [4, 4, 7, 16, 6, 16, 10, 1, 3, 1], 0.8375634517766497),
    (119, [4, 4, 7, 16, 6, 16, 10, 1, 3, 1], 0.8375634517766497),
    (120, [4, 4, 7, 16, 6, 16, 10, 1, 3, 1], 0.8375634517766497),
    (121, [4, 4, 7, 16, 6, 16, 10, 1, 3, 1], 0.8375634517766497),
    (122, [4, 4, 7, 16, 6, 16, 10, 1, 3, 1], 0.8375634517766497),
    (123, [4, 4, 7, 16, 6, 16, 10, 1, 3, 1], 0.8375634517766497),
    (124, [4, 4, 7, 16, 6, 16, 10, 1, 3, 1], 0.8375634517766497),
    (125, [4, 4, 7, 16, 6, 16, 10, 1, 3, 1], 0.8375634517766497),
    (126, [4, 4, 7, 16, 6, 16, 10, 1, 3, 1], 0.8375634517766497),
    (127, [4, 4, 7, 16, 6, 16, 10, 1, 3, 1], 0.8375634517766497),
    (128, [4, 4, 7, 16, 6, 16, 10, 1, 3, 1], 0.8375634517766497),
    (129, [4, 4, 7, 16, 6, 16, 10, 1, 3, 1], 0.8375634517766497),
    (130, [4, 4, 7, 16, 6, 16, 10, 1, 3, 1], 0.8375634517766497),
    (131, [4, 4, 7, 16, 6, 16, 10, 1, 3, 1], 0.8375634517766497),
    (132, [4, 4, 7, 16, 6, 16, 10, 1, 3, 1], 0.8375634517766497),
    (133, [4, 4, 7, 16, 6, 16, 10, 1, 3, 1], 0.8375634517766497),
    (134, [4, 4, 7, 16, 6, 16, 10, 1, 3, 1], 0.8375634517766497),
    (135, [4, 4, 7, 16, 6, 16, 10, 1, 3, 1], 0.8375634517766497),
    (136, [4, 4, 7, 16, 6, 16, 10, 1, 3, 1], 0.8375634517766497),
    (137, [4, 4, 7, 16, 6, 16, 10, 1, 3, 1], 0.8375634517766497),
    (138, [4, 4, 7, 16, 6, 16, 10, 1, 3, 1], 0.8375634517766497),
    (139, [4, 4, 7, 16, 6, 16, 10, 1, 3, 1], 0.8375634517766497),
    (140, [4, 4, 7, 16, 6, 16, 10, 1, 3, 1], 0.8375634517766497),
    (141, [4, 4, 7, 16, 6, 16, 10, 1, 3, 1], 0.8375634517766497),
    (142, [4, 4, 7, 16, 6, 16, 10, 1, 3, 1], 0.8375634517766497),
    (143, [4, 4, 7, 16, 6, 16, 10, 1, 3, 1], 0.8375634517766497),
    (144, [4, 4, 7, 16, 6, 16, 10, 1, 3, 1], 0.8375634517766497),
    (145, [4, 4, 7, 16, 6, 16, 10, 1, 3, 1], 0.8375634517766497),
    (146, [4, 4, 7, 16, 6, 16, 10, 1, 3, 1], 0.8375634517766497),
    (147, [4, 4, 7, 16, 6, 16, 10, 1, 3, 1], 0.8375634517766497),
    (148, [4, 4, 7, 16, 6, 16, 10, 1, 3, 1], 0.8375634517766497),
    (149, [4, 4, 7, 16, 6, 16, 10, 1, 3, 1], 0.8375634517766497),
    (150, [4, 4, 7, 16, 6, 16, 10, 1, 3, 1], 0.8375634517766497),
    (151, [4, 4, 7, 16, 6, 16, 10, 1, 3, 1], 0.8375634517766497),
    (152, [4, 4, 7, 16, 6, 16, 10, 1, 3, 1], 0.8375634517766497),
    (153, [4, 4, 7, 16, 6, 16, 10, 1, 3, 1], 0.8375634517766497),
    (154, [4, 4, 7, 16, 6, 16, 10, 1, 3, 1], 0.8375634517766497),
    (155, [4, 4, 7, 16, 6, 16, 10, 1, 3, 1], 0.8375634517766497),
    (156, [4, 4, 7, 16, 6, 16, 10, 1, 3, 1], 0.8375634517766497),
    (157, [4, 4, 7, 16, 6, 16, 10, 1, 3, 1], 0.8375634517766497),
    (158, [4, 4, 7, 16, 6, 16, 10, 1, 3, 1], 0.8375634517766497),
    (159, [4, 4, 7, 16, 6, 16, 10, 1, 3, 1], 0.8375634517766497),
    (160, [4, 4, 7, 16, 6, 16, 10, 1, 3, 1], 0.8375634517766497),
    (161, [4, 4, 7, 16, 6, 16, 10, 1, 3, 1], 0.8375634517766497),
    (162, [4, 4, 7, 16, 6, 16, 10, 1, 3, 1], 0.8375634517766497),
    (163, [4, 4, 7, 16, 6, 16, 10, 1, 3, 1], 0.8375634517766497),
    (164, [4, 4, 7, 16, 6, 16, 10, 1, 3, 1], 0.8375634517766497),
    (165, [4, 4, 7, 16, 6, 16, 10, 1, 3, 1], 0.8375634517766497),
    (166, [4, 4, 7, 16, 6, 16, 10, 1, 3, 1], 0.8375634517766497),
    (167, [4, 4, 7, 16, 6, 16, 10, 1, 3, 1], 0.8375634517766497),
    (168, [4, 4, 7, 16, 6, 16, 10, 1, 3, 1], 0.8375634517766497),
    (169, [4, 4, 7, 16, 6, 16, 10, 1, 3, 1], 0.8375634517766497),
    (170, [4, 4, 7, 16, 6, 16, 10, 1, 3, 1], 0.8375634517766497),
    (171, [4, 4, 7, 16, 6, 16, 10, 1, 3, 1], 0.8375634517766497),
    (172, [4, 4, 7, 16, 6, 16, 10, 1, 3, 1], 0.8375634517766497),
    (173, [4, 4, 7, 16, 6, 16, 10, 1, 3, 1], 0.8375634517766497),
    (174, [4, 4, 7, 16, 6, 16, 10, 1, 3, 1], 0.8375634517766497),
    (175, [4, 4, 7, 16, 6, 16, 10, 1, 3, 1], 0.8375634517766497),
    (176, [4, 4, 7, 16, 6, 16, 10, 1, 3, 1], 0.8375634517766497),
    (177, [4, 4, 7, 16, 6, 16, 10, 1, 3, 1], 0.8375634517766497),
    (178, [4, 4, 7, 16, 6, 16, 10, 1, 3, 1], 0.8375634517766497),
    (179, [4, 4, 7, 16, 6, 16, 10, 1, 3, 1], 0.8375634517766497),
    (180, [4, 4, 7, 16, 6, 16, 10, 1, 3, 1], 0.8375634517766497),
    (181, [4, 4, 7, 16, 6, 16, 10, 1, 3, 1], 0.8375634517766497),
    (182, [4, 4, 7, 16, 6, 16, 10, 1, 3, 1], 0.8375634517766497),
    (183, [4, 4, 7, 16, 6, 16, 10, 1, 3, 1], 0.8375634517766497),
    (184, [4, 4, 7, 16, 6, 16, 10, 1, 3, 1], 0.8375634517766497),
    (185, [4, 4, 7, 16, 6, 16, 10, 1, 3, 1], 0.8375634517766497),
    (186, [4, 4, 7, 16, 6, 16, 10, 1, 3, 1], 0.8375634517766497),
    (187, [4, 4, 7, 16, 6, 16, 10, 1, 3, 1], 0.8375634517766497),
    (188, [4, 4, 7, 16, 6, 16, 10, 1, 3, 1], 0.8375634517766497),
    (189, [4, 4, 7, 16, 6, 16, 10, 1, 3, 1], 0.8375634517766497),
    (190, [4, 4, 7, 16, 6, 16, 10, 1, 3, 1], 0.8375634517766497),
    (191, [4, 4, 7, 16, 6, 16, 10, 1, 3, 1], 0.8375634517766497),
    (192, [4, 4, 7, 16, 6, 16, 10, 1, 3, 1], 0.8375634517766497),
    (193, [4, 4, 7, 16, 6, 16, 10, 1, 3, 1], 0.8375634517766497),
    (194, [4, 4, 7, 16, 6, 16, 10, 1, 3, 1], 0.8375634517766497),
    (195, [4, 4, 7, 16, 6, 16, 10, 1, 3, 1], 0.8375634517766497),
    (196, [4, 4, 7, 16, 6, 16, 10, 1, 3, 1], 0.8375634517766497),
    (197, [4, 4, 7, 16, 6, 16, 10, 1, 3, 1], 0.8375634517766497),
    (198, [4, 4, 7, 16, 6, 16, 10, 1, 3, 1], 0.8375634517766497),
    (199, [4, 4, 7, 16, 6, 16, 10, 1, 3, 1], 0.8375634517766497),
    (200, [4, 4, 7, 16, 6, 16, 10, 1, 3, 1], 0.8375634517766497),
    (201, [4, 4, 7, 16, 6, 16, 10, 1, 3, 1], 0.8375634517766497),
    (202, [4, 4, 7, 16, 6, 16, 10, 1, 3, 1], 0.8375634517766497),
    (203, [4, 4, 7, 16, 6, 16, 10, 1, 3, 1], 0.8375634517766497),
    (204, [4, 4, 7, 16, 6, 16, 10, 1, 3, 1], 0.8375634517766497),
    (205, [4, 4, 7, 16, 6, 16, 10, 1, 3, 1], 0.8375634517766497),
    (206, [4, 4, 7, 16, 6, 16, 10, 1, 3, 1], 0.8375634517766497),
    (207, [4, 4, 7, 16, 6, 16, 10, 1, 3, 1], 0.8375634517766497),
    (208, [4, 4, 7, 16, 6, 16, 10, 1, 3, 1], 0.8375634517766497),
    (209, [4, 4, 7, 16, 6, 16, 10, 1, 3, 1], 0.8375634517766497),
    (210, [4, 4, 7, 16, 6, 16, 10, 1, 3, 1], 0.8375634517766497),
    (211, [4, 4, 7, 16, 6, 16, 10, 1, 3, 1], 0.8375634517766497),
    (212, [4, 4, 7, 16, 6, 16, 10, 1, 3, 1], 0.8375634517766497),
    (213, [4, 4, 7, 16, 6, 16, 10, 1, 3, 1], 0.8375634517766497),
    (214, [4, 4, 7, 16, 6, 16, 10, 1, 3, 1], 0.8375634517766497),
    (215, [4, 4, 7, 16, 6, 16, 10, 1, 3, 1], 0.8375634517766497),
    (216, [4, 4, 7, 16, 6, 16, 10, 1, 3, 1], 0.8375634517766497),
    (217, [4, 4, 7, 16, 6, 16, 10, 1, 3, 1], 0.8375634517766497),
    (218, [4, 4, 7, 16, 6, 16, 10, 1, 3, 1], 0.8375634517766497),
    (219, [4, 4, 7, 16, 6, 16, 10, 1, 3, 1], 0.8375634517766497),
    (220, [4, 4, 7, 16, 6, 16, 10, 1, 3, 1], 0.8375634517766497),
    (221, [4, 4, 7, 16, 6, 16, 10, 1, 3, 1], 0.8375634517766497),
    (222, [4, 4, 7, 16, 6, 16, 10, 1, 3, 1], 0.8375634517766497),
    (223, [4, 4, 7, 16, 6, 16, 10, 1, 3, 1], 0.8375634517766497),
    (224, [4, 4, 7, 16, 6, 16, 10, 1, 3, 1], 0.8375634517766497),
    (225, [4, 4, 7, 16, 6, 16, 10, 1, 3, 1], 0.8375634517766497),
    (226, [4, 4, 7, 16, 6, 16, 10, 1, 3, 1], 0.8375634517766497),
    (227, [4, 4, 7, 16, 6, 16, 10, 1, 3, 1], 0.8375634517766497),
    (228, [4, 4, 7, 16, 6, 16, 10, 1, 3, 1], 0.8375634517766497),
    (229, [4, 4, 7, 16, 6, 16, 10, 1, 3, 1], 0.8375634517766497),
    (230, [4, 4, 7, 16, 6, 16, 10, 1, 3, 1], 0.8375634517766497),
    (231, [4, 4, 7, 16, 6, 16, 10, 1, 3, 1], 0.8375634517766497),
    (232, [4, 4, 7, 16, 6, 16, 10, 1, 3, 1], 0.8375634517766497),
    (233, [4, 4, 7, 16, 6, 16, 10, 1, 3, 1], 0.8375634517766497),
    (234, [4, 4, 7, 16, 6, 16, 10, 1, 3, 1], 0.8375634517766497),
    (235, [4, 4, 7, 16, 6, 16, 10, 1, 3, 1], 0.8375634517766497),
    (236, [4, 4, 7, 16, 6, 16, 10, 1, 3, 1], 0.8375634517766497),
    (237, [4, 4, 7, 16, 6, 16, 10, 1, 3, 1], 0.8375634517766497),
    (238, [4, 4, 7, 16, 6, 16, 10, 1, 3, 1], 0.8375634517766497),
    (239, [4, 4, 7, 16, 6, 16, 10, 1, 3, 1], 0.8375634517766497),
    (240, [4, 4, 7, 16, 6, 16, 10, 1, 3, 1], 0.8375634517766497),
    (241, [4, 4, 7, 16, 6, 16, 10, 1, 3, 1], 0.8375634517766497),
    (242, [4, 4, 7, 16, 6, 16, 10, 1, 3, 1], 0.8375634517766497),
    (243, [4, 4, 7, 16, 6, 16, 10, 1, 3, 1], 0.8375634517766497),
    (244, [4, 4, 7, 16, 6, 16, 10, 1, 3, 1], 0.8375634517766497),
    (245, [4, 4, 7, 16, 6, 16, 10, 1, 3, 1], 0.8375634517766497),
    (246, [4, 4, 7, 16, 6, 16, 10, 1, 3, 1], 0.8375634517766497),
    (247, [4, 4, 7, 16, 6, 16, 10, 1, 3, 1], 0.8375634517766497),
    (248, [4, 4, 7, 16, 6, 16, 10, 1, 3, 1], 0.8375634517766497),
    (249, [4, 4, 7, 16, 6, 16, 10, 1, 3, 1], 0.8375634517766497),
    (250, [4, 4, 7, 16, 6, 16, 10, 1, 3, 1], 0.8375634517766497),
    (251, [4, 4, 7, 16, 6, 16, 10, 1, 3, 1], 0.8375634517766497),
    (252, [4, 4, 7, 16, 6, 16, 10, 1, 3, 1], 0.8375634517766497),
    (253, [4, 4, 7, 16, 6, 16, 10, 1, 3, 1], 0.8375634517766497),
    (254, [4, 4, 7, 16, 6, 16, 10, 1, 3, 1], 0.8375634517766497),
    (255, [4, 4, 7, 16, 6, 16, 10, 1, 3, 1], 0.8375634517766497),
    (256, [4, 4, 7, 16, 6, 16, 10, 1, 3, 1], 0.8375634517766497),
    (257, [4, 4, 7, 16, 6, 16, 10, 1, 3, 1], 0.8375634517766497),
    (258, [4, 4, 7, 16, 6, 16, 10, 1, 3, 1], 0.8375634517766497),
    (259, [4, 4, 7, 16, 6, 16, 10, 1, 3, 1], 0.8375634517766497),
    (260, [13, 6, 10, 2, 11, 2, 12, 5, 11, 12], 0.8527918781725888),
    (261, [13, 6, 10, 2, 11, 2, 12, 5, 11, 12], 0.8527918781725888),
    (262, [13, 6, 10, 2, 11, 2, 12, 5, 11, 12], 0.8527918781725888),
    (263, [13, 6, 10, 2, 11, 2, 12, 5, 11, 12], 0.8527918781725888),
    (264, [13, 6, 10, 2, 11, 2, 12, 5, 11, 12], 0.8527918781725888),
    (265, [13, 6, 10, 2, 11, 2, 12, 5, 11, 12], 0.8527918781725888),
    (266, [13, 6, 10, 2, 11, 2, 12, 5, 11, 12], 0.8527918781725888),
    (267, [13, 6, 10, 2, 11, 2, 12, 5, 11, 12], 0.8527918781725888),
    (268, [13, 6, 10, 2, 11, 2, 12, 5, 11, 12], 0.8527918781725888),
    (269, [13, 6, 10, 2, 11, 2, 12, 5, 11, 12], 0.8527918781725888),
    (270, [13, 6, 10, 2, 11, 2, 12, 5, 11, 12], 0.8527918781725888),
    (271, [13, 6, 10, 2, 11, 2, 12, 5, 11, 12], 0.8527918781725888),
    (272, [13, 6, 10, 2, 11, 2, 12, 5, 11, 12], 0.8527918781725888),
    (273, [13, 6, 10, 2, 11, 2, 12, 5, 11, 12], 0.8527918781725888),
    (274, [13, 6, 10, 2, 11, 2, 12, 5, 11, 12], 0.8527918781725888),
    (275, [13, 6, 10, 2, 11, 2, 12, 5, 11, 12], 0.8527918781725888),
    (276, [13, 6, 10, 2, 11, 2, 12, 5, 11, 12], 0.8527918781725888),
    (277, [13, 6, 10, 2, 11, 2, 12, 5, 11, 12], 0.8527918781725888),
    (278, [13, 6, 10, 2, 11, 2, 12, 5, 11, 12], 0.8527918781725888),
    (279, [13, 6, 10, 2, 11, 2, 12, 5, 11, 12], 0.8527918781725888),
    (280, [13, 6, 10, 2, 11, 2, 12, 5, 11, 12], 0.8527918781725888),
    (281, [13, 6, 10, 2, 11, 2, 12, 5, 11, 12], 0.8527918781725888),
    (282, [13, 6, 10, 2, 11, 2, 12, 5, 11, 12], 0.8527918781725888),
    (283, [13, 6, 10, 2, 11, 2, 12, 5, 11, 12], 0.8527918781725888),
    (284, [13, 6, 10, 2, 11, 2, 12, 5, 11, 12], 0.8527918781725888),
    (285, [13, 6, 10, 2, 11, 2, 12, 5, 11, 12], 0.8527918781725888),
    (286, [13, 6, 10, 2, 11, 2, 12, 5, 11, 12], 0.8527918781725888),
    (287, [13, 6, 10, 2, 11, 2, 12, 5, 11, 12], 0.8527918781725888),
    (288, [13, 6, 10, 2, 11, 2, 12, 5, 11, 12], 0.8527918781725888),
    (289, [13, 6, 10, 2, 11, 2, 12, 5, 11, 12], 0.8527918781725888),
    (290, [13, 6, 10, 2, 11, 2, 12, 5, 11, 12], 0.8527918781725888),
    (291, [13, 6, 10, 2, 11, 2, 12, 5, 11, 12], 0.8527918781725888),
    (292, [13, 6, 10, 2, 11, 2, 12, 5, 11, 12], 0.8527918781725888),
    (293, [13, 6, 10, 2, 11, 2, 12, 5, 11, 12], 0.8527918781725888),
    (294, [13, 6, 10, 2, 11, 2, 12, 5, 11, 12], 0.8527918781725888),
    (295, [13, 6, 10, 2, 11, 2, 12, 5, 11, 12], 0.8527918781725888),
    (296, [13, 6, 10, 2, 11, 2, 12, 5, 11, 12], 0.8527918781725888),
    (297, [13, 6, 10, 2, 11, 2, 12, 5, 11, 12], 0.8527918781725888),
    (298, [13, 6, 10, 2, 11, 2, 12, 5, 11, 12], 0.8527918781725888),
    (299, [13, 6, 10, 2, 11, 2, 12, 5, 11, 12], 0.8527918781725888),
]

