ranges of every chromosome : (-1, 1)
    selection method is: TournamentSelection
    crossover method is: UniformCrossover
    pc: The probability of crossover: 0.850000
    pe: Gene exchange probability: 0.700000
    mutation method is: FlipBitBigMutation
    pm: The probability of mutation: 0.300000
    pbm: The probability of big mutation: 0.700000
    alpha: intensive factor: 0.600000
best_fit = [
    (0, [-0.30199999999999994, -0.477, 0.2550000000000001, 0.15000000000000013, 0.897, -0.10999999999999999, -0.5569999999999999, -0.76, -0.28, -0.28400000000000003], 0.8576585695006747),
    (1, [-0.30199999999999994, -0.477, 0.2550000000000001, 0.15000000000000013, 0.897, -0.10999999999999999, -0.5569999999999999, -0.76, -0.28, -0.28400000000000003], 0.8576585695006747),
    (2, [0.6100000000000001, 0.2510000000000001, -0.9299999999999999, -0.43999999999999995, -0.42399999999999993, -0.756, 0.256, 0.56, -0.916, 0.32400000000000007], 0.8577935222672064),
    (3, [0.6100000000000001, 0.2510000000000001, -0.9299999999999999, -0.43999999999999995, -0.42399999999999993, -0.756, 0.256, 0.56, -0.916, 0.32400000000000007], 0.8577935222672064),
    (4, [0.6100000000000001, 0.2510000000000001, -0.9299999999999999, -0.43999999999999995, -0.42399999999999993, -0.756, 0.256, 0.56, -0.916, 0.32400000000000007], 0.8577935222672064),
    (5, [0.6100000000000001, 0.2510000000000001, -0.9299999999999999, -0.43999999999999995, -0.42399999999999993, -0.756, 0.256, 0.56, -0.916, 0.32400000000000007], 0.8577935222672064),
    (6, [0.6100000000000001, 0.2510000000000001, -0.9299999999999999, -0.43999999999999995, -0.42399999999999993, -0.756, 0.256, 0.56, -0.916, 0.32400000000000007], 0.8577935222672064),
    (7, [0.6100000000000001, 0.2510000000000001, -0.9299999999999999, -0.43999999999999995, -0.42399999999999993, -0.756, 0.256, 0.56, -0.916, 0.32400000000000007], 0.8577935222672064),
    (8, [0.6100000000000001, 0.2510000000000001, -0.9299999999999999, -0.43999999999999995, -0.42399999999999993, -0.756, 0.256, 0.56, -0.916, 0.32400000000000007], 0.8577935222672064),
    (9, [0.6100000000000001, 0.2510000000000001, -0.9299999999999999, -0.43999999999999995, -0.42399999999999993, -0.756, 0.256, 0.56, -0.916, 0.32400000000000007], 0.8577935222672064),
    (10, [0.6100000000000001, 0.2510000000000001, -0.9299999999999999, -0.43999999999999995, -0.42399999999999993, -0.756, 0.256, 0.56, -0.916, 0.32400000000000007], 0.8577935222672064),
    (11, [0.6100000000000001, 0.2510000000000001, -0.9299999999999999, -0.43999999999999995, -0.42399999999999993, -0.756, 0.256, 0.56, -0.916, 0.32400000000000007], 0.8577935222672064),
    (12, [0.6100000000000001, 0.2510000000000001, -0.9299999999999999, -0.43999999999999995, -0.42399999999999993, -0.756, 0.256, 0.56, -0.916, 0.32400000000000007], 0.8577935222672064),
    (13, [0.6100000000000001, 0.2510000000000001, -0.9299999999999999, -0.43999999999999995, -0.42399999999999993, -0.756, 0.256, 0.56, -0.916, 0.32400000000000007], 0.8577935222672064),
    (14, [0.6100000000000001, 0.2510000000000001, -0.9299999999999999, -0.43999999999999995, -0.42399999999999993, -0.756, 0.256, 0.56, -0.916, 0.32400000000000007], 0.8577935222672064),
    (15, [0.6100000000000001, 0.2510000000000001, -0.9299999999999999, -0.43999999999999995, -0.42399999999999993, -0.756, 0.256, 0.56, -0.916, 0.32400000000000007], 0.8577935222672064),
    (16, [0.6100000000000001, 0.2510000000000001, -0.9299999999999999, -0.43999999999999995, -0.42399999999999993, -0.756, 0.256, 0.56, -0.916, 0.32400000000000007], 0.8577935222672064),
    (17, [0.6100000000000001, 0.2510000000000001, -0.9299999999999999, -0.43999999999999995, -0.42399999999999993, -0.756, 0.256, 0.56, -0.916, 0.32400000000000007], 0.8577935222672064),
    (18, [0.6100000000000001, 0.2510000000000001, -0.9299999999999999, -0.43999999999999995, -0.42399999999999993, -0.756, 0.256, 0.56, -0.916, 0.32400000000000007], 0.8577935222672064),
    (19, [0.6100000000000001, 0.2510000000000001, -0.9299999999999999, -0.43999999999999995, -0.42399999999999993, -0.756, 0.256, 0.56, -0.916, 0.32400000000000007], 0.8577935222672064),
    (20, [0.6100000000000001, 0.2510000000000001, -0.9299999999999999, -0.43999999999999995, -0.42399999999999993, -0.756, 0.256, 0.56, -0.916, 0.32400000000000007], 0.8577935222672064),
    (21, [0.6100000000000001, 0.2510000000000001, -0.9299999999999999, -0.43999999999999995, -0.42399999999999993, -0.756, 0.256, 0.56, -0.916, 0.32400000000000007], 0.8577935222672064),
    (22, [0.6100000000000001, 0.2510000000000001, -0.9299999999999999, -0.43999999999999995, -0.42399999999999993, -0.756, 0.256, 0.56, -0.916, 0.32400000000000007], 0.8577935222672064),
    (23, [0.6100000000000001, 0.2510000000000001, -0.9299999999999999, -0.43999999999999995, -0.42399999999999993, -0.756, 0.256, 0.56, -0.916, 0.32400000000000007], 0.8577935222672064),
    (24, [0.6100000000000001, 0.2510000000000001, -0.9299999999999999, -0.43999999999999995, -0.42399999999999993, -0.756, 0.256, 0.56, -0.916, 0.32400000000000007], 0.8577935222672064),
    (25, [0.6100000000000001, 0.2510000000000001, -0.9299999999999999, -0.43999999999999995, -0.42399999999999993, -0.756, 0.256, 0.56, -0.916, 0.32400000000000007], 0.8577935222672064),
    (26, [0.6100000000000001, 0.2510000000000001, -0.9299999999999999, -0.43999999999999995, -0.42399999999999993, -0.756, 0.256, 0.56, -0.916, 0.32400000000000007], 0.8577935222672064),
    (27, [0.6100000000000001, 0.2510000000000001, -0.9299999999999999, -0.43999999999999995, -0.42399999999999993, -0.756, 0.256, 0.56, -0.916, 0.32400000000000007], 0.8577935222672064),
    (28, [0.6100000000000001, 0.2510000000000001, -0.9299999999999999, -0.43999999999999995, -0.42399999999999993, -0.756, 0.256, 0.56, -0.916, 0.32400000000000007], 0.8577935222672064),
    (29, [0.6100000000000001, 0.2510000000000001, -0.9299999999999999, -0.43999999999999995, -0.42399999999999993, -0.756, 0.256, 0.56, -0.916, 0.32400000000000007], 0.8577935222672064),
    (30, [0.6100000000000001, 0.2510000000000001, -0.9299999999999999, -0.43999999999999995, -0.42399999999999993, -0.756, 0.256, 0.56, -0.916, 0.32400000000000007], 0.8577935222672064),
    (31, [0.6100000000000001, 0.2510000000000001, -0.9299999999999999, -0.43999999999999995, -0.42399999999999993, -0.756, 0.256, 0.56, -0.916, 0.32400000000000007], 0.8577935222672064),
    (32, [0.6100000000000001, 0.2510000000000001, -0.9299999999999999, -0.43999999999999995, -0.42399999999999993, -0.756, 0.256, 0.56, -0.916, 0.32400000000000007], 0.8577935222672064),
    (33, [0.6100000000000001, 0.2510000000000001, -0.9299999999999999, -0.43999999999999995, -0.42399999999999993, -0.756, 0.256, 0.56, -0.916, 0.32400000000000007], 0.8577935222672064),
    (34, [0.6100000000000001, 0.2510000000000001, -0.9299999999999999, -0.43999999999999995, -0.42399999999999993, -0.756, 0.256, 0.56, -0.916, 0.32400000000000007], 0.8577935222672064),
    (35, [0.6100000000000001, 0.2510000000000001, -0.9299999999999999, -0.43999999999999995, -0.42399999999999993, -0.756, 0.256, 0.56, -0.916, 0.32400000000000007], 0.8577935222672064),
    (36, [0.6100000000000001, 0.2510000000000001, -0.9299999999999999, -0.43999999999999995, -0.42399999999999993, -0.756, 0.256, 0.56, -0.916, 0.32400000000000007], 0.8577935222672064),
    (37, [0.6100000000000001, 0.2510000000000001, -0.9299999999999999, -0.43999999999999995, -0.42399999999999993, -0.756, 0.256, 0.56, -0.916, 0.32400000000000007], 0.8577935222672064),
    (38, [0.6100000000000001, 0.2510000000000001, -0.9299999999999999, -0.43999999999999995, -0.42399999999999993, -0.756, 0.256, 0.56, -0.916, 0.32400000000000007], 0.8577935222672064),
    (39, [0.6100000000000001, 0.2510000000000001, -0.9299999999999999, -0.43999999999999995, -0.42399999999999993, -0.756, 0.256, 0.56, -0.916, 0.32400000000000007], 0.8577935222672064),
    (40, [0.6100000000000001, 0.2510000000000001, -0.9299999999999999, -0.43999999999999995, -0.42399999999999993, -0.756, 0.256, 0.56, -0.916, 0.32400000000000007], 0.8577935222672064),
    (41, [0.6100000000000001, 0.2510000000000001, -0.9299999999999999, -0.43999999999999995, -0.42399999999999993, -0.756, 0.256, 0.56, -0.916, 0.32400000000000007], 0.8577935222672064),
    (42, [0.6100000000000001, 0.2510000000000001, -0.9299999999999999, -0.43999999999999995, -0.42399999999999993, -0.756, 0.256, 0.56, -0.916, 0.32400000000000007], 0.8577935222672064),
    (43, [0.6100000000000001, 0.2510000000000001, -0.9299999999999999, -0.43999999999999995, -0.42399999999999993, -0.756, 0.256, 0.56, -0.916, 0.32400000000000007], 0.8577935222672064),
    (44, [0.6100000000000001, 0.2510000000000001, -0.9299999999999999, -0.43999999999999995, -0.42399999999999993, -0.756, 0.256, 0.56, -0.916, 0.32400000000000007], 0.8577935222672064),
    (45, [0.6100000000000001, 0.2510000000000001, -0.9299999999999999, -0.43999999999999995, -0.42399999999999993, -0.756, 0.256, 0.56, -0.916, 0.32400000000000007], 0.8577935222672064),
    (46, [0.6100000000000001, 0.2510000000000001, -0.9299999999999999, -0.43999999999999995, -0.42399999999999993, -0.756, 0.256, 0.56, -0.916, 0.32400000000000007], 0.8577935222672064),
    (47, [0.6100000000000001, 0.2510000000000001, -0.9299999999999999, -0.43999999999999995, -0.42399999999999993, -0.756, 0.256, 0.56, -0.916, 0.32400000000000007], 0.8577935222672064),
    (48, [0.6100000000000001, 0.2510000000000001, -0.9299999999999999, -0.43999999999999995, -0.42399999999999993, -0.756, 0.256, 0.56, -0.916, 0.32400000000000007], 0.8577935222672064),
    (49, [0.6100000000000001, 0.2510000000000001, -0.9299999999999999, -0.43999999999999995, -0.42399999999999993, -0.756, 0.256, 0.56, -0.916, 0.32400000000000007], 0.8577935222672064),
    (50, [0.6100000000000001, 0.2510000000000001, -0.9299999999999999, -0.43999999999999995, -0.42399999999999993, -0.756, 0.256, 0.56, -0.916, 0.32400000000000007], 0.8577935222672064),
    (51, [0.6100000000000001, 0.2510000000000001, -0.9299999999999999, -0.43999999999999995, -0.42399999999999993, -0.756, 0.256, 0.56, -0.916, 0.32400000000000007], 0.8577935222672064),
    (52, [0.6100000000000001, 0.2510000000000001, -0.9299999999999999, -0.43999999999999995, -0.42399999999999993, -0.756, 0.256, 0.56, -0.916, 0.32400000000000007], 0.8577935222672064),
    (53, [0.6100000000000001, 0.2510000000000001, -0.9299999999999999, -0.43999999999999995, -0.42399999999999993, -0.756, 0.256, 0.56, -0.916, 0.32400000000000007], 0.8577935222672064),
    (54, [0.6100000000000001, 0.2510000000000001, -0.9299999999999999, -0.43999999999999995, -0.42399999999999993, -0.756, 0.256, 0.56, -0.916, 0.32400000000000007], 0.8577935222672064),
    (55, [0.6100000000000001, 0.2510000000000001, -0.9299999999999999, -0.43999999999999995, -0.42399999999999993, -0.756, 0.256, 0.56, -0.916, 0.32400000000000007], 0.8577935222672064),
    (56, [0.6100000000000001, 0.2510000000000001, -0.9299999999999999, -0.43999999999999995, -0.42399999999999993, -0.756, 0.256, 0.56, -0.916, 0.32400000000000007], 0.8577935222672064),
    (57, [0.6100000000000001, 0.2510000000000001, -0.9299999999999999, -0.43999999999999995, -0.42399999999999993, -0.756, 0.256, 0.56, -0.916, 0.32400000000000007], 0.8577935222672064),
    (58, [0.6100000000000001, 0.2510000000000001, -0.9299999999999999, -0.43999999999999995, -0.42399999999999993, -0.756, 0.256, 0.56, -0.916, 0.32400000000000007], 0.8577935222672064),
    (59, [0.6100000000000001, 0.2510000000000001, -0.9299999999999999, -0.43999999999999995, -0.42399999999999993, -0.756, 0.256, 0.56, -0.916, 0.32400000000000007], 0.8577935222672064),
    (60, [0.6100000000000001, 0.2510000000000001, -0.9299999999999999, -0.43999999999999995, -0.42399999999999993, -0.756, 0.256, 0.56, -0.916, 0.32400000000000007], 0.8577935222672064),
    (61, [0.6100000000000001, 0.2510000000000001, -0.9299999999999999, -0.43999999999999995, -0.42399999999999993, -0.756, 0.256, 0.56, -0.916, 0.32400000000000007], 0.8577935222672064),
    (62, [0.6100000000000001, 0.2510000000000001, -0.9299999999999999, -0.43999999999999995, -0.42399999999999993, -0.756, 0.256, 0.56, -0.916, 0.32400000000000007], 0.8577935222672064),
    (63, [0.6100000000000001, 0.2510000000000001, -0.9299999999999999, -0.43999999999999995, -0.42399999999999993, -0.756, 0.256, 0.56, -0.916, 0.32400000000000007], 0.8577935222672064),
    (64, [0.6100000000000001, 0.2510000000000001, -0.9299999999999999, -0.43999999999999995, -0.42399999999999993, -0.756, 0.256, 0.56, -0.916, 0.32400000000000007], 0.8577935222672064),
    (65, [0.6100000000000001, 0.2510000000000001, -0.9299999999999999, -0.43999999999999995, -0.42399999999999993, -0.756, 0.256, 0.56, -0.916, 0.32400000000000007], 0.8577935222672064),
    (66, [0.6100000000000001, 0.2510000000000001, -0.9299999999999999, -0.43999999999999995, -0.42399999999999993, -0.756, 0.256, 0.56, -0.916, 0.32400000000000007], 0.8577935222672064),
    (67, [0.6100000000000001, 0.2510000000000001, -0.9299999999999999, -0.43999999999999995, -0.42399999999999993, -0.756, 0.256, 0.56, -0.916, 0.32400000000000007], 0.8577935222672064),
    (68, [0.6100000000000001, 0.2510000000000001, -0.9299999999999999, -0.43999999999999995, -0.42399999999999993, -0.756, 0.256, 0.56, -0.916, 0.32400000000000007], 0.8577935222672064),
    (69, [0.6100000000000001, 0.2510000000000001, -0.9299999999999999, -0.43999999999999995, -0.42399999999999993, -0.756, 0.256, 0.56, -0.916, 0.32400000000000007], 0.8577935222672064),
    (70, [0.6100000000000001, 0.2510000000000001, -0.9299999999999999, -0.43999999999999995, -0.42399999999999993, -0.756, 0.256, 0.56, -0.916, 0.32400000000000007], 0.8577935222672064),
    (71, [0.6100000000000001, 0.2510000000000001, -0.9299999999999999, -0.43999999999999995, -0.42399999999999993, -0.756, 0.256, 0.56, -0.916, 0.32400000000000007], 0.8577935222672064),
    (72, [0.6100000000000001, 0.2510000000000001, -0.9299999999999999, -0.43999999999999995, -0.42399999999999993, -0.756, 0.256, 0.56, -0.916, 0.32400000000000007], 0.8577935222672064),
    (73, [0.6100000000000001, 0.2510000000000001, -0.9299999999999999, -0.43999999999999995, -0.42399999999999993, -0.756, 0.256, 0.56, -0.916, 0.32400000000000007], 0.8577935222672064),
    (74, [0.6100000000000001, 0.2510000000000001, -0.9299999999999999, -0.43999999999999995, -0.42399999999999993, -0.756, 0.256, 0.56, -0.916, 0.32400000000000007], 0.8577935222672064),
    (75, [0.6100000000000001, 0.2510000000000001, -0.9299999999999999, -0.43999999999999995, -0.42399999999999993, -0.756, 0.256, 0.56, -0.916, 0.32400000000000007], 0.8577935222672064),
    (76, [0.6100000000000001, 0.2510000000000001, -0.9299999999999999, -0.43999999999999995, -0.42399999999999993, -0.756, 0.256, 0.56, -0.916, 0.32400000000000007], 0.8577935222672064),
    (77, [0.6100000000000001, 0.2510000000000001, -0.9299999999999999, -0.43999999999999995, -0.42399999999999993, -0.756, 0.256, 0.56, -0.916, 0.32400000000000007], 0.8577935222672064),
    (78, [-0.888, 0.944, 0.30000000000000004, -0.29400000000000004, 0.2450000000000001, -0.16999999999999993, 0.911, 0.6930000000000001, 0.32699999999999996, -0.11199999999999999], 0.8579217273954116),
    (79, [-0.888, 0.944, 0.30000000000000004, -0.29400000000000004, 0.2450000000000001, -0.16999999999999993, 0.911, 0.6930000000000001, 0.32699999999999996, -0.11199999999999999], 0.8579217273954116),
    (80, [-0.888, 0.944, 0.30000000000000004, -0.29400000000000004, 0.2450000000000001, -0.16999999999999993, 0.911, 0.6930000000000001, 0.32699999999999996, -0.11199999999999999], 0.8579217273954116),
    (81, [-0.888, 0.944, 0.30000000000000004, -0.29400000000000004, 0.2450000000000001, -0.16999999999999993, 0.911, 0.6930000000000001, 0.32699999999999996, -0.11199999999999999], 0.8579217273954116),
    (82, [-0.888, 0.944, 0.30000000000000004, -0.29400000000000004, 0.2450000000000001, -0.16999999999999993, 0.911, 0.6930000000000001, 0.32699999999999996, -0.11199999999999999], 0.8579217273954116),
    (83, [-0.888, 0.944, 0.30000000000000004, -0.29400000000000004, 0.2450000000000001, -0.16999999999999993, 0.911, 0.6930000000000001, 0.32699999999999996, -0.11199999999999999], 0.8579217273954116),
    (84, [-0.888, 0.944, 0.30000000000000004, -0.29400000000000004, 0.2450000000000001, -0.16999999999999993, 0.911, 0.6930000000000001, 0.32699999999999996, -0.11199999999999999], 0.8579217273954116),
    (85, [-0.888, 0.944, 0.30000000000000004, -0.29400000000000004, 0.2450000000000001, -0.16999999999999993, 0.911, 0.6930000000000001, 0.32699999999999996, -0.11199999999999999], 0.8579217273954116),
    (86, [-0.888, 0.944, 0.30000000000000004, -0.29400000000000004, 0.2450000000000001, -0.16999999999999993, 0.911, 0.6930000000000001, 0.32699999999999996, -0.11199999999999999], 0.8579217273954116),
    (87, [-0.888, 0.944, 0.30000000000000004, -0.29400000000000004, 0.2450000000000001, -0.16999999999999993, 0.911, 0.6930000000000001, 0.32699999999999996, -0.11199999999999999], 0.8579217273954116),
    (88, [-0.888, 0.944, 0.30000000000000004, -0.29400000000000004, 0.2450000000000001, -0.16999999999999993, 0.911, 0.6930000000000001, 0.32699999999999996, -0.11199999999999999], 0.8579217273954116),
    (89, [-0.888, 0.944, 0.30000000000000004, -0.29400000000000004, 0.2450000000000001, -0.16999999999999993, 0.911, 0.6930000000000001, 0.32699999999999996, -0.11199999999999999], 0.8579217273954116),
    (90, [-0.888, 0.944, 0.30000000000000004, -0.29400000000000004, 0.2450000000000001, -0.16999999999999993, 0.911, 0.6930000000000001, 0.32699999999999996, -0.11199999999999999], 0.8579217273954116),
    (91, [-0.888, 0.944, 0.30000000000000004, -0.29400000000000004, 0.2450000000000001, -0.16999999999999993, 0.911, 0.6930000000000001, 0.32699999999999996, -0.11199999999999999], 0.8579217273954116),
    (92, [-0.888, 0.944, 0.30000000000000004, -0.29400000000000004, 0.2450000000000001, -0.16999999999999993, 0.911, 0.6930000000000001, 0.32699999999999996, -0.11199999999999999], 0.8579217273954116),
    (93, [-0.888, 0.944, 0.30000000000000004, -0.29400000000000004, 0.2450000000000001, -0.16999999999999993, 0.911, 0.6930000000000001, 0.32699999999999996, -0.11199999999999999], 0.8579217273954116),
    (94, [-0.888, 0.944, 0.30000000000000004, -0.29400000000000004, 0.2450000000000001, -0.16999999999999993, 0.911, 0.6930000000000001, 0.32699999999999996, -0.11199999999999999], 0.8579217273954116),
    (95, [-0.888, 0.944, 0.30000000000000004, -0.29400000000000004, 0.2450000000000001, -0.16999999999999993, 0.911, 0.6930000000000001, 0.32699999999999996, -0.11199999999999999], 0.8579217273954116),
    (96, [-0.888, 0.944, 0.30000000000000004, -0.29400000000000004, 0.2450000000000001, -0.16999999999999993, 0.911, 0.6930000000000001, 0.32699999999999996, -0.11199999999999999], 0.8579217273954116),
    (97, [-0.888, 0.944, 0.30000000000000004, -0.29400000000000004, 0.2450000000000001, -0.16999999999999993, 0.911, 0.6930000000000001, 0.32699999999999996, -0.11199999999999999], 0.8579217273954116),
    (98, [-0.888, 0.944, 0.30000000000000004, -0.29400000000000004, 0.2450000000000001, -0.16999999999999993, 0.911, 0.6930000000000001, 0.32699999999999996, -0.11199999999999999], 0.8579217273954116),
    (99, [-0.888, 0.944, 0.30000000000000004, -0.29400000000000004, 0.2450000000000001, -0.16999999999999993, 0.911, 0.6930000000000001, 0.32699999999999996, -0.11199999999999999], 0.8579217273954116),
    (100, [-0.888, 0.944, 0.30000000000000004, -0.29400000000000004, 0.2450000000000001, -0.16999999999999993, 0.911, 0.6930000000000001, 0.32699999999999996, -0.11199999999999999], 0.8579217273954116),
    (101, [-0.888, 0.944, 0.30000000000000004, -0.29400000000000004, 0.2450000000000001, -0.16999999999999993, 0.911, 0.6930000000000001, 0.32699999999999996, -0.11199999999999999], 0.8579217273954116),
    (102, [-0.888, 0.944, 0.30000000000000004, -0.29400000000000004, 0.2450000000000001, -0.16999999999999993, 0.911, 0.6930000000000001, 0.32699999999999996, -0.11199999999999999], 0.8579217273954116),
    (103, [-0.888, 0.944, 0.30000000000000004, -0.29400000000000004, 0.2450000000000001, -0.16999999999999993, 0.911, 0.6930000000000001, 0.32699999999999996, -0.11199999999999999], 0.8579217273954116),
    (104, [-0.888, 0.944, 0.30000000000000004, -0.29400000000000004, 0.2450000000000001, -0.16999999999999993, 0.911, 0.6930000000000001, 0.32699999999999996, -0.11199999999999999], 0.8579217273954116),
    (105, [-0.888, 0.944, 0.30000000000000004, -0.29400000000000004, 0.2450000000000001, -0.16999999999999993, 0.911, 0.6930000000000001, 0.32699999999999996, -0.11199999999999999], 0.8579217273954116),
    (106, [-0.888, 0.944, 0.30000000000000004, -0.29400000000000004, 0.2450000000000001, -0.16999999999999993, 0.911, 0.6930000000000001, 0.32699999999999996, -0.11199999999999999], 0.8579217273954116),
    (107, [-0.888, 0.944, 0.30000000000000004, -0.29400000000000004, 0.2450000000000001, -0.16999999999999993, 0.911, 0.6930000000000001, 0.32699999999999996, -0.11199999999999999], 0.8579217273954116),
    (108, [-0.888, 0.944, 0.30000000000000004, -0.29400000000000004, 0.2450000000000001, -0.16999999999999993, 0.911, 0.6930000000000001, 0.32699999999999996, -0.11199999999999999], 0.8579217273954116),
    (109, [-0.888, 0.944, 0.30000000000000004, -0.29400000000000004, 0.2450000000000001, -0.16999999999999993, 0.911, 0.6930000000000001, 0.32699999999999996, -0.11199999999999999], 0.8579217273954116),
    (110, [-0.888, 0.944, 0.30000000000000004, -0.29400000000000004, 0.2450000000000001, -0.16999999999999993, 0.911, 0.6930000000000001, 0.32699999999999996, -0.11199999999999999], 0.8579217273954116),
    (111, [-0.888, 0.944, 0.30000000000000004, -0.29400000000000004, 0.2450000000000001, -0.16999999999999993, 0.911, 0.6930000000000001, 0.32699999999999996, -0.11199999999999999], 0.8579217273954116),
    (112, [-0.888, 0.944, 0.30000000000000004, -0.29400000000000004, 0.2450000000000001, -0.16999999999999993, 0.911, 0.6930000000000001, 0.32699999999999996, -0.11199999999999999], 0.8579217273954116),
    (113, [-0.888, 0.944, 0.30000000000000004, -0.29400000000000004, 0.2450000000000001, -0.16999999999999993, 0.911, 0.6930000000000001, 0.32699999999999996, -0.11199999999999999], 0.8579217273954116),
    (114, [-0.888, 0.944, 0.30000000000000004, -0.29400000000000004, 0.2450000000000001, -0.16999999999999993, 0.911, 0.6930000000000001, 0.32699999999999996, -0.11199999999999999], 0.8579217273954116),
    (115, [-0.888, 0.944, 0.30000000000000004, -0.29400000000000004, 0.2450000000000001, -0.16999999999999993, 0.911, 0.6930000000000001, 0.32699999999999996, -0.11199999999999999], 0.8579217273954116),
    (116, [-0.888, 0.944, 0.30000000000000004, -0.29400000000000004, 0.2450000000000001, -0.16999999999999993, 0.911, 0.6930000000000001, 0.32699999999999996, -0.11199999999999999], 0.8579217273954116),
    (117, [-0.888, 0.944, 0.30000000000000004, -0.29400000000000004, 0.2450000000000001, -0.16999999999999993, 0.911, 0.6930000000000001, 0.32699999999999996, -0.11199999999999999], 0.8579217273954116),
    (118, [-0.888, 0.944, 0.30000000000000004, -0.29400000000000004, 0.2450000000000001, -0.16999999999999993, 0.911, 0.6930000000000001, 0.32699999999999996, -0.11199999999999999], 0.8579217273954116),
    (119, [-0.888, 0.944, 0.30000000000000004, -0.29400000000000004, 0.2450000000000001, -0.16999999999999993, 0.911, 0.6930000000000001, 0.32699999999999996, -0.11199999999999999], 0.8579217273954116),
    (120, [-0.888, 0.944, 0.30000000000000004, -0.29400000000000004, 0.2450000000000001, -0.16999999999999993, 0.911, 0.6930000000000001, 0.32699999999999996, -0.11199999999999999], 0.8579217273954116),
    (121, [-0.888, 0.944, 0.30000000000000004, -0.29400000000000004, 0.2450000000000001, -0.16999999999999993, 0.911, 0.6930000000000001, 0.32699999999999996, -0.11199999999999999], 0.8579217273954116),
    (122, [-0.888, 0.944, 0.30000000000000004, -0.29400000000000004, 0.2450000000000001, -0.16999999999999993, 0.911, 0.6930000000000001, 0.32699999999999996, -0.11199999999999999], 0.8579217273954116),
    (123, [-0.888, 0.944, 0.30000000000000004, -0.29400000000000004, 0.2450000000000001, -0.16999999999999993, 0.911, 0.6930000000000001, 0.32699999999999996, -0.11199999999999999], 0.8579217273954116),
    (124, [-0.888, 0.944, 0.30000000000000004, -0.29400000000000004, 0.2450000000000001, -0.16999999999999993, 0.911, 0.6930000000000001, 0.32699999999999996, -0.11199999999999999], 0.8579217273954116),
    (125, [-0.888, 0.944, 0.30000000000000004, -0.29400000000000004, 0.2450000000000001, -0.16999999999999993, 0.911, 0.6930000000000001, 0.32699999999999996, -0.11199999999999999], 0.8579217273954116),
    (126, [-0.888, 0.944, 0.30000000000000004, -0.29400000000000004, 0.2450000000000001, -0.16999999999999993, 0.911, 0.6930000000000001, 0.32699999999999996, -0.11199999999999999], 0.8579217273954116),
    (127, [-0.888, 0.944, 0.30000000000000004, -0.29400000000000004, 0.2450000000000001, -0.16999999999999993, 0.911, 0.6930000000000001, 0.32699999999999996, -0.11199999999999999], 0.8579217273954116),
    (128, [-0.888, 0.944, 0.30000000000000004, -0.29400000000000004, 0.2450000000000001, -0.16999999999999993, 0.911, 0.6930000000000001, 0.32699999999999996, -0.11199999999999999], 0.8579217273954116),
    (129, [-0.888, 0.944, 0.30000000000000004, -0.29400000000000004, 0.2450000000000001, -0.16999999999999993, 0.911, 0.6930000000000001, 0.32699999999999996, -0.11199999999999999], 0.8579217273954116),
    (130, [-0.888, 0.944, 0.30000000000000004, -0.29400000000000004, 0.2450000000000001, -0.16999999999999993, 0.911, 0.6930000000000001, 0.32699999999999996, -0.11199999999999999], 0.8579217273954116),
    (131, [-0.888, 0.944, 0.30000000000000004, -0.29400000000000004, 0.2450000000000001, -0.16999999999999993, 0.911, 0.6930000000000001, 0.32699999999999996, -0.11199999999999999], 0.8579217273954116),
    (132, [-0.888, 0.944, 0.30000000000000004, -0.29400000000000004, 0.2450000000000001, -0.16999999999999993, 0.911, 0.6930000000000001, 0.32699999999999996, -0.11199999999999999], 0.8579217273954116),
    (133, [-0.888, 0.944, 0.30000000000000004, -0.29400000000000004, 0.2450000000000001, -0.16999999999999993, 0.911, 0.6930000000000001, 0.32699999999999996, -0.11199999999999999], 0.8579217273954116),
    (134, [-0.5680000000000001, -0.23299999999999998, 0.946, 0.21599999999999997, -0.806, -0.688, 0.7750000000000001, -0.86, -0.607, -0.09299999999999997], 0.8629217273954115),
    (135, [-0.5680000000000001, -0.23299999999999998, 0.946, 0.21599999999999997, -0.806, -0.688, 0.7750000000000001, -0.86, -0.607, -0.09299999999999997], 0.8629217273954115),
    (136, [-0.5680000000000001, -0.23299999999999998, 0.946, 0.21599999999999997, -0.806, -0.688, 0.7750000000000001, -0.86, -0.607, -0.09299999999999997], 0.8629217273954115),
    (137, [-0.5680000000000001, -0.23299999999999998, 0.946, 0.21599999999999997, -0.806, -0.688, 0.7750000000000001, -0.86, -0.607, -0.09299999999999997], 0.8629217273954115),
    (138, [-0.5680000000000001, -0.23299999999999998, 0.946, 0.21599999999999997, -0.806, -0.688, 0.7750000000000001, -0.86, -0.607, -0.09299999999999997], 0.8629217273954115),
    (139, [-0.5680000000000001, -0.23299999999999998, 0.946, 0.21599999999999997, -0.806, -0.688, 0.7750000000000001, -0.86, -0.607, -0.09299999999999997], 0.8629217273954115),
    (140, [-0.5680000000000001, -0.23299999999999998, 0.946, 0.21599999999999997, -0.806, -0.688, 0.7750000000000001, -0.86, -0.607, -0.09299999999999997], 0.8629217273954115),
    (141, [-0.5680000000000001, -0.23299999999999998, 0.946, 0.21599999999999997, -0.806, -0.688, 0.7750000000000001, -0.86, -0.607, -0.09299999999999997], 0.8629217273954115),
    (142, [-0.5680000000000001, -0.23299999999999998, 0.946, 0.21599999999999997, -0.806, -0.688, 0.7750000000000001, -0.86, -0.607, -0.09299999999999997], 0.8629217273954115),
    (143, [-0.5680000000000001, -0.23299999999999998, 0.946, 0.21599999999999997, -0.806, -0.688, 0.7750000000000001, -0.86, -0.607, -0.09299999999999997], 0.8629217273954115),
    (144, [-0.5680000000000001, -0.23299999999999998, 0.946, 0.21599999999999997, -0.806, -0.688, 0.7750000000000001, -0.86, -0.607, -0.09299999999999997], 0.8629217273954115),
    (145, [-0.5680000000000001, -0.23299999999999998, 0.946, 0.21599999999999997, -0.806, -0.688, 0.7750000000000001, -0.86, -0.607, -0.09299999999999997], 0.8629217273954115),
    (146, [-0.5680000000000001, -0.23299999999999998, 0.946, 0.21599999999999997, -0.806, -0.688, 0.7750000000000001, -0.86, -0.607, -0.09299999999999997], 0.8629217273954115),
    (147, [-0.5680000000000001, -0.23299999999999998, 0.946, 0.21599999999999997, -0.806, -0.688, 0.7750000000000001, -0.86, -0.607, -0.09299999999999997], 0.8629217273954115),
    (148, [-0.5680000000000001, -0.23299999999999998, 0.946, 0.21599999999999997, -0.806, -0.688, 0.7750000000000001, -0.86, -0.607, -0.09299999999999997], 0.8629217273954115),
    (149, [-0.5680000000000001, -0.23299999999999998, 0.946, 0.21599999999999997, -0.806, -0.688, 0.7750000000000001, -0.86, -0.607, -0.09299999999999997], 0.8629217273954115),
    (150, [-0.5680000000000001, -0.23299999999999998, 0.946, 0.21599999999999997, -0.806, -0.688, 0.7750000000000001, -0.86, -0.607, -0.09299999999999997], 0.8629217273954115),
    (151, [-0.5680000000000001, -0.23299999999999998, 0.946, 0.21599999999999997, -0.806, -0.688, 0.7750000000000001, -0.86, -0.607, -0.09299999999999997], 0.8629217273954115),
    (152, [-0.5680000000000001, -0.23299999999999998, 0.946, 0.21599999999999997, -0.806, -0.688, 0.7750000000000001, -0.86, -0.607, -0.09299999999999997], 0.8629217273954115),
    (153, [-0.5680000000000001, -0.23299999999999998, 0.946, 0.21599999999999997, -0.806, -0.688, 0.7750000000000001, -0.86, -0.607, -0.09299999999999997], 0.8629217273954115),
    (154, [-0.5680000000000001, -0.23299999999999998, 0.946, 0.21599999999999997, -0.806, -0.688, 0.7750000000000001, -0.86, -0.607, -0.09299999999999997], 0.8629217273954115),
    (155, [-0.5680000000000001, -0.23299999999999998, 0.946, 0.21599999999999997, -0.806, -0.688, 0.7750000000000001, -0.86, -0.607, -0.09299999999999997], 0.8629217273954115),
    (156, [-0.5680000000000001, -0.23299999999999998, 0.946, 0.21599999999999997, -0.806, -0.688, 0.7750000000000001, -0.86, -0.607, -0.09299999999999997], 0.8629217273954115),
    (157, [-0.5680000000000001, -0.23299999999999998, 0.946, 0.21599999999999997, -0.806, -0.688, 0.7750000000000001, -0.86, -0.607, -0.09299999999999997], 0.8629217273954115),
    (158, [-0.5680000000000001, -0.23299999999999998, 0.946, 0.21599999999999997, -0.806, -0.688, 0.7750000000000001, -0.86, -0.607, -0.09299999999999997], 0.8629217273954115),
    (159, [-0.5680000000000001, -0.23299999999999998, 0.946, 0.21599999999999997, -0.806, -0.688, 0.7750000000000001, -0.86, -0.607, -0.09299999999999997], 0.8629217273954115),
    (160, [-0.5680000000000001, -0.23299999999999998, 0.946, 0.21599999999999997, -0.806, -0.688, 0.7750000000000001, -0.86, -0.607, -0.09299999999999997], 0.8629217273954115),
    (161, [-0.5680000000000001, -0.23299999999999998, 0.946, 0.21599999999999997, -0.806, -0.688, 0.7750000000000001, -0.86, -0.607, -0.09299999999999997], 0.8629217273954115),
    (162, [-0.5680000000000001, -0.23299999999999998, 0.946, 0.21599999999999997, -0.806, -0.688, 0.7750000000000001, -0.86, -0.607, -0.09299999999999997], 0.8629217273954115),
    (163, [-0.5680000000000001, -0.23299999999999998, 0.946, 0.21599999999999997, -0.806, -0.688, 0.7750000000000001, -0.86, -0.607, -0.09299999999999997], 0.8629217273954115),
    (164, [-0.5680000000000001, -0.23299999999999998, 0.946, 0.21599999999999997, -0.806, -0.688, 0.7750000000000001, -0.86, -0.607, -0.09299999999999997], 0.8629217273954115),
    (165, [-0.5680000000000001, -0.23299999999999998, 0.946, 0.21599999999999997, -0.806, -0.688, 0.7750000000000001, -0.86, -0.607, -0.09299999999999997], 0.8629217273954115),
    (166, [-0.5680000000000001, -0.23299999999999998, 0.946, 0.21599999999999997, -0.806, -0.688, 0.7750000000000001, -0.86, -0.607, -0.09299999999999997], 0.8629217273954115),
    (167, [-0.5680000000000001, -0.23299999999999998, 0.946, 0.21599999999999997, -0.806, -0.688, 0.7750000000000001, -0.86, -0.607, -0.09299999999999997], 0.8629217273954115),
    (168, [-0.5680000000000001, -0.23299999999999998, 0.946, 0.21599999999999997, -0.806, -0.688, 0.7750000000000001, -0.86, -0.607, -0.09299999999999997], 0.8629217273954115),
    (169, [-0.5680000000000001, -0.23299999999999998, 0.946, 0.21599999999999997, -0.806, -0.688, 0.7750000000000001, -0.86, -0.607, -0.09299999999999997], 0.8629217273954115),
    (170, [-0.5680000000000001, -0.23299999999999998, 0.946, 0.21599999999999997, -0.806, -0.688, 0.7750000000000001, -0.86, -0.607, -0.09299999999999997], 0.8629217273954115),
    (171, [-0.5680000000000001, -0.23299999999999998, 0.946, 0.21599999999999997, -0.806, -0.688, 0.7750000000000001, -0.86, -0.607, -0.09299999999999997], 0.8629217273954115),
    (172, [-0.5680000000000001, -0.23299999999999998, 0.946, 0.21599999999999997, -0.806, -0.688, 0.7750000000000001, -0.86, -0.607, -0.09299999999999997], 0.8629217273954115),
    (173, [-0.5680000000000001, -0.23299999999999998, 0.946, 0.21599999999999997, -0.806, -0.688, 0.7750000000000001, -0.86, -0.607, -0.09299999999999997], 0.8629217273954115),
    (174, [-0.5680000000000001, -0.23299999999999998, 0.946, 0.21599999999999997, -0.806, -0.688, 0.7750000000000001, -0.86, -0.607, -0.09299999999999997], 0.8629217273954115),
    (175, [-0.5680000000000001, -0.23299999999999998, 0.946, 0.21599999999999997, -0.806, -0.688, 0.7750000000000001, -0.86, -0.607, -0.09299999999999997], 0.8629217273954115),
    (176, [-0.5680000000000001, -0.23299999999999998, 0.946, 0.21599999999999997, -0.806, -0.688, 0.7750000000000001, -0.86, -0.607, -0.09299999999999997], 0.8629217273954115),
    (177, [-0.5680000000000001, -0.23299999999999998, 0.946, 0.21599999999999997, -0.806, -0.688, 0.7750000000000001, -0.86, -0.607, -0.09299999999999997], 0.8629217273954115),
    (178, [-0.5680000000000001, -0.23299999999999998, 0.946, 0.21599999999999997, -0.806, -0.688, 0.7750000000000001, -0.86, -0.607, -0.09299999999999997], 0.8629217273954115),
    (179, [-0.5680000000000001, -0.23299999999999998, 0.946, 0.21599999999999997, -0.806, -0.688, 0.7750000000000001, -0.86, -0.607, -0.09299999999999997], 0.8629217273954115),
    (180, [-0.5680000000000001, -0.23299999999999998, 0.946, 0.21599999999999997, -0.806, -0.688, 0.7750000000000001, -0.86, -0.607, -0.09299999999999997], 0.8629217273954115),
    (181, [-0.5680000000000001, -0.23299999999999998, 0.946, 0.21599999999999997, -0.806, -0.688, 0.7750000000000001, -0.86, -0.607, -0.09299999999999997], 0.8629217273954115),
    (182, [-0.5680000000000001, -0.23299999999999998, 0.946, 0.21599999999999997, -0.806, -0.688, 0.7750000000000001, -0.86, -0.607, -0.09299999999999997], 0.8629217273954115),
    (183, [-0.5680000000000001, -0.23299999999999998, 0.946, 0.21599999999999997, -0.806, -0.688, 0.7750000000000001, -0.86, -0.607, -0.09299999999999997], 0.8629217273954115),
    (184, [-0.5680000000000001, -0.23299999999999998, 0.946, 0.21599999999999997, -0.806, -0.688, 0.7750000000000001, -0.86, -0.607, -0.09299999999999997], 0.8629217273954115),
    (185, [-0.5680000000000001, -0.23299999999999998, 0.946, 0.21599999999999997, -0.806, -0.688, 0.7750000000000001, -0.86, -0.607, -0.09299999999999997], 0.8629217273954115),
    (186, [-0.5680000000000001, -0.23299999999999998, 0.946, 0.21599999999999997, -0.806, -0.688, 0.7750000000000001, -0.86, -0.607, -0.09299999999999997], 0.8629217273954115),
    (187, [-0.5680000000000001, -0.23299999999999998, 0.946, 0.21599999999999997, -0.806, -0.688, 0.7750000000000001, -0.86, -0.607, -0.09299999999999997], 0.8629217273954115),
    (188, [-0.5680000000000001, -0.23299999999999998, 0.946, 0.21599999999999997, -0.806, -0.688, 0.7750000000000001, -0.86, -0.607, -0.09299999999999997], 0.8629217273954115),
    (189, [-0.5680000000000001, -0.23299999999999998, 0.946, 0.21599999999999997, -0.806, -0.688, 0.7750000000000001, -0.86, -0.607, -0.09299999999999997], 0.8629217273954115),
    (190, [-0.5680000000000001, -0.23299999999999998, 0.946, 0.21599999999999997, -0.806, -0.688, 0.7750000000000001, -0.86, -0.607, -0.09299999999999997], 0.8629217273954115),
    (191, [-0.5680000000000001, -0.23299999999999998, 0.946, 0.21599999999999997, -0.806, -0.688, 0.7750000000000001, -0.86, -0.607, -0.09299999999999997], 0.8629217273954115),
    (192, [-0.5680000000000001, -0.23299999999999998, 0.946, 0.21599999999999997, -0.806, -0.688, 0.7750000000000001, -0.86, -0.607, -0.09299999999999997], 0.8629217273954115),
    (193, [-0.5680000000000001, -0.23299999999999998, 0.946, 0.21599999999999997, -0.806, -0.688, 0.7750000000000001, -0.86, -0.607, -0.09299999999999997], 0.8629217273954115),
    (194, [-0.5680000000000001, -0.23299999999999998, 0.946, 0.21599999999999997, -0.806, -0.688, 0.7750000000000001, -0.86, -0.607, -0.09299999999999997], 0.8629217273954115),
    (195, [-0.5680000000000001, -0.23299999999999998, 0.946, 0.21599999999999997, -0.806, -0.688, 0.7750000000000001, -0.86, -0.607, -0.09299999999999997], 0.8629217273954115),
    (196, [-0.5680000000000001, -0.23299999999999998, 0.946, 0.21599999999999997, -0.806, -0.688, 0.7750000000000001, -0.86, -0.607, -0.09299999999999997], 0.8629217273954115),
    (197, [-0.5680000000000001, -0.23299999999999998, 0.946, 0.21599999999999997, -0.806, -0.688, 0.7750000000000001, -0.86, -0.607, -0.09299999999999997], 0.8629217273954115),
    (198, [-0.5680000000000001, -0.23299999999999998, 0.946, 0.21599999999999997, -0.806, -0.688, 0.7750000000000001, -0.86, -0.607, -0.09299999999999997], 0.8629217273954115),
    (199, [-0.5680000000000001, -0.23299999999999998, 0.946, 0.21599999999999997, -0.806, -0.688, 0.7750000000000001, -0.86, -0.607, -0.09299999999999997], 0.8629217273954115),
    (200, [-0.5680000000000001, -0.23299999999999998, 0.946, 0.21599999999999997, -0.806, -0.688, 0.7750000000000001, -0.86, -0.607, -0.09299999999999997], 0.8629217273954115),
    (201, [-0.5680000000000001, -0.23299999999999998, 0.946, 0.21599999999999997, -0.806, -0.688, 0.7750000000000001, -0.86, -0.607, -0.09299999999999997], 0.8629217273954115),
    (202, [-0.5680000000000001, -0.23299999999999998, 0.946, 0.21599999999999997, -0.806, -0.688, 0.7750000000000001, -0.86, -0.607, -0.09299999999999997], 0.8629217273954115),
    (203, [-0.5680000000000001, -0.23299999999999998, 0.946, 0.21599999999999997, -0.806, -0.688, 0.7750000000000001, -0.86, -0.607, -0.09299999999999997], 0.8629217273954115),
    (204, [-0.5680000000000001, -0.23299999999999998, 0.946, 0.21599999999999997, -0.806, -0.688, 0.7750000000000001, -0.86, -0.607, -0.09299999999999997], 0.8629217273954115),
    (205, [-0.5680000000000001, -0.23299999999999998, 0.946, 0.21599999999999997, -0.806, -0.688, 0.7750000000000001, -0.86, -0.607, -0.09299999999999997], 0.8629217273954115),
    (206, [-0.5680000000000001, -0.23299999999999998, 0.946, 0.21599999999999997, -0.806, -0.688, 0.7750000000000001, -0.86, -0.607, -0.09299999999999997], 0.8629217273954115),
    (207, [-0.5680000000000001, -0.23299999999999998, 0.946, 0.21599999999999997, -0.806, -0.688, 0.7750000000000001, -0.86, -0.607, -0.09299999999999997], 0.8629217273954115),
    (208, [-0.5680000000000001, -0.23299999999999998, 0.946, 0.21599999999999997, -0.806, -0.688, 0.7750000000000001, -0.86, -0.607, -0.09299999999999997], 0.8629217273954115),
    (209, [-0.5680000000000001, -0.23299999999999998, 0.946, 0.21599999999999997, -0.806, -0.688, 0.7750000000000001, -0.86, -0.607, -0.09299999999999997], 0.8629217273954115),
    (210, [-0.5680000000000001, -0.23299999999999998, 0.946, 0.21599999999999997, -0.806, -0.688, 0.7750000000000001, -0.86, -0.607, -0.09299999999999997], 0.8629217273954115),
    (211, [-0.5680000000000001, -0.23299999999999998, 0.946, 0.21599999999999997, -0.806, -0.688, 0.7750000000000001, -0.86, -0.607, -0.09299999999999997], 0.8629217273954115),
    (212, [-0.5680000000000001, -0.23299999999999998, 0.946, 0.21599999999999997, -0.806, -0.688, 0.7750000000000001, -0.86, -0.607, -0.09299999999999997], 0.8629217273954115),
    (213, [-0.5680000000000001, -0.23299999999999998, 0.946, 0.21599999999999997, -0.806, -0.688, 0.7750000000000001, -0.86, -0.607, -0.09299999999999997], 0.8629217273954115),
    (214, [-0.5680000000000001, -0.23299999999999998, 0.946, 0.21599999999999997, -0.806, -0.688, 0.7750000000000001, -0.86, -0.607, -0.09299999999999997], 0.8629217273954115),
    (215, [-0.5680000000000001, -0.23299999999999998, 0.946, 0.21599999999999997, -0.806, -0.688, 0.7750000000000001, -0.86, -0.607, -0.09299999999999997], 0.8629217273954115),
    (216, [-0.5680000000000001, -0.23299999999999998, 0.946, 0.21599999999999997, -0.806, -0.688, 0.7750000000000001, -0.86, -0.607, -0.09299999999999997], 0.8629217273954115),
    (217, [-0.5680000000000001, -0.23299999999999998, 0.946, 0.21599999999999997, -0.806, -0.688, 0.7750000000000001, -0.86, -0.607, -0.09299999999999997], 0.8629217273954115),
    (218, [-0.5680000000000001, -0.23299999999999998, 0.946, 0.21599999999999997, -0.806, -0.688, 0.7750000000000001, -0.86, -0.607, -0.09299999999999997], 0.8629217273954115),
    (219, [-0.5680000000000001, -0.23299999999999998, 0.946, 0.21599999999999997, -0.806, -0.688, 0.7750000000000001, -0.86, -0.607, -0.09299999999999997], 0.8629217273954115),
    (220, [-0.5680000000000001, -0.23299999999999998, 0.946, 0.21599999999999997, -0.806, -0.688, 0.7750000000000001, -0.86, -0.607, -0.09299999999999997], 0.8629217273954115),
    (221, [-0.5680000000000001, -0.23299999999999998, 0.946, 0.21599999999999997, -0.806, -0.688, 0.7750000000000001, -0.86, -0.607, -0.09299999999999997], 0.8629217273954115),
    (222, [-0.5680000000000001, -0.23299999999999998, 0.946, 0.21599999999999997, -0.806, -0.688, 0.7750000000000001, -0.86, -0.607, -0.09299999999999997], 0.8629217273954115),
    (223, [-0.5680000000000001, -0.23299999999999998, 0.946, 0.21599999999999997, -0.806, -0.688, 0.7750000000000001, -0.86, -0.607, -0.09299999999999997], 0.8629217273954115),
    (224, [-0.5680000000000001, -0.23299999999999998, 0.946, 0.21599999999999997, -0.806, -0.688, 0.7750000000000001, -0.86, -0.607, -0.09299999999999997], 0.8629217273954115),
    (225, [-0.5680000000000001, -0.23299999999999998, 0.946, 0.21599999999999997, -0.806, -0.688, 0.7750000000000001, -0.86, -0.607, -0.09299999999999997], 0.8629217273954115),
    (226, [-0.5680000000000001, -0.23299999999999998, 0.946, 0.21599999999999997, -0.806, -0.688, 0.7750000000000001, -0.86, -0.607, -0.09299999999999997], 0.8629217273954115),
    (227, [-0.5680000000000001, -0.23299999999999998, 0.946, 0.21599999999999997, -0.806, -0.688, 0.7750000000000001, -0.86, -0.607, -0.09299999999999997], 0.8629217273954115),
    (228, [-0.5680000000000001, -0.23299999999999998, 0.946, 0.21599999999999997, -0.806, -0.688, 0.7750000000000001, -0.86, -0.607, -0.09299999999999997], 0.8629217273954115),
    (229, [-0.5680000000000001, -0.23299999999999998, 0.946, 0.21599999999999997, -0.806, -0.688, 0.7750000000000001, -0.86, -0.607, -0.09299999999999997], 0.8629217273954115),
    (230, [-0.5680000000000001, -0.23299999999999998, 0.946, 0.21599999999999997, -0.806, -0.688, 0.7750000000000001, -0.86, -0.607, -0.09299999999999997], 0.8629217273954115),
    (231, [-0.5680000000000001, -0.23299999999999998, 0.946, 0.21599999999999997, -0.806, -0.688, 0.7750000000000001, -0.86, -0.607, -0.09299999999999997], 0.8629217273954115),
    (232, [-0.5680000000000001, -0.23299999999999998, 0.946, 0.21599999999999997, -0.806, -0.688, 0.7750000000000001, -0.86, -0.607, -0.09299999999999997], 0.8629217273954115),
    (233, [-0.5680000000000001, -0.23299999999999998, 0.946, 0.21599999999999997, -0.806, -0.688, 0.7750000000000001, -0.86, -0.607, -0.09299999999999997], 0.8629217273954115),
    (234, [-0.5680000000000001, -0.23299999999999998, 0.946, 0.21599999999999997, -0.806, -0.688, 0.7750000000000001, -0.86, -0.607, -0.09299999999999997], 0.8629217273954115),
    (235, [-0.5680000000000001, -0.23299999999999998, 0.946, 0.21599999999999997, -0.806, -0.688, 0.7750000000000001, -0.86, -0.607, -0.09299999999999997], 0.8629217273954115),
    (236, [-0.5680000000000001, -0.23299999999999998, 0.946, 0.21599999999999997, -0.806, -0.688, 0.7750000000000001, -0.86, -0.607, -0.09299999999999997], 0.8629217273954115),
    (237, [-0.5680000000000001, -0.23299999999999998, 0.946, 0.21599999999999997, -0.806, -0.688, 0.7750000000000001, -0.86, -0.607, -0.09299999999999997], 0.8629217273954115),
    (238, [-0.5680000000000001, -0.23299999999999998, 0.946, 0.21599999999999997, -0.806, -0.688, 0.7750000000000001, -0.86, -0.607, -0.09299999999999997], 0.8629217273954115),
    (239, [-0.5680000000000001, -0.23299999999999998, 0.946, 0.21599999999999997, -0.806, -0.688, 0.7750000000000001, -0.86, -0.607, -0.09299999999999997], 0.8629217273954115),
    (240, [-0.5680000000000001, -0.23299999999999998, 0.946, 0.21599999999999997, -0.806, -0.688, 0.7750000000000001, -0.86, -0.607, -0.09299999999999997], 0.8629217273954115),
    (241, [-0.5680000000000001, -0.23299999999999998, 0.946, 0.21599999999999997, -0.806, -0.688, 0.7750000000000001, -0.86, -0.607, -0.09299999999999997], 0.8629217273954115),
    (242, [-0.5680000000000001, -0.23299999999999998, 0.946, 0.21599999999999997, -0.806, -0.688, 0.7750000000000001, -0.86, -0.607, -0.09299999999999997], 0.8629217273954115),
    (243, [-0.5680000000000001, -0.23299999999999998, 0.946, 0.21599999999999997, -0.806, -0.688, 0.7750000000000001, -0.86, -0.607, -0.09299999999999997], 0.8629217273954115),
    (244, [-0.5680000000000001, -0.23299999999999998, 0.946, 0.21599999999999997, -0.806, -0.688, 0.7750000000000001, -0.86, -0.607, -0.09299999999999997], 0.8629217273954115),
    (245, [-0.5680000000000001, -0.23299999999999998, 0.946, 0.21599999999999997, -0.806, -0.688, 0.7750000000000001, -0.86, -0.607, -0.09299999999999997], 0.8629217273954115),
    (246, [-0.5680000000000001, -0.23299999999999998, 0.946, 0.21599999999999997, -0.806, -0.688, 0.7750000000000001, -0.86, -0.607, -0.09299999999999997], 0.8629217273954115),
    (247, [-0.5680000000000001, -0.23299999999999998, 0.946, 0.21599999999999997, -0.806, -0.688, 0.7750000000000001, -0.86, -0.607, -0.09299999999999997], 0.8629217273954115),
    (248, [-0.5680000000000001, -0.23299999999999998, 0.946, 0.21599999999999997, -0.806, -0.688, 0.7750000000000001, -0.86, -0.607, -0.09299999999999997], 0.8629217273954115),
    (249, [-0.5680000000000001, -0.23299999999999998, 0.946, 0.21599999999999997, -0.806, -0.688, 0.7750000000000001, -0.86, -0.607, -0.09299999999999997], 0.8629217273954115),
    (250, [-0.5680000000000001, -0.23299999999999998, 0.946, 0.21599999999999997, -0.806, -0.688, 0.7750000000000001, -0.86, -0.607, -0.09299999999999997], 0.8629217273954115),
    (251, [-0.5680000000000001, -0.23299999999999998, 0.946, 0.21599999999999997, -0.806, -0.688, 0.7750000000000001, -0.86, -0.607, -0.09299999999999997], 0.8629217273954115),
    (252, [-0.5680000000000001, -0.23299999999999998, 0.946, 0.21599999999999997, -0.806, -0.688, 0.7750000000000001, -0.86, -0.607, -0.09299999999999997], 0.8629217273954115),
    (253, [-0.5680000000000001, -0.23299999999999998, 0.946, 0.21599999999999997, -0.806, -0.688, 0.7750000000000001, -0.86, -0.607, -0.09299999999999997], 0.8629217273954115),
    (254, [-0.5680000000000001, -0.23299999999999998, 0.946, 0.21599999999999997, -0.806, -0.688, 0.7750000000000001, -0.86, -0.607, -0.09299999999999997], 0.8629217273954115),
    (255, [-0.5680000000000001, -0.23299999999999998, 0.946, 0.21599999999999997, -0.806, -0.688, 0.7750000000000001, -0.86, -0.607, -0.09299999999999997], 0.8629217273954115),
    (256, [-0.5680000000000001, -0.23299999999999998, 0.946, 0.21599999999999997, -0.806, -0.688, 0.7750000000000001, -0.86, -0.607, -0.09299999999999997], 0.8629217273954115),
    (257, [-0.5680000000000001, -0.23299999999999998, 0.946, 0.21599999999999997, -0.806, -0.688, 0.7750000000000001, -0.86, -0.607, -0.09299999999999997], 0.8629217273954115),
    (258, [-0.5680000000000001, -0.23299999999999998, 0.946, 0.21599999999999997, -0.806, -0.688, 0.7750000000000001, -0.86, -0.607, -0.09299999999999997], 0.8629217273954115),
    (259, [-0.5680000000000001, -0.23299999999999998, 0.946, 0.21599999999999997, -0.806, -0.688, 0.7750000000000001, -0.86, -0.607, -0.09299999999999997], 0.8629217273954115),
    (260, [-0.5680000000000001, -0.23299999999999998, 0.946, 0.21599999999999997, -0.806, -0.688, 0.7750000000000001, -0.86, -0.607, -0.09299999999999997], 0.8629217273954115),
    (261, [-0.5680000000000001, -0.23299999999999998, 0.946, 0.21599999999999997, -0.806, -0.688, 0.7750000000000001, -0.86, -0.607, -0.09299999999999997], 0.8629217273954115),
    (262, [-0.5680000000000001, -0.23299999999999998, 0.946, 0.21599999999999997, -0.806, -0.688, 0.7750000000000001, -0.86, -0.607, -0.09299999999999997], 0.8629217273954115),
    (263, [-0.5680000000000001, -0.23299999999999998, 0.946, 0.21599999999999997, -0.806, -0.688, 0.7750000000000001, -0.86, -0.607, -0.09299999999999997], 0.8629217273954115),
    (264, [-0.5680000000000001, -0.23299999999999998, 0.946, 0.21599999999999997, -0.806, -0.688, 0.7750000000000001, -0.86, -0.607, -0.09299999999999997], 0.8629217273954115),
    (265, [-0.5680000000000001, -0.23299999999999998, 0.946, 0.21599999999999997, -0.806, -0.688, 0.7750000000000001, -0.86, -0.607, -0.09299999999999997], 0.8629217273954115),
    (266, [-0.5680000000000001, -0.23299999999999998, 0.946, 0.21599999999999997, -0.806, -0.688, 0.7750000000000001, -0.86, -0.607, -0.09299999999999997], 0.8629217273954115),
    (267, [-0.5680000000000001, -0.23299999999999998, 0.946, 0.21599999999999997, -0.806, -0.688, 0.7750000000000001, -0.86, -0.607, -0.09299999999999997], 0.8629217273954115),
    (268, [-0.5680000000000001, -0.23299999999999998, 0.946, 0.21599999999999997, -0.806, -0.688, 0.7750000000000001, -0.86, -0.607, -0.09299999999999997], 0.8629217273954115),
    (269, [-0.5680000000000001, -0.23299999999999998, 0.946, 0.21599999999999997, -0.806, -0.688, 0.7750000000000001, -0.86, -0.607, -0.09299999999999997], 0.8629217273954115),
    (270, [-0.5680000000000001, -0.23299999999999998, 0.946, 0.21599999999999997, -0.806, -0.688, 0.7750000000000001, -0.86, -0.607, -0.09299999999999997], 0.8629217273954115),
    (271, [-0.5680000000000001, -0.23299999999999998, 0.946, 0.21599999999999997, -0.806, -0.688, 0.7750000000000001, -0.86, -0.607, -0.09299999999999997], 0.8629217273954115),
    (272, [-0.5680000000000001, -0.23299999999999998, 0.946, 0.21599999999999997, -0.806, -0.688, 0.7750000000000001, -0.86, -0.607, -0.09299999999999997], 0.8629217273954115),
    (273, [-0.5680000000000001, -0.23299999999999998, 0.946, 0.21599999999999997, -0.806, -0.688, 0.7750000000000001, -0.86, -0.607, -0.09299999999999997], 0.8629217273954115),
    (274, [-0.5680000000000001, -0.23299999999999998, 0.946, 0.21599999999999997, -0.806, -0.688, 0.7750000000000001, -0.86, -0.607, -0.09299999999999997], 0.8629217273954115),
    (275, [-0.5680000000000001, -0.23299999999999998, 0.946, 0.21599999999999997, -0.806, -0.688, 0.7750000000000001, -0.86, -0.607, -0.09299999999999997], 0.8629217273954115),
    (276, [-0.5680000000000001, -0.23299999999999998, 0.946, 0.21599999999999997, -0.806, -0.688, 0.7750000000000001, -0.86, -0.607, -0.09299999999999997], 0.8629217273954115),
    (277, [-0.5680000000000001, -0.23299999999999998, 0.946, 0.21599999999999997, -0.806, -0.688, 0.7750000000000001, -0.86, -0.607, -0.09299999999999997], 0.8629217273954115),
    (278, [-0.5680000000000001, -0.23299999999999998, 0.946, 0.21599999999999997, -0.806, -0.688, 0.7750000000000001, -0.86, -0.607, -0.09299999999999997], 0.8629217273954115),
    (279, [-0.5680000000000001, -0.23299999999999998, 0.946, 0.21599999999999997, -0.806, -0.688, 0.7750000000000001, -0.86, -0.607, -0.09299999999999997], 0.8629217273954115),
    (280, [-0.5680000000000001, -0.23299999999999998, 0.946, 0.21599999999999997, -0.806, -0.688, 0.7750000000000001, -0.86, -0.607, -0.09299999999999997], 0.8629217273954115),
    (281, [-0.5680000000000001, -0.23299999999999998, 0.946, 0.21599999999999997, -0.806, -0.688, 0.7750000000000001, -0.86, -0.607, -0.09299999999999997], 0.8629217273954115),
    (282, [-0.5680000000000001, -0.23299999999999998, 0.946, 0.21599999999999997, -0.806, -0.688, 0.7750000000000001, -0.86, -0.607, -0.09299999999999997], 0.8629217273954115),
    (283, [-0.5680000000000001, -0.23299999999999998, 0.946, 0.21599999999999997, -0.806, -0.688, 0.7750000000000001, -0.86, -0.607, -0.09299999999999997], 0.8629217273954115),
    (284, [-0.5680000000000001, -0.23299999999999998, 0.946, 0.21599999999999997, -0.806, -0.688, 0.7750000000000001, -0.86, -0.607, -0.09299999999999997], 0.8629217273954115),
    (285, [-0.5680000000000001, -0.23299999999999998, 0.946, 0.21599999999999997, -0.806, -0.688, 0.7750000000000001, -0.86, -0.607, -0.09299999999999997], 0.8629217273954115),
    (286, [-0.5680000000000001, -0.23299999999999998, 0.946, 0.21599999999999997, -0.806, -0.688, 0.7750000000000001, -0.86, -0.607, -0.09299999999999997], 0.8629217273954115),
    (287, [-0.5680000000000001, -0.23299999999999998, 0.946, 0.21599999999999997, -0.806, -0.688, 0.7750000000000001, -0.86, -0.607, -0.09299999999999997], 0.8629217273954115),
    (288, [-0.5680000000000001, -0.23299999999999998, 0.946, 0.21599999999999997, -0.806, -0.688, 0.7750000000000001, -0.86, -0.607, -0.09299999999999997], 0.8629217273954115),
    (289, [-0.5680000000000001, -0.23299999999999998, 0.946, 0.21599999999999997, -0.806, -0.688, 0.7750000000000001, -0.86, -0.607, -0.09299999999999997], 0.8629217273954115),
    (290, [-0.5680000000000001, -0.23299999999999998, 0.946, 0.21599999999999997, -0.806, -0.688, 0.7750000000000001, -0.86, -0.607, -0.09299999999999997], 0.8629217273954115),
    (291, [-0.5680000000000001, -0.23299999999999998, 0.946, 0.21599999999999997, -0.806, -0.688, 0.7750000000000001, -0.86, -0.607, -0.09299999999999997], 0.8629217273954115),
    (292, [-0.5680000000000001, -0.23299999999999998, 0.946, 0.21599999999999997, -0.806, -0.688, 0.7750000000000001, -0.86, -0.607, -0.09299999999999997], 0.8629217273954115),
    (293, [-0.5680000000000001, -0.23299999999999998, 0.946, 0.21599999999999997, -0.806, -0.688, 0.7750000000000001, -0.86, -0.607, -0.09299999999999997], 0.8629217273954115),
    (294, [-0.5680000000000001, -0.23299999999999998, 0.946, 0.21599999999999997, -0.806, -0.688, 0.7750000000000001, -0.86, -0.607, -0.09299999999999997], 0.8629217273954115),
    (295, [-0.5680000000000001, -0.23299999999999998, 0.946, 0.21599999999999997, -0.806, -0.688, 0.7750000000000001, -0.86, -0.607, -0.09299999999999997], 0.8629217273954115),
    (296, [-0.5680000000000001, -0.23299999999999998, 0.946, 0.21599999999999997, -0.806, -0.688, 0.7750000000000001, -0.86, -0.607, -0.09299999999999997], 0.8629217273954115),
    (297, [-0.5680000000000001, -0.23299999999999998, 0.946, 0.21599999999999997, -0.806, -0.688, 0.7750000000000001, -0.86, -0.607, -0.09299999999999997], 0.8629217273954115),
    (298, [-0.5680000000000001, -0.23299999999999998, 0.946, 0.21599999999999997, -0.806, -0.688, 0.7750000000000001, -0.86, -0.607, -0.09299999999999997], 0.8629217273954115),
    (299, [-0.5680000000000001, -0.23299999999999998, 0.946, 0.21599999999999997, -0.806, -0.688, 0.7750000000000001, -0.86, -0.607, -0.09299999999999997], 0.8629217273954115),
]

