ranges of every chromosome : (-1, 1)
    selection method is: TournamentSelection
    crossover method is: UniformCrossover
    pc: The probability of crossover: 1.000000
    pe: Gene exchange probability: 0.500000
    mutation method is: FlipBitBigMutation
    pm: The probability of mutation: 0.300000
    pbm: The probability of big mutation: 0.700000
    alpha: intensive factor: 0.600000
best_fit = [
    (0, [0.6600000000000001, 0.2829999999999999, -0.44399999999999995, -0.138, 0.764, -0.362, 0.972, -0.35, 0.42199999999999993, 0.901], 0.8576585695006747),
    (1, [0.6600000000000001, 0.2829999999999999, -0.44399999999999995, -0.138, 0.764, -0.362, 0.972, -0.35, 0.42199999999999993, 0.901], 0.8576585695006747),
    (2, [0.6600000000000001, 0.2829999999999999, -0.44399999999999995, -0.138, 0.764, -0.362, 0.972, -0.35, 0.42199999999999993, 0.901], 0.8576585695006747),
    (3, [0.6600000000000001, 0.2829999999999999, -0.44399999999999995, -0.138, 0.764, -0.362, 0.972, -0.35, 0.42199999999999993, 0.901], 0.8576585695006747),
    (4, [0.6600000000000001, 0.2829999999999999, -0.44399999999999995, -0.138, 0.764, -0.362, 0.972, -0.35, 0.42199999999999993, 0.901], 0.8576585695006747),
    (5, [0.6600000000000001, 0.2829999999999999, -0.44399999999999995, -0.138, 0.764, -0.362, 0.972, -0.35, 0.42199999999999993, 0.901], 0.8576585695006747),
    (6, [0.6600000000000001, 0.2829999999999999, -0.44399999999999995, -0.138, 0.764, -0.362, 0.972, -0.35, 0.42199999999999993, 0.901], 0.8576585695006747),
    (7, [-0.534, 0.802, -0.31399999999999995, 0.15999999999999992, 0.4930000000000001, 0.6360000000000001, 0.687, -0.29100000000000004, 0.27500000000000013, 0.42300000000000004], 0.8627867746288798),
    (8, [-0.534, 0.802, -0.31399999999999995, 0.15999999999999992, 0.4930000000000001, 0.6360000000000001, 0.687, -0.29100000000000004, 0.27500000000000013, 0.42300000000000004], 0.8627867746288798),
    (9, [-0.534, 0.802, -0.31399999999999995, 0.15999999999999992, 0.4930000000000001, 0.6360000000000001, 0.687, -0.29100000000000004, 0.27500000000000013, 0.42300000000000004], 0.8627867746288798),
    (10, [-0.534, 0.802, -0.31399999999999995, 0.15999999999999992, 0.4930000000000001, 0.6360000000000001, 0.687, -0.29100000000000004, 0.27500000000000013, 0.42300000000000004], 0.8627867746288798),
    (11, [-0.534, 0.802, -0.31399999999999995, 0.15999999999999992, 0.4930000000000001, 0.6360000000000001, 0.687, -0.29100000000000004, 0.27500000000000013, 0.42300000000000004], 0.8627867746288798),
    (12, [-0.534, 0.802, -0.31399999999999995, 0.15999999999999992, 0.4930000000000001, 0.6360000000000001, 0.687, -0.29100000000000004, 0.27500000000000013, 0.42300000000000004], 0.8627867746288798),
    (13, [-0.534, 0.802, -0.31399999999999995, 0.15999999999999992, 0.4930000000000001, 0.6360000000000001, 0.687, -0.29100000000000004, 0.27500000000000013, 0.42300000000000004], 0.8627867746288798),
    (14, [-0.534, 0.802, -0.31399999999999995, 0.15999999999999992, 0.4930000000000001, 0.6360000000000001, 0.687, -0.29100000000000004, 0.27500000000000013, 0.42300000000000004], 0.8627867746288798),
    (15, [-0.534, 0.802, -0.31399999999999995, 0.15999999999999992, 0.4930000000000001, 0.6360000000000001, 0.687, -0.29100000000000004, 0.27500000000000013, 0.42300000000000004], 0.8627867746288798),
    (16, [-0.534, 0.802, -0.31399999999999995, 0.15999999999999992, 0.4930000000000001, 0.6360000000000001, 0.687, -0.29100000000000004, 0.27500000000000013, 0.42300000000000004], 0.8627867746288798),
    (17, [-0.534, 0.802, -0.31399999999999995, 0.15999999999999992, 0.4930000000000001, 0.6360000000000001, 0.687, -0.29100000000000004, 0.27500000000000013, 0.42300000000000004], 0.8627867746288798),
    (18, [-0.534, 0.802, -0.31399999999999995, 0.15999999999999992, 0.4930000000000001, 0.6360000000000001, 0.687, -0.29100000000000004, 0.27500000000000013, 0.42300000000000004], 0.8627867746288798),
    (19, [-0.534, 0.802, -0.31399999999999995, 0.15999999999999992, 0.4930000000000001, 0.6360000000000001, 0.687, -0.29100000000000004, 0.27500000000000013, 0.42300000000000004], 0.8627867746288798),
    (20, [-0.534, 0.802, -0.31399999999999995, 0.15999999999999992, 0.4930000000000001, 0.6360000000000001, 0.687, -0.29100000000000004, 0.27500000000000013, 0.42300000000000004], 0.8627867746288798),
    (21, [-0.534, 0.802, -0.31399999999999995, 0.15999999999999992, 0.4930000000000001, 0.6360000000000001, 0.687, -0.29100000000000004, 0.27500000000000013, 0.42300000000000004], 0.8627867746288798),
    (22, [-0.534, 0.802, -0.31399999999999995, 0.15999999999999992, 0.4930000000000001, 0.6360000000000001, 0.687, -0.29100000000000004, 0.27500000000000013, 0.42300000000000004], 0.8627867746288798),
    (23, [-0.534, 0.802, -0.31399999999999995, 0.15999999999999992, 0.4930000000000001, 0.6360000000000001, 0.687, -0.29100000000000004, 0.27500000000000013, 0.42300000000000004], 0.8627867746288798),
    (24, [-0.534, 0.802, -0.31399999999999995, 0.15999999999999992, 0.4930000000000001, 0.6360000000000001, 0.687, -0.29100000000000004, 0.27500000000000013, 0.42300000000000004], 0.8627867746288798),
    (25, [-0.534, 0.802, -0.31399999999999995, 0.15999999999999992, 0.4930000000000001, 0.6360000000000001, 0.687, -0.29100000000000004, 0.27500000000000013, 0.42300000000000004], 0.8627867746288798),
    (26, [-0.534, 0.802, -0.31399999999999995, 0.15999999999999992, 0.4930000000000001, 0.6360000000000001, 0.687, -0.29100000000000004, 0.27500000000000013, 0.42300000000000004], 0.8627867746288798),
    (27, [-0.534, 0.802, -0.31399999999999995, 0.15999999999999992, 0.4930000000000001, 0.6360000000000001, 0.687, -0.29100000000000004, 0.27500000000000013, 0.42300000000000004], 0.8627867746288798),
    (28, [-0.534, 0.802, -0.31399999999999995, 0.15999999999999992, 0.4930000000000001, 0.6360000000000001, 0.687, -0.29100000000000004, 0.27500000000000013, 0.42300000000000004], 0.8627867746288798),
    (29, [-0.534, 0.802, -0.31399999999999995, 0.15999999999999992, 0.4930000000000001, 0.6360000000000001, 0.687, -0.29100000000000004, 0.27500000000000013, 0.42300000000000004], 0.8627867746288798),
    (30, [-0.534, 0.802, -0.31399999999999995, 0.15999999999999992, 0.4930000000000001, 0.6360000000000001, 0.687, -0.29100000000000004, 0.27500000000000013, 0.42300000000000004], 0.8627867746288798),
    (31, [-0.534, 0.802, -0.31399999999999995, 0.15999999999999992, 0.4930000000000001, 0.6360000000000001, 0.687, -0.29100000000000004, 0.27500000000000013, 0.42300000000000004], 0.8627867746288798),
    (32, [-0.534, 0.802, -0.31399999999999995, 0.15999999999999992, 0.4930000000000001, 0.6360000000000001, 0.687, -0.29100000000000004, 0.27500000000000013, 0.42300000000000004], 0.8627867746288798),
    (33, [-0.534, 0.802, -0.31399999999999995, 0.15999999999999992, 0.4930000000000001, 0.6360000000000001, 0.687, -0.29100000000000004, 0.27500000000000013, 0.42300000000000004], 0.8627867746288798),
    (34, [-0.534, 0.802, -0.31399999999999995, 0.15999999999999992, 0.4930000000000001, 0.6360000000000001, 0.687, -0.29100000000000004, 0.27500000000000013, 0.42300000000000004], 0.8627867746288798),
    (35, [-0.534, 0.802, -0.31399999999999995, 0.15999999999999992, 0.4930000000000001, 0.6360000000000001, 0.687, -0.29100000000000004, 0.27500000000000013, 0.42300000000000004], 0.8627867746288798),
    (36, [-0.534, 0.802, -0.31399999999999995, 0.15999999999999992, 0.4930000000000001, 0.6360000000000001, 0.687, -0.29100000000000004, 0.27500000000000013, 0.42300000000000004], 0.8627867746288798),
    (37, [-0.534, 0.802, -0.31399999999999995, 0.15999999999999992, 0.4930000000000001, 0.6360000000000001, 0.687, -0.29100000000000004, 0.27500000000000013, 0.42300000000000004], 0.8627867746288798),
    (38, [-0.534, 0.802, -0.31399999999999995, 0.15999999999999992, 0.4930000000000001, 0.6360000000000001, 0.687, -0.29100000000000004, 0.27500000000000013, 0.42300000000000004], 0.8627867746288798),
    (39, [-0.534, 0.802, -0.31399999999999995, 0.15999999999999992, 0.4930000000000001, 0.6360000000000001, 0.687, -0.29100000000000004, 0.27500000000000013, 0.42300000000000004], 0.8627867746288798),
    (40, [-0.534, 0.802, -0.31399999999999995, 0.15999999999999992, 0.4930000000000001, 0.6360000000000001, 0.687, -0.29100000000000004, 0.27500000000000013, 0.42300000000000004], 0.8627867746288798),
    (41, [-0.534, 0.802, -0.31399999999999995, 0.15999999999999992, 0.4930000000000001, 0.6360000000000001, 0.687, -0.29100000000000004, 0.27500000000000013, 0.42300000000000004], 0.8627867746288798),
    (42, [-0.534, 0.802, -0.31399999999999995, 0.15999999999999992, 0.4930000000000001, 0.6360000000000001, 0.687, -0.29100000000000004, 0.27500000000000013, 0.42300000000000004], 0.8627867746288798),
    (43, [-0.534, 0.802, -0.31399999999999995, 0.15999999999999992, 0.4930000000000001, 0.6360000000000001, 0.687, -0.29100000000000004, 0.27500000000000013, 0.42300000000000004], 0.8627867746288798),
    (44, [-0.534, 0.802, -0.31399999999999995, 0.15999999999999992, 0.4930000000000001, 0.6360000000000001, 0.687, -0.29100000000000004, 0.27500000000000013, 0.42300000000000004], 0.8627867746288798),
    (45, [-0.534, 0.802, -0.31399999999999995, 0.15999999999999992, 0.4930000000000001, 0.6360000000000001, 0.687, -0.29100000000000004, 0.27500000000000013, 0.42300000000000004], 0.8627867746288798),
    (46, [-0.534, 0.802, -0.31399999999999995, 0.15999999999999992, 0.4930000000000001, 0.6360000000000001, 0.687, -0.29100000000000004, 0.27500000000000013, 0.42300000000000004], 0.8627867746288798),
    (47, [-0.534, 0.802, -0.31399999999999995, 0.15999999999999992, 0.4930000000000001, 0.6360000000000001, 0.687, -0.29100000000000004, 0.27500000000000013, 0.42300000000000004], 0.8627867746288798),
    (48, [-0.534, 0.802, -0.31399999999999995, 0.15999999999999992, 0.4930000000000001, 0.6360000000000001, 0.687, -0.29100000000000004, 0.27500000000000013, 0.42300000000000004], 0.8627867746288798),
    (49, [-0.534, 0.802, -0.31399999999999995, 0.15999999999999992, 0.4930000000000001, 0.6360000000000001, 0.687, -0.29100000000000004, 0.27500000000000013, 0.42300000000000004], 0.8627867746288798),
    (50, [-0.534, 0.802, -0.31399999999999995, 0.15999999999999992, 0.4930000000000001, 0.6360000000000001, 0.687, -0.29100000000000004, 0.27500000000000013, 0.42300000000000004], 0.8627867746288798),
    (51, [-0.534, 0.802, -0.31399999999999995, 0.15999999999999992, 0.4930000000000001, 0.6360000000000001, 0.687, -0.29100000000000004, 0.27500000000000013, 0.42300000000000004], 0.8627867746288798),
    (52, [-0.534, 0.802, -0.31399999999999995, 0.15999999999999992, 0.4930000000000001, 0.6360000000000001, 0.687, -0.29100000000000004, 0.27500000000000013, 0.42300000000000004], 0.8627867746288798),
    (53, [-0.534, 0.802, -0.31399999999999995, 0.15999999999999992, 0.4930000000000001, 0.6360000000000001, 0.687, -0.29100000000000004, 0.27500000000000013, 0.42300000000000004], 0.8627867746288798),
    (54, [-0.534, 0.802, -0.31399999999999995, 0.15999999999999992, 0.4930000000000001, 0.6360000000000001, 0.687, -0.29100000000000004, 0.27500000000000013, 0.42300000000000004], 0.8627867746288798),
    (55, [-0.534, 0.802, -0.31399999999999995, 0.15999999999999992, 0.4930000000000001, 0.6360000000000001, 0.687, -0.29100000000000004, 0.27500000000000013, 0.42300000000000004], 0.8627867746288798),
    (56, [-0.534, 0.802, -0.31399999999999995, 0.15999999999999992, 0.4930000000000001, 0.6360000000000001, 0.687, -0.29100000000000004, 0.27500000000000013, 0.42300000000000004], 0.8627867746288798),
    (57, [-0.534, 0.802, -0.31399999999999995, 0.15999999999999992, 0.4930000000000001, 0.6360000000000001, 0.687, -0.29100000000000004, 0.27500000000000013, 0.42300000000000004], 0.8627867746288798),
    (58, [-0.534, 0.802, -0.31399999999999995, 0.15999999999999992, 0.4930000000000001, 0.6360000000000001, 0.687, -0.29100000000000004, 0.27500000000000013, 0.42300000000000004], 0.8627867746288798),
    (59, [-0.534, 0.802, -0.31399999999999995, 0.15999999999999992, 0.4930000000000001, 0.6360000000000001, 0.687, -0.29100000000000004, 0.27500000000000013, 0.42300000000000004], 0.8627867746288798),
    (60, [-0.534, 0.802, -0.31399999999999995, 0.15999999999999992, 0.4930000000000001, 0.6360000000000001, 0.687, -0.29100000000000004, 0.27500000000000013, 0.42300000000000004], 0.8627867746288798),
    (61, [-0.534, 0.802, -0.31399999999999995, 0.15999999999999992, 0.4930000000000001, 0.6360000000000001, 0.687, -0.29100000000000004, 0.27500000000000013, 0.42300000000000004], 0.8627867746288798),
    (62, [-0.534, 0.802, -0.31399999999999995, 0.15999999999999992, 0.4930000000000001, 0.6360000000000001, 0.687, -0.29100000000000004, 0.27500000000000013, 0.42300000000000004], 0.8627867746288798),
    (63, [-0.534, 0.802, -0.31399999999999995, 0.15999999999999992, 0.4930000000000001, 0.6360000000000001, 0.687, -0.29100000000000004, 0.27500000000000013, 0.42300000000000004], 0.8627867746288798),
    (64, [-0.534, 0.802, -0.31399999999999995, 0.15999999999999992, 0.4930000000000001, 0.6360000000000001, 0.687, -0.29100000000000004, 0.27500000000000013, 0.42300000000000004], 0.8627867746288798),
    (65, [-0.534, 0.802, -0.31399999999999995, 0.15999999999999992, 0.4930000000000001, 0.6360000000000001, 0.687, -0.29100000000000004, 0.27500000000000013, 0.42300000000000004], 0.8627867746288798),
    (66, [-0.534, 0.802, -0.31399999999999995, 0.15999999999999992, 0.4930000000000001, 0.6360000000000001, 0.687, -0.29100000000000004, 0.27500000000000013, 0.42300000000000004], 0.8627867746288798),
    (67, [-0.534, 0.802, -0.31399999999999995, 0.15999999999999992, 0.4930000000000001, 0.6360000000000001, 0.687, -0.29100000000000004, 0.27500000000000013, 0.42300000000000004], 0.8627867746288798),
    (68, [-0.534, 0.802, -0.31399999999999995, 0.15999999999999992, 0.4930000000000001, 0.6360000000000001, 0.687, -0.29100000000000004, 0.27500000000000013, 0.42300000000000004], 0.8627867746288798),
    (69, [-0.534, 0.802, -0.31399999999999995, 0.15999999999999992, 0.4930000000000001, 0.6360000000000001, 0.687, -0.29100000000000004, 0.27500000000000013, 0.42300000000000004], 0.8627867746288798),
    (70, [-0.534, 0.802, -0.31399999999999995, 0.15999999999999992, 0.4930000000000001, 0.6360000000000001, 0.687, -0.29100000000000004, 0.27500000000000013, 0.42300000000000004], 0.8627867746288798),
    (71, [-0.534, 0.802, -0.31399999999999995, 0.15999999999999992, 0.4930000000000001, 0.6360000000000001, 0.687, -0.29100000000000004, 0.27500000000000013, 0.42300000000000004], 0.8627867746288798),
    (72, [-0.534, 0.802, -0.31399999999999995, 0.15999999999999992, 0.4930000000000001, 0.6360000000000001, 0.687, -0.29100000000000004, 0.27500000000000013, 0.42300000000000004], 0.8627867746288798),
    (73, [-0.534, 0.802, -0.31399999999999995, 0.15999999999999992, 0.4930000000000001, 0.6360000000000001, 0.687, -0.29100000000000004, 0.27500000000000013, 0.42300000000000004], 0.8627867746288798),
    (74, [-0.534, 0.802, -0.31399999999999995, 0.15999999999999992, 0.4930000000000001, 0.6360000000000001, 0.687, -0.29100000000000004, 0.27500000000000013, 0.42300000000000004], 0.8627867746288798),
    (75, [-0.534, 0.802, -0.31399999999999995, 0.15999999999999992, 0.4930000000000001, 0.6360000000000001, 0.687, -0.29100000000000004, 0.27500000000000013, 0.42300000000000004], 0.8627867746288798),
    (76, [-0.534, 0.802, -0.31399999999999995, 0.15999999999999992, 0.4930000000000001, 0.6360000000000001, 0.687, -0.29100000000000004, 0.27500000000000013, 0.42300000000000004], 0.8627867746288798),
    (77, [-0.534, 0.802, -0.31399999999999995, 0.15999999999999992, 0.4930000000000001, 0.6360000000000001, 0.687, -0.29100000000000004, 0.27500000000000013, 0.42300000000000004], 0.8627867746288798),
    (78, [-0.534, 0.802, -0.31399999999999995, 0.15999999999999992, 0.4930000000000001, 0.6360000000000001, 0.687, -0.29100000000000004, 0.27500000000000013, 0.42300000000000004], 0.8627867746288798),
    (79, [-0.534, 0.802, -0.31399999999999995, 0.15999999999999992, 0.4930000000000001, 0.6360000000000001, 0.687, -0.29100000000000004, 0.27500000000000013, 0.42300000000000004], 0.8627867746288798),
    (80, [-0.534, 0.802, -0.31399999999999995, 0.15999999999999992, 0.4930000000000001, 0.6360000000000001, 0.687, -0.29100000000000004, 0.27500000000000013, 0.42300000000000004], 0.8627867746288798),
    (81, [-0.534, 0.802, -0.31399999999999995, 0.15999999999999992, 0.4930000000000001, 0.6360000000000001, 0.687, -0.29100000000000004, 0.27500000000000013, 0.42300000000000004], 0.8627867746288798),
    (82, [-0.534, 0.802, -0.31399999999999995, 0.15999999999999992, 0.4930000000000001, 0.6360000000000001, 0.687, -0.29100000000000004, 0.27500000000000013, 0.42300000000000004], 0.8627867746288798),
    (83, [-0.534, 0.802, -0.31399999999999995, 0.15999999999999992, 0.4930000000000001, 0.6360000000000001, 0.687, -0.29100000000000004, 0.27500000000000013, 0.42300000000000004], 0.8627867746288798),
    (84, [-0.534, 0.802, -0.31399999999999995, 0.15999999999999992, 0.4930000000000001, 0.6360000000000001, 0.687, -0.29100000000000004, 0.27500000000000013, 0.42300000000000004], 0.8627867746288798),
    (85, [-0.534, 0.802, -0.31399999999999995, 0.15999999999999992, 0.4930000000000001, 0.6360000000000001, 0.687, -0.29100000000000004, 0.27500000000000013, 0.42300000000000004], 0.8627867746288798),
    (86, [-0.534, 0.802, -0.31399999999999995, 0.15999999999999992, 0.4930000000000001, 0.6360000000000001, 0.687, -0.29100000000000004, 0.27500000000000013, 0.42300000000000004], 0.8627867746288798),
    (87, [-0.534, 0.802, -0.31399999999999995, 0.15999999999999992, 0.4930000000000001, 0.6360000000000001, 0.687, -0.29100000000000004, 0.27500000000000013, 0.42300000000000004], 0.8627867746288798),
    (88, [-0.534, 0.802, -0.31399999999999995, 0.15999999999999992, 0.4930000000000001, 0.6360000000000001, 0.687, -0.29100000000000004, 0.27500000000000013, 0.42300000000000004], 0.8627867746288798),
    (89, [-0.534, 0.802, -0.31399999999999995, 0.15999999999999992, 0.4930000000000001, 0.6360000000000001, 0.687, -0.29100000000000004, 0.27500000000000013, 0.42300000000000004], 0.8627867746288798),
    (90, [-0.534, 0.802, -0.31399999999999995, 0.15999999999999992, 0.4930000000000001, 0.6360000000000001, 0.687, -0.29100000000000004, 0.27500000000000013, 0.42300000000000004], 0.8627867746288798),
    (91, [-0.534, 0.802, -0.31399999999999995, 0.15999999999999992, 0.4930000000000001, 0.6360000000000001, 0.687, -0.29100000000000004, 0.27500000000000013, 0.42300000000000004], 0.8627867746288798),
    (92, [-0.534, 0.802, -0.31399999999999995, 0.15999999999999992, 0.4930000000000001, 0.6360000000000001, 0.687, -0.29100000000000004, 0.27500000000000013, 0.42300000000000004], 0.8627867746288798),
    (93, [-0.534, 0.802, -0.31399999999999995, 0.15999999999999992, 0.4930000000000001, 0.6360000000000001, 0.687, -0.29100000000000004, 0.27500000000000013, 0.42300000000000004], 0.8627867746288798),
    (94, [-0.534, 0.802, -0.31399999999999995, 0.15999999999999992, 0.4930000000000001, 0.6360000000000001, 0.687, -0.29100000000000004, 0.27500000000000013, 0.42300000000000004], 0.8627867746288798),
    (95, [-0.534, 0.802, -0.31399999999999995, 0.15999999999999992, 0.4930000000000001, 0.6360000000000001, 0.687, -0.29100000000000004, 0.27500000000000013, 0.42300000000000004], 0.8627867746288798),
    (96, [-0.534, 0.802, -0.31399999999999995, 0.15999999999999992, 0.4930000000000001, 0.6360000000000001, 0.687, -0.29100000000000004, 0.27500000000000013, 0.42300000000000004], 0.8627867746288798),
    (97, [-0.534, 0.802, -0.31399999999999995, 0.15999999999999992, 0.4930000000000001, 0.6360000000000001, 0.687, -0.29100000000000004, 0.27500000000000013, 0.42300000000000004], 0.8627867746288798),
    (98, [-0.534, 0.802, -0.31399999999999995, 0.15999999999999992, 0.4930000000000001, 0.6360000000000001, 0.687, -0.29100000000000004, 0.27500000000000013, 0.42300000000000004], 0.8627867746288798),
    (99, [-0.534, 0.802, -0.31399999999999995, 0.15999999999999992, 0.4930000000000001, 0.6360000000000001, 0.687, -0.29100000000000004, 0.27500000000000013, 0.42300000000000004], 0.8627867746288798),
    (100, [-0.534, 0.802, -0.31399999999999995, 0.15999999999999992, 0.4930000000000001, 0.6360000000000001, 0.687, -0.29100000000000004, 0.27500000000000013, 0.42300000000000004], 0.8627867746288798),
    (101, [-0.534, 0.802, -0.31399999999999995, 0.15999999999999992, 0.4930000000000001, 0.6360000000000001, 0.687, -0.29100000000000004, 0.27500000000000013, 0.42300000000000004], 0.8627867746288798),
    (102, [-0.534, 0.802, -0.31399999999999995, 0.15999999999999992, 0.4930000000000001, 0.6360000000000001, 0.687, -0.29100000000000004, 0.27500000000000013, 0.42300000000000004], 0.8627867746288798),
    (103, [-0.534, 0.802, -0.31399999999999995, 0.15999999999999992, 0.4930000000000001, 0.6360000000000001, 0.687, -0.29100000000000004, 0.27500000000000013, 0.42300000000000004], 0.8627867746288798),
    (104, [-0.534, 0.802, -0.31399999999999995, 0.15999999999999992, 0.4930000000000001, 0.6360000000000001, 0.687, -0.29100000000000004, 0.27500000000000013, 0.42300000000000004], 0.8627867746288798),
    (105, [-0.534, 0.802, -0.31399999999999995, 0.15999999999999992, 0.4930000000000001, 0.6360000000000001, 0.687, -0.29100000000000004, 0.27500000000000013, 0.42300000000000004], 0.8627867746288798),
    (106, [-0.534, 0.802, -0.31399999999999995, 0.15999999999999992, 0.4930000000000001, 0.6360000000000001, 0.687, -0.29100000000000004, 0.27500000000000013, 0.42300000000000004], 0.8627867746288798),
    (107, [-0.534, 0.802, -0.31399999999999995, 0.15999999999999992, 0.4930000000000001, 0.6360000000000001, 0.687, -0.29100000000000004, 0.27500000000000013, 0.42300000000000004], 0.8627867746288798),
    (108, [-0.534, 0.802, -0.31399999999999995, 0.15999999999999992, 0.4930000000000001, 0.6360000000000001, 0.687, -0.29100000000000004, 0.27500000000000013, 0.42300000000000004], 0.8627867746288798),
    (109, [-0.534, 0.802, -0.31399999999999995, 0.15999999999999992, 0.4930000000000001, 0.6360000000000001, 0.687, -0.29100000000000004, 0.27500000000000013, 0.42300000000000004], 0.8627867746288798),
    (110, [-0.534, 0.802, -0.31399999999999995, 0.15999999999999992, 0.4930000000000001, 0.6360000000000001, 0.687, -0.29100000000000004, 0.27500000000000013, 0.42300000000000004], 0.8627867746288798),
    (111, [-0.534, 0.802, -0.31399999999999995, 0.15999999999999992, 0.4930000000000001, 0.6360000000000001, 0.687, -0.29100000000000004, 0.27500000000000013, 0.42300000000000004], 0.8627867746288798),
    (112, [-0.534, 0.802, -0.31399999999999995, 0.15999999999999992, 0.4930000000000001, 0.6360000000000001, 0.687, -0.29100000000000004, 0.27500000000000013, 0.42300000000000004], 0.8627867746288798),
    (113, [-0.534, 0.802, -0.31399999999999995, 0.15999999999999992, 0.4930000000000001, 0.6360000000000001, 0.687, -0.29100000000000004, 0.27500000000000013, 0.42300000000000004], 0.8627867746288798),
    (114, [-0.534, 0.802, -0.31399999999999995, 0.15999999999999992, 0.4930000000000001, 0.6360000000000001, 0.687, -0.29100000000000004, 0.27500000000000013, 0.42300000000000004], 0.8627867746288798),
    (115, [-0.534, 0.802, -0.31399999999999995, 0.15999999999999992, 0.4930000000000001, 0.6360000000000001, 0.687, -0.29100000000000004, 0.27500000000000013, 0.42300000000000004], 0.8627867746288798),
    (116, [-0.534, 0.802, -0.31399999999999995, 0.15999999999999992, 0.4930000000000001, 0.6360000000000001, 0.687, -0.29100000000000004, 0.27500000000000013, 0.42300000000000004], 0.8627867746288798),
    (117, [-0.534, 0.802, -0.31399999999999995, 0.15999999999999992, 0.4930000000000001, 0.6360000000000001, 0.687, -0.29100000000000004, 0.27500000000000013, 0.42300000000000004], 0.8627867746288798),
    (118, [-0.534, 0.802, -0.31399999999999995, 0.15999999999999992, 0.4930000000000001, 0.6360000000000001, 0.687, -0.29100000000000004, 0.27500000000000013, 0.42300000000000004], 0.8627867746288798),
    (119, [-0.534, 0.802, -0.31399999999999995, 0.15999999999999992, 0.4930000000000001, 0.6360000000000001, 0.687, -0.29100000000000004, 0.27500000000000013, 0.42300000000000004], 0.8627867746288798),
    (120, [-0.534, 0.802, -0.31399999999999995, 0.15999999999999992, 0.4930000000000001, 0.6360000000000001, 0.687, -0.29100000000000004, 0.27500000000000013, 0.42300000000000004], 0.8627867746288798),
    (121, [-0.534, 0.802, -0.31399999999999995, 0.15999999999999992, 0.4930000000000001, 0.6360000000000001, 0.687, -0.29100000000000004, 0.27500000000000013, 0.42300000000000004], 0.8627867746288798),
    (122, [-0.534, 0.802, -0.31399999999999995, 0.15999999999999992, 0.4930000000000001, 0.6360000000000001, 0.687, -0.29100000000000004, 0.27500000000000013, 0.42300000000000004], 0.8627867746288798),
    (123, [-0.534, 0.802, -0.31399999999999995, 0.15999999999999992, 0.4930000000000001, 0.6360000000000001, 0.687, -0.29100000000000004, 0.27500000000000013, 0.42300000000000004], 0.8627867746288798),
    (124, [-0.534, 0.802, -0.31399999999999995, 0.15999999999999992, 0.4930000000000001, 0.6360000000000001, 0.687, -0.29100000000000004, 0.27500000000000013, 0.42300000000000004], 0.8627867746288798),
    (125, [-0.534, 0.802, -0.31399999999999995, 0.15999999999999992, 0.4930000000000001, 0.6360000000000001, 0.687, -0.29100000000000004, 0.27500000000000013, 0.42300000000000004], 0.8627867746288798),
    (126, [-0.534, 0.802, -0.31399999999999995, 0.15999999999999992, 0.4930000000000001, 0.6360000000000001, 0.687, -0.29100000000000004, 0.27500000000000013, 0.42300000000000004], 0.8627867746288798),
    (127, [-0.534, 0.802, -0.31399999999999995, 0.15999999999999992, 0.4930000000000001, 0.6360000000000001, 0.687, -0.29100000000000004, 0.27500000000000013, 0.42300000000000004], 0.8627867746288798),
    (128, [-0.534, 0.802, -0.31399999999999995, 0.15999999999999992, 0.4930000000000001, 0.6360000000000001, 0.687, -0.29100000000000004, 0.27500000000000013, 0.42300000000000004], 0.8627867746288798),
    (129, [-0.534, 0.802, -0.31399999999999995, 0.15999999999999992, 0.4930000000000001, 0.6360000000000001, 0.687, -0.29100000000000004, 0.27500000000000013, 0.42300000000000004], 0.8627867746288798),
    (130, [-0.534, 0.802, -0.31399999999999995, 0.15999999999999992, 0.4930000000000001, 0.6360000000000001, 0.687, -0.29100000000000004, 0.27500000000000013, 0.42300000000000004], 0.8627867746288798),
    (131, [-0.534, 0.802, -0.31399999999999995, 0.15999999999999992, 0.4930000000000001, 0.6360000000000001, 0.687, -0.29100000000000004, 0.27500000000000013, 0.42300000000000004], 0.8627867746288798),
    (132, [-0.534, 0.802, -0.31399999999999995, 0.15999999999999992, 0.4930000000000001, 0.6360000000000001, 0.687, -0.29100000000000004, 0.27500000000000013, 0.42300000000000004], 0.8627867746288798),
    (133, [-0.534, 0.802, -0.31399999999999995, 0.15999999999999992, 0.4930000000000001, 0.6360000000000001, 0.687, -0.29100000000000004, 0.27500000000000013, 0.42300000000000004], 0.8627867746288798),
    (134, [-0.534, 0.802, -0.31399999999999995, 0.15999999999999992, 0.4930000000000001, 0.6360000000000001, 0.687, -0.29100000000000004, 0.27500000000000013, 0.42300000000000004], 0.8627867746288798),
    (135, [-0.534, 0.802, -0.31399999999999995, 0.15999999999999992, 0.4930000000000001, 0.6360000000000001, 0.687, -0.29100000000000004, 0.27500000000000013, 0.42300000000000004], 0.8627867746288798),
    (136, [-0.534, 0.802, -0.31399999999999995, 0.15999999999999992, 0.4930000000000001, 0.6360000000000001, 0.687, -0.29100000000000004, 0.27500000000000013, 0.42300000000000004], 0.8627867746288798),
    (137, [-0.534, 0.802, -0.31399999999999995, 0.15999999999999992, 0.4930000000000001, 0.6360000000000001, 0.687, -0.29100000000000004, 0.27500000000000013, 0.42300000000000004], 0.8627867746288798),
    (138, [-0.534, 0.802, -0.31399999999999995, 0.15999999999999992, 0.4930000000000001, 0.6360000000000001, 0.687, -0.29100000000000004, 0.27500000000000013, 0.42300000000000004], 0.8627867746288798),
    (139, [-0.534, 0.802, -0.31399999999999995, 0.15999999999999992, 0.4930000000000001, 0.6360000000000001, 0.687, -0.29100000000000004, 0.27500000000000013, 0.42300000000000004], 0.8627867746288798),
    (140, [-0.534, 0.802, -0.31399999999999995, 0.15999999999999992, 0.4930000000000001, 0.6360000000000001, 0.687, -0.29100000000000004, 0.27500000000000013, 0.42300000000000004], 0.8627867746288798),
    (141, [-0.534, 0.802, -0.31399999999999995, 0.15999999999999992, 0.4930000000000001, 0.6360000000000001, 0.687, -0.29100000000000004, 0.27500000000000013, 0.42300000000000004], 0.8627867746288798),
    (142, [-0.534, 0.802, -0.31399999999999995, 0.15999999999999992, 0.4930000000000001, 0.6360000000000001, 0.687, -0.29100000000000004, 0.27500000000000013, 0.42300000000000004], 0.8627867746288798),
    (143, [-0.534, 0.802, -0.31399999999999995, 0.15999999999999992, 0.4930000000000001, 0.6360000000000001, 0.687, -0.29100000000000004, 0.27500000000000013, 0.42300000000000004], 0.8627867746288798),
    (144, [-0.534, 0.802, -0.31399999999999995, 0.15999999999999992, 0.4930000000000001, 0.6360000000000001, 0.687, -0.29100000000000004, 0.27500000000000013, 0.42300000000000004], 0.8627867746288798),
    (145, [-0.534, 0.802, -0.31399999999999995, 0.15999999999999992, 0.4930000000000001, 0.6360000000000001, 0.687, -0.29100000000000004, 0.27500000000000013, 0.42300000000000004], 0.8627867746288798),
    (146, [-0.534, 0.802, -0.31399999999999995, 0.15999999999999992, 0.4930000000000001, 0.6360000000000001, 0.687, -0.29100000000000004, 0.27500000000000013, 0.42300000000000004], 0.8627867746288798),
    (147, [-0.534, 0.802, -0.31399999999999995, 0.15999999999999992, 0.4930000000000001, 0.6360000000000001, 0.687, -0.29100000000000004, 0.27500000000000013, 0.42300000000000004], 0.8627867746288798),
    (148, [-0.534, 0.802, -0.31399999999999995, 0.15999999999999992, 0.4930000000000001, 0.6360000000000001, 0.687, -0.29100000000000004, 0.27500000000000013, 0.42300000000000004], 0.8627867746288798),
    (149, [-0.534, 0.802, -0.31399999999999995, 0.15999999999999992, 0.4930000000000001, 0.6360000000000001, 0.687, -0.29100000000000004, 0.27500000000000013, 0.42300000000000004], 0.8627867746288798),
    (150, [-0.534, 0.802, -0.31399999999999995, 0.15999999999999992, 0.4930000000000001, 0.6360000000000001, 0.687, -0.29100000000000004, 0.27500000000000013, 0.42300000000000004], 0.8627867746288798),
    (151, [-0.534, 0.802, -0.31399999999999995, 0.15999999999999992, 0.4930000000000001, 0.6360000000000001, 0.687, -0.29100000000000004, 0.27500000000000013, 0.42300000000000004], 0.8627867746288798),
    (152, [-0.534, 0.802, -0.31399999999999995, 0.15999999999999992, 0.4930000000000001, 0.6360000000000001, 0.687, -0.29100000000000004, 0.27500000000000013, 0.42300000000000004], 0.8627867746288798),
    (153, [-0.534, 0.802, -0.31399999999999995, 0.15999999999999992, 0.4930000000000001, 0.6360000000000001, 0.687, -0.29100000000000004, 0.27500000000000013, 0.42300000000000004], 0.8627867746288798),
    (154, [-0.534, 0.802, -0.31399999999999995, 0.15999999999999992, 0.4930000000000001, 0.6360000000000001, 0.687, -0.29100000000000004, 0.27500000000000013, 0.42300000000000004], 0.8627867746288798),
    (155, [-0.534, 0.802, -0.31399999999999995, 0.15999999999999992, 0.4930000000000001, 0.6360000000000001, 0.687, -0.29100000000000004, 0.27500000000000013, 0.42300000000000004], 0.8627867746288798),
    (156, [-0.534, 0.802, -0.31399999999999995, 0.15999999999999992, 0.4930000000000001, 0.6360000000000001, 0.687, -0.29100000000000004, 0.27500000000000013, 0.42300000000000004], 0.8627867746288798),
    (157, [-0.534, 0.802, -0.31399999999999995, 0.15999999999999992, 0.4930000000000001, 0.6360000000000001, 0.687, -0.29100000000000004, 0.27500000000000013, 0.42300000000000004], 0.8627867746288798),
    (158, [-0.534, 0.802, -0.31399999999999995, 0.15999999999999992, 0.4930000000000001, 0.6360000000000001, 0.687, -0.29100000000000004, 0.27500000000000013, 0.42300000000000004], 0.8627867746288798),
    (159, [-0.534, 0.802, -0.31399999999999995, 0.15999999999999992, 0.4930000000000001, 0.6360000000000001, 0.687, -0.29100000000000004, 0.27500000000000013, 0.42300000000000004], 0.8627867746288798),
    (160, [-0.534, 0.802, -0.31399999999999995, 0.15999999999999992, 0.4930000000000001, 0.6360000000000001, 0.687, -0.29100000000000004, 0.27500000000000013, 0.42300000000000004], 0.8627867746288798),
    (161, [-0.534, 0.802, -0.31399999999999995, 0.15999999999999992, 0.4930000000000001, 0.6360000000000001, 0.687, -0.29100000000000004, 0.27500000000000013, 0.42300000000000004], 0.8627867746288798),
    (162, [-0.534, 0.802, -0.31399999999999995, 0.15999999999999992, 0.4930000000000001, 0.6360000000000001, 0.687, -0.29100000000000004, 0.27500000000000013, 0.42300000000000004], 0.8627867746288798),
    (163, [-0.534, 0.802, -0.31399999999999995, 0.15999999999999992, 0.4930000000000001, 0.6360000000000001, 0.687, -0.29100000000000004, 0.27500000000000013, 0.42300000000000004], 0.8627867746288798),
    (164, [-0.534, 0.802, -0.31399999999999995, 0.15999999999999992, 0.4930000000000001, 0.6360000000000001, 0.687, -0.29100000000000004, 0.27500000000000013, 0.42300000000000004], 0.8627867746288798),
    (165, [-0.534, 0.802, -0.31399999999999995, 0.15999999999999992, 0.4930000000000001, 0.6360000000000001, 0.687, -0.29100000000000004, 0.27500000000000013, 0.42300000000000004], 0.8627867746288798),
    (166, [-0.534, 0.802, -0.31399999999999995, 0.15999999999999992, 0.4930000000000001, 0.6360000000000001, 0.687, -0.29100000000000004, 0.27500000000000013, 0.42300000000000004], 0.8627867746288798),
    (167, [-0.534, 0.802, -0.31399999999999995, 0.15999999999999992, 0.4930000000000001, 0.6360000000000001, 0.687, -0.29100000000000004, 0.27500000000000013, 0.42300000000000004], 0.8627867746288798),
    (168, [-0.534, 0.802, -0.31399999999999995, 0.15999999999999992, 0.4930000000000001, 0.6360000000000001, 0.687, -0.29100000000000004, 0.27500000000000013, 0.42300000000000004], 0.8627867746288798),
    (169, [-0.534, 0.802, -0.31399999999999995, 0.15999999999999992, 0.4930000000000001, 0.6360000000000001, 0.687, -0.29100000000000004, 0.27500000000000013, 0.42300000000000004], 0.8627867746288798),
    (170, [-0.534, 0.802, -0.31399999999999995, 0.15999999999999992, 0.4930000000000001, 0.6360000000000001, 0.687, -0.29100000000000004, 0.27500000000000013, 0.42300000000000004], 0.8627867746288798),
    (171, [-0.534, 0.802, -0.31399999999999995, 0.15999999999999992, 0.4930000000000001, 0.6360000000000001, 0.687, -0.29100000000000004, 0.27500000000000013, 0.42300000000000004], 0.8627867746288798),
    (172, [-0.534, 0.802, -0.31399999999999995, 0.15999999999999992, 0.4930000000000001, 0.6360000000000001, 0.687, -0.29100000000000004, 0.27500000000000013, 0.42300000000000004], 0.8627867746288798),
    (173, [-0.534, 0.802, -0.31399999999999995, 0.15999999999999992, 0.4930000000000001, 0.6360000000000001, 0.687, -0.29100000000000004, 0.27500000000000013, 0.42300000000000004], 0.8627867746288798),
    (174, [-0.534, 0.802, -0.31399999999999995, 0.15999999999999992, 0.4930000000000001, 0.6360000000000001, 0.687, -0.29100000000000004, 0.27500000000000013, 0.42300000000000004], 0.8627867746288798),
    (175, [-0.534, 0.802, -0.31399999999999995, 0.15999999999999992, 0.4930000000000001, 0.6360000000000001, 0.687, -0.29100000000000004, 0.27500000000000013, 0.42300000000000004], 0.8627867746288798),
    (176, [-0.534, 0.802, -0.31399999999999995, 0.15999999999999992, 0.4930000000000001, 0.6360000000000001, 0.687, -0.29100000000000004, 0.27500000000000013, 0.42300000000000004], 0.8627867746288798),
    (177, [-0.534, 0.802, -0.31399999999999995, 0.15999999999999992, 0.4930000000000001, 0.6360000000000001, 0.687, -0.29100000000000004, 0.27500000000000013, 0.42300000000000004], 0.8627867746288798),
    (178, [-0.534, 0.802, -0.31399999999999995, 0.15999999999999992, 0.4930000000000001, 0.6360000000000001, 0.687, -0.29100000000000004, 0.27500000000000013, 0.42300000000000004], 0.8627867746288798),
    (179, [-0.534, 0.802, -0.31399999999999995, 0.15999999999999992, 0.4930000000000001, 0.6360000000000001, 0.687, -0.29100000000000004, 0.27500000000000013, 0.42300000000000004], 0.8627867746288798),
    (180, [-0.534, 0.802, -0.31399999999999995, 0.15999999999999992, 0.4930000000000001, 0.6360000000000001, 0.687, -0.29100000000000004, 0.27500000000000013, 0.42300000000000004], 0.8627867746288798),
    (181, [-0.534, 0.802, -0.31399999999999995, 0.15999999999999992, 0.4930000000000001, 0.6360000000000001, 0.687, -0.29100000000000004, 0.27500000000000013, 0.42300000000000004], 0.8627867746288798),
    (182, [-0.534, 0.802, -0.31399999999999995, 0.15999999999999992, 0.4930000000000001, 0.6360000000000001, 0.687, -0.29100000000000004, 0.27500000000000013, 0.42300000000000004], 0.8627867746288798),
    (183, [-0.534, 0.802, -0.31399999999999995, 0.15999999999999992, 0.4930000000000001, 0.6360000000000001, 0.687, -0.29100000000000004, 0.27500000000000013, 0.42300000000000004], 0.8627867746288798),
    (184, [-0.534, 0.802, -0.31399999999999995, 0.15999999999999992, 0.4930000000000001, 0.6360000000000001, 0.687, -0.29100000000000004, 0.27500000000000013, 0.42300000000000004], 0.8627867746288798),
    (185, [-0.534, 0.802, -0.31399999999999995, 0.15999999999999992, 0.4930000000000001, 0.6360000000000001, 0.687, -0.29100000000000004, 0.27500000000000013, 0.42300000000000004], 0.8627867746288798),
    (186, [-0.534, 0.802, -0.31399999999999995, 0.15999999999999992, 0.4930000000000001, 0.6360000000000001, 0.687, -0.29100000000000004, 0.27500000000000013, 0.42300000000000004], 0.8627867746288798),
    (187, [-0.534, 0.802, -0.31399999999999995, 0.15999999999999992, 0.4930000000000001, 0.6360000000000001, 0.687, -0.29100000000000004, 0.27500000000000013, 0.42300000000000004], 0.8627867746288798),
    (188, [-0.534, 0.802, -0.31399999999999995, 0.15999999999999992, 0.4930000000000001, 0.6360000000000001, 0.687, -0.29100000000000004, 0.27500000000000013, 0.42300000000000004], 0.8627867746288798),
    (189, [-0.534, 0.802, -0.31399999999999995, 0.15999999999999992, 0.4930000000000001, 0.6360000000000001, 0.687, -0.29100000000000004, 0.27500000000000013, 0.42300000000000004], 0.8627867746288798),
    (190, [-0.534, 0.802, -0.31399999999999995, 0.15999999999999992, 0.4930000000000001, 0.6360000000000001, 0.687, -0.29100000000000004, 0.27500000000000013, 0.42300000000000004], 0.8627867746288798),
    (191, [-0.534, 0.802, -0.31399999999999995, 0.15999999999999992, 0.4930000000000001, 0.6360000000000001, 0.687, -0.29100000000000004, 0.27500000000000013, 0.42300000000000004], 0.8627867746288798),
    (192, [-0.534, 0.802, -0.31399999999999995, 0.15999999999999992, 0.4930000000000001, 0.6360000000000001, 0.687, -0.29100000000000004, 0.27500000000000013, 0.42300000000000004], 0.8627867746288798),
    (193, [-0.534, 0.802, -0.31399999999999995, 0.15999999999999992, 0.4930000000000001, 0.6360000000000001, 0.687, -0.29100000000000004, 0.27500000000000013, 0.42300000000000004], 0.8627867746288798),
    (194, [-0.534, 0.802, -0.31399999999999995, 0.15999999999999992, 0.4930000000000001, 0.6360000000000001, 0.687, -0.29100000000000004, 0.27500000000000013, 0.42300000000000004], 0.8627867746288798),
    (195, [-0.534, 0.802, -0.31399999999999995, 0.15999999999999992, 0.4930000000000001, 0.6360000000000001, 0.687, -0.29100000000000004, 0.27500000000000013, 0.42300000000000004], 0.8627867746288798),
    (196, [-0.534, 0.802, -0.31399999999999995, 0.15999999999999992, 0.4930000000000001, 0.6360000000000001, 0.687, -0.29100000000000004, 0.27500000000000013, 0.42300000000000004], 0.8627867746288798),
    (197, [-0.534, 0.802, -0.31399999999999995, 0.15999999999999992, 0.4930000000000001, 0.6360000000000001, 0.687, -0.29100000000000004, 0.27500000000000013, 0.42300000000000004], 0.8627867746288798),
    (198, [-0.534, 0.802, -0.31399999999999995, 0.15999999999999992, 0.4930000000000001, 0.6360000000000001, 0.687, -0.29100000000000004, 0.27500000000000013, 0.42300000000000004], 0.8627867746288798),
    (199, [-0.534, 0.802, -0.31399999999999995, 0.15999999999999992, 0.4930000000000001, 0.6360000000000001, 0.687, -0.29100000000000004, 0.27500000000000013, 0.42300000000000004], 0.8627867746288798),
    (200, [-0.534, 0.802, -0.31399999999999995, 0.15999999999999992, 0.4930000000000001, 0.6360000000000001, 0.687, -0.29100000000000004, 0.27500000000000013, 0.42300000000000004], 0.8627867746288798),
    (201, [-0.534, 0.802, -0.31399999999999995, 0.15999999999999992, 0.4930000000000001, 0.6360000000000001, 0.687, -0.29100000000000004, 0.27500000000000013, 0.42300000000000004], 0.8627867746288798),
    (202, [-0.534, 0.802, -0.31399999999999995, 0.15999999999999992, 0.4930000000000001, 0.6360000000000001, 0.687, -0.29100000000000004, 0.27500000000000013, 0.42300000000000004], 0.8627867746288798),
    (203, [-0.534, 0.802, -0.31399999999999995, 0.15999999999999992, 0.4930000000000001, 0.6360000000000001, 0.687, -0.29100000000000004, 0.27500000000000013, 0.42300000000000004], 0.8627867746288798),
    (204, [-0.534, 0.802, -0.31399999999999995, 0.15999999999999992, 0.4930000000000001, 0.6360000000000001, 0.687, -0.29100000000000004, 0.27500000000000013, 0.42300000000000004], 0.8627867746288798),
    (205, [-0.534, 0.802, -0.31399999999999995, 0.15999999999999992, 0.4930000000000001, 0.6360000000000001, 0.687, -0.29100000000000004, 0.27500000000000013, 0.42300000000000004], 0.8627867746288798),
    (206, [-0.534, 0.802, -0.31399999999999995, 0.15999999999999992, 0.4930000000000001, 0.6360000000000001, 0.687, -0.29100000000000004, 0.27500000000000013, 0.42300000000000004], 0.8627867746288798),
    (207, [-0.534, 0.802, -0.31399999999999995, 0.15999999999999992, 0.4930000000000001, 0.6360000000000001, 0.687, -0.29100000000000004, 0.27500000000000013, 0.42300000000000004], 0.8627867746288798),
    (208, [-0.534, 0.802, -0.31399999999999995, 0.15999999999999992, 0.4930000000000001, 0.6360000000000001, 0.687, -0.29100000000000004, 0.27500000000000013, 0.42300000000000004], 0.8627867746288798),
    (209, [-0.534, 0.802, -0.31399999999999995, 0.15999999999999992, 0.4930000000000001, 0.6360000000000001, 0.687, -0.29100000000000004, 0.27500000000000013, 0.42300000000000004], 0.8627867746288798),
    (210, [-0.534, 0.802, -0.31399999999999995, 0.15999999999999992, 0.4930000000000001, 0.6360000000000001, 0.687, -0.29100000000000004, 0.27500000000000013, 0.42300000000000004], 0.8627867746288798),
    (211, [-0.534, 0.802, -0.31399999999999995, 0.15999999999999992, 0.4930000000000001, 0.6360000000000001, 0.687, -0.29100000000000004, 0.27500000000000013, 0.42300000000000004], 0.8627867746288798),
    (212, [-0.534, 0.802, -0.31399999999999995, 0.15999999999999992, 0.4930000000000001, 0.6360000000000001, 0.687, -0.29100000000000004, 0.27500000000000013, 0.42300000000000004], 0.8627867746288798),
    (213, [-0.534, 0.802, -0.31399999999999995, 0.15999999999999992, 0.4930000000000001, 0.6360000000000001, 0.687, -0.29100000000000004, 0.27500000000000013, 0.42300000000000004], 0.8627867746288798),
    (214, [-0.534, 0.802, -0.31399999999999995, 0.15999999999999992, 0.4930000000000001, 0.6360000000000001, 0.687, -0.29100000000000004, 0.27500000000000013, 0.42300000000000004], 0.8627867746288798),
    (215, [-0.534, 0.802, -0.31399999999999995, 0.15999999999999992, 0.4930000000000001, 0.6360000000000001, 0.687, -0.29100000000000004, 0.27500000000000013, 0.42300000000000004], 0.8627867746288798),
    (216, [-0.534, 0.802, -0.31399999999999995, 0.15999999999999992, 0.4930000000000001, 0.6360000000000001, 0.687, -0.29100000000000004, 0.27500000000000013, 0.42300000000000004], 0.8627867746288798),
    (217, [-0.534, 0.802, -0.31399999999999995, 0.15999999999999992, 0.4930000000000001, 0.6360000000000001, 0.687, -0.29100000000000004, 0.27500000000000013, 0.42300000000000004], 0.8627867746288798),
    (218, [-0.534, 0.802, -0.31399999999999995, 0.15999999999999992, 0.4930000000000001, 0.6360000000000001, 0.687, -0.29100000000000004, 0.27500000000000013, 0.42300000000000004], 0.8627867746288798),
    (219, [-0.534, 0.802, -0.31399999999999995, 0.15999999999999992, 0.4930000000000001, 0.6360000000000001, 0.687, -0.29100000000000004, 0.27500000000000013, 0.42300000000000004], 0.8627867746288798),
    (220, [-0.534, 0.802, -0.31399999999999995, 0.15999999999999992, 0.4930000000000001, 0.6360000000000001, 0.687, -0.29100000000000004, 0.27500000000000013, 0.42300000000000004], 0.8627867746288798),
    (221, [-0.534, 0.802, -0.31399999999999995, 0.15999999999999992, 0.4930000000000001, 0.6360000000000001, 0.687, -0.29100000000000004, 0.27500000000000013, 0.42300000000000004], 0.8627867746288798),
    (222, [-0.534, 0.802, -0.31399999999999995, 0.15999999999999992, 0.4930000000000001, 0.6360000000000001, 0.687, -0.29100000000000004, 0.27500000000000013, 0.42300000000000004], 0.8627867746288798),
    (223, [-0.534, 0.802, -0.31399999999999995, 0.15999999999999992, 0.4930000000000001, 0.6360000000000001, 0.687, -0.29100000000000004, 0.27500000000000013, 0.42300000000000004], 0.8627867746288798),
    (224, [-0.534, 0.802, -0.31399999999999995, 0.15999999999999992, 0.4930000000000001, 0.6360000000000001, 0.687, -0.29100000000000004, 0.27500000000000013, 0.42300000000000004], 0.8627867746288798),
    (225, [-0.534, 0.802, -0.31399999999999995, 0.15999999999999992, 0.4930000000000001, 0.6360000000000001, 0.687, -0.29100000000000004, 0.27500000000000013, 0.42300000000000004], 0.8627867746288798),
    (226, [-0.534, 0.802, -0.31399999999999995, 0.15999999999999992, 0.4930000000000001, 0.6360000000000001, 0.687, -0.29100000000000004, 0.27500000000000013, 0.42300000000000004], 0.8627867746288798),
    (227, [-0.534, 0.802, -0.31399999999999995, 0.15999999999999992, 0.4930000000000001, 0.6360000000000001, 0.687, -0.29100000000000004, 0.27500000000000013, 0.42300000000000004], 0.8627867746288798),
    (228, [-0.534, 0.802, -0.31399999999999995, 0.15999999999999992, 0.4930000000000001, 0.6360000000000001, 0.687, -0.29100000000000004, 0.27500000000000013, 0.42300000000000004], 0.8627867746288798),
    (229, [-0.534, 0.802, -0.31399999999999995, 0.15999999999999992, 0.4930000000000001, 0.6360000000000001, 0.687, -0.29100000000000004, 0.27500000000000013, 0.42300000000000004], 0.8627867746288798),
    (230, [-0.534, 0.802, -0.31399999999999995, 0.15999999999999992, 0.4930000000000001, 0.6360000000000001, 0.687, -0.29100000000000004, 0.27500000000000013, 0.42300000000000004], 0.8627867746288798),
    (231, [-0.534, 0.802, -0.31399999999999995, 0.15999999999999992, 0.4930000000000001, 0.6360000000000001, 0.687, -0.29100000000000004, 0.27500000000000013, 0.42300000000000004], 0.8627867746288798),
    (232, [-0.534, 0.802, -0.31399999999999995, 0.15999999999999992, 0.4930000000000001, 0.6360000000000001, 0.687, -0.29100000000000004, 0.27500000000000013, 0.42300000000000004], 0.8627867746288798),
    (233, [-0.534, 0.802, -0.31399999999999995, 0.15999999999999992, 0.4930000000000001, 0.6360000000000001, 0.687, -0.29100000000000004, 0.27500000000000013, 0.42300000000000004], 0.8627867746288798),
    (234, [-0.534, 0.802, -0.31399999999999995, 0.15999999999999992, 0.4930000000000001, 0.6360000000000001, 0.687, -0.29100000000000004, 0.27500000000000013, 0.42300000000000004], 0.8627867746288798),
    (235, [-0.534, 0.802, -0.31399999999999995, 0.15999999999999992, 0.4930000000000001, 0.6360000000000001, 0.687, -0.29100000000000004, 0.27500000000000013, 0.42300000000000004], 0.8627867746288798),
    (236, [-0.534, 0.802, -0.31399999999999995, 0.15999999999999992, 0.4930000000000001, 0.6360000000000001, 0.687, -0.29100000000000004, 0.27500000000000013, 0.42300000000000004], 0.8627867746288798),
    (237, [-0.534, 0.802, -0.31399999999999995, 0.15999999999999992, 0.4930000000000001, 0.6360000000000001, 0.687, -0.29100000000000004, 0.27500000000000013, 0.42300000000000004], 0.8627867746288798),
    (238, [-0.534, 0.802, -0.31399999999999995, 0.15999999999999992, 0.4930000000000001, 0.6360000000000001, 0.687, -0.29100000000000004, 0.27500000000000013, 0.42300000000000004], 0.8627867746288798),
    (239, [-0.534, 0.802, -0.31399999999999995, 0.15999999999999992, 0.4930000000000001, 0.6360000000000001, 0.687, -0.29100000000000004, 0.27500000000000013, 0.42300000000000004], 0.8627867746288798),
    (240, [-0.534, 0.802, -0.31399999999999995, 0.15999999999999992, 0.4930000000000001, 0.6360000000000001, 0.687, -0.29100000000000004, 0.27500000000000013, 0.42300000000000004], 0.8627867746288798),
    (241, [-0.534, 0.802, -0.31399999999999995, 0.15999999999999992, 0.4930000000000001, 0.6360000000000001, 0.687, -0.29100000000000004, 0.27500000000000013, 0.42300000000000004], 0.8627867746288798),
    (242, [-0.534, 0.802, -0.31399999999999995, 0.15999999999999992, 0.4930000000000001, 0.6360000000000001, 0.687, -0.29100000000000004, 0.27500000000000013, 0.42300000000000004], 0.8627867746288798),
    (243, [-0.534, 0.802, -0.31399999999999995, 0.15999999999999992, 0.4930000000000001, 0.6360000000000001, 0.687, -0.29100000000000004, 0.27500000000000013, 0.42300000000000004], 0.8627867746288798),
    (244, [-0.534, 0.802, -0.31399999999999995, 0.15999999999999992, 0.4930000000000001, 0.6360000000000001, 0.687, -0.29100000000000004, 0.27500000000000013, 0.42300000000000004], 0.8627867746288798),
    (245, [-0.534, 0.802, -0.31399999999999995, 0.15999999999999992, 0.4930000000000001, 0.6360000000000001, 0.687, -0.29100000000000004, 0.27500000000000013, 0.42300000000000004], 0.8627867746288798),
    (246, [-0.534, 0.802, -0.31399999999999995, 0.15999999999999992, 0.4930000000000001, 0.6360000000000001, 0.687, -0.29100000000000004, 0.27500000000000013, 0.42300000000000004], 0.8627867746288798),
    (247, [-0.534, 0.802, -0.31399999999999995, 0.15999999999999992, 0.4930000000000001, 0.6360000000000001, 0.687, -0.29100000000000004, 0.27500000000000013, 0.42300000000000004], 0.8627867746288798),
    (248, [-0.534, 0.802, -0.31399999999999995, 0.15999999999999992, 0.4930000000000001, 0.6360000000000001, 0.687, -0.29100000000000004, 0.27500000000000013, 0.42300000000000004], 0.8627867746288798),
    (249, [-0.534, 0.802, -0.31399999999999995, 0.15999999999999992, 0.4930000000000001, 0.6360000000000001, 0.687, -0.29100000000000004, 0.27500000000000013, 0.42300000000000004], 0.8627867746288798),
    (250, [-0.534, 0.802, -0.31399999999999995, 0.15999999999999992, 0.4930000000000001, 0.6360000000000001, 0.687, -0.29100000000000004, 0.27500000000000013, 0.42300000000000004], 0.8627867746288798),
    (251, [-0.534, 0.802, -0.31399999999999995, 0.15999999999999992, 0.4930000000000001, 0.6360000000000001, 0.687, -0.29100000000000004, 0.27500000000000013, 0.42300000000000004], 0.8627867746288798),
    (252, [-0.534, 0.802, -0.31399999999999995, 0.15999999999999992, 0.4930000000000001, 0.6360000000000001, 0.687, -0.29100000000000004, 0.27500000000000013, 0.42300000000000004], 0.8627867746288798),
    (253, [-0.534, 0.802, -0.31399999999999995, 0.15999999999999992, 0.4930000000000001, 0.6360000000000001, 0.687, -0.29100000000000004, 0.27500000000000013, 0.42300000000000004], 0.8627867746288798),
    (254, [-0.534, 0.802, -0.31399999999999995, 0.15999999999999992, 0.4930000000000001, 0.6360000000000001, 0.687, -0.29100000000000004, 0.27500000000000013, 0.42300000000000004], 0.8627867746288798),
    (255, [-0.534, 0.802, -0.31399999999999995, 0.15999999999999992, 0.4930000000000001, 0.6360000000000001, 0.687, -0.29100000000000004, 0.27500000000000013, 0.42300000000000004], 0.8627867746288798),
    (256, [-0.534, 0.802, -0.31399999999999995, 0.15999999999999992, 0.4930000000000001, 0.6360000000000001, 0.687, -0.29100000000000004, 0.27500000000000013, 0.42300000000000004], 0.8627867746288798),
    (257, [-0.534, 0.802, -0.31399999999999995, 0.15999999999999992, 0.4930000000000001, 0.6360000000000001, 0.687, -0.29100000000000004, 0.27500000000000013, 0.42300000000000004], 0.8627867746288798),
    (258, [-0.534, 0.802, -0.31399999999999995, 0.15999999999999992, 0.4930000000000001, 0.6360000000000001, 0.687, -0.29100000000000004, 0.27500000000000013, 0.42300000000000004], 0.8627867746288798),
    (259, [-0.534, 0.802, -0.31399999999999995, 0.15999999999999992, 0.4930000000000001, 0.6360000000000001, 0.687, -0.29100000000000004, 0.27500000000000013, 0.42300000000000004], 0.8627867746288798),
    (260, [-0.534, 0.802, -0.31399999999999995, 0.15999999999999992, 0.4930000000000001, 0.6360000000000001, 0.687, -0.29100000000000004, 0.27500000000000013, 0.42300000000000004], 0.8627867746288798),
    (261, [-0.534, 0.802, -0.31399999999999995, 0.15999999999999992, 0.4930000000000001, 0.6360000000000001, 0.687, -0.29100000000000004, 0.27500000000000013, 0.42300000000000004], 0.8627867746288798),
    (262, [-0.534, 0.802, -0.31399999999999995, 0.15999999999999992, 0.4930000000000001, 0.6360000000000001, 0.687, -0.29100000000000004, 0.27500000000000013, 0.42300000000000004], 0.8627867746288798),
    (263, [-0.534, 0.802, -0.31399999999999995, 0.15999999999999992, 0.4930000000000001, 0.6360000000000001, 0.687, -0.29100000000000004, 0.27500000000000013, 0.42300000000000004], 0.8627867746288798),
    (264, [-0.534, 0.802, -0.31399999999999995, 0.15999999999999992, 0.4930000000000001, 0.6360000000000001, 0.687, -0.29100000000000004, 0.27500000000000013, 0.42300000000000004], 0.8627867746288798),
    (265, [-0.534, 0.802, -0.31399999999999995, 0.15999999999999992, 0.4930000000000001, 0.6360000000000001, 0.687, -0.29100000000000004, 0.27500000000000013, 0.42300000000000004], 0.8627867746288798),
    (266, [-0.534, 0.802, -0.31399999999999995, 0.15999999999999992, 0.4930000000000001, 0.6360000000000001, 0.687, -0.29100000000000004, 0.27500000000000013, 0.42300000000000004], 0.8627867746288798),
    (267, [-0.534, 0.802, -0.31399999999999995, 0.15999999999999992, 0.4930000000000001, 0.6360000000000001, 0.687, -0.29100000000000004, 0.27500000000000013, 0.42300000000000004], 0.8627867746288798),
    (268, [-0.534, 0.802, -0.31399999999999995, 0.15999999999999992, 0.4930000000000001, 0.6360000000000001, 0.687, -0.29100000000000004, 0.27500000000000013, 0.42300000000000004], 0.8627867746288798),
    (269, [-0.534, 0.802, -0.31399999999999995, 0.15999999999999992, 0.4930000000000001, 0.6360000000000001, 0.687, -0.29100000000000004, 0.27500000000000013, 0.42300000000000004], 0.8627867746288798),
    (270, [-0.534, 0.802, -0.31399999999999995, 0.15999999999999992, 0.4930000000000001, 0.6360000000000001, 0.687, -0.29100000000000004, 0.27500000000000013, 0.42300000000000004], 0.8627867746288798),
    (271, [-0.534, 0.802, -0.31399999999999995, 0.15999999999999992, 0.4930000000000001, 0.6360000000000001, 0.687, -0.29100000000000004, 0.27500000000000013, 0.42300000000000004], 0.8627867746288798),
    (272, [-0.534, 0.802, -0.31399999999999995, 0.15999999999999992, 0.4930000000000001, 0.6360000000000001, 0.687, -0.29100000000000004, 0.27500000000000013, 0.42300000000000004], 0.8627867746288798),
    (273, [-0.534, 0.802, -0.31399999999999995, 0.15999999999999992, 0.4930000000000001, 0.6360000000000001, 0.687, -0.29100000000000004, 0.27500000000000013, 0.42300000000000004], 0.8627867746288798),
    (274, [-0.534, 0.802, -0.31399999999999995, 0.15999999999999992, 0.4930000000000001, 0.6360000000000001, 0.687, -0.29100000000000004, 0.27500000000000013, 0.42300000000000004], 0.8627867746288798),
    (275, [-0.534, 0.802, -0.31399999999999995, 0.15999999999999992, 0.4930000000000001, 0.6360000000000001, 0.687, -0.29100000000000004, 0.27500000000000013, 0.42300000000000004], 0.8627867746288798),
    (276, [-0.534, 0.802, -0.31399999999999995, 0.15999999999999992, 0.4930000000000001, 0.6360000000000001, 0.687, -0.29100000000000004, 0.27500000000000013, 0.42300000000000004], 0.8627867746288798),
    (277, [-0.534, 0.802, -0.31399999999999995, 0.15999999999999992, 0.4930000000000001, 0.6360000000000001, 0.687, -0.29100000000000004, 0.27500000000000013, 0.42300000000000004], 0.8627867746288798),
    (278, [-0.534, 0.802, -0.31399999999999995, 0.15999999999999992, 0.4930000000000001, 0.6360000000000001, 0.687, -0.29100000000000004, 0.27500000000000013, 0.42300000000000004], 0.8627867746288798),
    (279, [-0.534, 0.802, -0.31399999999999995, 0.15999999999999992, 0.4930000000000001, 0.6360000000000001, 0.687, -0.29100000000000004, 0.27500000000000013, 0.42300000000000004], 0.8627867746288798),
    (280, [-0.534, 0.802, -0.31399999999999995, 0.15999999999999992, 0.4930000000000001, 0.6360000000000001, 0.687, -0.29100000000000004, 0.27500000000000013, 0.42300000000000004], 0.8627867746288798),
    (281, [-0.534, 0.802, -0.31399999999999995, 0.15999999999999992, 0.4930000000000001, 0.6360000000000001, 0.687, -0.29100000000000004, 0.27500000000000013, 0.42300000000000004], 0.8627867746288798),
    (282, [-0.534, 0.802, -0.31399999999999995, 0.15999999999999992, 0.4930000000000001, 0.6360000000000001, 0.687, -0.29100000000000004, 0.27500000000000013, 0.42300000000000004], 0.8627867746288798),
    (283, [-0.534, 0.802, -0.31399999999999995, 0.15999999999999992, 0.4930000000000001, 0.6360000000000001, 0.687, -0.29100000000000004, 0.27500000000000013, 0.42300000000000004], 0.8627867746288798),
    (284, [-0.534, 0.802, -0.31399999999999995, 0.15999999999999992, 0.4930000000000001, 0.6360000000000001, 0.687, -0.29100000000000004, 0.27500000000000013, 0.42300000000000004], 0.8627867746288798),
    (285, [-0.534, 0.802, -0.31399999999999995, 0.15999999999999992, 0.4930000000000001, 0.6360000000000001, 0.687, -0.29100000000000004, 0.27500000000000013, 0.42300000000000004], 0.8627867746288798),
    (286, [-0.534, 0.802, -0.31399999999999995, 0.15999999999999992, 0.4930000000000001, 0.6360000000000001, 0.687, -0.29100000000000004, 0.27500000000000013, 0.42300000000000004], 0.8627867746288798),
    (287, [-0.534, 0.802, -0.31399999999999995, 0.15999999999999992, 0.4930000000000001, 0.6360000000000001, 0.687, -0.29100000000000004, 0.27500000000000013, 0.42300000000000004], 0.8627867746288798),
    (288, [-0.534, 0.802, -0.31399999999999995, 0.15999999999999992, 0.4930000000000001, 0.6360000000000001, 0.687, -0.29100000000000004, 0.27500000000000013, 0.42300000000000004], 0.8627867746288798),
    (289, [-0.534, 0.802, -0.31399999999999995, 0.15999999999999992, 0.4930000000000001, 0.6360000000000001, 0.687, -0.29100000000000004, 0.27500000000000013, 0.42300000000000004], 0.8627867746288798),
    (290, [-0.534, 0.802, -0.31399999999999995, 0.15999999999999992, 0.4930000000000001, 0.6360000000000001, 0.687, -0.29100000000000004, 0.27500000000000013, 0.42300000000000004], 0.8627867746288798),
    (291, [-0.534, 0.802, -0.31399999999999995, 0.15999999999999992, 0.4930000000000001, 0.6360000000000001, 0.687, -0.29100000000000004, 0.27500000000000013, 0.42300000000000004], 0.8627867746288798),
    (292, [-0.534, 0.802, -0.31399999999999995, 0.15999999999999992, 0.4930000000000001, 0.6360000000000001, 0.687, -0.29100000000000004, 0.27500000000000013, 0.42300000000000004], 0.8627867746288798),
    (293, [-0.534, 0.802, -0.31399999999999995, 0.15999999999999992, 0.4930000000000001, 0.6360000000000001, 0.687, -0.29100000000000004, 0.27500000000000013, 0.42300000000000004], 0.8627867746288798),
    (294, [-0.534, 0.802, -0.31399999999999995, 0.15999999999999992, 0.4930000000000001, 0.6360000000000001, 0.687, -0.29100000000000004, 0.27500000000000013, 0.42300000000000004], 0.8627867746288798),
    (295, [-0.534, 0.802, -0.31399999999999995, 0.15999999999999992, 0.4930000000000001, 0.6360000000000001, 0.687, -0.29100000000000004, 0.27500000000000013, 0.42300000000000004], 0.8627867746288798),
    (296, [-0.534, 0.802, -0.31399999999999995, 0.15999999999999992, 0.4930000000000001, 0.6360000000000001, 0.687, -0.29100000000000004, 0.27500000000000013, 0.42300000000000004], 0.8627867746288798),
    (297, [-0.534, 0.802, -0.31399999999999995, 0.15999999999999992, 0.4930000000000001, 0.6360000000000001, 0.687, -0.29100000000000004, 0.27500000000000013, 0.42300000000000004], 0.8627867746288798),
    (298, [-0.534, 0.802, -0.31399999999999995, 0.15999999999999992, 0.4930000000000001, 0.6360000000000001, 0.687, -0.29100000000000004, 0.27500000000000013, 0.42300000000000004], 0.8627867746288798),
    (299, [-0.534, 0.802, -0.31399999999999995, 0.15999999999999992, 0.4930000000000001, 0.6360000000000001, 0.687, -0.29100000000000004, 0.27500000000000013, 0.42300000000000004], 0.8627867746288798),
]

