ranges of every chromosome : (-2, 2)
    selection method is: TournamentSelection
    crossover method is: UniformCrossover
    pc: The probability of crossover: 1.000000
    pe: Gene exchange probability: 0.500000
    mutation method is: FlipBitBigMutation
    pm: The probability of mutation: 0.100000
    pbm: The probability of big mutation: 0.500000
    alpha: intensive factor: 0.800000
best_fit = [
    (0, [-0.34399999999999986, 0.28900000000000015, 1.1350000000000002, -0.15100000000000002, 1.229, 0.2530000000000001, 0.6890000000000001, 1.697, -1.454, -1.4249999999999998], 0.8525303643724695),
    (1, [-0.34399999999999986, 0.28900000000000015, 1.1350000000000002, -0.15100000000000002, 1.229, 0.2530000000000001, 0.6890000000000001, 1.697, -1.454, -1.4249999999999998], 0.8525303643724695),
    (2, [-0.34399999999999986, 0.28900000000000015, 1.1350000000000002, -0.15100000000000002, 1.229, 0.2530000000000001, 0.6890000000000001, 1.697, -1.454, -1.4249999999999998], 0.8525303643724695),
    (3, [-0.34399999999999986, 0.28900000000000015, 1.1350000000000002, -0.15100000000000002, 1.229, 0.2530000000000001, 0.6890000000000001, 1.697, -1.454, -1.4249999999999998], 0.8525303643724695),
    (4, [-0.34399999999999986, 0.28900000000000015, 1.1350000000000002, -0.15100000000000002, 1.229, 0.2530000000000001, 0.6890000000000001, 1.697, -1.454, -1.4249999999999998], 0.8525303643724695),
    (5, [-0.34399999999999986, 0.28900000000000015, 1.1350000000000002, -0.15100000000000002, 1.229, 0.2530000000000001, 0.6890000000000001, 1.697, -1.454, -1.4249999999999998], 0.8525303643724695),
    (6, [-0.34399999999999986, 0.28900000000000015, 1.1350000000000002, -0.15100000000000002, 1.229, 0.2530000000000001, 0.6890000000000001, 1.697, -1.454, -1.4249999999999998], 0.8525303643724695),
    (7, [-0.34399999999999986, 0.28900000000000015, 1.1350000000000002, -0.15100000000000002, 1.229, 0.2530000000000001, 0.6890000000000001, 1.697, -1.454, -1.4249999999999998], 0.8525303643724695),
    (8, [-0.34399999999999986, 0.28900000000000015, 1.1350000000000002, -0.15100000000000002, 1.229, 0.2530000000000001, 0.6890000000000001, 1.697, -1.454, -1.4249999999999998], 0.8525303643724695),
    (9, [0.43400000000000016, 1.113, 0.3660000000000001, 0.9050000000000002, -0.23399999999999999, 0.39300000000000024, -1.794, 0.6630000000000003, 1.1680000000000001, -0.19500000000000006], 0.8526653171390013),
    (10, [0.43400000000000016, 1.113, 0.3660000000000001, 0.9050000000000002, -0.23399999999999999, 0.39300000000000024, -1.794, 0.6630000000000003, 1.1680000000000001, -0.19500000000000006], 0.8526653171390013),
    (11, [-1.2229999999999999, -0.645, -1.667, -1.778, 1.419, 0.7130000000000001, 0.29700000000000015, -1.089, 1.2730000000000001, -1.2730000000000001], 0.8579149797570851),
    (12, [-1.2229999999999999, -0.645, -1.667, -1.778, 1.419, 0.7130000000000001, 0.29700000000000015, -1.089, 1.2730000000000001, -1.2730000000000001], 0.8579149797570851),
    (13, [-1.2229999999999999, -0.645, -1.667, -1.778, 1.419, 0.7130000000000001, 0.29700000000000015, -1.089, 1.2730000000000001, -1.2730000000000001], 0.8579149797570851),
    (14, [-1.2229999999999999, -0.645, -1.667, -1.778, 1.419, 0.7130000000000001, 0.29700000000000015, -1.089, 1.2730000000000001, -1.2730000000000001], 0.8579149797570851),
    (15, [-1.2229999999999999, -0.645, -1.667, -1.778, 1.419, 0.7130000000000001, 0.29700000000000015, -1.089, 1.2730000000000001, -1.2730000000000001], 0.8579149797570851),
    (16, [-1.2229999999999999, -0.645, -1.667, -1.778, 1.419, 0.7130000000000001, 0.29700000000000015, -1.089, 1.2730000000000001, -1.2730000000000001], 0.8579149797570851),
    (17, [-1.2229999999999999, -0.645, -1.667, -1.778, 1.419, 0.7130000000000001, 0.29700000000000015, -1.089, 1.2730000000000001, -1.2730000000000001], 0.8579149797570851),
    (18, [-1.2229999999999999, -0.645, -1.667, -1.778, 1.419, 0.7130000000000001, 0.29700000000000015, -1.089, 1.2730000000000001, -1.2730000000000001], 0.8579149797570851),
    (19, [-1.2229999999999999, -0.645, -1.667, -1.778, 1.419, 0.7130000000000001, 0.29700000000000015, -1.089, 1.2730000000000001, -1.2730000000000001], 0.8579149797570851),
    (20, [-1.2229999999999999, -0.645, -1.667, -1.778, 1.419, 0.7130000000000001, 0.29700000000000015, -1.089, 1.2730000000000001, -1.2730000000000001], 0.8579149797570851),
    (21, [-1.2229999999999999, -0.645, -1.667, -1.778, 1.419, 0.7130000000000001, 0.29700000000000015, -1.089, 1.2730000000000001, -1.2730000000000001], 0.8579149797570851),
    (22, [-1.2229999999999999, -0.645, -1.667, -1.778, 1.419, 0.7130000000000001, 0.29700000000000015, -1.089, 1.2730000000000001, -1.2730000000000001], 0.8579149797570851),
    (23, [-1.2229999999999999, -0.645, -1.667, -1.778, 1.419, 0.7130000000000001, 0.29700000000000015, -1.089, 1.2730000000000001, -1.2730000000000001], 0.8579149797570851),
    (24, [-1.2229999999999999, -0.645, -1.667, -1.778, 1.419, 0.7130000000000001, 0.29700000000000015, -1.089, 1.2730000000000001, -1.2730000000000001], 0.8579149797570851),
    (25, [-1.2229999999999999, -0.645, -1.667, -1.778, 1.419, 0.7130000000000001, 0.29700000000000015, -1.089, 1.2730000000000001, -1.2730000000000001], 0.8579149797570851),
    (26, [-1.2229999999999999, -0.645, -1.667, -1.778, 1.419, 0.7130000000000001, 0.29700000000000015, -1.089, 1.2730000000000001, -1.2730000000000001], 0.8579149797570851),
    (27, [-1.2229999999999999, -0.645, -1.667, -1.778, 1.419, 0.7130000000000001, 0.29700000000000015, -1.089, 1.2730000000000001, -1.2730000000000001], 0.8579149797570851),
    (28, [-1.2229999999999999, -0.645, -1.667, -1.778, 1.419, 0.7130000000000001, 0.29700000000000015, -1.089, 1.2730000000000001, -1.2730000000000001], 0.8579149797570851),
    (29, [-1.2229999999999999, -0.645, -1.667, -1.778, 1.419, 0.7130000000000001, 0.29700000000000015, -1.089, 1.2730000000000001, -1.2730000000000001], 0.8579149797570851),
    (30, [-1.2229999999999999, -0.645, -1.667, -1.778, 1.419, 0.7130000000000001, 0.29700000000000015, -1.089, 1.2730000000000001, -1.2730000000000001], 0.8579149797570851),
    (31, [-1.2229999999999999, -0.645, -1.667, -1.778, 1.419, 0.7130000000000001, 0.29700000000000015, -1.089, 1.2730000000000001, -1.2730000000000001], 0.8579149797570851),
    (32, [-1.2229999999999999, -0.645, -1.667, -1.778, 1.419, 0.7130000000000001, 0.29700000000000015, -1.089, 1.2730000000000001, -1.2730000000000001], 0.8579149797570851),
    (33, [-1.2229999999999999, -0.645, -1.667, -1.778, 1.419, 0.7130000000000001, 0.29700000000000015, -1.089, 1.2730000000000001, -1.2730000000000001], 0.8579149797570851),
    (34, [-1.2229999999999999, -0.645, -1.667, -1.778, 1.419, 0.7130000000000001, 0.29700000000000015, -1.089, 1.2730000000000001, -1.2730000000000001], 0.8579149797570851),
    (35, [-1.2229999999999999, -0.645, -1.667, -1.778, 1.419, 0.7130000000000001, 0.29700000000000015, -1.089, 1.2730000000000001, -1.2730000000000001], 0.8579149797570851),
    (36, [-1.2229999999999999, -0.645, -1.667, -1.778, 1.419, 0.7130000000000001, 0.29700000000000015, -1.089, 1.2730000000000001, -1.2730000000000001], 0.8579149797570851),
    (37, [-1.2229999999999999, -0.645, -1.667, -1.778, 1.419, 0.7130000000000001, 0.29700000000000015, -1.089, 1.2730000000000001, -1.2730000000000001], 0.8579149797570851),
    (38, [-1.2229999999999999, -0.645, -1.667, -1.778, 1.419, 0.7130000000000001, 0.29700000000000015, -1.089, 1.2730000000000001, -1.2730000000000001], 0.8579149797570851),
    (39, [-1.2229999999999999, -0.645, -1.667, -1.778, 1.419, 0.7130000000000001, 0.29700000000000015, -1.089, 1.2730000000000001, -1.2730000000000001], 0.8579149797570851),
    (40, [-1.2229999999999999, -0.645, -1.667, -1.778, 1.419, 0.7130000000000001, 0.29700000000000015, -1.089, 1.2730000000000001, -1.2730000000000001], 0.8579149797570851),
    (41, [-1.2229999999999999, -0.645, -1.667, -1.778, 1.419, 0.7130000000000001, 0.29700000000000015, -1.089, 1.2730000000000001, -1.2730000000000001], 0.8579149797570851),
    (42, [-1.2229999999999999, -0.645, -1.667, -1.778, 1.419, 0.7130000000000001, 0.29700000000000015, -1.089, 1.2730000000000001, -1.2730000000000001], 0.8579149797570851),
    (43, [-1.2229999999999999, -0.645, -1.667, -1.778, 1.419, 0.7130000000000001, 0.29700000000000015, -1.089, 1.2730000000000001, -1.2730000000000001], 0.8579149797570851),
    (44, [-1.2229999999999999, -0.645, -1.667, -1.778, 1.419, 0.7130000000000001, 0.29700000000000015, -1.089, 1.2730000000000001, -1.2730000000000001], 0.8579149797570851),
    (45, [-1.2229999999999999, -0.645, -1.667, -1.778, 1.419, 0.7130000000000001, 0.29700000000000015, -1.089, 1.2730000000000001, -1.2730000000000001], 0.8579149797570851),
    (46, [-1.2229999999999999, -0.645, -1.667, -1.778, 1.419, 0.7130000000000001, 0.29700000000000015, -1.089, 1.2730000000000001, -1.2730000000000001], 0.8579149797570851),
    (47, [-1.2229999999999999, -0.645, -1.667, -1.778, 1.419, 0.7130000000000001, 0.29700000000000015, -1.089, 1.2730000000000001, -1.2730000000000001], 0.8579149797570851),
    (48, [-1.2229999999999999, -0.645, -1.667, -1.778, 1.419, 0.7130000000000001, 0.29700000000000015, -1.089, 1.2730000000000001, -1.2730000000000001], 0.8579149797570851),
    (49, [-1.2229999999999999, -0.645, -1.667, -1.778, 1.419, 0.7130000000000001, 0.29700000000000015, -1.089, 1.2730000000000001, -1.2730000000000001], 0.8579149797570851),
    (50, [-1.2229999999999999, -0.645, -1.667, -1.778, 1.419, 0.7130000000000001, 0.29700000000000015, -1.089, 1.2730000000000001, -1.2730000000000001], 0.8579149797570851),
    (51, [-1.2229999999999999, -0.645, -1.667, -1.778, 1.419, 0.7130000000000001, 0.29700000000000015, -1.089, 1.2730000000000001, -1.2730000000000001], 0.8579149797570851),
    (52, [-1.2229999999999999, -0.645, -1.667, -1.778, 1.419, 0.7130000000000001, 0.29700000000000015, -1.089, 1.2730000000000001, -1.2730000000000001], 0.8579149797570851),
    (53, [-1.2229999999999999, -0.645, -1.667, -1.778, 1.419, 0.7130000000000001, 0.29700000000000015, -1.089, 1.2730000000000001, -1.2730000000000001], 0.8579149797570851),
    (54, [-1.2229999999999999, -0.645, -1.667, -1.778, 1.419, 0.7130000000000001, 0.29700000000000015, -1.089, 1.2730000000000001, -1.2730000000000001], 0.8579149797570851),
    (55, [-1.2229999999999999, -0.645, -1.667, -1.778, 1.419, 0.7130000000000001, 0.29700000000000015, -1.089, 1.2730000000000001, -1.2730000000000001], 0.8579149797570851),
    (56, [-1.2229999999999999, -0.645, -1.667, -1.778, 1.419, 0.7130000000000001, 0.29700000000000015, -1.089, 1.2730000000000001, -1.2730000000000001], 0.8579149797570851),
    (57, [-1.2229999999999999, -0.645, -1.667, -1.778, 1.419, 0.7130000000000001, 0.29700000000000015, -1.089, 1.2730000000000001, -1.2730000000000001], 0.8579149797570851),
    (58, [-1.2229999999999999, -0.645, -1.667, -1.778, 1.419, 0.7130000000000001, 0.29700000000000015, -1.089, 1.2730000000000001, -1.2730000000000001], 0.8579149797570851),
    (59, [-1.2229999999999999, -0.645, -1.667, -1.778, 1.419, 0.7130000000000001, 0.29700000000000015, -1.089, 1.2730000000000001, -1.2730000000000001], 0.8579149797570851),
    (60, [-1.2229999999999999, -0.645, -1.667, -1.778, 1.419, 0.7130000000000001, 0.29700000000000015, -1.089, 1.2730000000000001, -1.2730000000000001], 0.8579149797570851),
    (61, [-1.2229999999999999, -0.645, -1.667, -1.778, 1.419, 0.7130000000000001, 0.29700000000000015, -1.089, 1.2730000000000001, -1.2730000000000001], 0.8579149797570851),
    (62, [-1.2229999999999999, -0.645, -1.667, -1.778, 1.419, 0.7130000000000001, 0.29700000000000015, -1.089, 1.2730000000000001, -1.2730000000000001], 0.8579149797570851),
    (63, [-1.2229999999999999, -0.645, -1.667, -1.778, 1.419, 0.7130000000000001, 0.29700000000000015, -1.089, 1.2730000000000001, -1.2730000000000001], 0.8579149797570851),
    (64, [-1.2229999999999999, -0.645, -1.667, -1.778, 1.419, 0.7130000000000001, 0.29700000000000015, -1.089, 1.2730000000000001, -1.2730000000000001], 0.8579149797570851),
    (65, [-1.2229999999999999, -0.645, -1.667, -1.778, 1.419, 0.7130000000000001, 0.29700000000000015, -1.089, 1.2730000000000001, -1.2730000000000001], 0.8579149797570851),
    (66, [-1.2229999999999999, -0.645, -1.667, -1.778, 1.419, 0.7130000000000001, 0.29700000000000015, -1.089, 1.2730000000000001, -1.2730000000000001], 0.8579149797570851),
    (67, [-1.2229999999999999, -0.645, -1.667, -1.778, 1.419, 0.7130000000000001, 0.29700000000000015, -1.089, 1.2730000000000001, -1.2730000000000001], 0.8579149797570851),
    (68, [-1.2229999999999999, -0.645, -1.667, -1.778, 1.419, 0.7130000000000001, 0.29700000000000015, -1.089, 1.2730000000000001, -1.2730000000000001], 0.8579149797570851),
    (69, [-1.2229999999999999, -0.645, -1.667, -1.778, 1.419, 0.7130000000000001, 0.29700000000000015, -1.089, 1.2730000000000001, -1.2730000000000001], 0.8579149797570851),
    (70, [-1.2229999999999999, -0.645, -1.667, -1.778, 1.419, 0.7130000000000001, 0.29700000000000015, -1.089, 1.2730000000000001, -1.2730000000000001], 0.8579149797570851),
    (71, [-1.2229999999999999, -0.645, -1.667, -1.778, 1.419, 0.7130000000000001, 0.29700000000000015, -1.089, 1.2730000000000001, -1.2730000000000001], 0.8579149797570851),
    (72, [-1.2229999999999999, -0.645, -1.667, -1.778, 1.419, 0.7130000000000001, 0.29700000000000015, -1.089, 1.2730000000000001, -1.2730000000000001], 0.8579149797570851),
    (73, [-1.2229999999999999, -0.645, -1.667, -1.778, 1.419, 0.7130000000000001, 0.29700000000000015, -1.089, 1.2730000000000001, -1.2730000000000001], 0.8579149797570851),
    (74, [-1.2229999999999999, -0.645, -1.667, -1.778, 1.419, 0.7130000000000001, 0.29700000000000015, -1.089, 1.2730000000000001, -1.2730000000000001], 0.8579149797570851),
    (75, [-1.2229999999999999, -0.645, -1.667, -1.778, 1.419, 0.7130000000000001, 0.29700000000000015, -1.089, 1.2730000000000001, -1.2730000000000001], 0.8579149797570851),
    (76, [-1.2229999999999999, -0.645, -1.667, -1.778, 1.419, 0.7130000000000001, 0.29700000000000015, -1.089, 1.2730000000000001, -1.2730000000000001], 0.8579149797570851),
    (77, [-1.2229999999999999, -0.645, -1.667, -1.778, 1.419, 0.7130000000000001, 0.29700000000000015, -1.089, 1.2730000000000001, -1.2730000000000001], 0.8579149797570851),
    (78, [-1.2229999999999999, -0.645, -1.667, -1.778, 1.419, 0.7130000000000001, 0.29700000000000015, -1.089, 1.2730000000000001, -1.2730000000000001], 0.8579149797570851),
    (79, [-1.2229999999999999, -0.645, -1.667, -1.778, 1.419, 0.7130000000000001, 0.29700000000000015, -1.089, 1.2730000000000001, -1.2730000000000001], 0.8579149797570851),
    (80, [-1.2229999999999999, -0.645, -1.667, -1.778, 1.419, 0.7130000000000001, 0.29700000000000015, -1.089, 1.2730000000000001, -1.2730000000000001], 0.8579149797570851),
    (81, [-1.2229999999999999, -0.645, -1.667, -1.778, 1.419, 0.7130000000000001, 0.29700000000000015, -1.089, 1.2730000000000001, -1.2730000000000001], 0.8579149797570851),
    (82, [-1.2229999999999999, -0.645, -1.667, -1.778, 1.419, 0.7130000000000001, 0.29700000000000015, -1.089, 1.2730000000000001, -1.2730000000000001], 0.8579149797570851),
    (83, [-1.2229999999999999, -0.645, -1.667, -1.778, 1.419, 0.7130000000000001, 0.29700000000000015, -1.089, 1.2730000000000001, -1.2730000000000001], 0.8579149797570851),
    (84, [-1.2229999999999999, -0.645, -1.667, -1.778, 1.419, 0.7130000000000001, 0.29700000000000015, -1.089, 1.2730000000000001, -1.2730000000000001], 0.8579149797570851),
    (85, [-1.2229999999999999, -0.645, -1.667, -1.778, 1.419, 0.7130000000000001, 0.29700000000000015, -1.089, 1.2730000000000001, -1.2730000000000001], 0.8579149797570851),
    (86, [-1.2229999999999999, -0.645, -1.667, -1.778, 1.419, 0.7130000000000001, 0.29700000000000015, -1.089, 1.2730000000000001, -1.2730000000000001], 0.8579149797570851),
    (87, [-1.2229999999999999, -0.645, -1.667, -1.778, 1.419, 0.7130000000000001, 0.29700000000000015, -1.089, 1.2730000000000001, -1.2730000000000001], 0.8579149797570851),
    (88, [-1.2229999999999999, -0.645, -1.667, -1.778, 1.419, 0.7130000000000001, 0.29700000000000015, -1.089, 1.2730000000000001, -1.2730000000000001], 0.8579149797570851),
    (89, [-1.2229999999999999, -0.645, -1.667, -1.778, 1.419, 0.7130000000000001, 0.29700000000000015, -1.089, 1.2730000000000001, -1.2730000000000001], 0.8579149797570851),
    (90, [-1.2229999999999999, -0.645, -1.667, -1.778, 1.419, 0.7130000000000001, 0.29700000000000015, -1.089, 1.2730000000000001, -1.2730000000000001], 0.8579149797570851),
    (91, [-1.2229999999999999, -0.645, -1.667, -1.778, 1.419, 0.7130000000000001, 0.29700000000000015, -1.089, 1.2730000000000001, -1.2730000000000001], 0.8579149797570851),
    (92, [-1.2229999999999999, -0.645, -1.667, -1.778, 1.419, 0.7130000000000001, 0.29700000000000015, -1.089, 1.2730000000000001, -1.2730000000000001], 0.8579149797570851),
    (93, [-1.2229999999999999, -0.645, -1.667, -1.778, 1.419, 0.7130000000000001, 0.29700000000000015, -1.089, 1.2730000000000001, -1.2730000000000001], 0.8579149797570851),
    (94, [-1.2229999999999999, -0.645, -1.667, -1.778, 1.419, 0.7130000000000001, 0.29700000000000015, -1.089, 1.2730000000000001, -1.2730000000000001], 0.8579149797570851),
    (95, [-1.2229999999999999, -0.645, -1.667, -1.778, 1.419, 0.7130000000000001, 0.29700000000000015, -1.089, 1.2730000000000001, -1.2730000000000001], 0.8579149797570851),
    (96, [-1.2229999999999999, -0.645, -1.667, -1.778, 1.419, 0.7130000000000001, 0.29700000000000015, -1.089, 1.2730000000000001, -1.2730000000000001], 0.8579149797570851),
    (97, [-1.2229999999999999, -0.645, -1.667, -1.778, 1.419, 0.7130000000000001, 0.29700000000000015, -1.089, 1.2730000000000001, -1.2730000000000001], 0.8579149797570851),
    (98, [-1.2229999999999999, -0.645, -1.667, -1.778, 1.419, 0.7130000000000001, 0.29700000000000015, -1.089, 1.2730000000000001, -1.2730000000000001], 0.8579149797570851),
    (99, [-1.2229999999999999, -0.645, -1.667, -1.778, 1.419, 0.7130000000000001, 0.29700000000000015, -1.089, 1.2730000000000001, -1.2730000000000001], 0.8579149797570851),
    (100, [-1.2229999999999999, -0.645, -1.667, -1.778, 1.419, 0.7130000000000001, 0.29700000000000015, -1.089, 1.2730000000000001, -1.2730000000000001], 0.8579149797570851),
    (101, [-1.2229999999999999, -0.645, -1.667, -1.778, 1.419, 0.7130000000000001, 0.29700000000000015, -1.089, 1.2730000000000001, -1.2730000000000001], 0.8579149797570851),
    (102, [-1.2229999999999999, -0.645, -1.667, -1.778, 1.419, 0.7130000000000001, 0.29700000000000015, -1.089, 1.2730000000000001, -1.2730000000000001], 0.8579149797570851),
    (103, [-1.2229999999999999, -0.645, -1.667, -1.778, 1.419, 0.7130000000000001, 0.29700000000000015, -1.089, 1.2730000000000001, -1.2730000000000001], 0.8579149797570851),
    (104, [-1.2229999999999999, -0.645, -1.667, -1.778, 1.419, 0.7130000000000001, 0.29700000000000015, -1.089, 1.2730000000000001, -1.2730000000000001], 0.8579149797570851),
    (105, [-1.2229999999999999, -0.645, -1.667, -1.778, 1.419, 0.7130000000000001, 0.29700000000000015, -1.089, 1.2730000000000001, -1.2730000000000001], 0.8579149797570851),
    (106, [-1.2229999999999999, -0.645, -1.667, -1.778, 1.419, 0.7130000000000001, 0.29700000000000015, -1.089, 1.2730000000000001, -1.2730000000000001], 0.8579149797570851),
    (107, [-1.2229999999999999, -0.645, -1.667, -1.778, 1.419, 0.7130000000000001, 0.29700000000000015, -1.089, 1.2730000000000001, -1.2730000000000001], 0.8579149797570851),
    (108, [-1.2229999999999999, -0.645, -1.667, -1.778, 1.419, 0.7130000000000001, 0.29700000000000015, -1.089, 1.2730000000000001, -1.2730000000000001], 0.8579149797570851),
    (109, [-1.2229999999999999, -0.645, -1.667, -1.778, 1.419, 0.7130000000000001, 0.29700000000000015, -1.089, 1.2730000000000001, -1.2730000000000001], 0.8579149797570851),
    (110, [-1.2229999999999999, -0.645, -1.667, -1.778, 1.419, 0.7130000000000001, 0.29700000000000015, -1.089, 1.2730000000000001, -1.2730000000000001], 0.8579149797570851),
    (111, [-1.2229999999999999, -0.645, -1.667, -1.778, 1.419, 0.7130000000000001, 0.29700000000000015, -1.089, 1.2730000000000001, -1.2730000000000001], 0.8579149797570851),
    (112, [-1.2229999999999999, -0.645, -1.667, -1.778, 1.419, 0.7130000000000001, 0.29700000000000015, -1.089, 1.2730000000000001, -1.2730000000000001], 0.8579149797570851),
    (113, [-0.6199999999999999, 1.0939999999999999, -0.7329999999999999, -0.8200000000000001, 0.5100000000000002, 0.8690000000000002, 0.16599999999999993, -1.534, 1.5870000000000002, -1.38], 0.8630499325236167),
    (114, [-0.6199999999999999, 1.0939999999999999, -0.7329999999999999, -0.8200000000000001, 0.5100000000000002, 0.8690000000000002, 0.16599999999999993, -1.534, 1.5870000000000002, -1.38], 0.8630499325236167),
    (115, [-0.6199999999999999, 1.0939999999999999, -0.7329999999999999, -0.8200000000000001, 0.5100000000000002, 0.8690000000000002, 0.16599999999999993, -1.534, 1.5870000000000002, -1.38], 0.8630499325236167),
    (116, [-0.6199999999999999, 1.0939999999999999, -0.7329999999999999, -0.8200000000000001, 0.5100000000000002, 0.8690000000000002, 0.16599999999999993, -1.534, 1.5870000000000002, -1.38], 0.8630499325236167),
    (117, [-0.6199999999999999, 1.0939999999999999, -0.7329999999999999, -0.8200000000000001, 0.5100000000000002, 0.8690000000000002, 0.16599999999999993, -1.534, 1.5870000000000002, -1.38], 0.8630499325236167),
    (118, [-0.6199999999999999, 1.0939999999999999, -0.7329999999999999, -0.8200000000000001, 0.5100000000000002, 0.8690000000000002, 0.16599999999999993, -1.534, 1.5870000000000002, -1.38], 0.8630499325236167),
    (119, [-0.6199999999999999, 1.0939999999999999, -0.7329999999999999, -0.8200000000000001, 0.5100000000000002, 0.8690000000000002, 0.16599999999999993, -1.534, 1.5870000000000002, -1.38], 0.8630499325236167),
    (120, [-0.6199999999999999, 1.0939999999999999, -0.7329999999999999, -0.8200000000000001, 0.5100000000000002, 0.8690000000000002, 0.16599999999999993, -1.534, 1.5870000000000002, -1.38], 0.8630499325236167),
    (121, [-0.6199999999999999, 1.0939999999999999, -0.7329999999999999, -0.8200000000000001, 0.5100000000000002, 0.8690000000000002, 0.16599999999999993, -1.534, 1.5870000000000002, -1.38], 0.8630499325236167),
    (122, [-0.6199999999999999, 1.0939999999999999, -0.7329999999999999, -0.8200000000000001, 0.5100000000000002, 0.8690000000000002, 0.16599999999999993, -1.534, 1.5870000000000002, -1.38], 0.8630499325236167),
    (123, [-0.6199999999999999, 1.0939999999999999, -0.7329999999999999, -0.8200000000000001, 0.5100000000000002, 0.8690000000000002, 0.16599999999999993, -1.534, 1.5870000000000002, -1.38], 0.8630499325236167),
    (124, [-0.6199999999999999, 1.0939999999999999, -0.7329999999999999, -0.8200000000000001, 0.5100000000000002, 0.8690000000000002, 0.16599999999999993, -1.534, 1.5870000000000002, -1.38], 0.8630499325236167),
    (125, [-0.6199999999999999, 1.0939999999999999, -0.7329999999999999, -0.8200000000000001, 0.5100000000000002, 0.8690000000000002, 0.16599999999999993, -1.534, 1.5870000000000002, -1.38], 0.8630499325236167),
    (126, [-0.6199999999999999, 1.0939999999999999, -0.7329999999999999, -0.8200000000000001, 0.5100000000000002, 0.8690000000000002, 0.16599999999999993, -1.534, 1.5870000000000002, -1.38], 0.8630499325236167),
    (127, [-0.6199999999999999, 1.0939999999999999, -0.7329999999999999, -0.8200000000000001, 0.5100000000000002, 0.8690000000000002, 0.16599999999999993, -1.534, 1.5870000000000002, -1.38], 0.8630499325236167),
    (128, [-0.6199999999999999, 1.0939999999999999, -0.7329999999999999, -0.8200000000000001, 0.5100000000000002, 0.8690000000000002, 0.16599999999999993, -1.534, 1.5870000000000002, -1.38], 0.8630499325236167),
    (129, [-0.6199999999999999, 1.0939999999999999, -0.7329999999999999, -0.8200000000000001, 0.5100000000000002, 0.8690000000000002, 0.16599999999999993, -1.534, 1.5870000000000002, -1.38], 0.8630499325236167),
    (130, [-0.6199999999999999, 1.0939999999999999, -0.7329999999999999, -0.8200000000000001, 0.5100000000000002, 0.8690000000000002, 0.16599999999999993, -1.534, 1.5870000000000002, -1.38], 0.8630499325236167),
    (131, [-0.6199999999999999, 1.0939999999999999, -0.7329999999999999, -0.8200000000000001, 0.5100000000000002, 0.8690000000000002, 0.16599999999999993, -1.534, 1.5870000000000002, -1.38], 0.8630499325236167),
    (132, [-0.6199999999999999, 1.0939999999999999, -0.7329999999999999, -0.8200000000000001, 0.5100000000000002, 0.8690000000000002, 0.16599999999999993, -1.534, 1.5870000000000002, -1.38], 0.8630499325236167),
    (133, [-0.6199999999999999, 1.0939999999999999, -0.7329999999999999, -0.8200000000000001, 0.5100000000000002, 0.8690000000000002, 0.16599999999999993, -1.534, 1.5870000000000002, -1.38], 0.8630499325236167),
    (134, [-0.6199999999999999, 1.0939999999999999, -0.7329999999999999, -0.8200000000000001, 0.5100000000000002, 0.8690000000000002, 0.16599999999999993, -1.534, 1.5870000000000002, -1.38], 0.8630499325236167),
    (135, [-0.6199999999999999, 1.0939999999999999, -0.7329999999999999, -0.8200000000000001, 0.5100000000000002, 0.8690000000000002, 0.16599999999999993, -1.534, 1.5870000000000002, -1.38], 0.8630499325236167),
    (136, [-0.6199999999999999, 1.0939999999999999, -0.7329999999999999, -0.8200000000000001, 0.5100000000000002, 0.8690000000000002, 0.16599999999999993, -1.534, 1.5870000000000002, -1.38], 0.8630499325236167),
    (137, [-0.6199999999999999, 1.0939999999999999, -0.7329999999999999, -0.8200000000000001, 0.5100000000000002, 0.8690000000000002, 0.16599999999999993, -1.534, 1.5870000000000002, -1.38], 0.8630499325236167),
    (138, [-0.6199999999999999, 1.0939999999999999, -0.7329999999999999, -0.8200000000000001, 0.5100000000000002, 0.8690000000000002, 0.16599999999999993, -1.534, 1.5870000000000002, -1.38], 0.8630499325236167),
    (139, [-0.6199999999999999, 1.0939999999999999, -0.7329999999999999, -0.8200000000000001, 0.5100000000000002, 0.8690000000000002, 0.16599999999999993, -1.534, 1.5870000000000002, -1.38], 0.8630499325236167),
    (140, [-0.6199999999999999, 1.0939999999999999, -0.7329999999999999, -0.8200000000000001, 0.5100000000000002, 0.8690000000000002, 0.16599999999999993, -1.534, 1.5870000000000002, -1.38], 0.8630499325236167),
    (141, [-0.6199999999999999, 1.0939999999999999, -0.7329999999999999, -0.8200000000000001, 0.5100000000000002, 0.8690000000000002, 0.16599999999999993, -1.534, 1.5870000000000002, -1.38], 0.8630499325236167),
    (142, [-0.6199999999999999, 1.0939999999999999, -0.7329999999999999, -0.8200000000000001, 0.5100000000000002, 0.8690000000000002, 0.16599999999999993, -1.534, 1.5870000000000002, -1.38], 0.8630499325236167),
    (143, [-0.6199999999999999, 1.0939999999999999, -0.7329999999999999, -0.8200000000000001, 0.5100000000000002, 0.8690000000000002, 0.16599999999999993, -1.534, 1.5870000000000002, -1.38], 0.8630499325236167),
    (144, [-0.6199999999999999, 1.0939999999999999, -0.7329999999999999, -0.8200000000000001, 0.5100000000000002, 0.8690000000000002, 0.16599999999999993, -1.534, 1.5870000000000002, -1.38], 0.8630499325236167),
    (145, [-0.6199999999999999, 1.0939999999999999, -0.7329999999999999, -0.8200000000000001, 0.5100000000000002, 0.8690000000000002, 0.16599999999999993, -1.534, 1.5870000000000002, -1.38], 0.8630499325236167),
    (146, [-0.6199999999999999, 1.0939999999999999, -0.7329999999999999, -0.8200000000000001, 0.5100000000000002, 0.8690000000000002, 0.16599999999999993, -1.534, 1.5870000000000002, -1.38], 0.8630499325236167),
    (147, [-0.6199999999999999, 1.0939999999999999, -0.7329999999999999, -0.8200000000000001, 0.5100000000000002, 0.8690000000000002, 0.16599999999999993, -1.534, 1.5870000000000002, -1.38], 0.8630499325236167),
    (148, [-0.6199999999999999, 1.0939999999999999, -0.7329999999999999, -0.8200000000000001, 0.5100000000000002, 0.8690000000000002, 0.16599999999999993, -1.534, 1.5870000000000002, -1.38], 0.8630499325236167),
    (149, [-0.6199999999999999, 1.0939999999999999, -0.7329999999999999, -0.8200000000000001, 0.5100000000000002, 0.8690000000000002, 0.16599999999999993, -1.534, 1.5870000000000002, -1.38], 0.8630499325236167),
    (150, [-0.6199999999999999, 1.0939999999999999, -0.7329999999999999, -0.8200000000000001, 0.5100000000000002, 0.8690000000000002, 0.16599999999999993, -1.534, 1.5870000000000002, -1.38], 0.8630499325236167),
    (151, [-0.6199999999999999, 1.0939999999999999, -0.7329999999999999, -0.8200000000000001, 0.5100000000000002, 0.8690000000000002, 0.16599999999999993, -1.534, 1.5870000000000002, -1.38], 0.8630499325236167),
    (152, [-0.6199999999999999, 1.0939999999999999, -0.7329999999999999, -0.8200000000000001, 0.5100000000000002, 0.8690000000000002, 0.16599999999999993, -1.534, 1.5870000000000002, -1.38], 0.8630499325236167),
    (153, [-0.6199999999999999, 1.0939999999999999, -0.7329999999999999, -0.8200000000000001, 0.5100000000000002, 0.8690000000000002, 0.16599999999999993, -1.534, 1.5870000000000002, -1.38], 0.8630499325236167),
    (154, [-0.6199999999999999, 1.0939999999999999, -0.7329999999999999, -0.8200000000000001, 0.5100000000000002, 0.8690000000000002, 0.16599999999999993, -1.534, 1.5870000000000002, -1.38], 0.8630499325236167),
    (155, [-0.6199999999999999, 1.0939999999999999, -0.7329999999999999, -0.8200000000000001, 0.5100000000000002, 0.8690000000000002, 0.16599999999999993, -1.534, 1.5870000000000002, -1.38], 0.8630499325236167),
    (156, [-0.6199999999999999, 1.0939999999999999, -0.7329999999999999, -0.8200000000000001, 0.5100000000000002, 0.8690000000000002, 0.16599999999999993, -1.534, 1.5870000000000002, -1.38], 0.8630499325236167),
    (157, [-0.6199999999999999, 1.0939999999999999, -0.7329999999999999, -0.8200000000000001, 0.5100000000000002, 0.8690000000000002, 0.16599999999999993, -1.534, 1.5870000000000002, -1.38], 0.8630499325236167),
    (158, [-0.6199999999999999, 1.0939999999999999, -0.7329999999999999, -0.8200000000000001, 0.5100000000000002, 0.8690000000000002, 0.16599999999999993, -1.534, 1.5870000000000002, -1.38], 0.8630499325236167),
    (159, [-0.6199999999999999, 1.0939999999999999, -0.7329999999999999, -0.8200000000000001, 0.5100000000000002, 0.8690000000000002, 0.16599999999999993, -1.534, 1.5870000000000002, -1.38], 0.8630499325236167),
    (160, [-0.6199999999999999, 1.0939999999999999, -0.7329999999999999, -0.8200000000000001, 0.5100000000000002, 0.8690000000000002, 0.16599999999999993, -1.534, 1.5870000000000002, -1.38], 0.8630499325236167),
    (161, [-0.6199999999999999, 1.0939999999999999, -0.7329999999999999, -0.8200000000000001, 0.5100000000000002, 0.8690000000000002, 0.16599999999999993, -1.534, 1.5870000000000002, -1.38], 0.8630499325236167),
    (162, [-0.6199999999999999, 1.0939999999999999, -0.7329999999999999, -0.8200000000000001, 0.5100000000000002, 0.8690000000000002, 0.16599999999999993, -1.534, 1.5870000000000002, -1.38], 0.8630499325236167),
    (163, [-0.6199999999999999, 1.0939999999999999, -0.7329999999999999, -0.8200000000000001, 0.5100000000000002, 0.8690000000000002, 0.16599999999999993, -1.534, 1.5870000000000002, -1.38], 0.8630499325236167),
    (164, [-0.6199999999999999, 1.0939999999999999, -0.7329999999999999, -0.8200000000000001, 0.5100000000000002, 0.8690000000000002, 0.16599999999999993, -1.534, 1.5870000000000002, -1.38], 0.8630499325236167),
    (165, [-0.6199999999999999, 1.0939999999999999, -0.7329999999999999, -0.8200000000000001, 0.5100000000000002, 0.8690000000000002, 0.16599999999999993, -1.534, 1.5870000000000002, -1.38], 0.8630499325236167),
    (166, [-0.6199999999999999, 1.0939999999999999, -0.7329999999999999, -0.8200000000000001, 0.5100000000000002, 0.8690000000000002, 0.16599999999999993, -1.534, 1.5870000000000002, -1.38], 0.8630499325236167),
    (167, [-0.6199999999999999, 1.0939999999999999, -0.7329999999999999, -0.8200000000000001, 0.5100000000000002, 0.8690000000000002, 0.16599999999999993, -1.534, 1.5870000000000002, -1.38], 0.8630499325236167),
    (168, [-0.6199999999999999, 1.0939999999999999, -0.7329999999999999, -0.8200000000000001, 0.5100000000000002, 0.8690000000000002, 0.16599999999999993, -1.534, 1.5870000000000002, -1.38], 0.8630499325236167),
    (169, [-0.6199999999999999, 1.0939999999999999, -0.7329999999999999, -0.8200000000000001, 0.5100000000000002, 0.8690000000000002, 0.16599999999999993, -1.534, 1.5870000000000002, -1.38], 0.8630499325236167),
    (170, [-0.6199999999999999, 1.0939999999999999, -0.7329999999999999, -0.8200000000000001, 0.5100000000000002, 0.8690000000000002, 0.16599999999999993, -1.534, 1.5870000000000002, -1.38], 0.8630499325236167),
    (171, [-0.6199999999999999, 1.0939999999999999, -0.7329999999999999, -0.8200000000000001, 0.5100000000000002, 0.8690000000000002, 0.16599999999999993, -1.534, 1.5870000000000002, -1.38], 0.8630499325236167),
    (172, [-0.6199999999999999, 1.0939999999999999, -0.7329999999999999, -0.8200000000000001, 0.5100000000000002, 0.8690000000000002, 0.16599999999999993, -1.534, 1.5870000000000002, -1.38], 0.8630499325236167),
    (173, [-0.6199999999999999, 1.0939999999999999, -0.7329999999999999, -0.8200000000000001, 0.5100000000000002, 0.8690000000000002, 0.16599999999999993, -1.534, 1.5870000000000002, -1.38], 0.8630499325236167),
    (174, [-0.6199999999999999, 1.0939999999999999, -0.7329999999999999, -0.8200000000000001, 0.5100000000000002, 0.8690000000000002, 0.16599999999999993, -1.534, 1.5870000000000002, -1.38], 0.8630499325236167),
    (175, [-0.6199999999999999, 1.0939999999999999, -0.7329999999999999, -0.8200000000000001, 0.5100000000000002, 0.8690000000000002, 0.16599999999999993, -1.534, 1.5870000000000002, -1.38], 0.8630499325236167),
    (176, [-0.6199999999999999, 1.0939999999999999, -0.7329999999999999, -0.8200000000000001, 0.5100000000000002, 0.8690000000000002, 0.16599999999999993, -1.534, 1.5870000000000002, -1.38], 0.8630499325236167),
    (177, [-0.6199999999999999, 1.0939999999999999, -0.7329999999999999, -0.8200000000000001, 0.5100000000000002, 0.8690000000000002, 0.16599999999999993, -1.534, 1.5870000000000002, -1.38], 0.8630499325236167),
    (178, [-0.6199999999999999, 1.0939999999999999, -0.7329999999999999, -0.8200000000000001, 0.5100000000000002, 0.8690000000000002, 0.16599999999999993, -1.534, 1.5870000000000002, -1.38], 0.8630499325236167),
    (179, [-0.6199999999999999, 1.0939999999999999, -0.7329999999999999, -0.8200000000000001, 0.5100000000000002, 0.8690000000000002, 0.16599999999999993, -1.534, 1.5870000000000002, -1.38], 0.8630499325236167),
    (180, [-0.6199999999999999, 1.0939999999999999, -0.7329999999999999, -0.8200000000000001, 0.5100000000000002, 0.8690000000000002, 0.16599999999999993, -1.534, 1.5870000000000002, -1.38], 0.8630499325236167),
    (181, [-0.6199999999999999, 1.0939999999999999, -0.7329999999999999, -0.8200000000000001, 0.5100000000000002, 0.8690000000000002, 0.16599999999999993, -1.534, 1.5870000000000002, -1.38], 0.8630499325236167),
    (182, [-0.6199999999999999, 1.0939999999999999, -0.7329999999999999, -0.8200000000000001, 0.5100000000000002, 0.8690000000000002, 0.16599999999999993, -1.534, 1.5870000000000002, -1.38], 0.8630499325236167),
    (183, [-0.6199999999999999, 1.0939999999999999, -0.7329999999999999, -0.8200000000000001, 0.5100000000000002, 0.8690000000000002, 0.16599999999999993, -1.534, 1.5870000000000002, -1.38], 0.8630499325236167),
    (184, [-0.6199999999999999, 1.0939999999999999, -0.7329999999999999, -0.8200000000000001, 0.5100000000000002, 0.8690000000000002, 0.16599999999999993, -1.534, 1.5870000000000002, -1.38], 0.8630499325236167),
    (185, [-0.6199999999999999, 1.0939999999999999, -0.7329999999999999, -0.8200000000000001, 0.5100000000000002, 0.8690000000000002, 0.16599999999999993, -1.534, 1.5870000000000002, -1.38], 0.8630499325236167),
    (186, [-0.6199999999999999, 1.0939999999999999, -0.7329999999999999, -0.8200000000000001, 0.5100000000000002, 0.8690000000000002, 0.16599999999999993, -1.534, 1.5870000000000002, -1.38], 0.8630499325236167),
    (187, [-0.6199999999999999, 1.0939999999999999, -0.7329999999999999, -0.8200000000000001, 0.5100000000000002, 0.8690000000000002, 0.16599999999999993, -1.534, 1.5870000000000002, -1.38], 0.8630499325236167),
    (188, [-0.6199999999999999, 1.0939999999999999, -0.7329999999999999, -0.8200000000000001, 0.5100000000000002, 0.8690000000000002, 0.16599999999999993, -1.534, 1.5870000000000002, -1.38], 0.8630499325236167),
    (189, [-0.6199999999999999, 1.0939999999999999, -0.7329999999999999, -0.8200000000000001, 0.5100000000000002, 0.8690000000000002, 0.16599999999999993, -1.534, 1.5870000000000002, -1.38], 0.8630499325236167),
    (190, [-0.6199999999999999, 1.0939999999999999, -0.7329999999999999, -0.8200000000000001, 0.5100000000000002, 0.8690000000000002, 0.16599999999999993, -1.534, 1.5870000000000002, -1.38], 0.8630499325236167),
    (191, [-0.6199999999999999, 1.0939999999999999, -0.7329999999999999, -0.8200000000000001, 0.5100000000000002, 0.8690000000000002, 0.16599999999999993, -1.534, 1.5870000000000002, -1.38], 0.8630499325236167),
    (192, [-0.6199999999999999, 1.0939999999999999, -0.7329999999999999, -0.8200000000000001, 0.5100000000000002, 0.8690000000000002, 0.16599999999999993, -1.534, 1.5870000000000002, -1.38], 0.8630499325236167),
    (193, [-0.6199999999999999, 1.0939999999999999, -0.7329999999999999, -0.8200000000000001, 0.5100000000000002, 0.8690000000000002, 0.16599999999999993, -1.534, 1.5870000000000002, -1.38], 0.8630499325236167),
    (194, [-0.6199999999999999, 1.0939999999999999, -0.7329999999999999, -0.8200000000000001, 0.5100000000000002, 0.8690000000000002, 0.16599999999999993, -1.534, 1.5870000000000002, -1.38], 0.8630499325236167),
    (195, [-0.6199999999999999, 1.0939999999999999, -0.7329999999999999, -0.8200000000000001, 0.5100000000000002, 0.8690000000000002, 0.16599999999999993, -1.534, 1.5870000000000002, -1.38], 0.8630499325236167),
    (196, [-0.6199999999999999, 1.0939999999999999, -0.7329999999999999, -0.8200000000000001, 0.5100000000000002, 0.8690000000000002, 0.16599999999999993, -1.534, 1.5870000000000002, -1.38], 0.8630499325236167),
    (197, [-0.6199999999999999, 1.0939999999999999, -0.7329999999999999, -0.8200000000000001, 0.5100000000000002, 0.8690000000000002, 0.16599999999999993, -1.534, 1.5870000000000002, -1.38], 0.8630499325236167),
    (198, [-0.6199999999999999, 1.0939999999999999, -0.7329999999999999, -0.8200000000000001, 0.5100000000000002, 0.8690000000000002, 0.16599999999999993, -1.534, 1.5870000000000002, -1.38], 0.8630499325236167),
    (199, [-0.6199999999999999, 1.0939999999999999, -0.7329999999999999, -0.8200000000000001, 0.5100000000000002, 0.8690000000000002, 0.16599999999999993, -1.534, 1.5870000000000002, -1.38], 0.8630499325236167),
    (200, [-0.6199999999999999, 1.0939999999999999, -0.7329999999999999, -0.8200000000000001, 0.5100000000000002, 0.8690000000000002, 0.16599999999999993, -1.534, 1.5870000000000002, -1.38], 0.8630499325236167),
    (201, [-0.6199999999999999, 1.0939999999999999, -0.7329999999999999, -0.8200000000000001, 0.5100000000000002, 0.8690000000000002, 0.16599999999999993, -1.534, 1.5870000000000002, -1.38], 0.8630499325236167),
    (202, [-0.6199999999999999, 1.0939999999999999, -0.7329999999999999, -0.8200000000000001, 0.5100000000000002, 0.8690000000000002, 0.16599999999999993, -1.534, 1.5870000000000002, -1.38], 0.8630499325236167),
    (203, [-0.6199999999999999, 1.0939999999999999, -0.7329999999999999, -0.8200000000000001, 0.5100000000000002, 0.8690000000000002, 0.16599999999999993, -1.534, 1.5870000000000002, -1.38], 0.8630499325236167),
    (204, [-0.6199999999999999, 1.0939999999999999, -0.7329999999999999, -0.8200000000000001, 0.5100000000000002, 0.8690000000000002, 0.16599999999999993, -1.534, 1.5870000000000002, -1.38], 0.8630499325236167),
    (205, [-0.6199999999999999, 1.0939999999999999, -0.7329999999999999, -0.8200000000000001, 0.5100000000000002, 0.8690000000000002, 0.16599999999999993, -1.534, 1.5870000000000002, -1.38], 0.8630499325236167),
    (206, [-0.6199999999999999, 1.0939999999999999, -0.7329999999999999, -0.8200000000000001, 0.5100000000000002, 0.8690000000000002, 0.16599999999999993, -1.534, 1.5870000000000002, -1.38], 0.8630499325236167),
    (207, [-0.6199999999999999, 1.0939999999999999, -0.7329999999999999, -0.8200000000000001, 0.5100000000000002, 0.8690000000000002, 0.16599999999999993, -1.534, 1.5870000000000002, -1.38], 0.8630499325236167),
    (208, [-0.6199999999999999, 1.0939999999999999, -0.7329999999999999, -0.8200000000000001, 0.5100000000000002, 0.8690000000000002, 0.16599999999999993, -1.534, 1.5870000000000002, -1.38], 0.8630499325236167),
    (209, [-0.6199999999999999, 1.0939999999999999, -0.7329999999999999, -0.8200000000000001, 0.5100000000000002, 0.8690000000000002, 0.16599999999999993, -1.534, 1.5870000000000002, -1.38], 0.8630499325236167),
    (210, [-0.712, 1.185, -1.665, 1.5380000000000003, 0.5209999999999999, 0.27, -0.42300000000000004, 1.169, 0.7320000000000002, -0.18599999999999994], 0.8630566801619434),
    (211, [-0.712, 1.185, -1.665, 1.5380000000000003, 0.5209999999999999, 0.27, -0.42300000000000004, 1.169, 0.7320000000000002, -0.18599999999999994], 0.8630566801619434),
    (212, [-0.712, 1.185, -1.665, 1.5380000000000003, 0.5209999999999999, 0.27, -0.42300000000000004, 1.169, 0.7320000000000002, -0.18599999999999994], 0.8630566801619434),
    (213, [-0.712, 1.185, -1.665, 1.5380000000000003, 0.5209999999999999, 0.27, -0.42300000000000004, 1.169, 0.7320000000000002, -0.18599999999999994], 0.8630566801619434),
    (214, [-0.712, 1.185, -1.665, 1.5380000000000003, 0.5209999999999999, 0.27, -0.42300000000000004, 1.169, 0.7320000000000002, -0.18599999999999994], 0.8630566801619434),
    (215, [-0.712, 1.185, -1.665, 1.5380000000000003, 0.5209999999999999, 0.27, -0.42300000000000004, 1.169, 0.7320000000000002, -0.18599999999999994], 0.8630566801619434),
    (216, [-0.712, 1.185, -1.665, 1.5380000000000003, 0.5209999999999999, 0.27, -0.42300000000000004, 1.169, 0.7320000000000002, -0.18599999999999994], 0.8630566801619434),
    (217, [-0.712, 1.185, -1.665, 1.5380000000000003, 0.5209999999999999, 0.27, -0.42300000000000004, 1.169, 0.7320000000000002, -0.18599999999999994], 0.8630566801619434),
    (218, [-0.712, 1.185, -1.665, 1.5380000000000003, 0.5209999999999999, 0.27, -0.42300000000000004, 1.169, 0.7320000000000002, -0.18599999999999994], 0.8630566801619434),
    (219, [-0.712, 1.185, -1.665, 1.5380000000000003, 0.5209999999999999, 0.27, -0.42300000000000004, 1.169, 0.7320000000000002, -0.18599999999999994], 0.8630566801619434),
    (220, [-0.712, 1.185, -1.665, 1.5380000000000003, 0.5209999999999999, 0.27, -0.42300000000000004, 1.169, 0.7320000000000002, -0.18599999999999994], 0.8630566801619434),
    (221, [-0.712, 1.185, -1.665, 1.5380000000000003, 0.5209999999999999, 0.27, -0.42300000000000004, 1.169, 0.7320000000000002, -0.18599999999999994], 0.8630566801619434),
    (222, [-0.712, 1.185, -1.665, 1.5380000000000003, 0.5209999999999999, 0.27, -0.42300000000000004, 1.169, 0.7320000000000002, -0.18599999999999994], 0.8630566801619434),
    (223, [-0.712, 1.185, -1.665, 1.5380000000000003, 0.5209999999999999, 0.27, -0.42300000000000004, 1.169, 0.7320000000000002, -0.18599999999999994], 0.8630566801619434),
    (224, [-0.712, 1.185, -1.665, 1.5380000000000003, 0.5209999999999999, 0.27, -0.42300000000000004, 1.169, 0.7320000000000002, -0.18599999999999994], 0.8630566801619434),
    (225, [-0.712, 1.185, -1.665, 1.5380000000000003, 0.5209999999999999, 0.27, -0.42300000000000004, 1.169, 0.7320000000000002, -0.18599999999999994], 0.8630566801619434),
    (226, [-0.712, 1.185, -1.665, 1.5380000000000003, 0.5209999999999999, 0.27, -0.42300000000000004, 1.169, 0.7320000000000002, -0.18599999999999994], 0.8630566801619434),
    (227, [-0.712, 1.185, -1.665, 1.5380000000000003, 0.5209999999999999, 0.27, -0.42300000000000004, 1.169, 0.7320000000000002, -0.18599999999999994], 0.8630566801619434),
    (228, [-0.712, 1.185, -1.665, 1.5380000000000003, 0.5209999999999999, 0.27, -0.42300000000000004, 1.169, 0.7320000000000002, -0.18599999999999994], 0.8630566801619434),
    (229, [-0.712, 1.185, -1.665, 1.5380000000000003, 0.5209999999999999, 0.27, -0.42300000000000004, 1.169, 0.7320000000000002, -0.18599999999999994], 0.8630566801619434),
    (230, [-0.712, 1.185, -1.665, 1.5380000000000003, 0.5209999999999999, 0.27, -0.42300000000000004, 1.169, 0.7320000000000002, -0.18599999999999994], 0.8630566801619434),
    (231, [-0.712, 1.185, -1.665, 1.5380000000000003, 0.5209999999999999, 0.27, -0.42300000000000004, 1.169, 0.7320000000000002, -0.18599999999999994], 0.8630566801619434),
    (232, [-0.712, 1.185, -1.665, 1.5380000000000003, 0.5209999999999999, 0.27, -0.42300000000000004, 1.169, 0.7320000000000002, -0.18599999999999994], 0.8630566801619434),
    (233, [-0.712, 1.185, -1.665, 1.5380000000000003, 0.5209999999999999, 0.27, -0.42300000000000004, 1.169, 0.7320000000000002, -0.18599999999999994], 0.8630566801619434),
    (234, [-0.712, 1.185, -1.665, 1.5380000000000003, 0.5209999999999999, 0.27, -0.42300000000000004, 1.169, 0.7320000000000002, -0.18599999999999994], 0.8630566801619434),
    (235, [-0.712, 1.185, -1.665, 1.5380000000000003, 0.5209999999999999, 0.27, -0.42300000000000004, 1.169, 0.7320000000000002, -0.18599999999999994], 0.8630566801619434),
    (236, [-0.712, 1.185, -1.665, 1.5380000000000003, 0.5209999999999999, 0.27, -0.42300000000000004, 1.169, 0.7320000000000002, -0.18599999999999994], 0.8630566801619434),
    (237, [-0.712, 1.185, -1.665, 1.5380000000000003, 0.5209999999999999, 0.27, -0.42300000000000004, 1.169, 0.7320000000000002, -0.18599999999999994], 0.8630566801619434),
    (238, [-0.712, 1.185, -1.665, 1.5380000000000003, 0.5209999999999999, 0.27, -0.42300000000000004, 1.169, 0.7320000000000002, -0.18599999999999994], 0.8630566801619434),
    (239, [-0.712, 1.185, -1.665, 1.5380000000000003, 0.5209999999999999, 0.27, -0.42300000000000004, 1.169, 0.7320000000000002, -0.18599999999999994], 0.8630566801619434),
    (240, [-0.712, 1.185, -1.665, 1.5380000000000003, 0.5209999999999999, 0.27, -0.42300000000000004, 1.169, 0.7320000000000002, -0.18599999999999994], 0.8630566801619434),
    (241, [-0.712, 1.185, -1.665, 1.5380000000000003, 0.5209999999999999, 0.27, -0.42300000000000004, 1.169, 0.7320000000000002, -0.18599999999999994], 0.8630566801619434),
    (242, [-0.712, 1.185, -1.665, 1.5380000000000003, 0.5209999999999999, 0.27, -0.42300000000000004, 1.169, 0.7320000000000002, -0.18599999999999994], 0.8630566801619434),
    (243, [-0.712, 1.185, -1.665, 1.5380000000000003, 0.5209999999999999, 0.27, -0.42300000000000004, 1.169, 0.7320000000000002, -0.18599999999999994], 0.8630566801619434),
    (244, [-0.712, 1.185, -1.665, 1.5380000000000003, 0.5209999999999999, 0.27, -0.42300000000000004, 1.169, 0.7320000000000002, -0.18599999999999994], 0.8630566801619434),
    (245, [-0.712, 1.185, -1.665, 1.5380000000000003, 0.5209999999999999, 0.27, -0.42300000000000004, 1.169, 0.7320000000000002, -0.18599999999999994], 0.8630566801619434),
    (246, [-0.712, 1.185, -1.665, 1.5380000000000003, 0.5209999999999999, 0.27, -0.42300000000000004, 1.169, 0.7320000000000002, -0.18599999999999994], 0.8630566801619434),
    (247, [-0.712, 1.185, -1.665, 1.5380000000000003, 0.5209999999999999, 0.27, -0.42300000000000004, 1.169, 0.7320000000000002, -0.18599999999999994], 0.8630566801619434),
    (248, [-0.712, 1.185, -1.665, 1.5380000000000003, 0.5209999999999999, 0.27, -0.42300000000000004, 1.169, 0.7320000000000002, -0.18599999999999994], 0.8630566801619434),
    (249, [-0.712, 1.185, -1.665, 1.5380000000000003, 0.5209999999999999, 0.27, -0.42300000000000004, 1.169, 0.7320000000000002, -0.18599999999999994], 0.8630566801619434),
    (250, [-0.712, 1.185, -1.665, 1.5380000000000003, 0.5209999999999999, 0.27, -0.42300000000000004, 1.169, 0.7320000000000002, -0.18599999999999994], 0.8630566801619434),
    (251, [-0.712, 1.185, -1.665, 1.5380000000000003, 0.5209999999999999, 0.27, -0.42300000000000004, 1.169, 0.7320000000000002, -0.18599999999999994], 0.8630566801619434),
    (252, [-0.712, 1.185, -1.665, 1.5380000000000003, 0.5209999999999999, 0.27, -0.42300000000000004, 1.169, 0.7320000000000002, -0.18599999999999994], 0.8630566801619434),
    (253, [-0.712, 1.185, -1.665, 1.5380000000000003, 0.5209999999999999, 0.27, -0.42300000000000004, 1.169, 0.7320000000000002, -0.18599999999999994], 0.8630566801619434),
    (254, [-0.712, 1.185, -1.665, 1.5380000000000003, 0.5209999999999999, 0.27, -0.42300000000000004, 1.169, 0.7320000000000002, -0.18599999999999994], 0.8630566801619434),
    (255, [-0.712, 1.185, -1.665, 1.5380000000000003, 0.5209999999999999, 0.27, -0.42300000000000004, 1.169, 0.7320000000000002, -0.18599999999999994], 0.8630566801619434),
    (256, [-0.712, 1.185, -1.665, 1.5380000000000003, 0.5209999999999999, 0.27, -0.42300000000000004, 1.169, 0.7320000000000002, -0.18599999999999994], 0.8630566801619434),
    (257, [-0.712, 1.185, -1.665, 1.5380000000000003, 0.5209999999999999, 0.27, -0.42300000000000004, 1.169, 0.7320000000000002, -0.18599999999999994], 0.8630566801619434),
    (258, [-0.712, 1.185, -1.665, 1.5380000000000003, 0.5209999999999999, 0.27, -0.42300000000000004, 1.169, 0.7320000000000002, -0.18599999999999994], 0.8630566801619434),
    (259, [-0.712, 1.185, -1.665, 1.5380000000000003, 0.5209999999999999, 0.27, -0.42300000000000004, 1.169, 0.7320000000000002, -0.18599999999999994], 0.8630566801619434),
    (260, [-0.712, 1.185, -1.665, 1.5380000000000003, 0.5209999999999999, 0.27, -0.42300000000000004, 1.169, 0.7320000000000002, -0.18599999999999994], 0.8630566801619434),
    (261, [-0.712, 1.185, -1.665, 1.5380000000000003, 0.5209999999999999, 0.27, -0.42300000000000004, 1.169, 0.7320000000000002, -0.18599999999999994], 0.8630566801619434),
    (262, [-0.712, 1.185, -1.665, 1.5380000000000003, 0.5209999999999999, 0.27, -0.42300000000000004, 1.169, 0.7320000000000002, -0.18599999999999994], 0.8630566801619434),
    (263, [-0.712, 1.185, -1.665, 1.5380000000000003, 0.5209999999999999, 0.27, -0.42300000000000004, 1.169, 0.7320000000000002, -0.18599999999999994], 0.8630566801619434),
    (264, [-0.712, 1.185, -1.665, 1.5380000000000003, 0.5209999999999999, 0.27, -0.42300000000000004, 1.169, 0.7320000000000002, -0.18599999999999994], 0.8630566801619434),
    (265, [-0.712, 1.185, -1.665, 1.5380000000000003, 0.5209999999999999, 0.27, -0.42300000000000004, 1.169, 0.7320000000000002, -0.18599999999999994], 0.8630566801619434),
    (266, [-0.712, 1.185, -1.665, 1.5380000000000003, 0.5209999999999999, 0.27, -0.42300000000000004, 1.169, 0.7320000000000002, -0.18599999999999994], 0.8630566801619434),
    (267, [-0.712, 1.185, -1.665, 1.5380000000000003, 0.5209999999999999, 0.27, -0.42300000000000004, 1.169, 0.7320000000000002, -0.18599999999999994], 0.8630566801619434),
    (268, [-0.712, 1.185, -1.665, 1.5380000000000003, 0.5209999999999999, 0.27, -0.42300000000000004, 1.169, 0.7320000000000002, -0.18599999999999994], 0.8630566801619434),
    (269, [-0.712, 1.185, -1.665, 1.5380000000000003, 0.5209999999999999, 0.27, -0.42300000000000004, 1.169, 0.7320000000000002, -0.18599999999999994], 0.8630566801619434),
    (270, [-0.712, 1.185, -1.665, 1.5380000000000003, 0.5209999999999999, 0.27, -0.42300000000000004, 1.169, 0.7320000000000002, -0.18599999999999994], 0.8630566801619434),
    (271, [-0.712, 1.185, -1.665, 1.5380000000000003, 0.5209999999999999, 0.27, -0.42300000000000004, 1.169, 0.7320000000000002, -0.18599999999999994], 0.8630566801619434),
    (272, [-0.712, 1.185, -1.665, 1.5380000000000003, 0.5209999999999999, 0.27, -0.42300000000000004, 1.169, 0.7320000000000002, -0.18599999999999994], 0.8630566801619434),
    (273, [-0.712, 1.185, -1.665, 1.5380000000000003, 0.5209999999999999, 0.27, -0.42300000000000004, 1.169, 0.7320000000000002, -0.18599999999999994], 0.8630566801619434),
    (274, [-0.712, 1.185, -1.665, 1.5380000000000003, 0.5209999999999999, 0.27, -0.42300000000000004, 1.169, 0.7320000000000002, -0.18599999999999994], 0.8630566801619434),
    (275, [-0.712, 1.185, -1.665, 1.5380000000000003, 0.5209999999999999, 0.27, -0.42300000000000004, 1.169, 0.7320000000000002, -0.18599999999999994], 0.8630566801619434),
    (276, [-0.712, 1.185, -1.665, 1.5380000000000003, 0.5209999999999999, 0.27, -0.42300000000000004, 1.169, 0.7320000000000002, -0.18599999999999994], 0.8630566801619434),
    (277, [-0.712, 1.185, -1.665, 1.5380000000000003, 0.5209999999999999, 0.27, -0.42300000000000004, 1.169, 0.7320000000000002, -0.18599999999999994], 0.8630566801619434),
    (278, [-0.712, 1.185, -1.665, 1.5380000000000003, 0.5209999999999999, 0.27, -0.42300000000000004, 1.169, 0.7320000000000002, -0.18599999999999994], 0.8630566801619434),
    (279, [-0.712, 1.185, -1.665, 1.5380000000000003, 0.5209999999999999, 0.27, -0.42300000000000004, 1.169, 0.7320000000000002, -0.18599999999999994], 0.8630566801619434),
    (280, [-0.712, 1.185, -1.665, 1.5380000000000003, 0.5209999999999999, 0.27, -0.42300000000000004, 1.169, 0.7320000000000002, -0.18599999999999994], 0.8630566801619434),
    (281, [-0.712, 1.185, -1.665, 1.5380000000000003, 0.5209999999999999, 0.27, -0.42300000000000004, 1.169, 0.7320000000000002, -0.18599999999999994], 0.8630566801619434),
    (282, [-0.712, 1.185, -1.665, 1.5380000000000003, 0.5209999999999999, 0.27, -0.42300000000000004, 1.169, 0.7320000000000002, -0.18599999999999994], 0.8630566801619434),
    (283, [-0.712, 1.185, -1.665, 1.5380000000000003, 0.5209999999999999, 0.27, -0.42300000000000004, 1.169, 0.7320000000000002, -0.18599999999999994], 0.8630566801619434),
    (284, [-0.712, 1.185, -1.665, 1.5380000000000003, 0.5209999999999999, 0.27, -0.42300000000000004, 1.169, 0.7320000000000002, -0.18599999999999994], 0.8630566801619434),
    (285, [-0.712, 1.185, -1.665, 1.5380000000000003, 0.5209999999999999, 0.27, -0.42300000000000004, 1.169, 0.7320000000000002, -0.18599999999999994], 0.8630566801619434),
    (286, [-0.712, 1.185, -1.665, 1.5380000000000003, 0.5209999999999999, 0.27, -0.42300000000000004, 1.169, 0.7320000000000002, -0.18599999999999994], 0.8630566801619434),
    (287, [-0.712, 1.185, -1.665, 1.5380000000000003, 0.5209999999999999, 0.27, -0.42300000000000004, 1.169, 0.7320000000000002, -0.18599999999999994], 0.8630566801619434),
    (288, [-0.712, 1.185, -1.665, 1.5380000000000003, 0.5209999999999999, 0.27, -0.42300000000000004, 1.169, 0.7320000000000002, -0.18599999999999994], 0.8630566801619434),
    (289, [-0.712, 1.185, -1.665, 1.5380000000000003, 0.5209999999999999, 0.27, -0.42300000000000004, 1.169, 0.7320000000000002, -0.18599999999999994], 0.8630566801619434),
    (290, [-0.712, 1.185, -1.665, 1.5380000000000003, 0.5209999999999999, 0.27, -0.42300000000000004, 1.169, 0.7320000000000002, -0.18599999999999994], 0.8630566801619434),
    (291, [-0.712, 1.185, -1.665, 1.5380000000000003, 0.5209999999999999, 0.27, -0.42300000000000004, 1.169, 0.7320000000000002, -0.18599999999999994], 0.8630566801619434),
    (292, [-0.712, 1.185, -1.665, 1.5380000000000003, 0.5209999999999999, 0.27, -0.42300000000000004, 1.169, 0.7320000000000002, -0.18599999999999994], 0.8630566801619434),
    (293, [-0.712, 1.185, -1.665, 1.5380000000000003, 0.5209999999999999, 0.27, -0.42300000000000004, 1.169, 0.7320000000000002, -0.18599999999999994], 0.8630566801619434),
    (294, [-0.712, 1.185, -1.665, 1.5380000000000003, 0.5209999999999999, 0.27, -0.42300000000000004, 1.169, 0.7320000000000002, -0.18599999999999994], 0.8630566801619434),
    (295, [-0.712, 1.185, -1.665, 1.5380000000000003, 0.5209999999999999, 0.27, -0.42300000000000004, 1.169, 0.7320000000000002, -0.18599999999999994], 0.8630566801619434),
    (296, [-0.712, 1.185, -1.665, 1.5380000000000003, 0.5209999999999999, 0.27, -0.42300000000000004, 1.169, 0.7320000000000002, -0.18599999999999994], 0.8630566801619434),
    (297, [-0.712, 1.185, -1.665, 1.5380000000000003, 0.5209999999999999, 0.27, -0.42300000000000004, 1.169, 0.7320000000000002, -0.18599999999999994], 0.8630566801619434),
    (298, [-0.712, 1.185, -1.665, 1.5380000000000003, 0.5209999999999999, 0.27, -0.42300000000000004, 1.169, 0.7320000000000002, -0.18599999999999994], 0.8630566801619434),
    (299, [-0.712, 1.185, -1.665, 1.5380000000000003, 0.5209999999999999, 0.27, -0.42300000000000004, 1.169, 0.7320000000000002, -0.18599999999999994], 0.8630566801619434),
]

