ranges of every chromosome : (-1, 1)
    selection method is: RouletteWheelSelection
    crossover method is: UniformCrossover
    pc: The probability of crossover: 0.850000
    pe: Gene exchange probability: 0.700000
    mutation method is: FlipBitBigMutation
    pm: The probability of mutation: 0.100000
    pbm: The probability of big mutation: 0.500000
    alpha: intensive factor: 0.600000
best_fit = [
    (0, [-0.31499999999999995, -0.277, 0.17599999999999993, 0.2270000000000001, 0.845, -0.46199999999999997, 0.728, 0.29400000000000004, -0.28300000000000003, -0.44399999999999995], 0.8527867746288799),
    (1, [-0.31499999999999995, -0.277, 0.17599999999999993, 0.2270000000000001, 0.845, -0.46199999999999997, 0.728, 0.29400000000000004, -0.28300000000000003, -0.44399999999999995], 0.8527867746288799),
    (2, [-0.31499999999999995, -0.277, 0.17599999999999993, 0.2270000000000001, 0.845, -0.46199999999999997, 0.728, 0.29400000000000004, -0.28300000000000003, -0.44399999999999995], 0.8527867746288799),
    (3, [-0.31499999999999995, -0.277, 0.17599999999999993, 0.2270000000000001, 0.845, -0.46199999999999997, 0.728, 0.29400000000000004, -0.28300000000000003, -0.44399999999999995], 0.8527867746288799),
    (4, [-0.31499999999999995, -0.277, 0.17599999999999993, 0.2270000000000001, 0.845, -0.46199999999999997, 0.728, 0.29400000000000004, -0.28300000000000003, -0.44399999999999995], 0.8527867746288799),
    (5, [-0.31499999999999995, -0.277, 0.17599999999999993, 0.2270000000000001, 0.845, -0.46199999999999997, 0.728, 0.29400000000000004, -0.28300000000000003, -0.44399999999999995], 0.8527867746288799),
    (6, [-0.31499999999999995, -0.277, 0.17599999999999993, 0.2270000000000001, 0.845, -0.46199999999999997, 0.728, 0.29400000000000004, -0.28300000000000003, -0.44399999999999995], 0.8527867746288799),
    (7, [-0.31499999999999995, -0.277, 0.17599999999999993, 0.2270000000000001, 0.845, -0.46199999999999997, 0.728, 0.29400000000000004, -0.28300000000000003, -0.44399999999999995], 0.8527867746288799),
    (8, [-0.31499999999999995, -0.277, 0.17599999999999993, 0.2270000000000001, 0.845, -0.46199999999999997, 0.728, 0.29400000000000004, -0.28300000000000003, -0.44399999999999995], 0.8527867746288799),
    (9, [-0.31499999999999995, -0.277, 0.17599999999999993, 0.2270000000000001, 0.845, -0.46199999999999997, 0.728, 0.29400000000000004, -0.28300000000000003, -0.44399999999999995], 0.8527867746288799),
    (10, [-0.31499999999999995, -0.277, 0.17599999999999993, 0.2270000000000001, 0.845, -0.46199999999999997, 0.728, 0.29400000000000004, -0.28300000000000003, -0.44399999999999995], 0.8527867746288799),
    (11, [-0.31499999999999995, -0.277, 0.17599999999999993, 0.2270000000000001, 0.845, -0.46199999999999997, 0.728, 0.29400000000000004, -0.28300000000000003, -0.44399999999999995], 0.8527867746288799),
    (12, [-0.31499999999999995, -0.277, 0.17599999999999993, 0.2270000000000001, 0.845, -0.46199999999999997, 0.728, 0.29400000000000004, -0.28300000000000003, -0.44399999999999995], 0.8527867746288799),
    (13, [-0.31499999999999995, -0.277, 0.17599999999999993, 0.2270000000000001, 0.845, -0.46199999999999997, 0.728, 0.29400000000000004, -0.28300000000000003, -0.44399999999999995], 0.8527867746288799),
    (14, [-0.5700000000000001, 0.2610000000000001, -0.09999999999999998, 0.19799999999999995, -0.486, 0.6480000000000001, 0.27700000000000014, -0.734, 0.387, -0.30299999999999994], 0.8576585695006747),
    (15, [-0.5700000000000001, 0.2610000000000001, -0.09999999999999998, 0.19799999999999995, -0.486, 0.6480000000000001, 0.27700000000000014, -0.734, 0.387, -0.30299999999999994], 0.8576585695006747),
    (16, [-0.5700000000000001, 0.2610000000000001, -0.09999999999999998, 0.19799999999999995, -0.486, 0.6480000000000001, 0.27700000000000014, -0.734, 0.387, -0.30299999999999994], 0.8576585695006747),
    (17, [-0.5700000000000001, 0.2610000000000001, -0.09999999999999998, 0.19799999999999995, -0.486, 0.6480000000000001, 0.27700000000000014, -0.734, 0.387, -0.30299999999999994], 0.8576585695006747),
    (18, [-0.5700000000000001, 0.2610000000000001, -0.09999999999999998, 0.19799999999999995, -0.486, 0.6480000000000001, 0.27700000000000014, -0.734, 0.387, -0.30299999999999994], 0.8576585695006747),
    (19, [-0.5700000000000001, 0.2610000000000001, -0.09999999999999998, 0.19799999999999995, -0.486, 0.6480000000000001, 0.27700000000000014, -0.734, 0.387, -0.30299999999999994], 0.8576585695006747),
    (20, [-0.5700000000000001, 0.2610000000000001, -0.09999999999999998, 0.19799999999999995, -0.486, 0.6480000000000001, 0.27700000000000014, -0.734, 0.387, -0.30299999999999994], 0.8576585695006747),
    (21, [-0.5700000000000001, 0.2610000000000001, -0.09999999999999998, 0.19799999999999995, -0.486, 0.6480000000000001, 0.27700000000000014, -0.734, 0.387, -0.30299999999999994], 0.8576585695006747),
    (22, [-0.5700000000000001, 0.2610000000000001, -0.09999999999999998, 0.19799999999999995, -0.486, 0.6480000000000001, 0.27700000000000014, -0.734, 0.387, -0.30299999999999994], 0.8576585695006747),
    (23, [-0.5700000000000001, 0.2610000000000001, -0.09999999999999998, 0.19799999999999995, -0.486, 0.6480000000000001, 0.27700000000000014, -0.734, 0.387, -0.30299999999999994], 0.8576585695006747),
    (24, [-0.5700000000000001, 0.2610000000000001, -0.09999999999999998, 0.19799999999999995, -0.486, 0.6480000000000001, 0.27700000000000014, -0.734, 0.387, -0.30299999999999994], 0.8576585695006747),
    (25, [-0.5700000000000001, 0.2610000000000001, -0.09999999999999998, 0.19799999999999995, -0.486, 0.6480000000000001, 0.27700000000000014, -0.734, 0.387, -0.30299999999999994], 0.8576585695006747),
    (26, [-0.5700000000000001, 0.2610000000000001, -0.09999999999999998, 0.19799999999999995, -0.486, 0.6480000000000001, 0.27700000000000014, -0.734, 0.387, -0.30299999999999994], 0.8576585695006747),
    (27, [-0.5700000000000001, 0.2610000000000001, -0.09999999999999998, 0.19799999999999995, -0.486, 0.6480000000000001, 0.27700000000000014, -0.734, 0.387, -0.30299999999999994], 0.8576585695006747),
    (28, [-0.5700000000000001, 0.2610000000000001, -0.09999999999999998, 0.19799999999999995, -0.486, 0.6480000000000001, 0.27700000000000014, -0.734, 0.387, -0.30299999999999994], 0.8576585695006747),
    (29, [-0.5700000000000001, 0.2610000000000001, -0.09999999999999998, 0.19799999999999995, -0.486, 0.6480000000000001, 0.27700000000000014, -0.734, 0.387, -0.30299999999999994], 0.8576585695006747),
    (30, [-0.5700000000000001, 0.2610000000000001, -0.09999999999999998, 0.19799999999999995, -0.486, 0.6480000000000001, 0.27700000000000014, -0.734, 0.387, -0.30299999999999994], 0.8576585695006747),
    (31, [-0.5700000000000001, 0.2610000000000001, -0.09999999999999998, 0.19799999999999995, -0.486, 0.6480000000000001, 0.27700000000000014, -0.734, 0.387, -0.30299999999999994], 0.8576585695006747),
    (32, [-0.5700000000000001, 0.2610000000000001, -0.09999999999999998, 0.19799999999999995, -0.486, 0.6480000000000001, 0.27700000000000014, -0.734, 0.387, -0.30299999999999994], 0.8576585695006747),
    (33, [-0.5700000000000001, 0.2610000000000001, -0.09999999999999998, 0.19799999999999995, -0.486, 0.6480000000000001, 0.27700000000000014, -0.734, 0.387, -0.30299999999999994], 0.8576585695006747),
    (34, [-0.5700000000000001, 0.2610000000000001, -0.09999999999999998, 0.19799999999999995, -0.486, 0.6480000000000001, 0.27700000000000014, -0.734, 0.387, -0.30299999999999994], 0.8576585695006747),
    (35, [-0.5700000000000001, 0.2610000000000001, -0.09999999999999998, 0.19799999999999995, -0.486, 0.6480000000000001, 0.27700000000000014, -0.734, 0.387, -0.30299999999999994], 0.8576585695006747),
    (36, [-0.5700000000000001, 0.2610000000000001, -0.09999999999999998, 0.19799999999999995, -0.486, 0.6480000000000001, 0.27700000000000014, -0.734, 0.387, -0.30299999999999994], 0.8576585695006747),
    (37, [-0.5700000000000001, 0.2610000000000001, -0.09999999999999998, 0.19799999999999995, -0.486, 0.6480000000000001, 0.27700000000000014, -0.734, 0.387, -0.30299999999999994], 0.8576585695006747),
    (38, [-0.5700000000000001, 0.2610000000000001, -0.09999999999999998, 0.19799999999999995, -0.486, 0.6480000000000001, 0.27700000000000014, -0.734, 0.387, -0.30299999999999994], 0.8576585695006747),
    (39, [-0.5700000000000001, 0.2610000000000001, -0.09999999999999998, 0.19799999999999995, -0.486, 0.6480000000000001, 0.27700000000000014, -0.734, 0.387, -0.30299999999999994], 0.8576585695006747),
    (40, [-0.5700000000000001, 0.2610000000000001, -0.09999999999999998, 0.19799999999999995, -0.486, 0.6480000000000001, 0.27700000000000014, -0.734, 0.387, -0.30299999999999994], 0.8576585695006747),
    (41, [-0.5700000000000001, 0.2610000000000001, -0.09999999999999998, 0.19799999999999995, -0.486, 0.6480000000000001, 0.27700000000000014, -0.734, 0.387, -0.30299999999999994], 0.8576585695006747),
    (42, [-0.5700000000000001, 0.2610000000000001, -0.09999999999999998, 0.19799999999999995, -0.486, 0.6480000000000001, 0.27700000000000014, -0.734, 0.387, -0.30299999999999994], 0.8576585695006747),
    (43, [-0.5700000000000001, 0.2610000000000001, -0.09999999999999998, 0.19799999999999995, -0.486, 0.6480000000000001, 0.27700000000000014, -0.734, 0.387, -0.30299999999999994], 0.8576585695006747),
    (44, [-0.5700000000000001, 0.2610000000000001, -0.09999999999999998, 0.19799999999999995, -0.486, 0.6480000000000001, 0.27700000000000014, -0.734, 0.387, -0.30299999999999994], 0.8576585695006747),
    (45, [-0.5700000000000001, 0.2610000000000001, -0.09999999999999998, 0.19799999999999995, -0.486, 0.6480000000000001, 0.27700000000000014, -0.734, 0.387, -0.30299999999999994], 0.8576585695006747),
    (46, [-0.5700000000000001, 0.2610000000000001, -0.09999999999999998, 0.19799999999999995, -0.486, 0.6480000000000001, 0.27700000000000014, -0.734, 0.387, -0.30299999999999994], 0.8576585695006747),
    (47, [-0.5700000000000001, 0.2610000000000001, -0.09999999999999998, 0.19799999999999995, -0.486, 0.6480000000000001, 0.27700000000000014, -0.734, 0.387, -0.30299999999999994], 0.8576585695006747),
    (48, [-0.5700000000000001, 0.2610000000000001, -0.09999999999999998, 0.19799999999999995, -0.486, 0.6480000000000001, 0.27700000000000014, -0.734, 0.387, -0.30299999999999994], 0.8576585695006747),
    (49, [-0.5700000000000001, 0.2610000000000001, -0.09999999999999998, 0.19799999999999995, -0.486, 0.6480000000000001, 0.27700000000000014, -0.734, 0.387, -0.30299999999999994], 0.8576585695006747),
    (50, [0.4710000000000001, 0.17100000000000004, -0.038000000000000034, -0.29600000000000004, 0.8700000000000001, 0.484, 0.42700000000000005, -0.899, 0.976, -0.663], 0.8577935222672064),
    (51, [0.4710000000000001, 0.17100000000000004, -0.038000000000000034, -0.29600000000000004, 0.8700000000000001, 0.484, 0.42700000000000005, -0.899, 0.976, -0.663], 0.8577935222672064),
    (52, [0.4710000000000001, 0.17100000000000004, -0.038000000000000034, -0.29600000000000004, 0.8700000000000001, 0.484, 0.42700000000000005, -0.899, 0.976, -0.663], 0.8577935222672064),
    (53, [0.4710000000000001, 0.17100000000000004, -0.038000000000000034, -0.29600000000000004, 0.8700000000000001, 0.484, 0.42700000000000005, -0.899, 0.976, -0.663], 0.8577935222672064),
    (54, [0.4710000000000001, 0.17100000000000004, -0.038000000000000034, -0.29600000000000004, 0.8700000000000001, 0.484, 0.42700000000000005, -0.899, 0.976, -0.663], 0.8577935222672064),
    (55, [0.4710000000000001, 0.17100000000000004, -0.038000000000000034, -0.29600000000000004, 0.8700000000000001, 0.484, 0.42700000000000005, -0.899, 0.976, -0.663], 0.8577935222672064),
    (56, [0.4710000000000001, 0.17100000000000004, -0.038000000000000034, -0.29600000000000004, 0.8700000000000001, 0.484, 0.42700000000000005, -0.899, 0.976, -0.663], 0.8577935222672064),
    (57, [0.4710000000000001, 0.17100000000000004, -0.038000000000000034, -0.29600000000000004, 0.8700000000000001, 0.484, 0.42700000000000005, -0.899, 0.976, -0.663], 0.8577935222672064),
    (58, [0.4710000000000001, 0.17100000000000004, -0.038000000000000034, -0.29600000000000004, 0.8700000000000001, 0.484, 0.42700000000000005, -0.899, 0.976, -0.663], 0.8577935222672064),
    (59, [0.4710000000000001, 0.17100000000000004, -0.038000000000000034, -0.29600000000000004, 0.8700000000000001, 0.484, 0.42700000000000005, -0.899, 0.976, -0.663], 0.8577935222672064),
    (60, [0.4710000000000001, 0.17100000000000004, -0.038000000000000034, -0.29600000000000004, 0.8700000000000001, 0.484, 0.42700000000000005, -0.899, 0.976, -0.663], 0.8577935222672064),
    (61, [0.4710000000000001, 0.17100000000000004, -0.038000000000000034, -0.29600000000000004, 0.8700000000000001, 0.484, 0.42700000000000005, -0.899, 0.976, -0.663], 0.8577935222672064),
    (62, [0.4710000000000001, 0.17100000000000004, -0.038000000000000034, -0.29600000000000004, 0.8700000000000001, 0.484, 0.42700000000000005, -0.899, 0.976, -0.663], 0.8577935222672064),
    (63, [0.4710000000000001, 0.17100000000000004, -0.038000000000000034, -0.29600000000000004, 0.8700000000000001, 0.484, 0.42700000000000005, -0.899, 0.976, -0.663], 0.8577935222672064),
    (64, [0.4710000000000001, 0.17100000000000004, -0.038000000000000034, -0.29600000000000004, 0.8700000000000001, 0.484, 0.42700000000000005, -0.899, 0.976, -0.663], 0.8577935222672064),
    (65, [0.4710000000000001, 0.17100000000000004, -0.038000000000000034, -0.29600000000000004, 0.8700000000000001, 0.484, 0.42700000000000005, -0.899, 0.976, -0.663], 0.8577935222672064),
    (66, [0.4710000000000001, 0.17100000000000004, -0.038000000000000034, -0.29600000000000004, 0.8700000000000001, 0.484, 0.42700000000000005, -0.899, 0.976, -0.663], 0.8577935222672064),
    (67, [0.4710000000000001, 0.17100000000000004, -0.038000000000000034, -0.29600000000000004, 0.8700000000000001, 0.484, 0.42700000000000005, -0.899, 0.976, -0.663], 0.8577935222672064),
    (68, [0.4710000000000001, 0.17100000000000004, -0.038000000000000034, -0.29600000000000004, 0.8700000000000001, 0.484, 0.42700000000000005, -0.899, 0.976, -0.663], 0.8577935222672064),
    (69, [0.4710000000000001, 0.17100000000000004, -0.038000000000000034, -0.29600000000000004, 0.8700000000000001, 0.484, 0.42700000000000005, -0.899, 0.976, -0.663], 0.8577935222672064),
    (70, [0.4710000000000001, 0.17100000000000004, -0.038000000000000034, -0.29600000000000004, 0.8700000000000001, 0.484, 0.42700000000000005, -0.899, 0.976, -0.663], 0.8577935222672064),
    (71, [0.4710000000000001, 0.17100000000000004, -0.038000000000000034, -0.29600000000000004, 0.8700000000000001, 0.484, 0.42700000000000005, -0.899, 0.976, -0.663], 0.8577935222672064),
    (72, [0.4710000000000001, 0.17100000000000004, -0.038000000000000034, -0.29600000000000004, 0.8700000000000001, 0.484, 0.42700000000000005, -0.899, 0.976, -0.663], 0.8577935222672064),
    (73, [0.4710000000000001, 0.17100000000000004, -0.038000000000000034, -0.29600000000000004, 0.8700000000000001, 0.484, 0.42700000000000005, -0.899, 0.976, -0.663], 0.8577935222672064),
    (74, [0.4710000000000001, 0.17100000000000004, -0.038000000000000034, -0.29600000000000004, 0.8700000000000001, 0.484, 0.42700000000000005, -0.899, 0.976, -0.663], 0.8577935222672064),
    (75, [0.4710000000000001, 0.17100000000000004, -0.038000000000000034, -0.29600000000000004, 0.8700000000000001, 0.484, 0.42700000000000005, -0.899, 0.976, -0.663], 0.8577935222672064),
    (76, [0.4710000000000001, 0.17100000000000004, -0.038000000000000034, -0.29600000000000004, 0.8700000000000001, 0.484, 0.42700000000000005, -0.899, 0.976, -0.663], 0.8577935222672064),
    (77, [0.4710000000000001, 0.17100000000000004, -0.038000000000000034, -0.29600000000000004, 0.8700000000000001, 0.484, 0.42700000000000005, -0.899, 0.976, -0.663], 0.8577935222672064),
    (78, [0.4710000000000001, 0.17100000000000004, -0.038000000000000034, -0.29600000000000004, 0.8700000000000001, 0.484, 0.42700000000000005, -0.899, 0.976, -0.663], 0.8577935222672064),
    (79, [0.4710000000000001, 0.17100000000000004, -0.038000000000000034, -0.29600000000000004, 0.8700000000000001, 0.484, 0.42700000000000005, -0.899, 0.976, -0.663], 0.8577935222672064),
    (80, [0.4710000000000001, 0.17100000000000004, -0.038000000000000034, -0.29600000000000004, 0.8700000000000001, 0.484, 0.42700000000000005, -0.899, 0.976, -0.663], 0.8577935222672064),
    (81, [0.4710000000000001, 0.17100000000000004, -0.038000000000000034, -0.29600000000000004, 0.8700000000000001, 0.484, 0.42700000000000005, -0.899, 0.976, -0.663], 0.8577935222672064),
    (82, [0.4710000000000001, 0.17100000000000004, -0.038000000000000034, -0.29600000000000004, 0.8700000000000001, 0.484, 0.42700000000000005, -0.899, 0.976, -0.663], 0.8577935222672064),
    (83, [0.4710000000000001, 0.17100000000000004, -0.038000000000000034, -0.29600000000000004, 0.8700000000000001, 0.484, 0.42700000000000005, -0.899, 0.976, -0.663], 0.8577935222672064),
    (84, [0.4710000000000001, 0.17100000000000004, -0.038000000000000034, -0.29600000000000004, 0.8700000000000001, 0.484, 0.42700000000000005, -0.899, 0.976, -0.663], 0.8577935222672064),
    (85, [0.4710000000000001, 0.17100000000000004, -0.038000000000000034, -0.29600000000000004, 0.8700000000000001, 0.484, 0.42700000000000005, -0.899, 0.976, -0.663], 0.8577935222672064),
    (86, [0.4710000000000001, 0.17100000000000004, -0.038000000000000034, -0.29600000000000004, 0.8700000000000001, 0.484, 0.42700000000000005, -0.899, 0.976, -0.663], 0.8577935222672064),
    (87, [0.4710000000000001, 0.17100000000000004, -0.038000000000000034, -0.29600000000000004, 0.8700000000000001, 0.484, 0.42700000000000005, -0.899, 0.976, -0.663], 0.8577935222672064),
    (88, [0.4710000000000001, 0.17100000000000004, -0.038000000000000034, -0.29600000000000004, 0.8700000000000001, 0.484, 0.42700000000000005, -0.899, 0.976, -0.663], 0.8577935222672064),
    (89, [0.4710000000000001, 0.17100000000000004, -0.038000000000000034, -0.29600000000000004, 0.8700000000000001, 0.484, 0.42700000000000005, -0.899, 0.976, -0.663], 0.8577935222672064),
    (90, [0.4710000000000001, 0.17100000000000004, -0.038000000000000034, -0.29600000000000004, 0.8700000000000001, 0.484, 0.42700000000000005, -0.899, 0.976, -0.663], 0.8577935222672064),
    (91, [0.4710000000000001, 0.17100000000000004, -0.038000000000000034, -0.29600000000000004, 0.8700000000000001, 0.484, 0.42700000000000005, -0.899, 0.976, -0.663], 0.8577935222672064),
    (92, [0.4710000000000001, 0.17100000000000004, -0.038000000000000034, -0.29600000000000004, 0.8700000000000001, 0.484, 0.42700000000000005, -0.899, 0.976, -0.663], 0.8577935222672064),
    (93, [0.4710000000000001, 0.17100000000000004, -0.038000000000000034, -0.29600000000000004, 0.8700000000000001, 0.484, 0.42700000000000005, -0.899, 0.976, -0.663], 0.8577935222672064),
    (94, [0.4710000000000001, 0.17100000000000004, -0.038000000000000034, -0.29600000000000004, 0.8700000000000001, 0.484, 0.42700000000000005, -0.899, 0.976, -0.663], 0.8577935222672064),
    (95, [0.4710000000000001, 0.17100000000000004, -0.038000000000000034, -0.29600000000000004, 0.8700000000000001, 0.484, 0.42700000000000005, -0.899, 0.976, -0.663], 0.8577935222672064),
    (96, [0.4710000000000001, 0.17100000000000004, -0.038000000000000034, -0.29600000000000004, 0.8700000000000001, 0.484, 0.42700000000000005, -0.899, 0.976, -0.663], 0.8577935222672064),
    (97, [0.4710000000000001, 0.17100000000000004, -0.038000000000000034, -0.29600000000000004, 0.8700000000000001, 0.484, 0.42700000000000005, -0.899, 0.976, -0.663], 0.8577935222672064),
    (98, [0.4710000000000001, 0.17100000000000004, -0.038000000000000034, -0.29600000000000004, 0.8700000000000001, 0.484, 0.42700000000000005, -0.899, 0.976, -0.663], 0.8577935222672064),
    (99, [0.4710000000000001, 0.17100000000000004, -0.038000000000000034, -0.29600000000000004, 0.8700000000000001, 0.484, 0.42700000000000005, -0.899, 0.976, -0.663], 0.8577935222672064),
    (100, [0.4710000000000001, 0.17100000000000004, -0.038000000000000034, -0.29600000000000004, 0.8700000000000001, 0.484, 0.42700000000000005, -0.899, 0.976, -0.663], 0.8577935222672064),
    (101, [0.4710000000000001, 0.17100000000000004, -0.038000000000000034, -0.29600000000000004, 0.8700000000000001, 0.484, 0.42700000000000005, -0.899, 0.976, -0.663], 0.8577935222672064),
    (102, [0.4710000000000001, 0.17100000000000004, -0.038000000000000034, -0.29600000000000004, 0.8700000000000001, 0.484, 0.42700000000000005, -0.899, 0.976, -0.663], 0.8577935222672064),
    (103, [0.4710000000000001, 0.17100000000000004, -0.038000000000000034, -0.29600000000000004, 0.8700000000000001, 0.484, 0.42700000000000005, -0.899, 0.976, -0.663], 0.8577935222672064),
    (104, [0.4710000000000001, 0.17100000000000004, -0.038000000000000034, -0.29600000000000004, 0.8700000000000001, 0.484, 0.42700000000000005, -0.899, 0.976, -0.663], 0.8577935222672064),
    (105, [0.4710000000000001, 0.17100000000000004, -0.038000000000000034, -0.29600000000000004, 0.8700000000000001, 0.484, 0.42700000000000005, -0.899, 0.976, -0.663], 0.8577935222672064),
    (106, [0.4710000000000001, 0.17100000000000004, -0.038000000000000034, -0.29600000000000004, 0.8700000000000001, 0.484, 0.42700000000000005, -0.899, 0.976, -0.663], 0.8577935222672064),
    (107, [0.4710000000000001, 0.17100000000000004, -0.038000000000000034, -0.29600000000000004, 0.8700000000000001, 0.484, 0.42700000000000005, -0.899, 0.976, -0.663], 0.8577935222672064),
    (108, [0.4710000000000001, 0.17100000000000004, -0.038000000000000034, -0.29600000000000004, 0.8700000000000001, 0.484, 0.42700000000000005, -0.899, 0.976, -0.663], 0.8577935222672064),
    (109, [0.4710000000000001, 0.17100000000000004, -0.038000000000000034, -0.29600000000000004, 0.8700000000000001, 0.484, 0.42700000000000005, -0.899, 0.976, -0.663], 0.8577935222672064),
    (110, [0.4710000000000001, 0.17100000000000004, -0.038000000000000034, -0.29600000000000004, 0.8700000000000001, 0.484, 0.42700000000000005, -0.899, 0.976, -0.663], 0.8577935222672064),
    (111, [0.4710000000000001, 0.17100000000000004, -0.038000000000000034, -0.29600000000000004, 0.8700000000000001, 0.484, 0.42700000000000005, -0.899, 0.976, -0.663], 0.8577935222672064),
    (112, [0.4710000000000001, 0.17100000000000004, -0.038000000000000034, -0.29600000000000004, 0.8700000000000001, 0.484, 0.42700000000000005, -0.899, 0.976, -0.663], 0.8577935222672064),
    (113, [0.4710000000000001, 0.17100000000000004, -0.038000000000000034, -0.29600000000000004, 0.8700000000000001, 0.484, 0.42700000000000005, -0.899, 0.976, -0.663], 0.8577935222672064),
    (114, [0.4710000000000001, 0.17100000000000004, -0.038000000000000034, -0.29600000000000004, 0.8700000000000001, 0.484, 0.42700000000000005, -0.899, 0.976, -0.663], 0.8577935222672064),
    (115, [0.4710000000000001, 0.17100000000000004, -0.038000000000000034, -0.29600000000000004, 0.8700000000000001, 0.484, 0.42700000000000005, -0.899, 0.976, -0.663], 0.8577935222672064),
    (116, [0.4710000000000001, 0.17100000000000004, -0.038000000000000034, -0.29600000000000004, 0.8700000000000001, 0.484, 0.42700000000000005, -0.899, 0.976, -0.663], 0.8577935222672064),
    (117, [0.4710000000000001, 0.17100000000000004, -0.038000000000000034, -0.29600000000000004, 0.8700000000000001, 0.484, 0.42700000000000005, -0.899, 0.976, -0.663], 0.8577935222672064),
    (118, [0.4710000000000001, 0.17100000000000004, -0.038000000000000034, -0.29600000000000004, 0.8700000000000001, 0.484, 0.42700000000000005, -0.899, 0.976, -0.663], 0.8577935222672064),
    (119, [0.4710000000000001, 0.17100000000000004, -0.038000000000000034, -0.29600000000000004, 0.8700000000000001, 0.484, 0.42700000000000005, -0.899, 0.976, -0.663], 0.8577935222672064),
    (120, [0.4710000000000001, 0.17100000000000004, -0.038000000000000034, -0.29600000000000004, 0.8700000000000001, 0.484, 0.42700000000000005, -0.899, 0.976, -0.663], 0.8577935222672064),
    (121, [0.4710000000000001, 0.17100000000000004, -0.038000000000000034, -0.29600000000000004, 0.8700000000000001, 0.484, 0.42700000000000005, -0.899, 0.976, -0.663], 0.8577935222672064),
    (122, [0.4710000000000001, 0.17100000000000004, -0.038000000000000034, -0.29600000000000004, 0.8700000000000001, 0.484, 0.42700000000000005, -0.899, 0.976, -0.663], 0.8577935222672064),
    (123, [0.4710000000000001, 0.17100000000000004, -0.038000000000000034, -0.29600000000000004, 0.8700000000000001, 0.484, 0.42700000000000005, -0.899, 0.976, -0.663], 0.8577935222672064),
    (124, [0.4710000000000001, 0.17100000000000004, -0.038000000000000034, -0.29600000000000004, 0.8700000000000001, 0.484, 0.42700000000000005, -0.899, 0.976, -0.663], 0.8577935222672064),
    (125, [0.4710000000000001, 0.17100000000000004, -0.038000000000000034, -0.29600000000000004, 0.8700000000000001, 0.484, 0.42700000000000005, -0.899, 0.976, -0.663], 0.8577935222672064),
    (126, [0.4710000000000001, 0.17100000000000004, -0.038000000000000034, -0.29600000000000004, 0.8700000000000001, 0.484, 0.42700000000000005, -0.899, 0.976, -0.663], 0.8577935222672064),
    (127, [0.4710000000000001, 0.17100000000000004, -0.038000000000000034, -0.29600000000000004, 0.8700000000000001, 0.484, 0.42700000000000005, -0.899, 0.976, -0.663], 0.8577935222672064),
    (128, [0.4710000000000001, 0.17100000000000004, -0.038000000000000034, -0.29600000000000004, 0.8700000000000001, 0.484, 0.42700000000000005, -0.899, 0.976, -0.663], 0.8577935222672064),
    (129, [0.4710000000000001, 0.17100000000000004, -0.038000000000000034, -0.29600000000000004, 0.8700000000000001, 0.484, 0.42700000000000005, -0.899, 0.976, -0.663], 0.8577935222672064),
    (130, [0.4710000000000001, 0.17100000000000004, -0.038000000000000034, -0.29600000000000004, 0.8700000000000001, 0.484, 0.42700000000000005, -0.899, 0.976, -0.663], 0.8577935222672064),
    (131, [0.4710000000000001, 0.17100000000000004, -0.038000000000000034, -0.29600000000000004, 0.8700000000000001, 0.484, 0.42700000000000005, -0.899, 0.976, -0.663], 0.8577935222672064),
    (132, [0.4710000000000001, 0.17100000000000004, -0.038000000000000034, -0.29600000000000004, 0.8700000000000001, 0.484, 0.42700000000000005, -0.899, 0.976, -0.663], 0.8577935222672064),
    (133, [0.4710000000000001, 0.17100000000000004, -0.038000000000000034, -0.29600000000000004, 0.8700000000000001, 0.484, 0.42700000000000005, -0.899, 0.976, -0.663], 0.8577935222672064),
    (134, [0.4710000000000001, 0.17100000000000004, -0.038000000000000034, -0.29600000000000004, 0.8700000000000001, 0.484, 0.42700000000000005, -0.899, 0.976, -0.663], 0.8577935222672064),
    (135, [0.4710000000000001, 0.17100000000000004, -0.038000000000000034, -0.29600000000000004, 0.8700000000000001, 0.484, 0.42700000000000005, -0.899, 0.976, -0.663], 0.8577935222672064),
    (136, [0.4710000000000001, 0.17100000000000004, -0.038000000000000034, -0.29600000000000004, 0.8700000000000001, 0.484, 0.42700000000000005, -0.899, 0.976, -0.663], 0.8577935222672064),
    (137, [0.4710000000000001, 0.17100000000000004, -0.038000000000000034, -0.29600000000000004, 0.8700000000000001, 0.484, 0.42700000000000005, -0.899, 0.976, -0.663], 0.8577935222672064),
    (138, [0.4710000000000001, 0.17100000000000004, -0.038000000000000034, -0.29600000000000004, 0.8700000000000001, 0.484, 0.42700000000000005, -0.899, 0.976, -0.663], 0.8577935222672064),
    (139, [0.4710000000000001, 0.17100000000000004, -0.038000000000000034, -0.29600000000000004, 0.8700000000000001, 0.484, 0.42700000000000005, -0.899, 0.976, -0.663], 0.8577935222672064),
    (140, [0.4710000000000001, 0.17100000000000004, -0.038000000000000034, -0.29600000000000004, 0.8700000000000001, 0.484, 0.42700000000000005, -0.899, 0.976, -0.663], 0.8577935222672064),
    (141, [0.4710000000000001, 0.17100000000000004, -0.038000000000000034, -0.29600000000000004, 0.8700000000000001, 0.484, 0.42700000000000005, -0.899, 0.976, -0.663], 0.8577935222672064),
    (142, [0.4710000000000001, 0.17100000000000004, -0.038000000000000034, -0.29600000000000004, 0.8700000000000001, 0.484, 0.42700000000000005, -0.899, 0.976, -0.663], 0.8577935222672064),
    (143, [0.4710000000000001, 0.17100000000000004, -0.038000000000000034, -0.29600000000000004, 0.8700000000000001, 0.484, 0.42700000000000005, -0.899, 0.976, -0.663], 0.8577935222672064),
    (144, [0.4710000000000001, 0.17100000000000004, -0.038000000000000034, -0.29600000000000004, 0.8700000000000001, 0.484, 0.42700000000000005, -0.899, 0.976, -0.663], 0.8577935222672064),
    (145, [0.4710000000000001, 0.17100000000000004, -0.038000000000000034, -0.29600000000000004, 0.8700000000000001, 0.484, 0.42700000000000005, -0.899, 0.976, -0.663], 0.8577935222672064),
    (146, [0.4710000000000001, 0.17100000000000004, -0.038000000000000034, -0.29600000000000004, 0.8700000000000001, 0.484, 0.42700000000000005, -0.899, 0.976, -0.663], 0.8577935222672064),
    (147, [0.4710000000000001, 0.17100000000000004, -0.038000000000000034, -0.29600000000000004, 0.8700000000000001, 0.484, 0.42700000000000005, -0.899, 0.976, -0.663], 0.8577935222672064),
    (148, [0.4710000000000001, 0.17100000000000004, -0.038000000000000034, -0.29600000000000004, 0.8700000000000001, 0.484, 0.42700000000000005, -0.899, 0.976, -0.663], 0.8577935222672064),
    (149, [0.4710000000000001, 0.17100000000000004, -0.038000000000000034, -0.29600000000000004, 0.8700000000000001, 0.484, 0.42700000000000005, -0.899, 0.976, -0.663], 0.8577935222672064),
    (150, [0.4710000000000001, 0.17100000000000004, -0.038000000000000034, -0.29600000000000004, 0.8700000000000001, 0.484, 0.42700000000000005, -0.899, 0.976, -0.663], 0.8577935222672064),
    (151, [0.4710000000000001, 0.17100000000000004, -0.038000000000000034, -0.29600000000000004, 0.8700000000000001, 0.484, 0.42700000000000005, -0.899, 0.976, -0.663], 0.8577935222672064),
    (152, [0.4710000000000001, 0.17100000000000004, -0.038000000000000034, -0.29600000000000004, 0.8700000000000001, 0.484, 0.42700000000000005, -0.899, 0.976, -0.663], 0.8577935222672064),
    (153, [0.4710000000000001, 0.17100000000000004, -0.038000000000000034, -0.29600000000000004, 0.8700000000000001, 0.484, 0.42700000000000005, -0.899, 0.976, -0.663], 0.8577935222672064),
    (154, [0.4710000000000001, 0.17100000000000004, -0.038000000000000034, -0.29600000000000004, 0.8700000000000001, 0.484, 0.42700000000000005, -0.899, 0.976, -0.663], 0.8577935222672064),
    (155, [0.4710000000000001, 0.17100000000000004, -0.038000000000000034, -0.29600000000000004, 0.8700000000000001, 0.484, 0.42700000000000005, -0.899, 0.976, -0.663], 0.8577935222672064),
    (156, [0.4710000000000001, 0.17100000000000004, -0.038000000000000034, -0.29600000000000004, 0.8700000000000001, 0.484, 0.42700000000000005, -0.899, 0.976, -0.663], 0.8577935222672064),
    (157, [0.45399999999999996, 0.7830000000000001, -0.30099999999999993, 0.21500000000000008, -0.743, 0.09000000000000008, -0.917, -0.505, 0.32400000000000007, 0.050000000000000044], 0.8626585695006748),
    (158, [0.45399999999999996, 0.7830000000000001, -0.30099999999999993, 0.21500000000000008, -0.743, 0.09000000000000008, -0.917, -0.505, 0.32400000000000007, 0.050000000000000044], 0.8626585695006748),
    (159, [0.45399999999999996, 0.7830000000000001, -0.30099999999999993, 0.21500000000000008, -0.743, 0.09000000000000008, -0.917, -0.505, 0.32400000000000007, 0.050000000000000044], 0.8626585695006748),
    (160, [0.45399999999999996, 0.7830000000000001, -0.30099999999999993, 0.21500000000000008, -0.743, 0.09000000000000008, -0.917, -0.505, 0.32400000000000007, 0.050000000000000044], 0.8626585695006748),
    (161, [0.45399999999999996, 0.7830000000000001, -0.30099999999999993, 0.21500000000000008, -0.743, 0.09000000000000008, -0.917, -0.505, 0.32400000000000007, 0.050000000000000044], 0.8626585695006748),
    (162, [0.45399999999999996, 0.7830000000000001, -0.30099999999999993, 0.21500000000000008, -0.743, 0.09000000000000008, -0.917, -0.505, 0.32400000000000007, 0.050000000000000044], 0.8626585695006748),
    (163, [0.45399999999999996, 0.7830000000000001, -0.30099999999999993, 0.21500000000000008, -0.743, 0.09000000000000008, -0.917, -0.505, 0.32400000000000007, 0.050000000000000044], 0.8626585695006748),
    (164, [0.45399999999999996, 0.7830000000000001, -0.30099999999999993, 0.21500000000000008, -0.743, 0.09000000000000008, -0.917, -0.505, 0.32400000000000007, 0.050000000000000044], 0.8626585695006748),
    (165, [0.45399999999999996, 0.7830000000000001, -0.30099999999999993, 0.21500000000000008, -0.743, 0.09000000000000008, -0.917, -0.505, 0.32400000000000007, 0.050000000000000044], 0.8626585695006748),
    (166, [0.45399999999999996, 0.7830000000000001, -0.30099999999999993, 0.21500000000000008, -0.743, 0.09000000000000008, -0.917, -0.505, 0.32400000000000007, 0.050000000000000044], 0.8626585695006748),
    (167, [0.45399999999999996, 0.7830000000000001, -0.30099999999999993, 0.21500000000000008, -0.743, 0.09000000000000008, -0.917, -0.505, 0.32400000000000007, 0.050000000000000044], 0.8626585695006748),
    (168, [0.45399999999999996, 0.7830000000000001, -0.30099999999999993, 0.21500000000000008, -0.743, 0.09000000000000008, -0.917, -0.505, 0.32400000000000007, 0.050000000000000044], 0.8626585695006748),
    (169, [0.45399999999999996, 0.7830000000000001, -0.30099999999999993, 0.21500000000000008, -0.743, 0.09000000000000008, -0.917, -0.505, 0.32400000000000007, 0.050000000000000044], 0.8626585695006748),
    (170, [0.45399999999999996, 0.7830000000000001, -0.30099999999999993, 0.21500000000000008, -0.743, 0.09000000000000008, -0.917, -0.505, 0.32400000000000007, 0.050000000000000044], 0.8626585695006748),
    (171, [0.45399999999999996, 0.7830000000000001, -0.30099999999999993, 0.21500000000000008, -0.743, 0.09000000000000008, -0.917, -0.505, 0.32400000000000007, 0.050000000000000044], 0.8626585695006748),
    (172, [0.45399999999999996, 0.7830000000000001, -0.30099999999999993, 0.21500000000000008, -0.743, 0.09000000000000008, -0.917, -0.505, 0.32400000000000007, 0.050000000000000044], 0.8626585695006748),
    (173, [0.45399999999999996, 0.7830000000000001, -0.30099999999999993, 0.21500000000000008, -0.743, 0.09000000000000008, -0.917, -0.505, 0.32400000000000007, 0.050000000000000044], 0.8626585695006748),
    (174, [0.45399999999999996, 0.7830000000000001, -0.30099999999999993, 0.21500000000000008, -0.743, 0.09000000000000008, -0.917, -0.505, 0.32400000000000007, 0.050000000000000044], 0.8626585695006748),
    (175, [0.45399999999999996, 0.7830000000000001, -0.30099999999999993, 0.21500000000000008, -0.743, 0.09000000000000008, -0.917, -0.505, 0.32400000000000007, 0.050000000000000044], 0.8626585695006748),
    (176, [0.45399999999999996, 0.7830000000000001, -0.30099999999999993, 0.21500000000000008, -0.743, 0.09000000000000008, -0.917, -0.505, 0.32400000000000007, 0.050000000000000044], 0.8626585695006748),
    (177, [0.45399999999999996, 0.7830000000000001, -0.30099999999999993, 0.21500000000000008, -0.743, 0.09000000000000008, -0.917, -0.505, 0.32400000000000007, 0.050000000000000044], 0.8626585695006748),
    (178, [0.45399999999999996, 0.7830000000000001, -0.30099999999999993, 0.21500000000000008, -0.743, 0.09000000000000008, -0.917, -0.505, 0.32400000000000007, 0.050000000000000044], 0.8626585695006748),
    (179, [0.45399999999999996, 0.7830000000000001, -0.30099999999999993, 0.21500000000000008, -0.743, 0.09000000000000008, -0.917, -0.505, 0.32400000000000007, 0.050000000000000044], 0.8626585695006748),
    (180, [0.45399999999999996, 0.7830000000000001, -0.30099999999999993, 0.21500000000000008, -0.743, 0.09000000000000008, -0.917, -0.505, 0.32400000000000007, 0.050000000000000044], 0.8626585695006748),
    (181, [0.45399999999999996, 0.7830000000000001, -0.30099999999999993, 0.21500000000000008, -0.743, 0.09000000000000008, -0.917, -0.505, 0.32400000000000007, 0.050000000000000044], 0.8626585695006748),
    (182, [0.45399999999999996, 0.7830000000000001, -0.30099999999999993, 0.21500000000000008, -0.743, 0.09000000000000008, -0.917, -0.505, 0.32400000000000007, 0.050000000000000044], 0.8626585695006748),
    (183, [0.45399999999999996, 0.7830000000000001, -0.30099999999999993, 0.21500000000000008, -0.743, 0.09000000000000008, -0.917, -0.505, 0.32400000000000007, 0.050000000000000044], 0.8626585695006748),
    (184, [0.45399999999999996, 0.7830000000000001, -0.30099999999999993, 0.21500000000000008, -0.743, 0.09000000000000008, -0.917, -0.505, 0.32400000000000007, 0.050000000000000044], 0.8626585695006748),
    (185, [0.45399999999999996, 0.7830000000000001, -0.30099999999999993, 0.21500000000000008, -0.743, 0.09000000000000008, -0.917, -0.505, 0.32400000000000007, 0.050000000000000044], 0.8626585695006748),
    (186, [0.45399999999999996, 0.7830000000000001, -0.30099999999999993, 0.21500000000000008, -0.743, 0.09000000000000008, -0.917, -0.505, 0.32400000000000007, 0.050000000000000044], 0.8626585695006748),
    (187, [0.45399999999999996, 0.7830000000000001, -0.30099999999999993, 0.21500000000000008, -0.743, 0.09000000000000008, -0.917, -0.505, 0.32400000000000007, 0.050000000000000044], 0.8626585695006748),
    (188, [0.45399999999999996, 0.7830000000000001, -0.30099999999999993, 0.21500000000000008, -0.743, 0.09000000000000008, -0.917, -0.505, 0.32400000000000007, 0.050000000000000044], 0.8626585695006748),
    (189, [0.45399999999999996, 0.7830000000000001, -0.30099999999999993, 0.21500000000000008, -0.743, 0.09000000000000008, -0.917, -0.505, 0.32400000000000007, 0.050000000000000044], 0.8626585695006748),
    (190, [0.45399999999999996, 0.7830000000000001, -0.30099999999999993, 0.21500000000000008, -0.743, 0.09000000000000008, -0.917, -0.505, 0.32400000000000007, 0.050000000000000044], 0.8626585695006748),
    (191, [0.45399999999999996, 0.7830000000000001, -0.30099999999999993, 0.21500000000000008, -0.743, 0.09000000000000008, -0.917, -0.505, 0.32400000000000007, 0.050000000000000044], 0.8626585695006748),
    (192, [0.45399999999999996, 0.7830000000000001, -0.30099999999999993, 0.21500000000000008, -0.743, 0.09000000000000008, -0.917, -0.505, 0.32400000000000007, 0.050000000000000044], 0.8626585695006748),
    (193, [0.45399999999999996, 0.7830000000000001, -0.30099999999999993, 0.21500000000000008, -0.743, 0.09000000000000008, -0.917, -0.505, 0.32400000000000007, 0.050000000000000044], 0.8626585695006748),
    (194, [0.45399999999999996, 0.7830000000000001, -0.30099999999999993, 0.21500000000000008, -0.743, 0.09000000000000008, -0.917, -0.505, 0.32400000000000007, 0.050000000000000044], 0.8626585695006748),
    (195, [0.45399999999999996, 0.7830000000000001, -0.30099999999999993, 0.21500000000000008, -0.743, 0.09000000000000008, -0.917, -0.505, 0.32400000000000007, 0.050000000000000044], 0.8626585695006748),
    (196, [0.45399999999999996, 0.7830000000000001, -0.30099999999999993, 0.21500000000000008, -0.743, 0.09000000000000008, -0.917, -0.505, 0.32400000000000007, 0.050000000000000044], 0.8626585695006748),
    (197, [0.45399999999999996, 0.7830000000000001, -0.30099999999999993, 0.21500000000000008, -0.743, 0.09000000000000008, -0.917, -0.505, 0.32400000000000007, 0.050000000000000044], 0.8626585695006748),
    (198, [0.45399999999999996, 0.7830000000000001, -0.30099999999999993, 0.21500000000000008, -0.743, 0.09000000000000008, -0.917, -0.505, 0.32400000000000007, 0.050000000000000044], 0.8626585695006748),
    (199, [0.45399999999999996, 0.7830000000000001, -0.30099999999999993, 0.21500000000000008, -0.743, 0.09000000000000008, -0.917, -0.505, 0.32400000000000007, 0.050000000000000044], 0.8626585695006748),
    (200, [0.45399999999999996, 0.7830000000000001, -0.30099999999999993, 0.21500000000000008, -0.743, 0.09000000000000008, -0.917, -0.505, 0.32400000000000007, 0.050000000000000044], 0.8626585695006748),
    (201, [0.45399999999999996, 0.7830000000000001, -0.30099999999999993, 0.21500000000000008, -0.743, 0.09000000000000008, -0.917, -0.505, 0.32400000000000007, 0.050000000000000044], 0.8626585695006748),
    (202, [0.45399999999999996, 0.7830000000000001, -0.30099999999999993, 0.21500000000000008, -0.743, 0.09000000000000008, -0.917, -0.505, 0.32400000000000007, 0.050000000000000044], 0.8626585695006748),
    (203, [0.45399999999999996, 0.7830000000000001, -0.30099999999999993, 0.21500000000000008, -0.743, 0.09000000000000008, -0.917, -0.505, 0.32400000000000007, 0.050000000000000044], 0.8626585695006748),
    (204, [0.45399999999999996, 0.7830000000000001, -0.30099999999999993, 0.21500000000000008, -0.743, 0.09000000000000008, -0.917, -0.505, 0.32400000000000007, 0.050000000000000044], 0.8626585695006748),
    (205, [0.45399999999999996, 0.7830000000000001, -0.30099999999999993, 0.21500000000000008, -0.743, 0.09000000000000008, -0.917, -0.505, 0.32400000000000007, 0.050000000000000044], 0.8626585695006748),
    (206, [0.45399999999999996, 0.7830000000000001, -0.30099999999999993, 0.21500000000000008, -0.743, 0.09000000000000008, -0.917, -0.505, 0.32400000000000007, 0.050000000000000044], 0.8626585695006748),
    (207, [0.45399999999999996, 0.7830000000000001, -0.30099999999999993, 0.21500000000000008, -0.743, 0.09000000000000008, -0.917, -0.505, 0.32400000000000007, 0.050000000000000044], 0.8626585695006748),
    (208, [0.45399999999999996, 0.7830000000000001, -0.30099999999999993, 0.21500000000000008, -0.743, 0.09000000000000008, -0.917, -0.505, 0.32400000000000007, 0.050000000000000044], 0.8626585695006748),
    (209, [0.45399999999999996, 0.7830000000000001, -0.30099999999999993, 0.21500000000000008, -0.743, 0.09000000000000008, -0.917, -0.505, 0.32400000000000007, 0.050000000000000044], 0.8626585695006748),
    (210, [0.45399999999999996, 0.7830000000000001, -0.30099999999999993, 0.21500000000000008, -0.743, 0.09000000000000008, -0.917, -0.505, 0.32400000000000007, 0.050000000000000044], 0.8626585695006748),
    (211, [0.45399999999999996, 0.7830000000000001, -0.30099999999999993, 0.21500000000000008, -0.743, 0.09000000000000008, -0.917, -0.505, 0.32400000000000007, 0.050000000000000044], 0.8626585695006748),
    (212, [0.45399999999999996, 0.7830000000000001, -0.30099999999999993, 0.21500000000000008, -0.743, 0.09000000000000008, -0.917, -0.505, 0.32400000000000007, 0.050000000000000044], 0.8626585695006748),
    (213, [0.45399999999999996, 0.7830000000000001, -0.30099999999999993, 0.21500000000000008, -0.743, 0.09000000000000008, -0.917, -0.505, 0.32400000000000007, 0.050000000000000044], 0.8626585695006748),
    (214, [0.45399999999999996, 0.7830000000000001, -0.30099999999999993, 0.21500000000000008, -0.743, 0.09000000000000008, -0.917, -0.505, 0.32400000000000007, 0.050000000000000044], 0.8626585695006748),
    (215, [0.45399999999999996, 0.7830000000000001, -0.30099999999999993, 0.21500000000000008, -0.743, 0.09000000000000008, -0.917, -0.505, 0.32400000000000007, 0.050000000000000044], 0.8626585695006748),
    (216, [0.45399999999999996, 0.7830000000000001, -0.30099999999999993, 0.21500000000000008, -0.743, 0.09000000000000008, -0.917, -0.505, 0.32400000000000007, 0.050000000000000044], 0.8626585695006748),
    (217, [0.45399999999999996, 0.7830000000000001, -0.30099999999999993, 0.21500000000000008, -0.743, 0.09000000000000008, -0.917, -0.505, 0.32400000000000007, 0.050000000000000044], 0.8626585695006748),
    (218, [0.45399999999999996, 0.7830000000000001, -0.30099999999999993, 0.21500000000000008, -0.743, 0.09000000000000008, -0.917, -0.505, 0.32400000000000007, 0.050000000000000044], 0.8626585695006748),
    (219, [0.45399999999999996, 0.7830000000000001, -0.30099999999999993, 0.21500000000000008, -0.743, 0.09000000000000008, -0.917, -0.505, 0.32400000000000007, 0.050000000000000044], 0.8626585695006748),
    (220, [0.45399999999999996, 0.7830000000000001, -0.30099999999999993, 0.21500000000000008, -0.743, 0.09000000000000008, -0.917, -0.505, 0.32400000000000007, 0.050000000000000044], 0.8626585695006748),
    (221, [0.45399999999999996, 0.7830000000000001, -0.30099999999999993, 0.21500000000000008, -0.743, 0.09000000000000008, -0.917, -0.505, 0.32400000000000007, 0.050000000000000044], 0.8626585695006748),
    (222, [0.45399999999999996, 0.7830000000000001, -0.30099999999999993, 0.21500000000000008, -0.743, 0.09000000000000008, -0.917, -0.505, 0.32400000000000007, 0.050000000000000044], 0.8626585695006748),
    (223, [0.45399999999999996, 0.7830000000000001, -0.30099999999999993, 0.21500000000000008, -0.743, 0.09000000000000008, -0.917, -0.505, 0.32400000000000007, 0.050000000000000044], 0.8626585695006748),
    (224, [0.45399999999999996, 0.7830000000000001, -0.30099999999999993, 0.21500000000000008, -0.743, 0.09000000000000008, -0.917, -0.505, 0.32400000000000007, 0.050000000000000044], 0.8626585695006748),
    (225, [0.45399999999999996, 0.7830000000000001, -0.30099999999999993, 0.21500000000000008, -0.743, 0.09000000000000008, -0.917, -0.505, 0.32400000000000007, 0.050000000000000044], 0.8626585695006748),
    (226, [0.45399999999999996, 0.7830000000000001, -0.30099999999999993, 0.21500000000000008, -0.743, 0.09000000000000008, -0.917, -0.505, 0.32400000000000007, 0.050000000000000044], 0.8626585695006748),
    (227, [0.45399999999999996, 0.7830000000000001, -0.30099999999999993, 0.21500000000000008, -0.743, 0.09000000000000008, -0.917, -0.505, 0.32400000000000007, 0.050000000000000044], 0.8626585695006748),
    (228, [0.45399999999999996, 0.7830000000000001, -0.30099999999999993, 0.21500000000000008, -0.743, 0.09000000000000008, -0.917, -0.505, 0.32400000000000007, 0.050000000000000044], 0.8626585695006748),
    (229, [0.45399999999999996, 0.7830000000000001, -0.30099999999999993, 0.21500000000000008, -0.743, 0.09000000000000008, -0.917, -0.505, 0.32400000000000007, 0.050000000000000044], 0.8626585695006748),
    (230, [0.45399999999999996, 0.7830000000000001, -0.30099999999999993, 0.21500000000000008, -0.743, 0.09000000000000008, -0.917, -0.505, 0.32400000000000007, 0.050000000000000044], 0.8626585695006748),
    (231, [0.45399999999999996, 0.7830000000000001, -0.30099999999999993, 0.21500000000000008, -0.743, 0.09000000000000008, -0.917, -0.505, 0.32400000000000007, 0.050000000000000044], 0.8626585695006748),
    (232, [0.45399999999999996, 0.7830000000000001, -0.30099999999999993, 0.21500000000000008, -0.743, 0.09000000000000008, -0.917, -0.505, 0.32400000000000007, 0.050000000000000044], 0.8626585695006748),
    (233, [0.45399999999999996, 0.7830000000000001, -0.30099999999999993, 0.21500000000000008, -0.743, 0.09000000000000008, -0.917, -0.505, 0.32400000000000007, 0.050000000000000044], 0.8626585695006748),
    (234, [0.45399999999999996, 0.7830000000000001, -0.30099999999999993, 0.21500000000000008, -0.743, 0.09000000000000008, -0.917, -0.505, 0.32400000000000007, 0.050000000000000044], 0.8626585695006748),
    (235, [0.45399999999999996, 0.7830000000000001, -0.30099999999999993, 0.21500000000000008, -0.743, 0.09000000000000008, -0.917, -0.505, 0.32400000000000007, 0.050000000000000044], 0.8626585695006748),
    (236, [0.45399999999999996, 0.7830000000000001, -0.30099999999999993, 0.21500000000000008, -0.743, 0.09000000000000008, -0.917, -0.505, 0.32400000000000007, 0.050000000000000044], 0.8626585695006748),
    (237, [0.45399999999999996, 0.7830000000000001, -0.30099999999999993, 0.21500000000000008, -0.743, 0.09000000000000008, -0.917, -0.505, 0.32400000000000007, 0.050000000000000044], 0.8626585695006748),
    (238, [0.45399999999999996, 0.7830000000000001, -0.30099999999999993, 0.21500000000000008, -0.743, 0.09000000000000008, -0.917, -0.505, 0.32400000000000007, 0.050000000000000044], 0.8626585695006748),
    (239, [0.45399999999999996, 0.7830000000000001, -0.30099999999999993, 0.21500000000000008, -0.743, 0.09000000000000008, -0.917, -0.505, 0.32400000000000007, 0.050000000000000044], 0.8626585695006748),
    (240, [0.45399999999999996, 0.7830000000000001, -0.30099999999999993, 0.21500000000000008, -0.743, 0.09000000000000008, -0.917, -0.505, 0.32400000000000007, 0.050000000000000044], 0.8626585695006748),
    (241, [0.45399999999999996, 0.7830000000000001, -0.30099999999999993, 0.21500000000000008, -0.743, 0.09000000000000008, -0.917, -0.505, 0.32400000000000007, 0.050000000000000044], 0.8626585695006748),
    (242, [0.45399999999999996, 0.7830000000000001, -0.30099999999999993, 0.21500000000000008, -0.743, 0.09000000000000008, -0.917, -0.505, 0.32400000000000007, 0.050000000000000044], 0.8626585695006748),
    (243, [0.45399999999999996, 0.7830000000000001, -0.30099999999999993, 0.21500000000000008, -0.743, 0.09000000000000008, -0.917, -0.505, 0.32400000000000007, 0.050000000000000044], 0.8626585695006748),
    (244, [0.45399999999999996, 0.7830000000000001, -0.30099999999999993, 0.21500000000000008, -0.743, 0.09000000000000008, -0.917, -0.505, 0.32400000000000007, 0.050000000000000044], 0.8626585695006748),
    (245, [0.45399999999999996, 0.7830000000000001, -0.30099999999999993, 0.21500000000000008, -0.743, 0.09000000000000008, -0.917, -0.505, 0.32400000000000007, 0.050000000000000044], 0.8626585695006748),
    (246, [0.45399999999999996, 0.7830000000000001, -0.30099999999999993, 0.21500000000000008, -0.743, 0.09000000000000008, -0.917, -0.505, 0.32400000000000007, 0.050000000000000044], 0.8626585695006748),
    (247, [0.45399999999999996, 0.7830000000000001, -0.30099999999999993, 0.21500000000000008, -0.743, 0.09000000000000008, -0.917, -0.505, 0.32400000000000007, 0.050000000000000044], 0.8626585695006748),
    (248, [0.45399999999999996, 0.7830000000000001, -0.30099999999999993, 0.21500000000000008, -0.743, 0.09000000000000008, -0.917, -0.505, 0.32400000000000007, 0.050000000000000044], 0.8626585695006748),
    (249, [-0.991, 0.9950000000000001, -0.29300000000000004, -0.17999999999999994, -0.21999999999999997, -0.09099999999999997, 0.972, 0.10699999999999998, 0.3800000000000001, -0.5489999999999999], 0.8630499325236167),
    (250, [-0.991, 0.9950000000000001, -0.29300000000000004, -0.17999999999999994, -0.21999999999999997, -0.09099999999999997, 0.972, 0.10699999999999998, 0.3800000000000001, -0.5489999999999999], 0.8630499325236167),
    (251, [-0.991, 0.9950000000000001, -0.29300000000000004, -0.17999999999999994, -0.21999999999999997, -0.09099999999999997, 0.972, 0.10699999999999998, 0.3800000000000001, -0.5489999999999999], 0.8630499325236167),
    (252, [-0.991, 0.9950000000000001, -0.29300000000000004, -0.17999999999999994, -0.21999999999999997, -0.09099999999999997, 0.972, 0.10699999999999998, 0.3800000000000001, -0.5489999999999999], 0.8630499325236167),
    (253, [-0.991, 0.9950000000000001, -0.29300000000000004, -0.17999999999999994, -0.21999999999999997, -0.09099999999999997, 0.972, 0.10699999999999998, 0.3800000000000001, -0.5489999999999999], 0.8630499325236167),
    (254, [-0.991, 0.9950000000000001, -0.29300000000000004, -0.17999999999999994, -0.21999999999999997, -0.09099999999999997, 0.972, 0.10699999999999998, 0.3800000000000001, -0.5489999999999999], 0.8630499325236167),
    (255, [-0.991, 0.9950000000000001, -0.29300000000000004, -0.17999999999999994, -0.21999999999999997, -0.09099999999999997, 0.972, 0.10699999999999998, 0.3800000000000001, -0.5489999999999999], 0.8630499325236167),
    (256, [-0.991, 0.9950000000000001, -0.29300000000000004, -0.17999999999999994, -0.21999999999999997, -0.09099999999999997, 0.972, 0.10699999999999998, 0.3800000000000001, -0.5489999999999999], 0.8630499325236167),
    (257, [-0.991, 0.9950000000000001, -0.29300000000000004, -0.17999999999999994, -0.21999999999999997, -0.09099999999999997, 0.972, 0.10699999999999998, 0.3800000000000001, -0.5489999999999999], 0.8630499325236167),
    (258, [-0.991, 0.9950000000000001, -0.29300000000000004, -0.17999999999999994, -0.21999999999999997, -0.09099999999999997, 0.972, 0.10699999999999998, 0.3800000000000001, -0.5489999999999999], 0.8630499325236167),
    (259, [-0.991, 0.9950000000000001, -0.29300000000000004, -0.17999999999999994, -0.21999999999999997, -0.09099999999999997, 0.972, 0.10699999999999998, 0.3800000000000001, -0.5489999999999999], 0.8630499325236167),
    (260, [-0.991, 0.9950000000000001, -0.29300000000000004, -0.17999999999999994, -0.21999999999999997, -0.09099999999999997, 0.972, 0.10699999999999998, 0.3800000000000001, -0.5489999999999999], 0.8630499325236167),
    (261, [-0.991, 0.9950000000000001, -0.29300000000000004, -0.17999999999999994, -0.21999999999999997, -0.09099999999999997, 0.972, 0.10699999999999998, 0.3800000000000001, -0.5489999999999999], 0.8630499325236167),
    (262, [-0.991, 0.9950000000000001, -0.29300000000000004, -0.17999999999999994, -0.21999999999999997, -0.09099999999999997, 0.972, 0.10699999999999998, 0.3800000000000001, -0.5489999999999999], 0.8630499325236167),
    (263, [-0.991, 0.9950000000000001, -0.29300000000000004, -0.17999999999999994, -0.21999999999999997, -0.09099999999999997, 0.972, 0.10699999999999998, 0.3800000000000001, -0.5489999999999999], 0.8630499325236167),
    (264, [-0.991, 0.9950000000000001, -0.29300000000000004, -0.17999999999999994, -0.21999999999999997, -0.09099999999999997, 0.972, 0.10699999999999998, 0.3800000000000001, -0.5489999999999999], 0.8630499325236167),
    (265, [-0.991, 0.9950000000000001, -0.29300000000000004, -0.17999999999999994, -0.21999999999999997, -0.09099999999999997, 0.972, 0.10699999999999998, 0.3800000000000001, -0.5489999999999999], 0.8630499325236167),
    (266, [-0.991, 0.9950000000000001, -0.29300000000000004, -0.17999999999999994, -0.21999999999999997, -0.09099999999999997, 0.972, 0.10699999999999998, 0.3800000000000001, -0.5489999999999999], 0.8630499325236167),
    (267, [-0.991, 0.9950000000000001, -0.29300000000000004, -0.17999999999999994, -0.21999999999999997, -0.09099999999999997, 0.972, 0.10699999999999998, 0.3800000000000001, -0.5489999999999999], 0.8630499325236167),
    (268, [-0.991, 0.9950000000000001, -0.29300000000000004, -0.17999999999999994, -0.21999999999999997, -0.09099999999999997, 0.972, 0.10699999999999998, 0.3800000000000001, -0.5489999999999999], 0.8630499325236167),
    (269, [-0.991, 0.9950000000000001, -0.29300000000000004, -0.17999999999999994, -0.21999999999999997, -0.09099999999999997, 0.972, 0.10699999999999998, 0.3800000000000001, -0.5489999999999999], 0.8630499325236167),
    (270, [-0.991, 0.9950000000000001, -0.29300000000000004, -0.17999999999999994, -0.21999999999999997, -0.09099999999999997, 0.972, 0.10699999999999998, 0.3800000000000001, -0.5489999999999999], 0.8630499325236167),
    (271, [-0.991, 0.9950000000000001, -0.29300000000000004, -0.17999999999999994, -0.21999999999999997, -0.09099999999999997, 0.972, 0.10699999999999998, 0.3800000000000001, -0.5489999999999999], 0.8630499325236167),
    (272, [-0.991, 0.9950000000000001, -0.29300000000000004, -0.17999999999999994, -0.21999999999999997, -0.09099999999999997, 0.972, 0.10699999999999998, 0.3800000000000001, -0.5489999999999999], 0.8630499325236167),
    (273, [-0.991, 0.9950000000000001, -0.29300000000000004, -0.17999999999999994, -0.21999999999999997, -0.09099999999999997, 0.972, 0.10699999999999998, 0.3800000000000001, -0.5489999999999999], 0.8630499325236167),
    (274, [-0.991, 0.9950000000000001, -0.29300000000000004, -0.17999999999999994, -0.21999999999999997, -0.09099999999999997, 0.972, 0.10699999999999998, 0.3800000000000001, -0.5489999999999999], 0.8630499325236167),
    (275, [-0.991, 0.9950000000000001, -0.29300000000000004, -0.17999999999999994, -0.21999999999999997, -0.09099999999999997, 0.972, 0.10699999999999998, 0.3800000000000001, -0.5489999999999999], 0.8630499325236167),
    (276, [-0.991, 0.9950000000000001, -0.29300000000000004, -0.17999999999999994, -0.21999999999999997, -0.09099999999999997, 0.972, 0.10699999999999998, 0.3800000000000001, -0.5489999999999999], 0.8630499325236167),
    (277, [-0.991, 0.9950000000000001, -0.29300000000000004, -0.17999999999999994, -0.21999999999999997, -0.09099999999999997, 0.972, 0.10699999999999998, 0.3800000000000001, -0.5489999999999999], 0.8630499325236167),
    (278, [-0.991, 0.9950000000000001, -0.29300000000000004, -0.17999999999999994, -0.21999999999999997, -0.09099999999999997, 0.972, 0.10699999999999998, 0.3800000000000001, -0.5489999999999999], 0.8630499325236167),
    (279, [-0.991, 0.9950000000000001, -0.29300000000000004, -0.17999999999999994, -0.21999999999999997, -0.09099999999999997, 0.972, 0.10699999999999998, 0.3800000000000001, -0.5489999999999999], 0.8630499325236167),
    (280, [-0.991, 0.9950000000000001, -0.29300000000000004, -0.17999999999999994, -0.21999999999999997, -0.09099999999999997, 0.972, 0.10699999999999998, 0.3800000000000001, -0.5489999999999999], 0.8630499325236167),
    (281, [-0.991, 0.9950000000000001, -0.29300000000000004, -0.17999999999999994, -0.21999999999999997, -0.09099999999999997, 0.972, 0.10699999999999998, 0.3800000000000001, -0.5489999999999999], 0.8630499325236167),
    (282, [-0.991, 0.9950000000000001, -0.29300000000000004, -0.17999999999999994, -0.21999999999999997, -0.09099999999999997, 0.972, 0.10699999999999998, 0.3800000000000001, -0.5489999999999999], 0.8630499325236167),
    (283, [-0.991, 0.9950000000000001, -0.29300000000000004, -0.17999999999999994, -0.21999999999999997, -0.09099999999999997, 0.972, 0.10699999999999998, 0.3800000000000001, -0.5489999999999999], 0.8630499325236167),
    (284, [-0.991, 0.9950000000000001, -0.29300000000000004, -0.17999999999999994, -0.21999999999999997, -0.09099999999999997, 0.972, 0.10699999999999998, 0.3800000000000001, -0.5489999999999999], 0.8630499325236167),
    (285, [-0.991, 0.9950000000000001, -0.29300000000000004, -0.17999999999999994, -0.21999999999999997, -0.09099999999999997, 0.972, 0.10699999999999998, 0.3800000000000001, -0.5489999999999999], 0.8630499325236167),
    (286, [-0.991, 0.9950000000000001, -0.29300000000000004, -0.17999999999999994, -0.21999999999999997, -0.09099999999999997, 0.972, 0.10699999999999998, 0.3800000000000001, -0.5489999999999999], 0.8630499325236167),
    (287, [-0.991, 0.9950000000000001, -0.29300000000000004, -0.17999999999999994, -0.21999999999999997, -0.09099999999999997, 0.972, 0.10699999999999998, 0.3800000000000001, -0.5489999999999999], 0.8630499325236167),
    (288, [-0.991, 0.9950000000000001, -0.29300000000000004, -0.17999999999999994, -0.21999999999999997, -0.09099999999999997, 0.972, 0.10699999999999998, 0.3800000000000001, -0.5489999999999999], 0.8630499325236167),
    (289, [-0.991, 0.9950000000000001, -0.29300000000000004, -0.17999999999999994, -0.21999999999999997, -0.09099999999999997, 0.972, 0.10699999999999998, 0.3800000000000001, -0.5489999999999999], 0.8630499325236167),
    (290, [-0.991, 0.9950000000000001, -0.29300000000000004, -0.17999999999999994, -0.21999999999999997, -0.09099999999999997, 0.972, 0.10699999999999998, 0.3800000000000001, -0.5489999999999999], 0.8630499325236167),
    (291, [-0.991, 0.9950000000000001, -0.29300000000000004, -0.17999999999999994, -0.21999999999999997, -0.09099999999999997, 0.972, 0.10699999999999998, 0.3800000000000001, -0.5489999999999999], 0.8630499325236167),
    (292, [-0.991, 0.9950000000000001, -0.29300000000000004, -0.17999999999999994, -0.21999999999999997, -0.09099999999999997, 0.972, 0.10699999999999998, 0.3800000000000001, -0.5489999999999999], 0.8630499325236167),
    (293, [-0.991, 0.9950000000000001, -0.29300000000000004, -0.17999999999999994, -0.21999999999999997, -0.09099999999999997, 0.972, 0.10699999999999998, 0.3800000000000001, -0.5489999999999999], 0.8630499325236167),
    (294, [-0.991, 0.9950000000000001, -0.29300000000000004, -0.17999999999999994, -0.21999999999999997, -0.09099999999999997, 0.972, 0.10699999999999998, 0.3800000000000001, -0.5489999999999999], 0.8630499325236167),
    (295, [-0.991, 0.9950000000000001, -0.29300000000000004, -0.17999999999999994, -0.21999999999999997, -0.09099999999999997, 0.972, 0.10699999999999998, 0.3800000000000001, -0.5489999999999999], 0.8630499325236167),
    (296, [-0.991, 0.9950000000000001, -0.29300000000000004, -0.17999999999999994, -0.21999999999999997, -0.09099999999999997, 0.972, 0.10699999999999998, 0.3800000000000001, -0.5489999999999999], 0.8630499325236167),
    (297, [-0.991, 0.9950000000000001, -0.29300000000000004, -0.17999999999999994, -0.21999999999999997, -0.09099999999999997, 0.972, 0.10699999999999998, 0.3800000000000001, -0.5489999999999999], 0.8630499325236167),
    (298, [-0.991, 0.9950000000000001, -0.29300000000000004, -0.17999999999999994, -0.21999999999999997, -0.09099999999999997, 0.972, 0.10699999999999998, 0.3800000000000001, -0.5489999999999999], 0.8630499325236167),
    (299, [-0.991, 0.9950000000000001, -0.29300000000000004, -0.17999999999999994, -0.21999999999999997, -0.09099999999999997, 0.972, 0.10699999999999998, 0.3800000000000001, -0.5489999999999999], 0.8630499325236167),
]

