ranges of every chromosome : (-2, 2)
    selection method is: RouletteWheelSelection
    crossover method is: UniformCrossover
    pc: The probability of crossover: 0.850000
    pe: Gene exchange probability: 0.500000
    mutation method is: FlipBitBigMutation
    pm: The probability of mutation: 0.100000
    pbm: The probability of big mutation: 0.500000
    alpha: intensive factor: 0.600000
best_fit = [
    (0, [0.9860000000000002, 0.9119999999999999, -1.804, 1.936, 0.649, 0.5409999999999999, -0.9849999999999999, 0.3879999999999999, 0.7829999999999999, 0.11799999999999988], 0.8526585695006748),
    (1, [0.9860000000000002, 0.9119999999999999, -1.804, 1.936, 0.649, 0.5409999999999999, -0.9849999999999999, 0.3879999999999999, 0.7829999999999999, 0.11799999999999988], 0.8526585695006748),
    (2, [1.4530000000000003, -0.488, 0.24800000000000022, 0.9279999999999999, -1.052, 0.5180000000000002, -0.46599999999999997, -1.1829999999999998, 1.166, 0.43199999999999994], 0.8622537112010796),
    (3, [1.4530000000000003, -0.488, 0.24800000000000022, 0.9279999999999999, -1.052, 0.5180000000000002, -0.46599999999999997, -1.1829999999999998, 1.166, 0.43199999999999994], 0.8622537112010796),
    (4, [1.4530000000000003, -0.488, 0.24800000000000022, 0.9279999999999999, -1.052, 0.5180000000000002, -0.46599999999999997, -1.1829999999999998, 1.166, 0.43199999999999994], 0.8622537112010796),
    (5, [1.4530000000000003, -0.488, 0.24800000000000022, 0.9279999999999999, -1.052, 0.5180000000000002, -0.46599999999999997, -1.1829999999999998, 1.166, 0.43199999999999994], 0.8622537112010796),
    (6, [1.4530000000000003, -0.488, 0.24800000000000022, 0.9279999999999999, -1.052, 0.5180000000000002, -0.46599999999999997, -1.1829999999999998, 1.166, 0.43199999999999994], 0.8622537112010796),
    (7, [1.4530000000000003, -0.488, 0.24800000000000022, 0.9279999999999999, -1.052, 0.5180000000000002, -0.46599999999999997, -1.1829999999999998, 1.166, 0.43199999999999994], 0.8622537112010796),
    (8, [1.4530000000000003, -0.488, 0.24800000000000022, 0.9279999999999999, -1.052, 0.5180000000000002, -0.46599999999999997, -1.1829999999999998, 1.166, 0.43199999999999994], 0.8622537112010796),
    (9, [1.4530000000000003, -0.488, 0.24800000000000022, 0.9279999999999999, -1.052, 0.5180000000000002, -0.46599999999999997, -1.1829999999999998, 1.166, 0.43199999999999994], 0.8622537112010796),
    (10, [1.4530000000000003, -0.488, 0.24800000000000022, 0.9279999999999999, -1.052, 0.5180000000000002, -0.46599999999999997, -1.1829999999999998, 1.166, 0.43199999999999994], 0.8622537112010796),
    (11, [1.4530000000000003, -0.488, 0.24800000000000022, 0.9279999999999999, -1.052, 0.5180000000000002, -0.46599999999999997, -1.1829999999999998, 1.166, 0.43199999999999994], 0.8622537112010796),
    (12, [1.4530000000000003, -0.488, 0.24800000000000022, 0.9279999999999999, -1.052, 0.5180000000000002, -0.46599999999999997, -1.1829999999999998, 1.166, 0.43199999999999994], 0.8622537112010796),
    (13, [1.4530000000000003, -0.488, 0.24800000000000022, 0.9279999999999999, -1.052, 0.5180000000000002, -0.46599999999999997, -1.1829999999999998, 1.166, 0.43199999999999994], 0.8622537112010796),
    (14, [1.4530000000000003, -0.488, 0.24800000000000022, 0.9279999999999999, -1.052, 0.5180000000000002, -0.46599999999999997, -1.1829999999999998, 1.166, 0.43199999999999994], 0.8622537112010796),
    (15, [1.4530000000000003, -0.488, 0.24800000000000022, 0.9279999999999999, -1.052, 0.5180000000000002, -0.46599999999999997, -1.1829999999999998, 1.166, 0.43199999999999994], 0.8622537112010796),
    (16, [1.4530000000000003, -0.488, 0.24800000000000022, 0.9279999999999999, -1.052, 0.5180000000000002, -0.46599999999999997, -1.1829999999999998, 1.166, 0.43199999999999994], 0.8622537112010796),
    (17, [1.4530000000000003, -0.488, 0.24800000000000022, 0.9279999999999999, -1.052, 0.5180000000000002, -0.46599999999999997, -1.1829999999999998, 1.166, 0.43199999999999994], 0.8622537112010796),
    (18, [1.4530000000000003, -0.488, 0.24800000000000022, 0.9279999999999999, -1.052, 0.5180000000000002, -0.46599999999999997, -1.1829999999999998, 1.166, 0.43199999999999994], 0.8622537112010796),
    (19, [1.4530000000000003, -0.488, 0.24800000000000022, 0.9279999999999999, -1.052, 0.5180000000000002, -0.46599999999999997, -1.1829999999999998, 1.166, 0.43199999999999994], 0.8622537112010796),
    (20, [1.4530000000000003, -0.488, 0.24800000000000022, 0.9279999999999999, -1.052, 0.5180000000000002, -0.46599999999999997, -1.1829999999999998, 1.166, 0.43199999999999994], 0.8622537112010796),
    (21, [1.4530000000000003, -0.488, 0.24800000000000022, 0.9279999999999999, -1.052, 0.5180000000000002, -0.46599999999999997, -1.1829999999999998, 1.166, 0.43199999999999994], 0.8622537112010796),
    (22, [1.4530000000000003, -0.488, 0.24800000000000022, 0.9279999999999999, -1.052, 0.5180000000000002, -0.46599999999999997, -1.1829999999999998, 1.166, 0.43199999999999994], 0.8622537112010796),
    (23, [1.4530000000000003, -0.488, 0.24800000000000022, 0.9279999999999999, -1.052, 0.5180000000000002, -0.46599999999999997, -1.1829999999999998, 1.166, 0.43199999999999994], 0.8622537112010796),
    (24, [1.4530000000000003, -0.488, 0.24800000000000022, 0.9279999999999999, -1.052, 0.5180000000000002, -0.46599999999999997, -1.1829999999999998, 1.166, 0.43199999999999994], 0.8622537112010796),
    (25, [1.4530000000000003, -0.488, 0.24800000000000022, 0.9279999999999999, -1.052, 0.5180000000000002, -0.46599999999999997, -1.1829999999999998, 1.166, 0.43199999999999994], 0.8622537112010796),
    (26, [1.4530000000000003, -0.488, 0.24800000000000022, 0.9279999999999999, -1.052, 0.5180000000000002, -0.46599999999999997, -1.1829999999999998, 1.166, 0.43199999999999994], 0.8622537112010796),
    (27, [1.4530000000000003, -0.488, 0.24800000000000022, 0.9279999999999999, -1.052, 0.5180000000000002, -0.46599999999999997, -1.1829999999999998, 1.166, 0.43199999999999994], 0.8622537112010796),
    (28, [1.4530000000000003, -0.488, 0.24800000000000022, 0.9279999999999999, -1.052, 0.5180000000000002, -0.46599999999999997, -1.1829999999999998, 1.166, 0.43199999999999994], 0.8622537112010796),
    (29, [1.4530000000000003, -0.488, 0.24800000000000022, 0.9279999999999999, -1.052, 0.5180000000000002, -0.46599999999999997, -1.1829999999999998, 1.166, 0.43199999999999994], 0.8622537112010796),
    (30, [1.4530000000000003, -0.488, 0.24800000000000022, 0.9279999999999999, -1.052, 0.5180000000000002, -0.46599999999999997, -1.1829999999999998, 1.166, 0.43199999999999994], 0.8622537112010796),
    (31, [1.4530000000000003, -0.488, 0.24800000000000022, 0.9279999999999999, -1.052, 0.5180000000000002, -0.46599999999999997, -1.1829999999999998, 1.166, 0.43199999999999994], 0.8622537112010796),
    (32, [1.4530000000000003, -0.488, 0.24800000000000022, 0.9279999999999999, -1.052, 0.5180000000000002, -0.46599999999999997, -1.1829999999999998, 1.166, 0.43199999999999994], 0.8622537112010796),
    (33, [1.4530000000000003, -0.488, 0.24800000000000022, 0.9279999999999999, -1.052, 0.5180000000000002, -0.46599999999999997, -1.1829999999999998, 1.166, 0.43199999999999994], 0.8622537112010796),
    (34, [1.4530000000000003, -0.488, 0.24800000000000022, 0.9279999999999999, -1.052, 0.5180000000000002, -0.46599999999999997, -1.1829999999999998, 1.166, 0.43199999999999994], 0.8622537112010796),
    (35, [1.4530000000000003, -0.488, 0.24800000000000022, 0.9279999999999999, -1.052, 0.5180000000000002, -0.46599999999999997, -1.1829999999999998, 1.166, 0.43199999999999994], 0.8622537112010796),
    (36, [1.4530000000000003, -0.488, 0.24800000000000022, 0.9279999999999999, -1.052, 0.5180000000000002, -0.46599999999999997, -1.1829999999999998, 1.166, 0.43199999999999994], 0.8622537112010796),
    (37, [1.4530000000000003, -0.488, 0.24800000000000022, 0.9279999999999999, -1.052, 0.5180000000000002, -0.46599999999999997, -1.1829999999999998, 1.166, 0.43199999999999994], 0.8622537112010796),
    (38, [1.4530000000000003, -0.488, 0.24800000000000022, 0.9279999999999999, -1.052, 0.5180000000000002, -0.46599999999999997, -1.1829999999999998, 1.166, 0.43199999999999994], 0.8622537112010796),
    (39, [1.4530000000000003, -0.488, 0.24800000000000022, 0.9279999999999999, -1.052, 0.5180000000000002, -0.46599999999999997, -1.1829999999999998, 1.166, 0.43199999999999994], 0.8622537112010796),
    (40, [1.4530000000000003, -0.488, 0.24800000000000022, 0.9279999999999999, -1.052, 0.5180000000000002, -0.46599999999999997, -1.1829999999999998, 1.166, 0.43199999999999994], 0.8622537112010796),
    (41, [1.4530000000000003, -0.488, 0.24800000000000022, 0.9279999999999999, -1.052, 0.5180000000000002, -0.46599999999999997, -1.1829999999999998, 1.166, 0.43199999999999994], 0.8622537112010796),
    (42, [1.4530000000000003, -0.488, 0.24800000000000022, 0.9279999999999999, -1.052, 0.5180000000000002, -0.46599999999999997, -1.1829999999999998, 1.166, 0.43199999999999994], 0.8622537112010796),
    (43, [1.4530000000000003, -0.488, 0.24800000000000022, 0.9279999999999999, -1.052, 0.5180000000000002, -0.46599999999999997, -1.1829999999999998, 1.166, 0.43199999999999994], 0.8622537112010796),
    (44, [1.4530000000000003, -0.488, 0.24800000000000022, 0.9279999999999999, -1.052, 0.5180000000000002, -0.46599999999999997, -1.1829999999999998, 1.166, 0.43199999999999994], 0.8622537112010796),
    (45, [1.4530000000000003, -0.488, 0.24800000000000022, 0.9279999999999999, -1.052, 0.5180000000000002, -0.46599999999999997, -1.1829999999999998, 1.166, 0.43199999999999994], 0.8622537112010796),
    (46, [1.4530000000000003, -0.488, 0.24800000000000022, 0.9279999999999999, -1.052, 0.5180000000000002, -0.46599999999999997, -1.1829999999999998, 1.166, 0.43199999999999994], 0.8622537112010796),
    (47, [1.4530000000000003, -0.488, 0.24800000000000022, 0.9279999999999999, -1.052, 0.5180000000000002, -0.46599999999999997, -1.1829999999999998, 1.166, 0.43199999999999994], 0.8622537112010796),
    (48, [1.4530000000000003, -0.488, 0.24800000000000022, 0.9279999999999999, -1.052, 0.5180000000000002, -0.46599999999999997, -1.1829999999999998, 1.166, 0.43199999999999994], 0.8622537112010796),
    (49, [1.4530000000000003, -0.488, 0.24800000000000022, 0.9279999999999999, -1.052, 0.5180000000000002, -0.46599999999999997, -1.1829999999999998, 1.166, 0.43199999999999994], 0.8622537112010796),
    (50, [1.4530000000000003, -0.488, 0.24800000000000022, 0.9279999999999999, -1.052, 0.5180000000000002, -0.46599999999999997, -1.1829999999999998, 1.166, 0.43199999999999994], 0.8622537112010796),
    (51, [1.4530000000000003, -0.488, 0.24800000000000022, 0.9279999999999999, -1.052, 0.5180000000000002, -0.46599999999999997, -1.1829999999999998, 1.166, 0.43199999999999994], 0.8622537112010796),
    (52, [1.4530000000000003, -0.488, 0.24800000000000022, 0.9279999999999999, -1.052, 0.5180000000000002, -0.46599999999999997, -1.1829999999999998, 1.166, 0.43199999999999994], 0.8622537112010796),
    (53, [1.4530000000000003, -0.488, 0.24800000000000022, 0.9279999999999999, -1.052, 0.5180000000000002, -0.46599999999999997, -1.1829999999999998, 1.166, 0.43199999999999994], 0.8622537112010796),
    (54, [1.4530000000000003, -0.488, 0.24800000000000022, 0.9279999999999999, -1.052, 0.5180000000000002, -0.46599999999999997, -1.1829999999999998, 1.166, 0.43199999999999994], 0.8622537112010796),
    (55, [1.4530000000000003, -0.488, 0.24800000000000022, 0.9279999999999999, -1.052, 0.5180000000000002, -0.46599999999999997, -1.1829999999999998, 1.166, 0.43199999999999994], 0.8622537112010796),
    (56, [1.4530000000000003, -0.488, 0.24800000000000022, 0.9279999999999999, -1.052, 0.5180000000000002, -0.46599999999999997, -1.1829999999999998, 1.166, 0.43199999999999994], 0.8622537112010796),
    (57, [1.4530000000000003, -0.488, 0.24800000000000022, 0.9279999999999999, -1.052, 0.5180000000000002, -0.46599999999999997, -1.1829999999999998, 1.166, 0.43199999999999994], 0.8622537112010796),
    (58, [1.4530000000000003, -0.488, 0.24800000000000022, 0.9279999999999999, -1.052, 0.5180000000000002, -0.46599999999999997, -1.1829999999999998, 1.166, 0.43199999999999994], 0.8622537112010796),
    (59, [1.4530000000000003, -0.488, 0.24800000000000022, 0.9279999999999999, -1.052, 0.5180000000000002, -0.46599999999999997, -1.1829999999999998, 1.166, 0.43199999999999994], 0.8622537112010796),
    (60, [1.4530000000000003, -0.488, 0.24800000000000022, 0.9279999999999999, -1.052, 0.5180000000000002, -0.46599999999999997, -1.1829999999999998, 1.166, 0.43199999999999994], 0.8622537112010796),
    (61, [1.4530000000000003, -0.488, 0.24800000000000022, 0.9279999999999999, -1.052, 0.5180000000000002, -0.46599999999999997, -1.1829999999999998, 1.166, 0.43199999999999994], 0.8622537112010796),
    (62, [1.4530000000000003, -0.488, 0.24800000000000022, 0.9279999999999999, -1.052, 0.5180000000000002, -0.46599999999999997, -1.1829999999999998, 1.166, 0.43199999999999994], 0.8622537112010796),
    (63, [1.4530000000000003, -0.488, 0.24800000000000022, 0.9279999999999999, -1.052, 0.5180000000000002, -0.46599999999999997, -1.1829999999999998, 1.166, 0.43199999999999994], 0.8622537112010796),
    (64, [1.4530000000000003, -0.488, 0.24800000000000022, 0.9279999999999999, -1.052, 0.5180000000000002, -0.46599999999999997, -1.1829999999999998, 1.166, 0.43199999999999994], 0.8622537112010796),
    (65, [1.4530000000000003, -0.488, 0.24800000000000022, 0.9279999999999999, -1.052, 0.5180000000000002, -0.46599999999999997, -1.1829999999999998, 1.166, 0.43199999999999994], 0.8622537112010796),
    (66, [1.4530000000000003, -0.488, 0.24800000000000022, 0.9279999999999999, -1.052, 0.5180000000000002, -0.46599999999999997, -1.1829999999999998, 1.166, 0.43199999999999994], 0.8622537112010796),
    (67, [1.4530000000000003, -0.488, 0.24800000000000022, 0.9279999999999999, -1.052, 0.5180000000000002, -0.46599999999999997, -1.1829999999999998, 1.166, 0.43199999999999994], 0.8622537112010796),
    (68, [1.4530000000000003, -0.488, 0.24800000000000022, 0.9279999999999999, -1.052, 0.5180000000000002, -0.46599999999999997, -1.1829999999999998, 1.166, 0.43199999999999994], 0.8622537112010796),
    (69, [1.4530000000000003, -0.488, 0.24800000000000022, 0.9279999999999999, -1.052, 0.5180000000000002, -0.46599999999999997, -1.1829999999999998, 1.166, 0.43199999999999994], 0.8622537112010796),
    (70, [1.4530000000000003, -0.488, 0.24800000000000022, 0.9279999999999999, -1.052, 0.5180000000000002, -0.46599999999999997, -1.1829999999999998, 1.166, 0.43199999999999994], 0.8622537112010796),
    (71, [1.4530000000000003, -0.488, 0.24800000000000022, 0.9279999999999999, -1.052, 0.5180000000000002, -0.46599999999999997, -1.1829999999999998, 1.166, 0.43199999999999994], 0.8622537112010796),
    (72, [1.4530000000000003, -0.488, 0.24800000000000022, 0.9279999999999999, -1.052, 0.5180000000000002, -0.46599999999999997, -1.1829999999999998, 1.166, 0.43199999999999994], 0.8622537112010796),
    (73, [1.4530000000000003, -0.488, 0.24800000000000022, 0.9279999999999999, -1.052, 0.5180000000000002, -0.46599999999999997, -1.1829999999999998, 1.166, 0.43199999999999994], 0.8622537112010796),
    (74, [1.4530000000000003, -0.488, 0.24800000000000022, 0.9279999999999999, -1.052, 0.5180000000000002, -0.46599999999999997, -1.1829999999999998, 1.166, 0.43199999999999994], 0.8622537112010796),
    (75, [1.4530000000000003, -0.488, 0.24800000000000022, 0.9279999999999999, -1.052, 0.5180000000000002, -0.46599999999999997, -1.1829999999999998, 1.166, 0.43199999999999994], 0.8622537112010796),
    (76, [1.4530000000000003, -0.488, 0.24800000000000022, 0.9279999999999999, -1.052, 0.5180000000000002, -0.46599999999999997, -1.1829999999999998, 1.166, 0.43199999999999994], 0.8622537112010796),
    (77, [1.4530000000000003, -0.488, 0.24800000000000022, 0.9279999999999999, -1.052, 0.5180000000000002, -0.46599999999999997, -1.1829999999999998, 1.166, 0.43199999999999994], 0.8622537112010796),
    (78, [1.4530000000000003, -0.488, 0.24800000000000022, 0.9279999999999999, -1.052, 0.5180000000000002, -0.46599999999999997, -1.1829999999999998, 1.166, 0.43199999999999994], 0.8622537112010796),
    (79, [1.4530000000000003, -0.488, 0.24800000000000022, 0.9279999999999999, -1.052, 0.5180000000000002, -0.46599999999999997, -1.1829999999999998, 1.166, 0.43199999999999994], 0.8622537112010796),
    (80, [1.4530000000000003, -0.488, 0.24800000000000022, 0.9279999999999999, -1.052, 0.5180000000000002, -0.46599999999999997, -1.1829999999999998, 1.166, 0.43199999999999994], 0.8622537112010796),
    (81, [1.4530000000000003, -0.488, 0.24800000000000022, 0.9279999999999999, -1.052, 0.5180000000000002, -0.46599999999999997, -1.1829999999999998, 1.166, 0.43199999999999994], 0.8622537112010796),
    (82, [1.4530000000000003, -0.488, 0.24800000000000022, 0.9279999999999999, -1.052, 0.5180000000000002, -0.46599999999999997, -1.1829999999999998, 1.166, 0.43199999999999994], 0.8622537112010796),
    (83, [1.4530000000000003, -0.488, 0.24800000000000022, 0.9279999999999999, -1.052, 0.5180000000000002, -0.46599999999999997, -1.1829999999999998, 1.166, 0.43199999999999994], 0.8622537112010796),
    (84, [1.4530000000000003, -0.488, 0.24800000000000022, 0.9279999999999999, -1.052, 0.5180000000000002, -0.46599999999999997, -1.1829999999999998, 1.166, 0.43199999999999994], 0.8622537112010796),
    (85, [1.4530000000000003, -0.488, 0.24800000000000022, 0.9279999999999999, -1.052, 0.5180000000000002, -0.46599999999999997, -1.1829999999999998, 1.166, 0.43199999999999994], 0.8622537112010796),
    (86, [1.4530000000000003, -0.488, 0.24800000000000022, 0.9279999999999999, -1.052, 0.5180000000000002, -0.46599999999999997, -1.1829999999999998, 1.166, 0.43199999999999994], 0.8622537112010796),
    (87, [1.4530000000000003, -0.488, 0.24800000000000022, 0.9279999999999999, -1.052, 0.5180000000000002, -0.46599999999999997, -1.1829999999999998, 1.166, 0.43199999999999994], 0.8622537112010796),
    (88, [1.4530000000000003, -0.488, 0.24800000000000022, 0.9279999999999999, -1.052, 0.5180000000000002, -0.46599999999999997, -1.1829999999999998, 1.166, 0.43199999999999994], 0.8622537112010796),
    (89, [1.4530000000000003, -0.488, 0.24800000000000022, 0.9279999999999999, -1.052, 0.5180000000000002, -0.46599999999999997, -1.1829999999999998, 1.166, 0.43199999999999994], 0.8622537112010796),
    (90, [1.4530000000000003, -0.488, 0.24800000000000022, 0.9279999999999999, -1.052, 0.5180000000000002, -0.46599999999999997, -1.1829999999999998, 1.166, 0.43199999999999994], 0.8622537112010796),
    (91, [1.4530000000000003, -0.488, 0.24800000000000022, 0.9279999999999999, -1.052, 0.5180000000000002, -0.46599999999999997, -1.1829999999999998, 1.166, 0.43199999999999994], 0.8622537112010796),
    (92, [1.4530000000000003, -0.488, 0.24800000000000022, 0.9279999999999999, -1.052, 0.5180000000000002, -0.46599999999999997, -1.1829999999999998, 1.166, 0.43199999999999994], 0.8622537112010796),
    (93, [1.4530000000000003, -0.488, 0.24800000000000022, 0.9279999999999999, -1.052, 0.5180000000000002, -0.46599999999999997, -1.1829999999999998, 1.166, 0.43199999999999994], 0.8622537112010796),
    (94, [1.4530000000000003, -0.488, 0.24800000000000022, 0.9279999999999999, -1.052, 0.5180000000000002, -0.46599999999999997, -1.1829999999999998, 1.166, 0.43199999999999994], 0.8622537112010796),
    (95, [1.4530000000000003, -0.488, 0.24800000000000022, 0.9279999999999999, -1.052, 0.5180000000000002, -0.46599999999999997, -1.1829999999999998, 1.166, 0.43199999999999994], 0.8622537112010796),
    (96, [1.4530000000000003, -0.488, 0.24800000000000022, 0.9279999999999999, -1.052, 0.5180000000000002, -0.46599999999999997, -1.1829999999999998, 1.166, 0.43199999999999994], 0.8622537112010796),
    (97, [1.4530000000000003, -0.488, 0.24800000000000022, 0.9279999999999999, -1.052, 0.5180000000000002, -0.46599999999999997, -1.1829999999999998, 1.166, 0.43199999999999994], 0.8622537112010796),
    (98, [1.4530000000000003, -0.488, 0.24800000000000022, 0.9279999999999999, -1.052, 0.5180000000000002, -0.46599999999999997, -1.1829999999999998, 1.166, 0.43199999999999994], 0.8622537112010796),
    (99, [1.4530000000000003, -0.488, 0.24800000000000022, 0.9279999999999999, -1.052, 0.5180000000000002, -0.46599999999999997, -1.1829999999999998, 1.166, 0.43199999999999994], 0.8622537112010796),
    (100, [1.4530000000000003, -0.488, 0.24800000000000022, 0.9279999999999999, -1.052, 0.5180000000000002, -0.46599999999999997, -1.1829999999999998, 1.166, 0.43199999999999994], 0.8622537112010796),
    (101, [1.4530000000000003, -0.488, 0.24800000000000022, 0.9279999999999999, -1.052, 0.5180000000000002, -0.46599999999999997, -1.1829999999999998, 1.166, 0.43199999999999994], 0.8622537112010796),
    (102, [1.4530000000000003, -0.488, 0.24800000000000022, 0.9279999999999999, -1.052, 0.5180000000000002, -0.46599999999999997, -1.1829999999999998, 1.166, 0.43199999999999994], 0.8622537112010796),
    (103, [1.4530000000000003, -0.488, 0.24800000000000022, 0.9279999999999999, -1.052, 0.5180000000000002, -0.46599999999999997, -1.1829999999999998, 1.166, 0.43199999999999994], 0.8622537112010796),
    (104, [1.4530000000000003, -0.488, 0.24800000000000022, 0.9279999999999999, -1.052, 0.5180000000000002, -0.46599999999999997, -1.1829999999999998, 1.166, 0.43199999999999994], 0.8622537112010796),
    (105, [1.4530000000000003, -0.488, 0.24800000000000022, 0.9279999999999999, -1.052, 0.5180000000000002, -0.46599999999999997, -1.1829999999999998, 1.166, 0.43199999999999994], 0.8622537112010796),
    (106, [1.4530000000000003, -0.488, 0.24800000000000022, 0.9279999999999999, -1.052, 0.5180000000000002, -0.46599999999999997, -1.1829999999999998, 1.166, 0.43199999999999994], 0.8622537112010796),
    (107, [-1.071, 1.129, 0.4900000000000002, 0.47699999999999987, 0.29600000000000026, 0.4700000000000002, 0.03699999999999992, 0.786, -0.669, -1.652], 0.8629217273954115),
    (108, [-1.071, 1.129, 0.4900000000000002, 0.47699999999999987, 0.29600000000000026, 0.4700000000000002, 0.03699999999999992, 0.786, -0.669, -1.652], 0.8629217273954115),
    (109, [-1.071, 1.129, 0.4900000000000002, 0.47699999999999987, 0.29600000000000026, 0.4700000000000002, 0.03699999999999992, 0.786, -0.669, -1.652], 0.8629217273954115),
    (110, [-1.071, 1.129, 0.4900000000000002, 0.47699999999999987, 0.29600000000000026, 0.4700000000000002, 0.03699999999999992, 0.786, -0.669, -1.652], 0.8629217273954115),
    (111, [-1.071, 1.129, 0.4900000000000002, 0.47699999999999987, 0.29600000000000026, 0.4700000000000002, 0.03699999999999992, 0.786, -0.669, -1.652], 0.8629217273954115),
    (112, [-1.071, 1.129, 0.4900000000000002, 0.47699999999999987, 0.29600000000000026, 0.4700000000000002, 0.03699999999999992, 0.786, -0.669, -1.652], 0.8629217273954115),
    (113, [-1.071, 1.129, 0.4900000000000002, 0.47699999999999987, 0.29600000000000026, 0.4700000000000002, 0.03699999999999992, 0.786, -0.669, -1.652], 0.8629217273954115),
    (114, [-1.071, 1.129, 0.4900000000000002, 0.47699999999999987, 0.29600000000000026, 0.4700000000000002, 0.03699999999999992, 0.786, -0.669, -1.652], 0.8629217273954115),
    (115, [-1.071, 1.129, 0.4900000000000002, 0.47699999999999987, 0.29600000000000026, 0.4700000000000002, 0.03699999999999992, 0.786, -0.669, -1.652], 0.8629217273954115),
    (116, [-1.071, 1.129, 0.4900000000000002, 0.47699999999999987, 0.29600000000000026, 0.4700000000000002, 0.03699999999999992, 0.786, -0.669, -1.652], 0.8629217273954115),
    (117, [-1.071, 1.129, 0.4900000000000002, 0.47699999999999987, 0.29600000000000026, 0.4700000000000002, 0.03699999999999992, 0.786, -0.669, -1.652], 0.8629217273954115),
    (118, [-1.071, 1.129, 0.4900000000000002, 0.47699999999999987, 0.29600000000000026, 0.4700000000000002, 0.03699999999999992, 0.786, -0.669, -1.652], 0.8629217273954115),
    (119, [-1.071, 1.129, 0.4900000000000002, 0.47699999999999987, 0.29600000000000026, 0.4700000000000002, 0.03699999999999992, 0.786, -0.669, -1.652], 0.8629217273954115),
    (120, [-1.071, 1.129, 0.4900000000000002, 0.47699999999999987, 0.29600000000000026, 0.4700000000000002, 0.03699999999999992, 0.786, -0.669, -1.652], 0.8629217273954115),
    (121, [-1.071, 1.129, 0.4900000000000002, 0.47699999999999987, 0.29600000000000026, 0.4700000000000002, 0.03699999999999992, 0.786, -0.669, -1.652], 0.8629217273954115),
    (122, [-1.071, 1.129, 0.4900000000000002, 0.47699999999999987, 0.29600000000000026, 0.4700000000000002, 0.03699999999999992, 0.786, -0.669, -1.652], 0.8629217273954115),
    (123, [-1.071, 1.129, 0.4900000000000002, 0.47699999999999987, 0.29600000000000026, 0.4700000000000002, 0.03699999999999992, 0.786, -0.669, -1.652], 0.8629217273954115),
    (124, [-1.071, 1.129, 0.4900000000000002, 0.47699999999999987, 0.29600000000000026, 0.4700000000000002, 0.03699999999999992, 0.786, -0.669, -1.652], 0.8629217273954115),
    (125, [-1.071, 1.129, 0.4900000000000002, 0.47699999999999987, 0.29600000000000026, 0.4700000000000002, 0.03699999999999992, 0.786, -0.669, -1.652], 0.8629217273954115),
    (126, [-1.071, 1.129, 0.4900000000000002, 0.47699999999999987, 0.29600000000000026, 0.4700000000000002, 0.03699999999999992, 0.786, -0.669, -1.652], 0.8629217273954115),
    (127, [-1.071, 1.129, 0.4900000000000002, 0.47699999999999987, 0.29600000000000026, 0.4700000000000002, 0.03699999999999992, 0.786, -0.669, -1.652], 0.8629217273954115),
    (128, [-1.071, 1.129, 0.4900000000000002, 0.47699999999999987, 0.29600000000000026, 0.4700000000000002, 0.03699999999999992, 0.786, -0.669, -1.652], 0.8629217273954115),
    (129, [-1.071, 1.129, 0.4900000000000002, 0.47699999999999987, 0.29600000000000026, 0.4700000000000002, 0.03699999999999992, 0.786, -0.669, -1.652], 0.8629217273954115),
    (130, [-1.071, 1.129, 0.4900000000000002, 0.47699999999999987, 0.29600000000000026, 0.4700000000000002, 0.03699999999999992, 0.786, -0.669, -1.652], 0.8629217273954115),
    (131, [-1.071, 1.129, 0.4900000000000002, 0.47699999999999987, 0.29600000000000026, 0.4700000000000002, 0.03699999999999992, 0.786, -0.669, -1.652], 0.8629217273954115),
    (132, [-1.071, 1.129, 0.4900000000000002, 0.47699999999999987, 0.29600000000000026, 0.4700000000000002, 0.03699999999999992, 0.786, -0.669, -1.652], 0.8629217273954115),
    (133, [-1.071, 1.129, 0.4900000000000002, 0.47699999999999987, 0.29600000000000026, 0.4700000000000002, 0.03699999999999992, 0.786, -0.669, -1.652], 0.8629217273954115),
    (134, [-1.071, 1.129, 0.4900000000000002, 0.47699999999999987, 0.29600000000000026, 0.4700000000000002, 0.03699999999999992, 0.786, -0.669, -1.652], 0.8629217273954115),
    (135, [-1.071, 1.129, 0.4900000000000002, 0.47699999999999987, 0.29600000000000026, 0.4700000000000002, 0.03699999999999992, 0.786, -0.669, -1.652], 0.8629217273954115),
    (136, [-1.071, 1.129, 0.4900000000000002, 0.47699999999999987, 0.29600000000000026, 0.4700000000000002, 0.03699999999999992, 0.786, -0.669, -1.652], 0.8629217273954115),
    (137, [-1.071, 1.129, 0.4900000000000002, 0.47699999999999987, 0.29600000000000026, 0.4700000000000002, 0.03699999999999992, 0.786, -0.669, -1.652], 0.8629217273954115),
    (138, [-1.071, 1.129, 0.4900000000000002, 0.47699999999999987, 0.29600000000000026, 0.4700000000000002, 0.03699999999999992, 0.786, -0.669, -1.652], 0.8629217273954115),
    (139, [-1.071, 1.129, 0.4900000000000002, 0.47699999999999987, 0.29600000000000026, 0.4700000000000002, 0.03699999999999992, 0.786, -0.669, -1.652], 0.8629217273954115),
    (140, [-1.071, 1.129, 0.4900000000000002, 0.47699999999999987, 0.29600000000000026, 0.4700000000000002, 0.03699999999999992, 0.786, -0.669, -1.652], 0.8629217273954115),
    (141, [-1.071, 1.129, 0.4900000000000002, 0.47699999999999987, 0.29600000000000026, 0.4700000000000002, 0.03699999999999992, 0.786, -0.669, -1.652], 0.8629217273954115),
    (142, [-1.071, 1.129, 0.4900000000000002, 0.47699999999999987, 0.29600000000000026, 0.4700000000000002, 0.03699999999999992, 0.786, -0.669, -1.652], 0.8629217273954115),
    (143, [-1.071, 1.129, 0.4900000000000002, 0.47699999999999987, 0.29600000000000026, 0.4700000000000002, 0.03699999999999992, 0.786, -0.669, -1.652], 0.8629217273954115),
    (144, [-1.071, 1.129, 0.4900000000000002, 0.47699999999999987, 0.29600000000000026, 0.4700000000000002, 0.03699999999999992, 0.786, -0.669, -1.652], 0.8629217273954115),
    (145, [-1.071, 1.129, 0.4900000000000002, 0.47699999999999987, 0.29600000000000026, 0.4700000000000002, 0.03699999999999992, 0.786, -0.669, -1.652], 0.8629217273954115),
    (146, [-1.071, 1.129, 0.4900000000000002, 0.47699999999999987, 0.29600000000000026, 0.4700000000000002, 0.03699999999999992, 0.786, -0.669, -1.652], 0.8629217273954115),
    (147, [-1.071, 1.129, 0.4900000000000002, 0.47699999999999987, 0.29600000000000026, 0.4700000000000002, 0.03699999999999992, 0.786, -0.669, -1.652], 0.8629217273954115),
    (148, [-1.071, 1.129, 0.4900000000000002, 0.47699999999999987, 0.29600000000000026, 0.4700000000000002, 0.03699999999999992, 0.786, -0.669, -1.652], 0.8629217273954115),
    (149, [-1.071, 1.129, 0.4900000000000002, 0.47699999999999987, 0.29600000000000026, 0.4700000000000002, 0.03699999999999992, 0.786, -0.669, -1.652], 0.8629217273954115),
    (150, [-1.071, 1.129, 0.4900000000000002, 0.47699999999999987, 0.29600000000000026, 0.4700000000000002, 0.03699999999999992, 0.786, -0.669, -1.652], 0.8629217273954115),
    (151, [-1.071, 1.129, 0.4900000000000002, 0.47699999999999987, 0.29600000000000026, 0.4700000000000002, 0.03699999999999992, 0.786, -0.669, -1.652], 0.8629217273954115),
    (152, [-1.071, 1.129, 0.4900000000000002, 0.47699999999999987, 0.29600000000000026, 0.4700000000000002, 0.03699999999999992, 0.786, -0.669, -1.652], 0.8629217273954115),
    (153, [-1.071, 1.129, 0.4900000000000002, 0.47699999999999987, 0.29600000000000026, 0.4700000000000002, 0.03699999999999992, 0.786, -0.669, -1.652], 0.8629217273954115),
    (154, [-1.071, 1.129, 0.4900000000000002, 0.47699999999999987, 0.29600000000000026, 0.4700000000000002, 0.03699999999999992, 0.786, -0.669, -1.652], 0.8629217273954115),
    (155, [-1.071, 1.129, 0.4900000000000002, 0.47699999999999987, 0.29600000000000026, 0.4700000000000002, 0.03699999999999992, 0.786, -0.669, -1.652], 0.8629217273954115),
    (156, [-1.071, 1.129, 0.4900000000000002, 0.47699999999999987, 0.29600000000000026, 0.4700000000000002, 0.03699999999999992, 0.786, -0.669, -1.652], 0.8629217273954115),
    (157, [-1.071, 1.129, 0.4900000000000002, 0.47699999999999987, 0.29600000000000026, 0.4700000000000002, 0.03699999999999992, 0.786, -0.669, -1.652], 0.8629217273954115),
    (158, [-1.071, 1.129, 0.4900000000000002, 0.47699999999999987, 0.29600000000000026, 0.4700000000000002, 0.03699999999999992, 0.786, -0.669, -1.652], 0.8629217273954115),
    (159, [-1.071, 1.129, 0.4900000000000002, 0.47699999999999987, 0.29600000000000026, 0.4700000000000002, 0.03699999999999992, 0.786, -0.669, -1.652], 0.8629217273954115),
    (160, [-1.071, 1.129, 0.4900000000000002, 0.47699999999999987, 0.29600000000000026, 0.4700000000000002, 0.03699999999999992, 0.786, -0.669, -1.652], 0.8629217273954115),
    (161, [-1.071, 1.129, 0.4900000000000002, 0.47699999999999987, 0.29600000000000026, 0.4700000000000002, 0.03699999999999992, 0.786, -0.669, -1.652], 0.8629217273954115),
    (162, [-1.071, 1.129, 0.4900000000000002, 0.47699999999999987, 0.29600000000000026, 0.4700000000000002, 0.03699999999999992, 0.786, -0.669, -1.652], 0.8629217273954115),
    (163, [-1.071, 1.129, 0.4900000000000002, 0.47699999999999987, 0.29600000000000026, 0.4700000000000002, 0.03699999999999992, 0.786, -0.669, -1.652], 0.8629217273954115),
    (164, [-1.071, 1.129, 0.4900000000000002, 0.47699999999999987, 0.29600000000000026, 0.4700000000000002, 0.03699999999999992, 0.786, -0.669, -1.652], 0.8629217273954115),
    (165, [-1.071, 1.129, 0.4900000000000002, 0.47699999999999987, 0.29600000000000026, 0.4700000000000002, 0.03699999999999992, 0.786, -0.669, -1.652], 0.8629217273954115),
    (166, [-1.071, 1.129, 0.4900000000000002, 0.47699999999999987, 0.29600000000000026, 0.4700000000000002, 0.03699999999999992, 0.786, -0.669, -1.652], 0.8629217273954115),
    (167, [-1.071, 1.129, 0.4900000000000002, 0.47699999999999987, 0.29600000000000026, 0.4700000000000002, 0.03699999999999992, 0.786, -0.669, -1.652], 0.8629217273954115),
    (168, [-1.071, 1.129, 0.4900000000000002, 0.47699999999999987, 0.29600000000000026, 0.4700000000000002, 0.03699999999999992, 0.786, -0.669, -1.652], 0.8629217273954115),
    (169, [-1.071, 1.129, 0.4900000000000002, 0.47699999999999987, 0.29600000000000026, 0.4700000000000002, 0.03699999999999992, 0.786, -0.669, -1.652], 0.8629217273954115),
    (170, [-1.071, 1.129, 0.4900000000000002, 0.47699999999999987, 0.29600000000000026, 0.4700000000000002, 0.03699999999999992, 0.786, -0.669, -1.652], 0.8629217273954115),
    (171, [-1.071, 1.129, 0.4900000000000002, 0.47699999999999987, 0.29600000000000026, 0.4700000000000002, 0.03699999999999992, 0.786, -0.669, -1.652], 0.8629217273954115),
    (172, [-1.071, 1.129, 0.4900000000000002, 0.47699999999999987, 0.29600000000000026, 0.4700000000000002, 0.03699999999999992, 0.786, -0.669, -1.652], 0.8629217273954115),
    (173, [-1.071, 1.129, 0.4900000000000002, 0.47699999999999987, 0.29600000000000026, 0.4700000000000002, 0.03699999999999992, 0.786, -0.669, -1.652], 0.8629217273954115),
    (174, [-1.071, 1.129, 0.4900000000000002, 0.47699999999999987, 0.29600000000000026, 0.4700000000000002, 0.03699999999999992, 0.786, -0.669, -1.652], 0.8629217273954115),
    (175, [-1.071, 1.129, 0.4900000000000002, 0.47699999999999987, 0.29600000000000026, 0.4700000000000002, 0.03699999999999992, 0.786, -0.669, -1.652], 0.8629217273954115),
    (176, [-1.071, 1.129, 0.4900000000000002, 0.47699999999999987, 0.29600000000000026, 0.4700000000000002, 0.03699999999999992, 0.786, -0.669, -1.652], 0.8629217273954115),
    (177, [-1.071, 1.129, 0.4900000000000002, 0.47699999999999987, 0.29600000000000026, 0.4700000000000002, 0.03699999999999992, 0.786, -0.669, -1.652], 0.8629217273954115),
    (178, [-1.071, 1.129, 0.4900000000000002, 0.47699999999999987, 0.29600000000000026, 0.4700000000000002, 0.03699999999999992, 0.786, -0.669, -1.652], 0.8629217273954115),
    (179, [-1.071, 1.129, 0.4900000000000002, 0.47699999999999987, 0.29600000000000026, 0.4700000000000002, 0.03699999999999992, 0.786, -0.669, -1.652], 0.8629217273954115),
    (180, [-1.071, 1.129, 0.4900000000000002, 0.47699999999999987, 0.29600000000000026, 0.4700000000000002, 0.03699999999999992, 0.786, -0.669, -1.652], 0.8629217273954115),
    (181, [-1.071, 1.129, 0.4900000000000002, 0.47699999999999987, 0.29600000000000026, 0.4700000000000002, 0.03699999999999992, 0.786, -0.669, -1.652], 0.8629217273954115),
    (182, [-1.071, 1.129, 0.4900000000000002, 0.47699999999999987, 0.29600000000000026, 0.4700000000000002, 0.03699999999999992, 0.786, -0.669, -1.652], 0.8629217273954115),
    (183, [-1.071, 1.129, 0.4900000000000002, 0.47699999999999987, 0.29600000000000026, 0.4700000000000002, 0.03699999999999992, 0.786, -0.669, -1.652], 0.8629217273954115),
    (184, [-1.071, 1.129, 0.4900000000000002, 0.47699999999999987, 0.29600000000000026, 0.4700000000000002, 0.03699999999999992, 0.786, -0.669, -1.652], 0.8629217273954115),
    (185, [-1.071, 1.129, 0.4900000000000002, 0.47699999999999987, 0.29600000000000026, 0.4700000000000002, 0.03699999999999992, 0.786, -0.669, -1.652], 0.8629217273954115),
    (186, [-1.071, 1.129, 0.4900000000000002, 0.47699999999999987, 0.29600000000000026, 0.4700000000000002, 0.03699999999999992, 0.786, -0.669, -1.652], 0.8629217273954115),
    (187, [-1.071, 1.129, 0.4900000000000002, 0.47699999999999987, 0.29600000000000026, 0.4700000000000002, 0.03699999999999992, 0.786, -0.669, -1.652], 0.8629217273954115),
    (188, [-1.071, 1.129, 0.4900000000000002, 0.47699999999999987, 0.29600000000000026, 0.4700000000000002, 0.03699999999999992, 0.786, -0.669, -1.652], 0.8629217273954115),
    (189, [-1.071, 1.129, 0.4900000000000002, 0.47699999999999987, 0.29600000000000026, 0.4700000000000002, 0.03699999999999992, 0.786, -0.669, -1.652], 0.8629217273954115),
    (190, [-1.071, 1.129, 0.4900000000000002, 0.47699999999999987, 0.29600000000000026, 0.4700000000000002, 0.03699999999999992, 0.786, -0.669, -1.652], 0.8629217273954115),
    (191, [-1.071, 1.129, 0.4900000000000002, 0.47699999999999987, 0.29600000000000026, 0.4700000000000002, 0.03699999999999992, 0.786, -0.669, -1.652], 0.8629217273954115),
    (192, [-1.071, 1.129, 0.4900000000000002, 0.47699999999999987, 0.29600000000000026, 0.4700000000000002, 0.03699999999999992, 0.786, -0.669, -1.652], 0.8629217273954115),
    (193, [-1.071, 1.129, 0.4900000000000002, 0.47699999999999987, 0.29600000000000026, 0.4700000000000002, 0.03699999999999992, 0.786, -0.669, -1.652], 0.8629217273954115),
    (194, [-1.071, 1.129, 0.4900000000000002, 0.47699999999999987, 0.29600000000000026, 0.4700000000000002, 0.03699999999999992, 0.786, -0.669, -1.652], 0.8629217273954115),
    (195, [-1.071, 1.129, 0.4900000000000002, 0.47699999999999987, 0.29600000000000026, 0.4700000000000002, 0.03699999999999992, 0.786, -0.669, -1.652], 0.8629217273954115),
    (196, [-1.071, 1.129, 0.4900000000000002, 0.47699999999999987, 0.29600000000000026, 0.4700000000000002, 0.03699999999999992, 0.786, -0.669, -1.652], 0.8629217273954115),
    (197, [-1.071, 1.129, 0.4900000000000002, 0.47699999999999987, 0.29600000000000026, 0.4700000000000002, 0.03699999999999992, 0.786, -0.669, -1.652], 0.8629217273954115),
    (198, [-1.071, 1.129, 0.4900000000000002, 0.47699999999999987, 0.29600000000000026, 0.4700000000000002, 0.03699999999999992, 0.786, -0.669, -1.652], 0.8629217273954115),
    (199, [-1.071, 1.129, 0.4900000000000002, 0.47699999999999987, 0.29600000000000026, 0.4700000000000002, 0.03699999999999992, 0.786, -0.669, -1.652], 0.8629217273954115),
    (200, [-1.071, 1.129, 0.4900000000000002, 0.47699999999999987, 0.29600000000000026, 0.4700000000000002, 0.03699999999999992, 0.786, -0.669, -1.652], 0.8629217273954115),
    (201, [-1.071, 1.129, 0.4900000000000002, 0.47699999999999987, 0.29600000000000026, 0.4700000000000002, 0.03699999999999992, 0.786, -0.669, -1.652], 0.8629217273954115),
    (202, [-1.071, 1.129, 0.4900000000000002, 0.47699999999999987, 0.29600000000000026, 0.4700000000000002, 0.03699999999999992, 0.786, -0.669, -1.652], 0.8629217273954115),
    (203, [-1.071, 1.129, 0.4900000000000002, 0.47699999999999987, 0.29600000000000026, 0.4700000000000002, 0.03699999999999992, 0.786, -0.669, -1.652], 0.8629217273954115),
    (204, [-1.071, 1.129, 0.4900000000000002, 0.47699999999999987, 0.29600000000000026, 0.4700000000000002, 0.03699999999999992, 0.786, -0.669, -1.652], 0.8629217273954115),
    (205, [-1.071, 1.129, 0.4900000000000002, 0.47699999999999987, 0.29600000000000026, 0.4700000000000002, 0.03699999999999992, 0.786, -0.669, -1.652], 0.8629217273954115),
    (206, [-1.071, 1.129, 0.4900000000000002, 0.47699999999999987, 0.29600000000000026, 0.4700000000000002, 0.03699999999999992, 0.786, -0.669, -1.652], 0.8629217273954115),
    (207, [-1.071, 1.129, 0.4900000000000002, 0.47699999999999987, 0.29600000000000026, 0.4700000000000002, 0.03699999999999992, 0.786, -0.669, -1.652], 0.8629217273954115),
    (208, [-1.071, 1.129, 0.4900000000000002, 0.47699999999999987, 0.29600000000000026, 0.4700000000000002, 0.03699999999999992, 0.786, -0.669, -1.652], 0.8629217273954115),
    (209, [-1.071, 1.129, 0.4900000000000002, 0.47699999999999987, 0.29600000000000026, 0.4700000000000002, 0.03699999999999992, 0.786, -0.669, -1.652], 0.8629217273954115),
    (210, [-1.071, 1.129, 0.4900000000000002, 0.47699999999999987, 0.29600000000000026, 0.4700000000000002, 0.03699999999999992, 0.786, -0.669, -1.652], 0.8629217273954115),
    (211, [-1.071, 1.129, 0.4900000000000002, 0.47699999999999987, 0.29600000000000026, 0.4700000000000002, 0.03699999999999992, 0.786, -0.669, -1.652], 0.8629217273954115),
    (212, [-1.071, 1.129, 0.4900000000000002, 0.47699999999999987, 0.29600000000000026, 0.4700000000000002, 0.03699999999999992, 0.786, -0.669, -1.652], 0.8629217273954115),
    (213, [-1.071, 1.129, 0.4900000000000002, 0.47699999999999987, 0.29600000000000026, 0.4700000000000002, 0.03699999999999992, 0.786, -0.669, -1.652], 0.8629217273954115),
    (214, [-1.071, 1.129, 0.4900000000000002, 0.47699999999999987, 0.29600000000000026, 0.4700000000000002, 0.03699999999999992, 0.786, -0.669, -1.652], 0.8629217273954115),
    (215, [-1.071, 1.129, 0.4900000000000002, 0.47699999999999987, 0.29600000000000026, 0.4700000000000002, 0.03699999999999992, 0.786, -0.669, -1.652], 0.8629217273954115),
    (216, [-1.071, 1.129, 0.4900000000000002, 0.47699999999999987, 0.29600000000000026, 0.4700000000000002, 0.03699999999999992, 0.786, -0.669, -1.652], 0.8629217273954115),
    (217, [-1.071, 1.129, 0.4900000000000002, 0.47699999999999987, 0.29600000000000026, 0.4700000000000002, 0.03699999999999992, 0.786, -0.669, -1.652], 0.8629217273954115),
    (218, [-1.071, 1.129, 0.4900000000000002, 0.47699999999999987, 0.29600000000000026, 0.4700000000000002, 0.03699999999999992, 0.786, -0.669, -1.652], 0.8629217273954115),
    (219, [-1.071, 1.129, 0.4900000000000002, 0.47699999999999987, 0.29600000000000026, 0.4700000000000002, 0.03699999999999992, 0.786, -0.669, -1.652], 0.8629217273954115),
    (220, [-1.071, 1.129, 0.4900000000000002, 0.47699999999999987, 0.29600000000000026, 0.4700000000000002, 0.03699999999999992, 0.786, -0.669, -1.652], 0.8629217273954115),
    (221, [-1.071, 1.129, 0.4900000000000002, 0.47699999999999987, 0.29600000000000026, 0.4700000000000002, 0.03699999999999992, 0.786, -0.669, -1.652], 0.8629217273954115),
    (222, [-1.071, 1.129, 0.4900000000000002, 0.47699999999999987, 0.29600000000000026, 0.4700000000000002, 0.03699999999999992, 0.786, -0.669, -1.652], 0.8629217273954115),
    (223, [-1.071, 1.129, 0.4900000000000002, 0.47699999999999987, 0.29600000000000026, 0.4700000000000002, 0.03699999999999992, 0.786, -0.669, -1.652], 0.8629217273954115),
    (224, [-1.071, 1.129, 0.4900000000000002, 0.47699999999999987, 0.29600000000000026, 0.4700000000000002, 0.03699999999999992, 0.786, -0.669, -1.652], 0.8629217273954115),
    (225, [-1.071, 1.129, 0.4900000000000002, 0.47699999999999987, 0.29600000000000026, 0.4700000000000002, 0.03699999999999992, 0.786, -0.669, -1.652], 0.8629217273954115),
    (226, [-1.071, 1.129, 0.4900000000000002, 0.47699999999999987, 0.29600000000000026, 0.4700000000000002, 0.03699999999999992, 0.786, -0.669, -1.652], 0.8629217273954115),
    (227, [-1.071, 1.129, 0.4900000000000002, 0.47699999999999987, 0.29600000000000026, 0.4700000000000002, 0.03699999999999992, 0.786, -0.669, -1.652], 0.8629217273954115),
    (228, [-1.071, 1.129, 0.4900000000000002, 0.47699999999999987, 0.29600000000000026, 0.4700000000000002, 0.03699999999999992, 0.786, -0.669, -1.652], 0.8629217273954115),
    (229, [-1.071, 1.129, 0.4900000000000002, 0.47699999999999987, 0.29600000000000026, 0.4700000000000002, 0.03699999999999992, 0.786, -0.669, -1.652], 0.8629217273954115),
    (230, [-1.071, 1.129, 0.4900000000000002, 0.47699999999999987, 0.29600000000000026, 0.4700000000000002, 0.03699999999999992, 0.786, -0.669, -1.652], 0.8629217273954115),
    (231, [-1.071, 1.129, 0.4900000000000002, 0.47699999999999987, 0.29600000000000026, 0.4700000000000002, 0.03699999999999992, 0.786, -0.669, -1.652], 0.8629217273954115),
    (232, [-1.071, 1.129, 0.4900000000000002, 0.47699999999999987, 0.29600000000000026, 0.4700000000000002, 0.03699999999999992, 0.786, -0.669, -1.652], 0.8629217273954115),
    (233, [-1.071, 1.129, 0.4900000000000002, 0.47699999999999987, 0.29600000000000026, 0.4700000000000002, 0.03699999999999992, 0.786, -0.669, -1.652], 0.8629217273954115),
    (234, [-1.071, 1.129, 0.4900000000000002, 0.47699999999999987, 0.29600000000000026, 0.4700000000000002, 0.03699999999999992, 0.786, -0.669, -1.652], 0.8629217273954115),
    (235, [-1.071, 1.129, 0.4900000000000002, 0.47699999999999987, 0.29600000000000026, 0.4700000000000002, 0.03699999999999992, 0.786, -0.669, -1.652], 0.8629217273954115),
    (236, [-1.071, 1.129, 0.4900000000000002, 0.47699999999999987, 0.29600000000000026, 0.4700000000000002, 0.03699999999999992, 0.786, -0.669, -1.652], 0.8629217273954115),
    (237, [-1.071, 1.129, 0.4900000000000002, 0.47699999999999987, 0.29600000000000026, 0.4700000000000002, 0.03699999999999992, 0.786, -0.669, -1.652], 0.8629217273954115),
    (238, [-1.071, 1.129, 0.4900000000000002, 0.47699999999999987, 0.29600000000000026, 0.4700000000000002, 0.03699999999999992, 0.786, -0.669, -1.652], 0.8629217273954115),
    (239, [-1.071, 1.129, 0.4900000000000002, 0.47699999999999987, 0.29600000000000026, 0.4700000000000002, 0.03699999999999992, 0.786, -0.669, -1.652], 0.8629217273954115),
    (240, [-1.071, 1.129, 0.4900000000000002, 0.47699999999999987, 0.29600000000000026, 0.4700000000000002, 0.03699999999999992, 0.786, -0.669, -1.652], 0.8629217273954115),
    (241, [-1.071, 1.129, 0.4900000000000002, 0.47699999999999987, 0.29600000000000026, 0.4700000000000002, 0.03699999999999992, 0.786, -0.669, -1.652], 0.8629217273954115),
    (242, [-1.071, 1.129, 0.4900000000000002, 0.47699999999999987, 0.29600000000000026, 0.4700000000000002, 0.03699999999999992, 0.786, -0.669, -1.652], 0.8629217273954115),
    (243, [-1.071, 1.129, 0.4900000000000002, 0.47699999999999987, 0.29600000000000026, 0.4700000000000002, 0.03699999999999992, 0.786, -0.669, -1.652], 0.8629217273954115),
    (244, [-1.071, 1.129, 0.4900000000000002, 0.47699999999999987, 0.29600000000000026, 0.4700000000000002, 0.03699999999999992, 0.786, -0.669, -1.652], 0.8629217273954115),
    (245, [-1.071, 1.129, 0.4900000000000002, 0.47699999999999987, 0.29600000000000026, 0.4700000000000002, 0.03699999999999992, 0.786, -0.669, -1.652], 0.8629217273954115),
    (246, [-1.071, 1.129, 0.4900000000000002, 0.47699999999999987, 0.29600000000000026, 0.4700000000000002, 0.03699999999999992, 0.786, -0.669, -1.652], 0.8629217273954115),
    (247, [-1.071, 1.129, 0.4900000000000002, 0.47699999999999987, 0.29600000000000026, 0.4700000000000002, 0.03699999999999992, 0.786, -0.669, -1.652], 0.8629217273954115),
    (248, [-1.071, 1.129, 0.4900000000000002, 0.47699999999999987, 0.29600000000000026, 0.4700000000000002, 0.03699999999999992, 0.786, -0.669, -1.652], 0.8629217273954115),
    (249, [-1.071, 1.129, 0.4900000000000002, 0.47699999999999987, 0.29600000000000026, 0.4700000000000002, 0.03699999999999992, 0.786, -0.669, -1.652], 0.8629217273954115),
    (250, [-1.071, 1.129, 0.4900000000000002, 0.47699999999999987, 0.29600000000000026, 0.4700000000000002, 0.03699999999999992, 0.786, -0.669, -1.652], 0.8629217273954115),
    (251, [-1.071, 1.129, 0.4900000000000002, 0.47699999999999987, 0.29600000000000026, 0.4700000000000002, 0.03699999999999992, 0.786, -0.669, -1.652], 0.8629217273954115),
    (252, [-1.071, 1.129, 0.4900000000000002, 0.47699999999999987, 0.29600000000000026, 0.4700000000000002, 0.03699999999999992, 0.786, -0.669, -1.652], 0.8629217273954115),
    (253, [-1.071, 1.129, 0.4900000000000002, 0.47699999999999987, 0.29600000000000026, 0.4700000000000002, 0.03699999999999992, 0.786, -0.669, -1.652], 0.8629217273954115),
    (254, [-1.071, 1.129, 0.4900000000000002, 0.47699999999999987, 0.29600000000000026, 0.4700000000000002, 0.03699999999999992, 0.786, -0.669, -1.652], 0.8629217273954115),
    (255, [-1.071, 1.129, 0.4900000000000002, 0.47699999999999987, 0.29600000000000026, 0.4700000000000002, 0.03699999999999992, 0.786, -0.669, -1.652], 0.8629217273954115),
    (256, [-1.071, 1.129, 0.4900000000000002, 0.47699999999999987, 0.29600000000000026, 0.4700000000000002, 0.03699999999999992, 0.786, -0.669, -1.652], 0.8629217273954115),
    (257, [-1.071, 1.129, 0.4900000000000002, 0.47699999999999987, 0.29600000000000026, 0.4700000000000002, 0.03699999999999992, 0.786, -0.669, -1.652], 0.8629217273954115),
    (258, [-1.071, 1.129, 0.4900000000000002, 0.47699999999999987, 0.29600000000000026, 0.4700000000000002, 0.03699999999999992, 0.786, -0.669, -1.652], 0.8629217273954115),
    (259, [-1.071, 1.129, 0.4900000000000002, 0.47699999999999987, 0.29600000000000026, 0.4700000000000002, 0.03699999999999992, 0.786, -0.669, -1.652], 0.8629217273954115),
    (260, [-1.071, 1.129, 0.4900000000000002, 0.47699999999999987, 0.29600000000000026, 0.4700000000000002, 0.03699999999999992, 0.786, -0.669, -1.652], 0.8629217273954115),
    (261, [-1.071, 1.129, 0.4900000000000002, 0.47699999999999987, 0.29600000000000026, 0.4700000000000002, 0.03699999999999992, 0.786, -0.669, -1.652], 0.8629217273954115),
    (262, [-1.071, 1.129, 0.4900000000000002, 0.47699999999999987, 0.29600000000000026, 0.4700000000000002, 0.03699999999999992, 0.786, -0.669, -1.652], 0.8629217273954115),
    (263, [-1.071, 1.129, 0.4900000000000002, 0.47699999999999987, 0.29600000000000026, 0.4700000000000002, 0.03699999999999992, 0.786, -0.669, -1.652], 0.8629217273954115),
    (264, [-1.071, 1.129, 0.4900000000000002, 0.47699999999999987, 0.29600000000000026, 0.4700000000000002, 0.03699999999999992, 0.786, -0.669, -1.652], 0.8629217273954115),
    (265, [-1.071, 1.129, 0.4900000000000002, 0.47699999999999987, 0.29600000000000026, 0.4700000000000002, 0.03699999999999992, 0.786, -0.669, -1.652], 0.8629217273954115),
    (266, [-1.071, 1.129, 0.4900000000000002, 0.47699999999999987, 0.29600000000000026, 0.4700000000000002, 0.03699999999999992, 0.786, -0.669, -1.652], 0.8629217273954115),
    (267, [-1.071, 1.129, 0.4900000000000002, 0.47699999999999987, 0.29600000000000026, 0.4700000000000002, 0.03699999999999992, 0.786, -0.669, -1.652], 0.8629217273954115),
    (268, [-1.071, 1.129, 0.4900000000000002, 0.47699999999999987, 0.29600000000000026, 0.4700000000000002, 0.03699999999999992, 0.786, -0.669, -1.652], 0.8629217273954115),
    (269, [-1.071, 1.129, 0.4900000000000002, 0.47699999999999987, 0.29600000000000026, 0.4700000000000002, 0.03699999999999992, 0.786, -0.669, -1.652], 0.8629217273954115),
    (270, [-1.071, 1.129, 0.4900000000000002, 0.47699999999999987, 0.29600000000000026, 0.4700000000000002, 0.03699999999999992, 0.786, -0.669, -1.652], 0.8629217273954115),
    (271, [-1.071, 1.129, 0.4900000000000002, 0.47699999999999987, 0.29600000000000026, 0.4700000000000002, 0.03699999999999992, 0.786, -0.669, -1.652], 0.8629217273954115),
    (272, [-1.071, 1.129, 0.4900000000000002, 0.47699999999999987, 0.29600000000000026, 0.4700000000000002, 0.03699999999999992, 0.786, -0.669, -1.652], 0.8629217273954115),
    (273, [-1.071, 1.129, 0.4900000000000002, 0.47699999999999987, 0.29600000000000026, 0.4700000000000002, 0.03699999999999992, 0.786, -0.669, -1.652], 0.8629217273954115),
    (274, [-1.071, 1.129, 0.4900000000000002, 0.47699999999999987, 0.29600000000000026, 0.4700000000000002, 0.03699999999999992, 0.786, -0.669, -1.652], 0.8629217273954115),
    (275, [-1.071, 1.129, 0.4900000000000002, 0.47699999999999987, 0.29600000000000026, 0.4700000000000002, 0.03699999999999992, 0.786, -0.669, -1.652], 0.8629217273954115),
    (276, [-1.071, 1.129, 0.4900000000000002, 0.47699999999999987, 0.29600000000000026, 0.4700000000000002, 0.03699999999999992, 0.786, -0.669, -1.652], 0.8629217273954115),
    (277, [-1.071, 1.129, 0.4900000000000002, 0.47699999999999987, 0.29600000000000026, 0.4700000000000002, 0.03699999999999992, 0.786, -0.669, -1.652], 0.8629217273954115),
    (278, [-1.071, 1.129, 0.4900000000000002, 0.47699999999999987, 0.29600000000000026, 0.4700000000000002, 0.03699999999999992, 0.786, -0.669, -1.652], 0.8629217273954115),
    (279, [-1.071, 1.129, 0.4900000000000002, 0.47699999999999987, 0.29600000000000026, 0.4700000000000002, 0.03699999999999992, 0.786, -0.669, -1.652], 0.8629217273954115),
    (280, [-1.071, 1.129, 0.4900000000000002, 0.47699999999999987, 0.29600000000000026, 0.4700000000000002, 0.03699999999999992, 0.786, -0.669, -1.652], 0.8629217273954115),
    (281, [-1.071, 1.129, 0.4900000000000002, 0.47699999999999987, 0.29600000000000026, 0.4700000000000002, 0.03699999999999992, 0.786, -0.669, -1.652], 0.8629217273954115),
    (282, [-1.071, 1.129, 0.4900000000000002, 0.47699999999999987, 0.29600000000000026, 0.4700000000000002, 0.03699999999999992, 0.786, -0.669, -1.652], 0.8629217273954115),
    (283, [-1.071, 1.129, 0.4900000000000002, 0.47699999999999987, 0.29600000000000026, 0.4700000000000002, 0.03699999999999992, 0.786, -0.669, -1.652], 0.8629217273954115),
    (284, [-1.071, 1.129, 0.4900000000000002, 0.47699999999999987, 0.29600000000000026, 0.4700000000000002, 0.03699999999999992, 0.786, -0.669, -1.652], 0.8629217273954115),
    (285, [-1.071, 1.129, 0.4900000000000002, 0.47699999999999987, 0.29600000000000026, 0.4700000000000002, 0.03699999999999992, 0.786, -0.669, -1.652], 0.8629217273954115),
    (286, [-1.071, 1.129, 0.4900000000000002, 0.47699999999999987, 0.29600000000000026, 0.4700000000000002, 0.03699999999999992, 0.786, -0.669, -1.652], 0.8629217273954115),
    (287, [-1.071, 1.129, 0.4900000000000002, 0.47699999999999987, 0.29600000000000026, 0.4700000000000002, 0.03699999999999992, 0.786, -0.669, -1.652], 0.8629217273954115),
    (288, [-1.071, 1.129, 0.4900000000000002, 0.47699999999999987, 0.29600000000000026, 0.4700000000000002, 0.03699999999999992, 0.786, -0.669, -1.652], 0.8629217273954115),
    (289, [-1.071, 1.129, 0.4900000000000002, 0.47699999999999987, 0.29600000000000026, 0.4700000000000002, 0.03699999999999992, 0.786, -0.669, -1.652], 0.8629217273954115),
    (290, [-1.071, 1.129, 0.4900000000000002, 0.47699999999999987, 0.29600000000000026, 0.4700000000000002, 0.03699999999999992, 0.786, -0.669, -1.652], 0.8629217273954115),
    (291, [-1.071, 1.129, 0.4900000000000002, 0.47699999999999987, 0.29600000000000026, 0.4700000000000002, 0.03699999999999992, 0.786, -0.669, -1.652], 0.8629217273954115),
    (292, [-1.071, 1.129, 0.4900000000000002, 0.47699999999999987, 0.29600000000000026, 0.4700000000000002, 0.03699999999999992, 0.786, -0.669, -1.652], 0.8629217273954115),
    (293, [-1.071, 1.129, 0.4900000000000002, 0.47699999999999987, 0.29600000000000026, 0.4700000000000002, 0.03699999999999992, 0.786, -0.669, -1.652], 0.8629217273954115),
    (294, [-1.071, 1.129, 0.4900000000000002, 0.47699999999999987, 0.29600000000000026, 0.4700000000000002, 0.03699999999999992, 0.786, -0.669, -1.652], 0.8629217273954115),
    (295, [-1.071, 1.129, 0.4900000000000002, 0.47699999999999987, 0.29600000000000026, 0.4700000000000002, 0.03699999999999992, 0.786, -0.669, -1.652], 0.8629217273954115),
    (296, [-1.071, 1.129, 0.4900000000000002, 0.47699999999999987, 0.29600000000000026, 0.4700000000000002, 0.03699999999999992, 0.786, -0.669, -1.652], 0.8629217273954115),
    (297, [-1.071, 1.129, 0.4900000000000002, 0.47699999999999987, 0.29600000000000026, 0.4700000000000002, 0.03699999999999992, 0.786, -0.669, -1.652], 0.8629217273954115),
    (298, [-1.071, 1.129, 0.4900000000000002, 0.47699999999999987, 0.29600000000000026, 0.4700000000000002, 0.03699999999999992, 0.786, -0.669, -1.652], 0.8629217273954115),
    (299, [-1.071, 1.129, 0.4900000000000002, 0.47699999999999987, 0.29600000000000026, 0.4700000000000002, 0.03699999999999992, 0.786, -0.669, -1.652], 0.8629217273954115),
]

