ranges of every chromosome : (-2, 2)
    selection method is: LinearRankingSelection
    crossover method is: UniformCrossover
    pc: The probability of crossover: 1.000000
    pe: Gene exchange probability: 0.500000
    mutation method is: FlipBitBigMutation
    pm: The probability of mutation: 0.300000
    pbm: The probability of big mutation: 0.700000
    alpha: intensive factor: 0.600000
best_fit = [
    (0, [1, 1, 1, 1, 1, 1, 1, 1, 1, 1], 0.8480499325236167),
    (1, [1, 1, 1, 1, 1, 1, 1, 1, 1, 1], 0.8480499325236167),
    (2, [1, 1, 1, 1, 1, 1, 1, 1, 1, 1], 0.8480499325236167),
    (3, [-0.6599999999999999, 1.1030000000000002, 1.008, 0.8109999999999999, 1.1880000000000002, -0.724, 1.803, 0.5380000000000003, 0.9569999999999999, 1.0220000000000002], 0.8526585695006748),
    (4, [-0.6599999999999999, 1.1030000000000002, 1.008, 0.8109999999999999, 1.1880000000000002, -0.724, 1.803, 0.5380000000000003, 0.9569999999999999, 1.0220000000000002], 0.8526585695006748),
    (5, [1.0550000000000002, 1.2720000000000002, 0.7429999999999999, -0.1499999999999999, -1.421, 0.9430000000000001, -0.544, 0.9010000000000002, 0.4500000000000002, 1.4250000000000003], 0.8581848852901484),
    (6, [1.0550000000000002, 1.2720000000000002, 0.7429999999999999, -0.1499999999999999, -1.421, 0.9430000000000001, -0.544, 0.9010000000000002, 0.4500000000000002, 1.4250000000000003], 0.8581848852901484),
    (7, [1.0550000000000002, 1.2720000000000002, 0.7429999999999999, -0.1499999999999999, -1.421, 0.9430000000000001, -0.544, 0.9010000000000002, 0.4500000000000002, 1.4250000000000003], 0.8581848852901484),
    (8, [1.0550000000000002, 1.2720000000000002, 0.7429999999999999, -0.1499999999999999, -1.421, 0.9430000000000001, -0.544, 0.9010000000000002, 0.4500000000000002, 1.4250000000000003], 0.8581848852901484),
    (9, [1.0550000000000002, 1.2720000000000002, 0.7429999999999999, -0.1499999999999999, -1.421, 0.9430000000000001, -0.544, 0.9010000000000002, 0.4500000000000002, 1.4250000000000003], 0.8581848852901484),
    (10, [1.0550000000000002, 1.2720000000000002, 0.7429999999999999, -0.1499999999999999, -1.421, 0.9430000000000001, -0.544, 0.9010000000000002, 0.4500000000000002, 1.4250000000000003], 0.8581848852901484),
    (11, [1.0550000000000002, 1.2720000000000002, 0.7429999999999999, -0.1499999999999999, -1.421, 0.9430000000000001, -0.544, 0.9010000000000002, 0.4500000000000002, 1.4250000000000003], 0.8581848852901484),
    (12, [1.0550000000000002, 1.2720000000000002, 0.7429999999999999, -0.1499999999999999, -1.421, 0.9430000000000001, -0.544, 0.9010000000000002, 0.4500000000000002, 1.4250000000000003], 0.8581848852901484),
    (13, [1.0550000000000002, 1.2720000000000002, 0.7429999999999999, -0.1499999999999999, -1.421, 0.9430000000000001, -0.544, 0.9010000000000002, 0.4500000000000002, 1.4250000000000003], 0.8581848852901484),
    (14, [1.0550000000000002, 1.2720000000000002, 0.7429999999999999, -0.1499999999999999, -1.421, 0.9430000000000001, -0.544, 0.9010000000000002, 0.4500000000000002, 1.4250000000000003], 0.8581848852901484),
    (15, [1.0550000000000002, 1.2720000000000002, 0.7429999999999999, -0.1499999999999999, -1.421, 0.9430000000000001, -0.544, 0.9010000000000002, 0.4500000000000002, 1.4250000000000003], 0.8581848852901484),
    (16, [1.0550000000000002, 1.2720000000000002, 0.7429999999999999, -0.1499999999999999, -1.421, 0.9430000000000001, -0.544, 0.9010000000000002, 0.4500000000000002, 1.4250000000000003], 0.8581848852901484),
    (17, [1.0550000000000002, 1.2720000000000002, 0.7429999999999999, -0.1499999999999999, -1.421, 0.9430000000000001, -0.544, 0.9010000000000002, 0.4500000000000002, 1.4250000000000003], 0.8581848852901484),
    (18, [1.0550000000000002, 1.2720000000000002, 0.7429999999999999, -0.1499999999999999, -1.421, 0.9430000000000001, -0.544, 0.9010000000000002, 0.4500000000000002, 1.4250000000000003], 0.8581848852901484),
    (19, [1.0550000000000002, 1.2720000000000002, 0.7429999999999999, -0.1499999999999999, -1.421, 0.9430000000000001, -0.544, 0.9010000000000002, 0.4500000000000002, 1.4250000000000003], 0.8581848852901484),
    (20, [1.0550000000000002, 1.2720000000000002, 0.7429999999999999, -0.1499999999999999, -1.421, 0.9430000000000001, -0.544, 0.9010000000000002, 0.4500000000000002, 1.4250000000000003], 0.8581848852901484),
    (21, [1.0550000000000002, 1.2720000000000002, 0.7429999999999999, -0.1499999999999999, -1.421, 0.9430000000000001, -0.544, 0.9010000000000002, 0.4500000000000002, 1.4250000000000003], 0.8581848852901484),
    (22, [1.0550000000000002, 1.2720000000000002, 0.7429999999999999, -0.1499999999999999, -1.421, 0.9430000000000001, -0.544, 0.9010000000000002, 0.4500000000000002, 1.4250000000000003], 0.8581848852901484),
    (23, [1.0550000000000002, 1.2720000000000002, 0.7429999999999999, -0.1499999999999999, -1.421, 0.9430000000000001, -0.544, 0.9010000000000002, 0.4500000000000002, 1.4250000000000003], 0.8581848852901484),
    (24, [1.0550000000000002, 1.2720000000000002, 0.7429999999999999, -0.1499999999999999, -1.421, 0.9430000000000001, -0.544, 0.9010000000000002, 0.4500000000000002, 1.4250000000000003], 0.8581848852901484),
    (25, [1.0550000000000002, 1.2720000000000002, 0.7429999999999999, -0.1499999999999999, -1.421, 0.9430000000000001, -0.544, 0.9010000000000002, 0.4500000000000002, 1.4250000000000003], 0.8581848852901484),
    (26, [1.0550000000000002, 1.2720000000000002, 0.7429999999999999, -0.1499999999999999, -1.421, 0.9430000000000001, -0.544, 0.9010000000000002, 0.4500000000000002, 1.4250000000000003], 0.8581848852901484),
    (27, [1.0550000000000002, 1.2720000000000002, 0.7429999999999999, -0.1499999999999999, -1.421, 0.9430000000000001, -0.544, 0.9010000000000002, 0.4500000000000002, 1.4250000000000003], 0.8581848852901484),
    (28, [1.0550000000000002, 1.2720000000000002, 0.7429999999999999, -0.1499999999999999, -1.421, 0.9430000000000001, -0.544, 0.9010000000000002, 0.4500000000000002, 1.4250000000000003], 0.8581848852901484),
    (29, [1.0550000000000002, 1.2720000000000002, 0.7429999999999999, -0.1499999999999999, -1.421, 0.9430000000000001, -0.544, 0.9010000000000002, 0.4500000000000002, 1.4250000000000003], 0.8581848852901484),
    (30, [1.0550000000000002, 1.2720000000000002, 0.7429999999999999, -0.1499999999999999, -1.421, 0.9430000000000001, -0.544, 0.9010000000000002, 0.4500000000000002, 1.4250000000000003], 0.8581848852901484),
    (31, [1.0550000000000002, 1.2720000000000002, 0.7429999999999999, -0.1499999999999999, -1.421, 0.9430000000000001, -0.544, 0.9010000000000002, 0.4500000000000002, 1.4250000000000003], 0.8581848852901484),
    (32, [1.0550000000000002, 1.2720000000000002, 0.7429999999999999, -0.1499999999999999, -1.421, 0.9430000000000001, -0.544, 0.9010000000000002, 0.4500000000000002, 1.4250000000000003], 0.8581848852901484),
    (33, [1.0550000000000002, 1.2720000000000002, 0.7429999999999999, -0.1499999999999999, -1.421, 0.9430000000000001, -0.544, 0.9010000000000002, 0.4500000000000002, 1.4250000000000003], 0.8581848852901484),
    (34, [1.0550000000000002, 1.2720000000000002, 0.7429999999999999, -0.1499999999999999, -1.421, 0.9430000000000001, -0.544, 0.9010000000000002, 0.4500000000000002, 1.4250000000000003], 0.8581848852901484),
    (35, [1.0550000000000002, 1.2720000000000002, 0.7429999999999999, -0.1499999999999999, -1.421, 0.9430000000000001, -0.544, 0.9010000000000002, 0.4500000000000002, 1.4250000000000003], 0.8581848852901484),
    (36, [1.0550000000000002, 1.2720000000000002, 0.7429999999999999, -0.1499999999999999, -1.421, 0.9430000000000001, -0.544, 0.9010000000000002, 0.4500000000000002, 1.4250000000000003], 0.8581848852901484),
    (37, [1.0550000000000002, 1.2720000000000002, 0.7429999999999999, -0.1499999999999999, -1.421, 0.9430000000000001, -0.544, 0.9010000000000002, 0.4500000000000002, 1.4250000000000003], 0.8581848852901484),
    (38, [1.0550000000000002, 1.2720000000000002, 0.7429999999999999, -0.1499999999999999, -1.421, 0.9430000000000001, -0.544, 0.9010000000000002, 0.4500000000000002, 1.4250000000000003], 0.8581848852901484),
    (39, [1.0550000000000002, 1.2720000000000002, 0.7429999999999999, -0.1499999999999999, -1.421, 0.9430000000000001, -0.544, 0.9010000000000002, 0.4500000000000002, 1.4250000000000003], 0.8581848852901484),
    (40, [1.0550000000000002, 1.2720000000000002, 0.7429999999999999, -0.1499999999999999, -1.421, 0.9430000000000001, -0.544, 0.9010000000000002, 0.4500000000000002, 1.4250000000000003], 0.8581848852901484),
    (41, [1.0550000000000002, 1.2720000000000002, 0.7429999999999999, -0.1499999999999999, -1.421, 0.9430000000000001, -0.544, 0.9010000000000002, 0.4500000000000002, 1.4250000000000003], 0.8581848852901484),
    (42, [1.0550000000000002, 1.2720000000000002, 0.7429999999999999, -0.1499999999999999, -1.421, 0.9430000000000001, -0.544, 0.9010000000000002, 0.4500000000000002, 1.4250000000000003], 0.8581848852901484),
    (43, [1.0550000000000002, 1.2720000000000002, 0.7429999999999999, -0.1499999999999999, -1.421, 0.9430000000000001, -0.544, 0.9010000000000002, 0.4500000000000002, 1.4250000000000003], 0.8581848852901484),
    (44, [1.0550000000000002, 1.2720000000000002, 0.7429999999999999, -0.1499999999999999, -1.421, 0.9430000000000001, -0.544, 0.9010000000000002, 0.4500000000000002, 1.4250000000000003], 0.8581848852901484),
    (45, [1.0550000000000002, 1.2720000000000002, 0.7429999999999999, -0.1499999999999999, -1.421, 0.9430000000000001, -0.544, 0.9010000000000002, 0.4500000000000002, 1.4250000000000003], 0.8581848852901484),
    (46, [1.0550000000000002, 1.2720000000000002, 0.7429999999999999, -0.1499999999999999, -1.421, 0.9430000000000001, -0.544, 0.9010000000000002, 0.4500000000000002, 1.4250000000000003], 0.8581848852901484),
    (47, [1.0550000000000002, 1.2720000000000002, 0.7429999999999999, -0.1499999999999999, -1.421, 0.9430000000000001, -0.544, 0.9010000000000002, 0.4500000000000002, 1.4250000000000003], 0.8581848852901484),
    (48, [1.0550000000000002, 1.2720000000000002, 0.7429999999999999, -0.1499999999999999, -1.421, 0.9430000000000001, -0.544, 0.9010000000000002, 0.4500000000000002, 1.4250000000000003], 0.8581848852901484),
    (49, [1.0550000000000002, 1.2720000000000002, 0.7429999999999999, -0.1499999999999999, -1.421, 0.9430000000000001, -0.544, 0.9010000000000002, 0.4500000000000002, 1.4250000000000003], 0.8581848852901484),
    (50, [1.0550000000000002, 1.2720000000000002, 0.7429999999999999, -0.1499999999999999, -1.421, 0.9430000000000001, -0.544, 0.9010000000000002, 0.4500000000000002, 1.4250000000000003], 0.8581848852901484),
    (51, [1.0550000000000002, 1.2720000000000002, 0.7429999999999999, -0.1499999999999999, -1.421, 0.9430000000000001, -0.544, 0.9010000000000002, 0.4500000000000002, 1.4250000000000003], 0.8581848852901484),
    (52, [1.0550000000000002, 1.2720000000000002, 0.7429999999999999, -0.1499999999999999, -1.421, 0.9430000000000001, -0.544, 0.9010000000000002, 0.4500000000000002, 1.4250000000000003], 0.8581848852901484),
    (53, [1.0550000000000002, 1.2720000000000002, 0.7429999999999999, -0.1499999999999999, -1.421, 0.9430000000000001, -0.544, 0.9010000000000002, 0.4500000000000002, 1.4250000000000003], 0.8581848852901484),
    (54, [1.0550000000000002, 1.2720000000000002, 0.7429999999999999, -0.1499999999999999, -1.421, 0.9430000000000001, -0.544, 0.9010000000000002, 0.4500000000000002, 1.4250000000000003], 0.8581848852901484),
    (55, [1.0550000000000002, 1.2720000000000002, 0.7429999999999999, -0.1499999999999999, -1.421, 0.9430000000000001, -0.544, 0.9010000000000002, 0.4500000000000002, 1.4250000000000003], 0.8581848852901484),
    (56, [1.0550000000000002, 1.2720000000000002, 0.7429999999999999, -0.1499999999999999, -1.421, 0.9430000000000001, -0.544, 0.9010000000000002, 0.4500000000000002, 1.4250000000000003], 0.8581848852901484),
    (57, [1.0550000000000002, 1.2720000000000002, 0.7429999999999999, -0.1499999999999999, -1.421, 0.9430000000000001, -0.544, 0.9010000000000002, 0.4500000000000002, 1.4250000000000003], 0.8581848852901484),
    (58, [1.0550000000000002, 1.2720000000000002, 0.7429999999999999, -0.1499999999999999, -1.421, 0.9430000000000001, -0.544, 0.9010000000000002, 0.4500000000000002, 1.4250000000000003], 0.8581848852901484),
    (59, [1.0550000000000002, 1.2720000000000002, 0.7429999999999999, -0.1499999999999999, -1.421, 0.9430000000000001, -0.544, 0.9010000000000002, 0.4500000000000002, 1.4250000000000003], 0.8581848852901484),
    (60, [1.0550000000000002, 1.2720000000000002, 0.7429999999999999, -0.1499999999999999, -1.421, 0.9430000000000001, -0.544, 0.9010000000000002, 0.4500000000000002, 1.4250000000000003], 0.8581848852901484),
    (61, [1.0550000000000002, 1.2720000000000002, 0.7429999999999999, -0.1499999999999999, -1.421, 0.9430000000000001, -0.544, 0.9010000000000002, 0.4500000000000002, 1.4250000000000003], 0.8581848852901484),
    (62, [1.0550000000000002, 1.2720000000000002, 0.7429999999999999, -0.1499999999999999, -1.421, 0.9430000000000001, -0.544, 0.9010000000000002, 0.4500000000000002, 1.4250000000000003], 0.8581848852901484),
    (63, [1.0550000000000002, 1.2720000000000002, 0.7429999999999999, -0.1499999999999999, -1.421, 0.9430000000000001, -0.544, 0.9010000000000002, 0.4500000000000002, 1.4250000000000003], 0.8581848852901484),
    (64, [1.0550000000000002, 1.2720000000000002, 0.7429999999999999, -0.1499999999999999, -1.421, 0.9430000000000001, -0.544, 0.9010000000000002, 0.4500000000000002, 1.4250000000000003], 0.8581848852901484),
    (65, [1.0550000000000002, 1.2720000000000002, 0.7429999999999999, -0.1499999999999999, -1.421, 0.9430000000000001, -0.544, 0.9010000000000002, 0.4500000000000002, 1.4250000000000003], 0.8581848852901484),
    (66, [1.0550000000000002, 1.2720000000000002, 0.7429999999999999, -0.1499999999999999, -1.421, 0.9430000000000001, -0.544, 0.9010000000000002, 0.4500000000000002, 1.4250000000000003], 0.8581848852901484),
    (67, [1.0550000000000002, 1.2720000000000002, 0.7429999999999999, -0.1499999999999999, -1.421, 0.9430000000000001, -0.544, 0.9010000000000002, 0.4500000000000002, 1.4250000000000003], 0.8581848852901484),
    (68, [1.0550000000000002, 1.2720000000000002, 0.7429999999999999, -0.1499999999999999, -1.421, 0.9430000000000001, -0.544, 0.9010000000000002, 0.4500000000000002, 1.4250000000000003], 0.8581848852901484),
    (69, [1.0550000000000002, 1.2720000000000002, 0.7429999999999999, -0.1499999999999999, -1.421, 0.9430000000000001, -0.544, 0.9010000000000002, 0.4500000000000002, 1.4250000000000003], 0.8581848852901484),
    (70, [1.0550000000000002, 1.2720000000000002, 0.7429999999999999, -0.1499999999999999, -1.421, 0.9430000000000001, -0.544, 0.9010000000000002, 0.4500000000000002, 1.4250000000000003], 0.8581848852901484),
    (71, [1.0550000000000002, 1.2720000000000002, 0.7429999999999999, -0.1499999999999999, -1.421, 0.9430000000000001, -0.544, 0.9010000000000002, 0.4500000000000002, 1.4250000000000003], 0.8581848852901484),
    (72, [1.0550000000000002, 1.2720000000000002, 0.7429999999999999, -0.1499999999999999, -1.421, 0.9430000000000001, -0.544, 0.9010000000000002, 0.4500000000000002, 1.4250000000000003], 0.8581848852901484),
    (73, [1.0550000000000002, 1.2720000000000002, 0.7429999999999999, -0.1499999999999999, -1.421, 0.9430000000000001, -0.544, 0.9010000000000002, 0.4500000000000002, 1.4250000000000003], 0.8581848852901484),
    (74, [1.0550000000000002, 1.2720000000000002, 0.7429999999999999, -0.1499999999999999, -1.421, 0.9430000000000001, -0.544, 0.9010000000000002, 0.4500000000000002, 1.4250000000000003], 0.8581848852901484),
    (75, [1.0550000000000002, 1.2720000000000002, 0.7429999999999999, -0.1499999999999999, -1.421, 0.9430000000000001, -0.544, 0.9010000000000002, 0.4500000000000002, 1.4250000000000003], 0.8581848852901484),
    (76, [1.0550000000000002, 1.2720000000000002, 0.7429999999999999, -0.1499999999999999, -1.421, 0.9430000000000001, -0.544, 0.9010000000000002, 0.4500000000000002, 1.4250000000000003], 0.8581848852901484),
    (77, [1.0550000000000002, 1.2720000000000002, 0.7429999999999999, -0.1499999999999999, -1.421, 0.9430000000000001, -0.544, 0.9010000000000002, 0.4500000000000002, 1.4250000000000003], 0.8581848852901484),
    (78, [1.0550000000000002, 1.2720000000000002, 0.7429999999999999, -0.1499999999999999, -1.421, 0.9430000000000001, -0.544, 0.9010000000000002, 0.4500000000000002, 1.4250000000000003], 0.8581848852901484),
    (79, [1.0550000000000002, 1.2720000000000002, 0.7429999999999999, -0.1499999999999999, -1.421, 0.9430000000000001, -0.544, 0.9010000000000002, 0.4500000000000002, 1.4250000000000003], 0.8581848852901484),
    (80, [1.0550000000000002, 1.2720000000000002, 0.7429999999999999, -0.1499999999999999, -1.421, 0.9430000000000001, -0.544, 0.9010000000000002, 0.4500000000000002, 1.4250000000000003], 0.8581848852901484),
    (81, [1.0550000000000002, 1.2720000000000002, 0.7429999999999999, -0.1499999999999999, -1.421, 0.9430000000000001, -0.544, 0.9010000000000002, 0.4500000000000002, 1.4250000000000003], 0.8581848852901484),
    (82, [1.0550000000000002, 1.2720000000000002, 0.7429999999999999, -0.1499999999999999, -1.421, 0.9430000000000001, -0.544, 0.9010000000000002, 0.4500000000000002, 1.4250000000000003], 0.8581848852901484),
    (83, [1.0550000000000002, 1.2720000000000002, 0.7429999999999999, -0.1499999999999999, -1.421, 0.9430000000000001, -0.544, 0.9010000000000002, 0.4500000000000002, 1.4250000000000003], 0.8581848852901484),
    (84, [1.0550000000000002, 1.2720000000000002, 0.7429999999999999, -0.1499999999999999, -1.421, 0.9430000000000001, -0.544, 0.9010000000000002, 0.4500000000000002, 1.4250000000000003], 0.8581848852901484),
    (85, [1.0550000000000002, 1.2720000000000002, 0.7429999999999999, -0.1499999999999999, -1.421, 0.9430000000000001, -0.544, 0.9010000000000002, 0.4500000000000002, 1.4250000000000003], 0.8581848852901484),
    (86, [1.0550000000000002, 1.2720000000000002, 0.7429999999999999, -0.1499999999999999, -1.421, 0.9430000000000001, -0.544, 0.9010000000000002, 0.4500000000000002, 1.4250000000000003], 0.8581848852901484),
    (87, [0.8210000000000002, -0.7949999999999999, -0.42799999999999994, -1.7189999999999999, -0.8460000000000001, 0.5230000000000001, -0.673, 1.7480000000000002, -1.028, 1.9769999999999999], 0.8583130904183534),
    (88, [0.8210000000000002, -0.7949999999999999, -0.42799999999999994, -1.7189999999999999, -0.8460000000000001, 0.5230000000000001, -0.673, 1.7480000000000002, -1.028, 1.9769999999999999], 0.8583130904183534),
    (89, [0.8210000000000002, -0.7949999999999999, -0.42799999999999994, -1.7189999999999999, -0.8460000000000001, 0.5230000000000001, -0.673, 1.7480000000000002, -1.028, 1.9769999999999999], 0.8583130904183534),
    (90, [0.8210000000000002, -0.7949999999999999, -0.42799999999999994, -1.7189999999999999, -0.8460000000000001, 0.5230000000000001, -0.673, 1.7480000000000002, -1.028, 1.9769999999999999], 0.8583130904183534),
    (91, [0.8210000000000002, -0.7949999999999999, -0.42799999999999994, -1.7189999999999999, -0.8460000000000001, 0.5230000000000001, -0.673, 1.7480000000000002, -1.028, 1.9769999999999999], 0.8583130904183534),
    (92, [0.8210000000000002, -0.7949999999999999, -0.42799999999999994, -1.7189999999999999, -0.8460000000000001, 0.5230000000000001, -0.673, 1.7480000000000002, -1.028, 1.9769999999999999], 0.8583130904183534),
    (93, [0.8210000000000002, -0.7949999999999999, -0.42799999999999994, -1.7189999999999999, -0.8460000000000001, 0.5230000000000001, -0.673, 1.7480000000000002, -1.028, 1.9769999999999999], 0.8583130904183534),
    (94, [0.8210000000000002, -0.7949999999999999, -0.42799999999999994, -1.7189999999999999, -0.8460000000000001, 0.5230000000000001, -0.673, 1.7480000000000002, -1.028, 1.9769999999999999], 0.8583130904183534),
    (95, [0.8210000000000002, -0.7949999999999999, -0.42799999999999994, -1.7189999999999999, -0.8460000000000001, 0.5230000000000001, -0.673, 1.7480000000000002, -1.028, 1.9769999999999999], 0.8583130904183534),
    (96, [0.8210000000000002, -0.7949999999999999, -0.42799999999999994, -1.7189999999999999, -0.8460000000000001, 0.5230000000000001, -0.673, 1.7480000000000002, -1.028, 1.9769999999999999], 0.8583130904183534),
    (97, [0.8210000000000002, -0.7949999999999999, -0.42799999999999994, -1.7189999999999999, -0.8460000000000001, 0.5230000000000001, -0.673, 1.7480000000000002, -1.028, 1.9769999999999999], 0.8583130904183534),
    (98, [0.8210000000000002, -0.7949999999999999, -0.42799999999999994, -1.7189999999999999, -0.8460000000000001, 0.5230000000000001, -0.673, 1.7480000000000002, -1.028, 1.9769999999999999], 0.8583130904183534),
    (99, [0.8210000000000002, -0.7949999999999999, -0.42799999999999994, -1.7189999999999999, -0.8460000000000001, 0.5230000000000001, -0.673, 1.7480000000000002, -1.028, 1.9769999999999999], 0.8583130904183534),
    (100, [0.8210000000000002, -0.7949999999999999, -0.42799999999999994, -1.7189999999999999, -0.8460000000000001, 0.5230000000000001, -0.673, 1.7480000000000002, -1.028, 1.9769999999999999], 0.8583130904183534),
    (101, [0.8210000000000002, -0.7949999999999999, -0.42799999999999994, -1.7189999999999999, -0.8460000000000001, 0.5230000000000001, -0.673, 1.7480000000000002, -1.028, 1.9769999999999999], 0.8583130904183534),
    (102, [0.8210000000000002, -0.7949999999999999, -0.42799999999999994, -1.7189999999999999, -0.8460000000000001, 0.5230000000000001, -0.673, 1.7480000000000002, -1.028, 1.9769999999999999], 0.8583130904183534),
    (103, [0.8210000000000002, -0.7949999999999999, -0.42799999999999994, -1.7189999999999999, -0.8460000000000001, 0.5230000000000001, -0.673, 1.7480000000000002, -1.028, 1.9769999999999999], 0.8583130904183534),
    (104, [0.8210000000000002, -0.7949999999999999, -0.42799999999999994, -1.7189999999999999, -0.8460000000000001, 0.5230000000000001, -0.673, 1.7480000000000002, -1.028, 1.9769999999999999], 0.8583130904183534),
    (105, [0.8210000000000002, -0.7949999999999999, -0.42799999999999994, -1.7189999999999999, -0.8460000000000001, 0.5230000000000001, -0.673, 1.7480000000000002, -1.028, 1.9769999999999999], 0.8583130904183534),
    (106, [0.8210000000000002, -0.7949999999999999, -0.42799999999999994, -1.7189999999999999, -0.8460000000000001, 0.5230000000000001, -0.673, 1.7480000000000002, -1.028, 1.9769999999999999], 0.8583130904183534),
    (107, [0.8210000000000002, -0.7949999999999999, -0.42799999999999994, -1.7189999999999999, -0.8460000000000001, 0.5230000000000001, -0.673, 1.7480000000000002, -1.028, 1.9769999999999999], 0.8583130904183534),
    (108, [0.8210000000000002, -0.7949999999999999, -0.42799999999999994, -1.7189999999999999, -0.8460000000000001, 0.5230000000000001, -0.673, 1.7480000000000002, -1.028, 1.9769999999999999], 0.8583130904183534),
    (109, [0.8210000000000002, -0.7949999999999999, -0.42799999999999994, -1.7189999999999999, -0.8460000000000001, 0.5230000000000001, -0.673, 1.7480000000000002, -1.028, 1.9769999999999999], 0.8583130904183534),
    (110, [0.8210000000000002, -0.7949999999999999, -0.42799999999999994, -1.7189999999999999, -0.8460000000000001, 0.5230000000000001, -0.673, 1.7480000000000002, -1.028, 1.9769999999999999], 0.8583130904183534),
    (111, [0.8210000000000002, -0.7949999999999999, -0.42799999999999994, -1.7189999999999999, -0.8460000000000001, 0.5230000000000001, -0.673, 1.7480000000000002, -1.028, 1.9769999999999999], 0.8583130904183534),
    (112, [0.8210000000000002, -0.7949999999999999, -0.42799999999999994, -1.7189999999999999, -0.8460000000000001, 0.5230000000000001, -0.673, 1.7480000000000002, -1.028, 1.9769999999999999], 0.8583130904183534),
    (113, [0.8210000000000002, -0.7949999999999999, -0.42799999999999994, -1.7189999999999999, -0.8460000000000001, 0.5230000000000001, -0.673, 1.7480000000000002, -1.028, 1.9769999999999999], 0.8583130904183534),
    (114, [0.8210000000000002, -0.7949999999999999, -0.42799999999999994, -1.7189999999999999, -0.8460000000000001, 0.5230000000000001, -0.673, 1.7480000000000002, -1.028, 1.9769999999999999], 0.8583130904183534),
    (115, [0.8210000000000002, -0.7949999999999999, -0.42799999999999994, -1.7189999999999999, -0.8460000000000001, 0.5230000000000001, -0.673, 1.7480000000000002, -1.028, 1.9769999999999999], 0.8583130904183534),
    (116, [0.8210000000000002, -0.7949999999999999, -0.42799999999999994, -1.7189999999999999, -0.8460000000000001, 0.5230000000000001, -0.673, 1.7480000000000002, -1.028, 1.9769999999999999], 0.8583130904183534),
    (117, [0.8210000000000002, -0.7949999999999999, -0.42799999999999994, -1.7189999999999999, -0.8460000000000001, 0.5230000000000001, -0.673, 1.7480000000000002, -1.028, 1.9769999999999999], 0.8583130904183534),
    (118, [0.8210000000000002, -0.7949999999999999, -0.42799999999999994, -1.7189999999999999, -0.8460000000000001, 0.5230000000000001, -0.673, 1.7480000000000002, -1.028, 1.9769999999999999], 0.8583130904183534),
    (119, [0.8210000000000002, -0.7949999999999999, -0.42799999999999994, -1.7189999999999999, -0.8460000000000001, 0.5230000000000001, -0.673, 1.7480000000000002, -1.028, 1.9769999999999999], 0.8583130904183534),
    (120, [-0.7809999999999999, 1.145, -1.551, 1.983, 0.5870000000000002, -0.135, 0.9210000000000003, -1.611, 0.8069999999999999, -0.47899999999999987], 0.8583198380566802),
    (121, [-0.7809999999999999, 1.145, -1.551, 1.983, 0.5870000000000002, -0.135, 0.9210000000000003, -1.611, 0.8069999999999999, -0.47899999999999987], 0.8583198380566802),
    (122, [-0.7809999999999999, 1.145, -1.551, 1.983, 0.5870000000000002, -0.135, 0.9210000000000003, -1.611, 0.8069999999999999, -0.47899999999999987], 0.8583198380566802),
    (123, [-0.7809999999999999, 1.145, -1.551, 1.983, 0.5870000000000002, -0.135, 0.9210000000000003, -1.611, 0.8069999999999999, -0.47899999999999987], 0.8583198380566802),
    (124, [-0.7809999999999999, 1.145, -1.551, 1.983, 0.5870000000000002, -0.135, 0.9210000000000003, -1.611, 0.8069999999999999, -0.47899999999999987], 0.8583198380566802),
    (125, [-0.7809999999999999, 1.145, -1.551, 1.983, 0.5870000000000002, -0.135, 0.9210000000000003, -1.611, 0.8069999999999999, -0.47899999999999987], 0.8583198380566802),
    (126, [-0.7809999999999999, 1.145, -1.551, 1.983, 0.5870000000000002, -0.135, 0.9210000000000003, -1.611, 0.8069999999999999, -0.47899999999999987], 0.8583198380566802),
    (127, [-0.7809999999999999, 1.145, -1.551, 1.983, 0.5870000000000002, -0.135, 0.9210000000000003, -1.611, 0.8069999999999999, -0.47899999999999987], 0.8583198380566802),
    (128, [-0.7809999999999999, 1.145, -1.551, 1.983, 0.5870000000000002, -0.135, 0.9210000000000003, -1.611, 0.8069999999999999, -0.47899999999999987], 0.8583198380566802),
    (129, [-0.7809999999999999, 1.145, -1.551, 1.983, 0.5870000000000002, -0.135, 0.9210000000000003, -1.611, 0.8069999999999999, -0.47899999999999987], 0.8583198380566802),
    (130, [-0.7809999999999999, 1.145, -1.551, 1.983, 0.5870000000000002, -0.135, 0.9210000000000003, -1.611, 0.8069999999999999, -0.47899999999999987], 0.8583198380566802),
    (131, [-0.7809999999999999, 1.145, -1.551, 1.983, 0.5870000000000002, -0.135, 0.9210000000000003, -1.611, 0.8069999999999999, -0.47899999999999987], 0.8583198380566802),
    (132, [-0.7809999999999999, 1.145, -1.551, 1.983, 0.5870000000000002, -0.135, 0.9210000000000003, -1.611, 0.8069999999999999, -0.47899999999999987], 0.8583198380566802),
    (133, [-0.7809999999999999, 1.145, -1.551, 1.983, 0.5870000000000002, -0.135, 0.9210000000000003, -1.611, 0.8069999999999999, -0.47899999999999987], 0.8583198380566802),
    (134, [-0.7809999999999999, 1.145, -1.551, 1.983, 0.5870000000000002, -0.135, 0.9210000000000003, -1.611, 0.8069999999999999, -0.47899999999999987], 0.8583198380566802),
    (135, [-0.7809999999999999, 1.145, -1.551, 1.983, 0.5870000000000002, -0.135, 0.9210000000000003, -1.611, 0.8069999999999999, -0.47899999999999987], 0.8583198380566802),
    (136, [-0.7809999999999999, 1.145, -1.551, 1.983, 0.5870000000000002, -0.135, 0.9210000000000003, -1.611, 0.8069999999999999, -0.47899999999999987], 0.8583198380566802),
    (137, [-0.7809999999999999, 1.145, -1.551, 1.983, 0.5870000000000002, -0.135, 0.9210000000000003, -1.611, 0.8069999999999999, -0.47899999999999987], 0.8583198380566802),
    (138, [-0.7809999999999999, 1.145, -1.551, 1.983, 0.5870000000000002, -0.135, 0.9210000000000003, -1.611, 0.8069999999999999, -0.47899999999999987], 0.8583198380566802),
    (139, [-0.7809999999999999, 1.145, -1.551, 1.983, 0.5870000000000002, -0.135, 0.9210000000000003, -1.611, 0.8069999999999999, -0.47899999999999987], 0.8583198380566802),
    (140, [-0.7809999999999999, 1.145, -1.551, 1.983, 0.5870000000000002, -0.135, 0.9210000000000003, -1.611, 0.8069999999999999, -0.47899999999999987], 0.8583198380566802),
    (141, [-0.7809999999999999, 1.145, -1.551, 1.983, 0.5870000000000002, -0.135, 0.9210000000000003, -1.611, 0.8069999999999999, -0.47899999999999987], 0.8583198380566802),
    (142, [-0.7809999999999999, 1.145, -1.551, 1.983, 0.5870000000000002, -0.135, 0.9210000000000003, -1.611, 0.8069999999999999, -0.47899999999999987], 0.8583198380566802),
    (143, [-0.7809999999999999, 1.145, -1.551, 1.983, 0.5870000000000002, -0.135, 0.9210000000000003, -1.611, 0.8069999999999999, -0.47899999999999987], 0.8583198380566802),
    (144, [-0.7809999999999999, 1.145, -1.551, 1.983, 0.5870000000000002, -0.135, 0.9210000000000003, -1.611, 0.8069999999999999, -0.47899999999999987], 0.8583198380566802),
    (145, [-0.7809999999999999, 1.145, -1.551, 1.983, 0.5870000000000002, -0.135, 0.9210000000000003, -1.611, 0.8069999999999999, -0.47899999999999987], 0.8583198380566802),
    (146, [-0.7809999999999999, 1.145, -1.551, 1.983, 0.5870000000000002, -0.135, 0.9210000000000003, -1.611, 0.8069999999999999, -0.47899999999999987], 0.8583198380566802),
    (147, [-0.7809999999999999, 1.145, -1.551, 1.983, 0.5870000000000002, -0.135, 0.9210000000000003, -1.611, 0.8069999999999999, -0.47899999999999987], 0.8583198380566802),
    (148, [-0.7809999999999999, 1.145, -1.551, 1.983, 0.5870000000000002, -0.135, 0.9210000000000003, -1.611, 0.8069999999999999, -0.47899999999999987], 0.8583198380566802),
    (149, [-0.7809999999999999, 1.145, -1.551, 1.983, 0.5870000000000002, -0.135, 0.9210000000000003, -1.611, 0.8069999999999999, -0.47899999999999987], 0.8583198380566802),
    (150, [-0.7809999999999999, 1.145, -1.551, 1.983, 0.5870000000000002, -0.135, 0.9210000000000003, -1.611, 0.8069999999999999, -0.47899999999999987], 0.8583198380566802),
    (151, [-0.7809999999999999, 1.145, -1.551, 1.983, 0.5870000000000002, -0.135, 0.9210000000000003, -1.611, 0.8069999999999999, -0.47899999999999987], 0.8583198380566802),
    (152, [-0.7809999999999999, 1.145, -1.551, 1.983, 0.5870000000000002, -0.135, 0.9210000000000003, -1.611, 0.8069999999999999, -0.47899999999999987], 0.8583198380566802),
    (153, [-0.7809999999999999, 1.145, -1.551, 1.983, 0.5870000000000002, -0.135, 0.9210000000000003, -1.611, 0.8069999999999999, -0.47899999999999987], 0.8583198380566802),
    (154, [-0.7809999999999999, 1.145, -1.551, 1.983, 0.5870000000000002, -0.135, 0.9210000000000003, -1.611, 0.8069999999999999, -0.47899999999999987], 0.8583198380566802),
    (155, [-0.7809999999999999, 1.145, -1.551, 1.983, 0.5870000000000002, -0.135, 0.9210000000000003, -1.611, 0.8069999999999999, -0.47899999999999987], 0.8583198380566802),
    (156, [-0.7809999999999999, 1.145, -1.551, 1.983, 0.5870000000000002, -0.135, 0.9210000000000003, -1.611, 0.8069999999999999, -0.47899999999999987], 0.8583198380566802),
    (157, [-0.7809999999999999, 1.145, -1.551, 1.983, 0.5870000000000002, -0.135, 0.9210000000000003, -1.611, 0.8069999999999999, -0.47899999999999987], 0.8583198380566802),
    (158, [-0.7809999999999999, 1.145, -1.551, 1.983, 0.5870000000000002, -0.135, 0.9210000000000003, -1.611, 0.8069999999999999, -0.47899999999999987], 0.8583198380566802),
    (159, [-0.7809999999999999, 1.145, -1.551, 1.983, 0.5870000000000002, -0.135, 0.9210000000000003, -1.611, 0.8069999999999999, -0.47899999999999987], 0.8583198380566802),
    (160, [-0.7809999999999999, 1.145, -1.551, 1.983, 0.5870000000000002, -0.135, 0.9210000000000003, -1.611, 0.8069999999999999, -0.47899999999999987], 0.8583198380566802),
    (161, [-0.7809999999999999, 1.145, -1.551, 1.983, 0.5870000000000002, -0.135, 0.9210000000000003, -1.611, 0.8069999999999999, -0.47899999999999987], 0.8583198380566802),
    (162, [-0.7809999999999999, 1.145, -1.551, 1.983, 0.5870000000000002, -0.135, 0.9210000000000003, -1.611, 0.8069999999999999, -0.47899999999999987], 0.8583198380566802),
    (163, [-0.7809999999999999, 1.145, -1.551, 1.983, 0.5870000000000002, -0.135, 0.9210000000000003, -1.611, 0.8069999999999999, -0.47899999999999987], 0.8583198380566802),
    (164, [-0.7809999999999999, 1.145, -1.551, 1.983, 0.5870000000000002, -0.135, 0.9210000000000003, -1.611, 0.8069999999999999, -0.47899999999999987], 0.8583198380566802),
    (165, [-0.7809999999999999, 1.145, -1.551, 1.983, 0.5870000000000002, -0.135, 0.9210000000000003, -1.611, 0.8069999999999999, -0.47899999999999987], 0.8583198380566802),
    (166, [-0.7809999999999999, 1.145, -1.551, 1.983, 0.5870000000000002, -0.135, 0.9210000000000003, -1.611, 0.8069999999999999, -0.47899999999999987], 0.8583198380566802),
    (167, [-0.7809999999999999, 1.145, -1.551, 1.983, 0.5870000000000002, -0.135, 0.9210000000000003, -1.611, 0.8069999999999999, -0.47899999999999987], 0.8583198380566802),
    (168, [-0.7809999999999999, 1.145, -1.551, 1.983, 0.5870000000000002, -0.135, 0.9210000000000003, -1.611, 0.8069999999999999, -0.47899999999999987], 0.8583198380566802),
    (169, [-0.7809999999999999, 1.145, -1.551, 1.983, 0.5870000000000002, -0.135, 0.9210000000000003, -1.611, 0.8069999999999999, -0.47899999999999987], 0.8583198380566802),
    (170, [-0.7809999999999999, 1.145, -1.551, 1.983, 0.5870000000000002, -0.135, 0.9210000000000003, -1.611, 0.8069999999999999, -0.47899999999999987], 0.8583198380566802),
    (171, [-0.7809999999999999, 1.145, -1.551, 1.983, 0.5870000000000002, -0.135, 0.9210000000000003, -1.611, 0.8069999999999999, -0.47899999999999987], 0.8583198380566802),
    (172, [-0.7809999999999999, 1.145, -1.551, 1.983, 0.5870000000000002, -0.135, 0.9210000000000003, -1.611, 0.8069999999999999, -0.47899999999999987], 0.8583198380566802),
    (173, [-0.7809999999999999, 1.145, -1.551, 1.983, 0.5870000000000002, -0.135, 0.9210000000000003, -1.611, 0.8069999999999999, -0.47899999999999987], 0.8583198380566802),
    (174, [-0.7809999999999999, 1.145, -1.551, 1.983, 0.5870000000000002, -0.135, 0.9210000000000003, -1.611, 0.8069999999999999, -0.47899999999999987], 0.8583198380566802),
    (175, [-0.7809999999999999, 1.145, -1.551, 1.983, 0.5870000000000002, -0.135, 0.9210000000000003, -1.611, 0.8069999999999999, -0.47899999999999987], 0.8583198380566802),
    (176, [-0.7809999999999999, 1.145, -1.551, 1.983, 0.5870000000000002, -0.135, 0.9210000000000003, -1.611, 0.8069999999999999, -0.47899999999999987], 0.8583198380566802),
    (177, [-0.7809999999999999, 1.145, -1.551, 1.983, 0.5870000000000002, -0.135, 0.9210000000000003, -1.611, 0.8069999999999999, -0.47899999999999987], 0.8583198380566802),
    (178, [-0.7809999999999999, 1.145, -1.551, 1.983, 0.5870000000000002, -0.135, 0.9210000000000003, -1.611, 0.8069999999999999, -0.47899999999999987], 0.8583198380566802),
    (179, [-0.7809999999999999, 1.145, -1.551, 1.983, 0.5870000000000002, -0.135, 0.9210000000000003, -1.611, 0.8069999999999999, -0.47899999999999987], 0.8583198380566802),
    (180, [-0.7809999999999999, 1.145, -1.551, 1.983, 0.5870000000000002, -0.135, 0.9210000000000003, -1.611, 0.8069999999999999, -0.47899999999999987], 0.8583198380566802),
    (181, [-0.7809999999999999, 1.145, -1.551, 1.983, 0.5870000000000002, -0.135, 0.9210000000000003, -1.611, 0.8069999999999999, -0.47899999999999987], 0.8583198380566802),
    (182, [-0.7809999999999999, 1.145, -1.551, 1.983, 0.5870000000000002, -0.135, 0.9210000000000003, -1.611, 0.8069999999999999, -0.47899999999999987], 0.8583198380566802),
    (183, [-0.7809999999999999, 1.145, -1.551, 1.983, 0.5870000000000002, -0.135, 0.9210000000000003, -1.611, 0.8069999999999999, -0.47899999999999987], 0.8583198380566802),
    (184, [-0.7809999999999999, 1.145, -1.551, 1.983, 0.5870000000000002, -0.135, 0.9210000000000003, -1.611, 0.8069999999999999, -0.47899999999999987], 0.8583198380566802),
    (185, [-0.7809999999999999, 1.145, -1.551, 1.983, 0.5870000000000002, -0.135, 0.9210000000000003, -1.611, 0.8069999999999999, -0.47899999999999987], 0.8583198380566802),
    (186, [-0.7809999999999999, 1.145, -1.551, 1.983, 0.5870000000000002, -0.135, 0.9210000000000003, -1.611, 0.8069999999999999, -0.47899999999999987], 0.8583198380566802),
    (187, [-0.7809999999999999, 1.145, -1.551, 1.983, 0.5870000000000002, -0.135, 0.9210000000000003, -1.611, 0.8069999999999999, -0.47899999999999987], 0.8583198380566802),
    (188, [-0.7809999999999999, 1.145, -1.551, 1.983, 0.5870000000000002, -0.135, 0.9210000000000003, -1.611, 0.8069999999999999, -0.47899999999999987], 0.8583198380566802),
    (189, [-0.7809999999999999, 1.145, -1.551, 1.983, 0.5870000000000002, -0.135, 0.9210000000000003, -1.611, 0.8069999999999999, -0.47899999999999987], 0.8583198380566802),
    (190, [-0.7809999999999999, 1.145, -1.551, 1.983, 0.5870000000000002, -0.135, 0.9210000000000003, -1.611, 0.8069999999999999, -0.47899999999999987], 0.8583198380566802),
    (191, [-0.7809999999999999, 1.145, -1.551, 1.983, 0.5870000000000002, -0.135, 0.9210000000000003, -1.611, 0.8069999999999999, -0.47899999999999987], 0.8583198380566802),
    (192, [-0.7809999999999999, 1.145, -1.551, 1.983, 0.5870000000000002, -0.135, 0.9210000000000003, -1.611, 0.8069999999999999, -0.47899999999999987], 0.8583198380566802),
    (193, [-0.7809999999999999, 1.145, -1.551, 1.983, 0.5870000000000002, -0.135, 0.9210000000000003, -1.611, 0.8069999999999999, -0.47899999999999987], 0.8583198380566802),
    (194, [-0.7809999999999999, 1.145, -1.551, 1.983, 0.5870000000000002, -0.135, 0.9210000000000003, -1.611, 0.8069999999999999, -0.47899999999999987], 0.8583198380566802),
    (195, [-0.7809999999999999, 1.145, -1.551, 1.983, 0.5870000000000002, -0.135, 0.9210000000000003, -1.611, 0.8069999999999999, -0.47899999999999987], 0.8583198380566802),
    (196, [-0.7809999999999999, 1.145, -1.551, 1.983, 0.5870000000000002, -0.135, 0.9210000000000003, -1.611, 0.8069999999999999, -0.47899999999999987], 0.8583198380566802),
    (197, [-0.7809999999999999, 1.145, -1.551, 1.983, 0.5870000000000002, -0.135, 0.9210000000000003, -1.611, 0.8069999999999999, -0.47899999999999987], 0.8583198380566802),
    (198, [-0.7809999999999999, 1.145, -1.551, 1.983, 0.5870000000000002, -0.135, 0.9210000000000003, -1.611, 0.8069999999999999, -0.47899999999999987], 0.8583198380566802),
    (199, [-0.7809999999999999, 1.145, -1.551, 1.983, 0.5870000000000002, -0.135, 0.9210000000000003, -1.611, 0.8069999999999999, -0.47899999999999987], 0.8583198380566802),
    (200, [-0.7809999999999999, 1.145, -1.551, 1.983, 0.5870000000000002, -0.135, 0.9210000000000003, -1.611, 0.8069999999999999, -0.47899999999999987], 0.8583198380566802),
    (201, [-0.7809999999999999, 1.145, -1.551, 1.983, 0.5870000000000002, -0.135, 0.9210000000000003, -1.611, 0.8069999999999999, -0.47899999999999987], 0.8583198380566802),
    (202, [-0.7809999999999999, 1.145, -1.551, 1.983, 0.5870000000000002, -0.135, 0.9210000000000003, -1.611, 0.8069999999999999, -0.47899999999999987], 0.8583198380566802),
    (203, [-0.7809999999999999, 1.145, -1.551, 1.983, 0.5870000000000002, -0.135, 0.9210000000000003, -1.611, 0.8069999999999999, -0.47899999999999987], 0.8583198380566802),
    (204, [-0.7809999999999999, 1.145, -1.551, 1.983, 0.5870000000000002, -0.135, 0.9210000000000003, -1.611, 0.8069999999999999, -0.47899999999999987], 0.8583198380566802),
    (205, [-0.7809999999999999, 1.145, -1.551, 1.983, 0.5870000000000002, -0.135, 0.9210000000000003, -1.611, 0.8069999999999999, -0.47899999999999987], 0.8583198380566802),
    (206, [-0.7809999999999999, 1.145, -1.551, 1.983, 0.5870000000000002, -0.135, 0.9210000000000003, -1.611, 0.8069999999999999, -0.47899999999999987], 0.8583198380566802),
    (207, [-0.7809999999999999, 1.145, -1.551, 1.983, 0.5870000000000002, -0.135, 0.9210000000000003, -1.611, 0.8069999999999999, -0.47899999999999987], 0.8583198380566802),
    (208, [-0.7809999999999999, 1.145, -1.551, 1.983, 0.5870000000000002, -0.135, 0.9210000000000003, -1.611, 0.8069999999999999, -0.47899999999999987], 0.8583198380566802),
    (209, [-0.7809999999999999, 1.145, -1.551, 1.983, 0.5870000000000002, -0.135, 0.9210000000000003, -1.611, 0.8069999999999999, -0.47899999999999987], 0.8583198380566802),
    (210, [-0.7809999999999999, 1.145, -1.551, 1.983, 0.5870000000000002, -0.135, 0.9210000000000003, -1.611, 0.8069999999999999, -0.47899999999999987], 0.8583198380566802),
    (211, [-0.7809999999999999, 1.145, -1.551, 1.983, 0.5870000000000002, -0.135, 0.9210000000000003, -1.611, 0.8069999999999999, -0.47899999999999987], 0.8583198380566802),
    (212, [-0.7809999999999999, 1.145, -1.551, 1.983, 0.5870000000000002, -0.135, 0.9210000000000003, -1.611, 0.8069999999999999, -0.47899999999999987], 0.8583198380566802),
    (213, [-0.7809999999999999, 1.145, -1.551, 1.983, 0.5870000000000002, -0.135, 0.9210000000000003, -1.611, 0.8069999999999999, -0.47899999999999987], 0.8583198380566802),
    (214, [-0.7809999999999999, 1.145, -1.551, 1.983, 0.5870000000000002, -0.135, 0.9210000000000003, -1.611, 0.8069999999999999, -0.47899999999999987], 0.8583198380566802),
    (215, [-0.7809999999999999, 1.145, -1.551, 1.983, 0.5870000000000002, -0.135, 0.9210000000000003, -1.611, 0.8069999999999999, -0.47899999999999987], 0.8583198380566802),
    (216, [-0.7809999999999999, 1.145, -1.551, 1.983, 0.5870000000000002, -0.135, 0.9210000000000003, -1.611, 0.8069999999999999, -0.47899999999999987], 0.8583198380566802),
    (217, [-0.7809999999999999, 1.145, -1.551, 1.983, 0.5870000000000002, -0.135, 0.9210000000000003, -1.611, 0.8069999999999999, -0.47899999999999987], 0.8583198380566802),
    (218, [-0.7809999999999999, 1.145, -1.551, 1.983, 0.5870000000000002, -0.135, 0.9210000000000003, -1.611, 0.8069999999999999, -0.47899999999999987], 0.8583198380566802),
    (219, [-0.7809999999999999, 1.145, -1.551, 1.983, 0.5870000000000002, -0.135, 0.9210000000000003, -1.611, 0.8069999999999999, -0.47899999999999987], 0.8583198380566802),
    (220, [-0.7809999999999999, 1.145, -1.551, 1.983, 0.5870000000000002, -0.135, 0.9210000000000003, -1.611, 0.8069999999999999, -0.47899999999999987], 0.8583198380566802),
    (221, [-0.7809999999999999, 1.145, -1.551, 1.983, 0.5870000000000002, -0.135, 0.9210000000000003, -1.611, 0.8069999999999999, -0.47899999999999987], 0.8583198380566802),
    (222, [-0.7809999999999999, 1.145, -1.551, 1.983, 0.5870000000000002, -0.135, 0.9210000000000003, -1.611, 0.8069999999999999, -0.47899999999999987], 0.8583198380566802),
    (223, [-0.7809999999999999, 1.145, -1.551, 1.983, 0.5870000000000002, -0.135, 0.9210000000000003, -1.611, 0.8069999999999999, -0.47899999999999987], 0.8583198380566802),
    (224, [-0.7809999999999999, 1.145, -1.551, 1.983, 0.5870000000000002, -0.135, 0.9210000000000003, -1.611, 0.8069999999999999, -0.47899999999999987], 0.8583198380566802),
    (225, [-0.7809999999999999, 1.145, -1.551, 1.983, 0.5870000000000002, -0.135, 0.9210000000000003, -1.611, 0.8069999999999999, -0.47899999999999987], 0.8583198380566802),
    (226, [-0.7809999999999999, 1.145, -1.551, 1.983, 0.5870000000000002, -0.135, 0.9210000000000003, -1.611, 0.8069999999999999, -0.47899999999999987], 0.8583198380566802),
    (227, [-0.7809999999999999, 1.145, -1.551, 1.983, 0.5870000000000002, -0.135, 0.9210000000000003, -1.611, 0.8069999999999999, -0.47899999999999987], 0.8583198380566802),
    (228, [-0.7809999999999999, 1.145, -1.551, 1.983, 0.5870000000000002, -0.135, 0.9210000000000003, -1.611, 0.8069999999999999, -0.47899999999999987], 0.8583198380566802),
    (229, [-0.7809999999999999, 1.145, -1.551, 1.983, 0.5870000000000002, -0.135, 0.9210000000000003, -1.611, 0.8069999999999999, -0.47899999999999987], 0.8583198380566802),
    (230, [-0.7809999999999999, 1.145, -1.551, 1.983, 0.5870000000000002, -0.135, 0.9210000000000003, -1.611, 0.8069999999999999, -0.47899999999999987], 0.8583198380566802),
    (231, [-0.7809999999999999, 1.145, -1.551, 1.983, 0.5870000000000002, -0.135, 0.9210000000000003, -1.611, 0.8069999999999999, -0.47899999999999987], 0.8583198380566802),
    (232, [-0.7809999999999999, 1.145, -1.551, 1.983, 0.5870000000000002, -0.135, 0.9210000000000003, -1.611, 0.8069999999999999, -0.47899999999999987], 0.8583198380566802),
    (233, [-0.7809999999999999, 1.145, -1.551, 1.983, 0.5870000000000002, -0.135, 0.9210000000000003, -1.611, 0.8069999999999999, -0.47899999999999987], 0.8583198380566802),
    (234, [-0.7809999999999999, 1.145, -1.551, 1.983, 0.5870000000000002, -0.135, 0.9210000000000003, -1.611, 0.8069999999999999, -0.47899999999999987], 0.8583198380566802),
    (235, [-0.7809999999999999, 1.145, -1.551, 1.983, 0.5870000000000002, -0.135, 0.9210000000000003, -1.611, 0.8069999999999999, -0.47899999999999987], 0.8583198380566802),
    (236, [-0.7809999999999999, 1.145, -1.551, 1.983, 0.5870000000000002, -0.135, 0.9210000000000003, -1.611, 0.8069999999999999, -0.47899999999999987], 0.8583198380566802),
    (237, [-0.7809999999999999, 1.145, -1.551, 1.983, 0.5870000000000002, -0.135, 0.9210000000000003, -1.611, 0.8069999999999999, -0.47899999999999987], 0.8583198380566802),
    (238, [-0.7809999999999999, 1.145, -1.551, 1.983, 0.5870000000000002, -0.135, 0.9210000000000003, -1.611, 0.8069999999999999, -0.47899999999999987], 0.8583198380566802),
    (239, [-0.7809999999999999, 1.145, -1.551, 1.983, 0.5870000000000002, -0.135, 0.9210000000000003, -1.611, 0.8069999999999999, -0.47899999999999987], 0.8583198380566802),
    (240, [-0.7809999999999999, 1.145, -1.551, 1.983, 0.5870000000000002, -0.135, 0.9210000000000003, -1.611, 0.8069999999999999, -0.47899999999999987], 0.8583198380566802),
    (241, [-0.7809999999999999, 1.145, -1.551, 1.983, 0.5870000000000002, -0.135, 0.9210000000000003, -1.611, 0.8069999999999999, -0.47899999999999987], 0.8583198380566802),
    (242, [-0.7809999999999999, 1.145, -1.551, 1.983, 0.5870000000000002, -0.135, 0.9210000000000003, -1.611, 0.8069999999999999, -0.47899999999999987], 0.8583198380566802),
    (243, [-0.7809999999999999, 1.145, -1.551, 1.983, 0.5870000000000002, -0.135, 0.9210000000000003, -1.611, 0.8069999999999999, -0.47899999999999987], 0.8583198380566802),
    (244, [-0.7809999999999999, 1.145, -1.551, 1.983, 0.5870000000000002, -0.135, 0.9210000000000003, -1.611, 0.8069999999999999, -0.47899999999999987], 0.8583198380566802),
    (245, [-0.7809999999999999, 1.145, -1.551, 1.983, 0.5870000000000002, -0.135, 0.9210000000000003, -1.611, 0.8069999999999999, -0.47899999999999987], 0.8583198380566802),
    (246, [-0.7809999999999999, 1.145, -1.551, 1.983, 0.5870000000000002, -0.135, 0.9210000000000003, -1.611, 0.8069999999999999, -0.47899999999999987], 0.8583198380566802),
    (247, [-0.7809999999999999, 1.145, -1.551, 1.983, 0.5870000000000002, -0.135, 0.9210000000000003, -1.611, 0.8069999999999999, -0.47899999999999987], 0.8583198380566802),
    (248, [-0.7809999999999999, 1.145, -1.551, 1.983, 0.5870000000000002, -0.135, 0.9210000000000003, -1.611, 0.8069999999999999, -0.47899999999999987], 0.8583198380566802),
    (249, [-0.7809999999999999, 1.145, -1.551, 1.983, 0.5870000000000002, -0.135, 0.9210000000000003, -1.611, 0.8069999999999999, -0.47899999999999987], 0.8583198380566802),
    (250, [-0.7809999999999999, 1.145, -1.551, 1.983, 0.5870000000000002, -0.135, 0.9210000000000003, -1.611, 0.8069999999999999, -0.47899999999999987], 0.8583198380566802),
    (251, [-0.7809999999999999, 1.145, -1.551, 1.983, 0.5870000000000002, -0.135, 0.9210000000000003, -1.611, 0.8069999999999999, -0.47899999999999987], 0.8583198380566802),
    (252, [-0.7809999999999999, 1.145, -1.551, 1.983, 0.5870000000000002, -0.135, 0.9210000000000003, -1.611, 0.8069999999999999, -0.47899999999999987], 0.8583198380566802),
    (253, [-0.7809999999999999, 1.145, -1.551, 1.983, 0.5870000000000002, -0.135, 0.9210000000000003, -1.611, 0.8069999999999999, -0.47899999999999987], 0.8583198380566802),
    (254, [-0.7809999999999999, 1.145, -1.551, 1.983, 0.5870000000000002, -0.135, 0.9210000000000003, -1.611, 0.8069999999999999, -0.47899999999999987], 0.8583198380566802),
    (255, [-0.7809999999999999, 1.145, -1.551, 1.983, 0.5870000000000002, -0.135, 0.9210000000000003, -1.611, 0.8069999999999999, -0.47899999999999987], 0.8583198380566802),
    (256, [-0.7809999999999999, 1.145, -1.551, 1.983, 0.5870000000000002, -0.135, 0.9210000000000003, -1.611, 0.8069999999999999, -0.47899999999999987], 0.8583198380566802),
    (257, [-0.7809999999999999, 1.145, -1.551, 1.983, 0.5870000000000002, -0.135, 0.9210000000000003, -1.611, 0.8069999999999999, -0.47899999999999987], 0.8583198380566802),
    (258, [-0.7809999999999999, 1.145, -1.551, 1.983, 0.5870000000000002, -0.135, 0.9210000000000003, -1.611, 0.8069999999999999, -0.47899999999999987], 0.8583198380566802),
    (259, [-0.7809999999999999, 1.145, -1.551, 1.983, 0.5870000000000002, -0.135, 0.9210000000000003, -1.611, 0.8069999999999999, -0.47899999999999987], 0.8583198380566802),
    (260, [-0.7809999999999999, 1.145, -1.551, 1.983, 0.5870000000000002, -0.135, 0.9210000000000003, -1.611, 0.8069999999999999, -0.47899999999999987], 0.8583198380566802),
    (261, [-0.7809999999999999, 1.145, -1.551, 1.983, 0.5870000000000002, -0.135, 0.9210000000000003, -1.611, 0.8069999999999999, -0.47899999999999987], 0.8583198380566802),
    (262, [-0.7809999999999999, 1.145, -1.551, 1.983, 0.5870000000000002, -0.135, 0.9210000000000003, -1.611, 0.8069999999999999, -0.47899999999999987], 0.8583198380566802),
    (263, [-0.7809999999999999, 1.145, -1.551, 1.983, 0.5870000000000002, -0.135, 0.9210000000000003, -1.611, 0.8069999999999999, -0.47899999999999987], 0.8583198380566802),
    (264, [-0.7809999999999999, 1.145, -1.551, 1.983, 0.5870000000000002, -0.135, 0.9210000000000003, -1.611, 0.8069999999999999, -0.47899999999999987], 0.8583198380566802),
    (265, [-0.7809999999999999, 1.145, -1.551, 1.983, 0.5870000000000002, -0.135, 0.9210000000000003, -1.611, 0.8069999999999999, -0.47899999999999987], 0.8583198380566802),
    (266, [-0.7809999999999999, 1.145, -1.551, 1.983, 0.5870000000000002, -0.135, 0.9210000000000003, -1.611, 0.8069999999999999, -0.47899999999999987], 0.8583198380566802),
    (267, [-0.7809999999999999, 1.145, -1.551, 1.983, 0.5870000000000002, -0.135, 0.9210000000000003, -1.611, 0.8069999999999999, -0.47899999999999987], 0.8583198380566802),
    (268, [-0.7809999999999999, 1.145, -1.551, 1.983, 0.5870000000000002, -0.135, 0.9210000000000003, -1.611, 0.8069999999999999, -0.47899999999999987], 0.8583198380566802),
    (269, [-0.7809999999999999, 1.145, -1.551, 1.983, 0.5870000000000002, -0.135, 0.9210000000000003, -1.611, 0.8069999999999999, -0.47899999999999987], 0.8583198380566802),
    (270, [-0.7809999999999999, 1.145, -1.551, 1.983, 0.5870000000000002, -0.135, 0.9210000000000003, -1.611, 0.8069999999999999, -0.47899999999999987], 0.8583198380566802),
    (271, [-0.7809999999999999, 1.145, -1.551, 1.983, 0.5870000000000002, -0.135, 0.9210000000000003, -1.611, 0.8069999999999999, -0.47899999999999987], 0.8583198380566802),
    (272, [-0.7809999999999999, 1.145, -1.551, 1.983, 0.5870000000000002, -0.135, 0.9210000000000003, -1.611, 0.8069999999999999, -0.47899999999999987], 0.8583198380566802),
    (273, [-1.578, 0.5779999999999998, -0.81, -1.3119999999999998, -0.8599999999999999, -0.05699999999999994, -0.603, -1.3279999999999998, -1.049, -1.1789999999999998], 0.8625168690958164),
    (274, [-1.578, 0.5779999999999998, -0.81, -1.3119999999999998, -0.8599999999999999, -0.05699999999999994, -0.603, -1.3279999999999998, -1.049, -1.1789999999999998], 0.8625168690958164),
    (275, [-1.578, 0.5779999999999998, -0.81, -1.3119999999999998, -0.8599999999999999, -0.05699999999999994, -0.603, -1.3279999999999998, -1.049, -1.1789999999999998], 0.8625168690958164),
    (276, [-1.578, 0.5779999999999998, -0.81, -1.3119999999999998, -0.8599999999999999, -0.05699999999999994, -0.603, -1.3279999999999998, -1.049, -1.1789999999999998], 0.8625168690958164),
    (277, [-1.578, 0.5779999999999998, -0.81, -1.3119999999999998, -0.8599999999999999, -0.05699999999999994, -0.603, -1.3279999999999998, -1.049, -1.1789999999999998], 0.8625168690958164),
    (278, [-1.578, 0.5779999999999998, -0.81, -1.3119999999999998, -0.8599999999999999, -0.05699999999999994, -0.603, -1.3279999999999998, -1.049, -1.1789999999999998], 0.8625168690958164),
    (279, [-1.578, 0.5779999999999998, -0.81, -1.3119999999999998, -0.8599999999999999, -0.05699999999999994, -0.603, -1.3279999999999998, -1.049, -1.1789999999999998], 0.8625168690958164),
    (280, [-1.578, 0.5779999999999998, -0.81, -1.3119999999999998, -0.8599999999999999, -0.05699999999999994, -0.603, -1.3279999999999998, -1.049, -1.1789999999999998], 0.8625168690958164),
    (281, [-1.578, 0.5779999999999998, -0.81, -1.3119999999999998, -0.8599999999999999, -0.05699999999999994, -0.603, -1.3279999999999998, -1.049, -1.1789999999999998], 0.8625168690958164),
    (282, [-1.578, 0.5779999999999998, -0.81, -1.3119999999999998, -0.8599999999999999, -0.05699999999999994, -0.603, -1.3279999999999998, -1.049, -1.1789999999999998], 0.8625168690958164),
    (283, [-1.578, 0.5779999999999998, -0.81, -1.3119999999999998, -0.8599999999999999, -0.05699999999999994, -0.603, -1.3279999999999998, -1.049, -1.1789999999999998], 0.8625168690958164),
    (284, [-1.578, 0.5779999999999998, -0.81, -1.3119999999999998, -0.8599999999999999, -0.05699999999999994, -0.603, -1.3279999999999998, -1.049, -1.1789999999999998], 0.8625168690958164),
    (285, [-1.578, 0.5779999999999998, -0.81, -1.3119999999999998, -0.8599999999999999, -0.05699999999999994, -0.603, -1.3279999999999998, -1.049, -1.1789999999999998], 0.8625168690958164),
    (286, [-1.578, 0.5779999999999998, -0.81, -1.3119999999999998, -0.8599999999999999, -0.05699999999999994, -0.603, -1.3279999999999998, -1.049, -1.1789999999999998], 0.8625168690958164),
    (287, [-1.578, 0.5779999999999998, -0.81, -1.3119999999999998, -0.8599999999999999, -0.05699999999999994, -0.603, -1.3279999999999998, -1.049, -1.1789999999999998], 0.8625168690958164),
    (288, [-1.578, 0.5779999999999998, -0.81, -1.3119999999999998, -0.8599999999999999, -0.05699999999999994, -0.603, -1.3279999999999998, -1.049, -1.1789999999999998], 0.8625168690958164),
    (289, [-1.578, 0.5779999999999998, -0.81, -1.3119999999999998, -0.8599999999999999, -0.05699999999999994, -0.603, -1.3279999999999998, -1.049, -1.1789999999999998], 0.8625168690958164),
    (290, [-1.578, 0.5779999999999998, -0.81, -1.3119999999999998, -0.8599999999999999, -0.05699999999999994, -0.603, -1.3279999999999998, -1.049, -1.1789999999999998], 0.8625168690958164),
    (291, [-1.578, 0.5779999999999998, -0.81, -1.3119999999999998, -0.8599999999999999, -0.05699999999999994, -0.603, -1.3279999999999998, -1.049, -1.1789999999999998], 0.8625168690958164),
    (292, [-1.578, 0.5779999999999998, -0.81, -1.3119999999999998, -0.8599999999999999, -0.05699999999999994, -0.603, -1.3279999999999998, -1.049, -1.1789999999999998], 0.8625168690958164),
    (293, [-1.578, 0.5779999999999998, -0.81, -1.3119999999999998, -0.8599999999999999, -0.05699999999999994, -0.603, -1.3279999999999998, -1.049, -1.1789999999999998], 0.8625168690958164),
    (294, [-1.578, 0.5779999999999998, -0.81, -1.3119999999999998, -0.8599999999999999, -0.05699999999999994, -0.603, -1.3279999999999998, -1.049, -1.1789999999999998], 0.8625168690958164),
    (295, [-1.578, 0.5779999999999998, -0.81, -1.3119999999999998, -0.8599999999999999, -0.05699999999999994, -0.603, -1.3279999999999998, -1.049, -1.1789999999999998], 0.8625168690958164),
    (296, [-1.578, 0.5779999999999998, -0.81, -1.3119999999999998, -0.8599999999999999, -0.05699999999999994, -0.603, -1.3279999999999998, -1.049, -1.1789999999999998], 0.8625168690958164),
    (297, [-1.578, 0.5779999999999998, -0.81, -1.3119999999999998, -0.8599999999999999, -0.05699999999999994, -0.603, -1.3279999999999998, -1.049, -1.1789999999999998], 0.8625168690958164),
    (298, [-1.578, 0.5779999999999998, -0.81, -1.3119999999999998, -0.8599999999999999, -0.05699999999999994, -0.603, -1.3279999999999998, -1.049, -1.1789999999999998], 0.8625168690958164),
    (299, [-1.578, 0.5779999999999998, -0.81, -1.3119999999999998, -0.8599999999999999, -0.05699999999999994, -0.603, -1.3279999999999998, -1.049, -1.1789999999999998], 0.8625168690958164),
]

