ranges of every chromosome : (-1, 1)
    selection method is: TournamentSelection
    crossover method is: UniformCrossover
    pc: The probability of crossover: 0.700000
    pe: Gene exchange probability: 0.500000
    mutation method is: FlipBitBigMutation
    pm: The probability of mutation: 0.100000
    pbm: The probability of big mutation: 0.500000
    alpha: intensive factor: 0.600000
best_fit = [
    (0, [1, 1, 1, 1, 1, 1, 1, 1, 1, 1], 0.8480499325236167),
    (1, [1, 1, 1, 1, 1, 1, 1, 1, 1, 1], 0.8480499325236167),
    (2, [0.829, 0.31299999999999994, -0.931, -0.44899999999999995, -0.44599999999999995, -0.0010000000000000009, 0.6540000000000001, 0.6719999999999999, 0.54, 0.050999999999999934], 0.8526585695006748),
    (3, [0.829, 0.31299999999999994, -0.931, -0.44899999999999995, -0.44599999999999995, -0.0010000000000000009, 0.6540000000000001, 0.6719999999999999, 0.54, 0.050999999999999934], 0.8526585695006748),
    (4, [0.829, 0.31299999999999994, -0.931, -0.44899999999999995, -0.44599999999999995, -0.0010000000000000009, 0.6540000000000001, 0.6719999999999999, 0.54, 0.050999999999999934], 0.8526585695006748),
    (5, [-0.59, -0.7030000000000001, -0.19799999999999995, 0.19799999999999995, 0.42599999999999993, -0.618, -0.18099999999999994, -0.743, -0.246, -0.125], 0.8577867746288799),
    (6, [-0.59, -0.7030000000000001, -0.19799999999999995, 0.19799999999999995, 0.42599999999999993, -0.618, -0.18099999999999994, -0.743, -0.246, -0.125], 0.8577867746288799),
    (7, [-0.59, -0.7030000000000001, -0.19799999999999995, 0.19799999999999995, 0.42599999999999993, -0.618, -0.18099999999999994, -0.743, -0.246, -0.125], 0.8577867746288799),
    (8, [-0.59, -0.7030000000000001, -0.19799999999999995, 0.19799999999999995, 0.42599999999999993, -0.618, -0.18099999999999994, -0.743, -0.246, -0.125], 0.8577867746288799),
    (9, [-0.59, -0.7030000000000001, -0.19799999999999995, 0.19799999999999995, 0.42599999999999993, -0.618, -0.18099999999999994, -0.743, -0.246, -0.125], 0.8577867746288799),
    (10, [-0.59, -0.7030000000000001, -0.19799999999999995, 0.19799999999999995, 0.42599999999999993, -0.618, -0.18099999999999994, -0.743, -0.246, -0.125], 0.8577867746288799),
    (11, [-0.59, -0.7030000000000001, -0.19799999999999995, 0.19799999999999995, 0.42599999999999993, -0.618, -0.18099999999999994, -0.743, -0.246, -0.125], 0.8577867746288799),
    (12, [-0.59, -0.7030000000000001, -0.19799999999999995, 0.19799999999999995, 0.42599999999999993, -0.618, -0.18099999999999994, -0.743, -0.246, -0.125], 0.8577867746288799),
    (13, [-0.59, -0.7030000000000001, -0.19799999999999995, 0.19799999999999995, 0.42599999999999993, -0.618, -0.18099999999999994, -0.743, -0.246, -0.125], 0.8577867746288799),
    (14, [-0.59, -0.7030000000000001, -0.19799999999999995, 0.19799999999999995, 0.42599999999999993, -0.618, -0.18099999999999994, -0.743, -0.246, -0.125], 0.8577867746288799),
    (15, [-0.59, -0.7030000000000001, -0.19799999999999995, 0.19799999999999995, 0.42599999999999993, -0.618, -0.18099999999999994, -0.743, -0.246, -0.125], 0.8577867746288799),
    (16, [-0.59, -0.7030000000000001, -0.19799999999999995, 0.19799999999999995, 0.42599999999999993, -0.618, -0.18099999999999994, -0.743, -0.246, -0.125], 0.8577867746288799),
    (17, [-0.59, -0.7030000000000001, -0.19799999999999995, 0.19799999999999995, 0.42599999999999993, -0.618, -0.18099999999999994, -0.743, -0.246, -0.125], 0.8577867746288799),
    (18, [-0.59, -0.7030000000000001, -0.19799999999999995, 0.19799999999999995, 0.42599999999999993, -0.618, -0.18099999999999994, -0.743, -0.246, -0.125], 0.8577867746288799),
    (19, [-0.59, -0.7030000000000001, -0.19799999999999995, 0.19799999999999995, 0.42599999999999993, -0.618, -0.18099999999999994, -0.743, -0.246, -0.125], 0.8577867746288799),
    (20, [-0.59, -0.7030000000000001, -0.19799999999999995, 0.19799999999999995, 0.42599999999999993, -0.618, -0.18099999999999994, -0.743, -0.246, -0.125], 0.8577867746288799),
    (21, [-0.59, -0.7030000000000001, -0.19799999999999995, 0.19799999999999995, 0.42599999999999993, -0.618, -0.18099999999999994, -0.743, -0.246, -0.125], 0.8577867746288799),
    (22, [-0.59, -0.7030000000000001, -0.19799999999999995, 0.19799999999999995, 0.42599999999999993, -0.618, -0.18099999999999994, -0.743, -0.246, -0.125], 0.8577867746288799),
    (23, [-0.59, -0.7030000000000001, -0.19799999999999995, 0.19799999999999995, 0.42599999999999993, -0.618, -0.18099999999999994, -0.743, -0.246, -0.125], 0.8577867746288799),
    (24, [-0.59, -0.7030000000000001, -0.19799999999999995, 0.19799999999999995, 0.42599999999999993, -0.618, -0.18099999999999994, -0.743, -0.246, -0.125], 0.8577867746288799),
    (25, [0.5609999999999999, 0.931, 0.28600000000000003, 0.31099999999999994, 0.7190000000000001, -0.02300000000000002, -0.751, -0.34299999999999997, -0.279, 0.19399999999999995], 0.8627867746288798),
    (26, [0.5609999999999999, 0.931, 0.28600000000000003, 0.31099999999999994, 0.7190000000000001, -0.02300000000000002, -0.751, -0.34299999999999997, -0.279, 0.19399999999999995], 0.8627867746288798),
    (27, [0.5609999999999999, 0.931, 0.28600000000000003, 0.31099999999999994, 0.7190000000000001, -0.02300000000000002, -0.751, -0.34299999999999997, -0.279, 0.19399999999999995], 0.8627867746288798),
    (28, [0.5609999999999999, 0.931, 0.28600000000000003, 0.31099999999999994, 0.7190000000000001, -0.02300000000000002, -0.751, -0.34299999999999997, -0.279, 0.19399999999999995], 0.8627867746288798),
    (29, [0.5609999999999999, 0.931, 0.28600000000000003, 0.31099999999999994, 0.7190000000000001, -0.02300000000000002, -0.751, -0.34299999999999997, -0.279, 0.19399999999999995], 0.8627867746288798),
    (30, [0.5609999999999999, 0.931, 0.28600000000000003, 0.31099999999999994, 0.7190000000000001, -0.02300000000000002, -0.751, -0.34299999999999997, -0.279, 0.19399999999999995], 0.8627867746288798),
    (31, [0.5609999999999999, 0.931, 0.28600000000000003, 0.31099999999999994, 0.7190000000000001, -0.02300000000000002, -0.751, -0.34299999999999997, -0.279, 0.19399999999999995], 0.8627867746288798),
    (32, [0.5609999999999999, 0.931, 0.28600000000000003, 0.31099999999999994, 0.7190000000000001, -0.02300000000000002, -0.751, -0.34299999999999997, -0.279, 0.19399999999999995], 0.8627867746288798),
    (33, [0.5609999999999999, 0.931, 0.28600000000000003, 0.31099999999999994, 0.7190000000000001, -0.02300000000000002, -0.751, -0.34299999999999997, -0.279, 0.19399999999999995], 0.8627867746288798),
    (34, [0.5609999999999999, 0.931, 0.28600000000000003, 0.31099999999999994, 0.7190000000000001, -0.02300000000000002, -0.751, -0.34299999999999997, -0.279, 0.19399999999999995], 0.8627867746288798),
    (35, [0.5609999999999999, 0.931, 0.28600000000000003, 0.31099999999999994, 0.7190000000000001, -0.02300000000000002, -0.751, -0.34299999999999997, -0.279, 0.19399999999999995], 0.8627867746288798),
    (36, [0.5609999999999999, 0.931, 0.28600000000000003, 0.31099999999999994, 0.7190000000000001, -0.02300000000000002, -0.751, -0.34299999999999997, -0.279, 0.19399999999999995], 0.8627867746288798),
    (37, [0.5609999999999999, 0.931, 0.28600000000000003, 0.31099999999999994, 0.7190000000000001, -0.02300000000000002, -0.751, -0.34299999999999997, -0.279, 0.19399999999999995], 0.8627867746288798),
    (38, [0.5609999999999999, 0.931, 0.28600000000000003, 0.31099999999999994, 0.7190000000000001, -0.02300000000000002, -0.751, -0.34299999999999997, -0.279, 0.19399999999999995], 0.8627867746288798),
    (39, [0.5609999999999999, 0.931, 0.28600000000000003, 0.31099999999999994, 0.7190000000000001, -0.02300000000000002, -0.751, -0.34299999999999997, -0.279, 0.19399999999999995], 0.8627867746288798),
    (40, [0.5609999999999999, 0.931, 0.28600000000000003, 0.31099999999999994, 0.7190000000000001, -0.02300000000000002, -0.751, -0.34299999999999997, -0.279, 0.19399999999999995], 0.8627867746288798),
    (41, [0.5609999999999999, 0.931, 0.28600000000000003, 0.31099999999999994, 0.7190000000000001, -0.02300000000000002, -0.751, -0.34299999999999997, -0.279, 0.19399999999999995], 0.8627867746288798),
    (42, [0.5609999999999999, 0.931, 0.28600000000000003, 0.31099999999999994, 0.7190000000000001, -0.02300000000000002, -0.751, -0.34299999999999997, -0.279, 0.19399999999999995], 0.8627867746288798),
    (43, [0.5609999999999999, 0.931, 0.28600000000000003, 0.31099999999999994, 0.7190000000000001, -0.02300000000000002, -0.751, -0.34299999999999997, -0.279, 0.19399999999999995], 0.8627867746288798),
    (44, [0.5609999999999999, 0.931, 0.28600000000000003, 0.31099999999999994, 0.7190000000000001, -0.02300000000000002, -0.751, -0.34299999999999997, -0.279, 0.19399999999999995], 0.8627867746288798),
    (45, [0.5609999999999999, 0.931, 0.28600000000000003, 0.31099999999999994, 0.7190000000000001, -0.02300000000000002, -0.751, -0.34299999999999997, -0.279, 0.19399999999999995], 0.8627867746288798),
    (46, [0.5609999999999999, 0.931, 0.28600000000000003, 0.31099999999999994, 0.7190000000000001, -0.02300000000000002, -0.751, -0.34299999999999997, -0.279, 0.19399999999999995], 0.8627867746288798),
    (47, [0.5609999999999999, 0.931, 0.28600000000000003, 0.31099999999999994, 0.7190000000000001, -0.02300000000000002, -0.751, -0.34299999999999997, -0.279, 0.19399999999999995], 0.8627867746288798),
    (48, [0.5609999999999999, 0.931, 0.28600000000000003, 0.31099999999999994, 0.7190000000000001, -0.02300000000000002, -0.751, -0.34299999999999997, -0.279, 0.19399999999999995], 0.8627867746288798),
    (49, [0.5609999999999999, 0.931, 0.28600000000000003, 0.31099999999999994, 0.7190000000000001, -0.02300000000000002, -0.751, -0.34299999999999997, -0.279, 0.19399999999999995], 0.8627867746288798),
    (50, [0.5609999999999999, 0.931, 0.28600000000000003, 0.31099999999999994, 0.7190000000000001, -0.02300000000000002, -0.751, -0.34299999999999997, -0.279, 0.19399999999999995], 0.8627867746288798),
    (51, [0.5609999999999999, 0.931, 0.28600000000000003, 0.31099999999999994, 0.7190000000000001, -0.02300000000000002, -0.751, -0.34299999999999997, -0.279, 0.19399999999999995], 0.8627867746288798),
    (52, [0.5609999999999999, 0.931, 0.28600000000000003, 0.31099999999999994, 0.7190000000000001, -0.02300000000000002, -0.751, -0.34299999999999997, -0.279, 0.19399999999999995], 0.8627867746288798),
    (53, [0.5609999999999999, 0.931, 0.28600000000000003, 0.31099999999999994, 0.7190000000000001, -0.02300000000000002, -0.751, -0.34299999999999997, -0.279, 0.19399999999999995], 0.8627867746288798),
    (54, [0.5609999999999999, 0.931, 0.28600000000000003, 0.31099999999999994, 0.7190000000000001, -0.02300000000000002, -0.751, -0.34299999999999997, -0.279, 0.19399999999999995], 0.8627867746288798),
    (55, [0.5609999999999999, 0.931, 0.28600000000000003, 0.31099999999999994, 0.7190000000000001, -0.02300000000000002, -0.751, -0.34299999999999997, -0.279, 0.19399999999999995], 0.8627867746288798),
    (56, [0.5609999999999999, 0.931, 0.28600000000000003, 0.31099999999999994, 0.7190000000000001, -0.02300000000000002, -0.751, -0.34299999999999997, -0.279, 0.19399999999999995], 0.8627867746288798),
    (57, [0.5609999999999999, 0.931, 0.28600000000000003, 0.31099999999999994, 0.7190000000000001, -0.02300000000000002, -0.751, -0.34299999999999997, -0.279, 0.19399999999999995], 0.8627867746288798),
    (58, [0.5609999999999999, 0.931, 0.28600000000000003, 0.31099999999999994, 0.7190000000000001, -0.02300000000000002, -0.751, -0.34299999999999997, -0.279, 0.19399999999999995], 0.8627867746288798),
    (59, [0.5609999999999999, 0.931, 0.28600000000000003, 0.31099999999999994, 0.7190000000000001, -0.02300000000000002, -0.751, -0.34299999999999997, -0.279, 0.19399999999999995], 0.8627867746288798),
    (60, [0.5609999999999999, 0.931, 0.28600000000000003, 0.31099999999999994, 0.7190000000000001, -0.02300000000000002, -0.751, -0.34299999999999997, -0.279, 0.19399999999999995], 0.8627867746288798),
    (61, [0.5609999999999999, 0.931, 0.28600000000000003, 0.31099999999999994, 0.7190000000000001, -0.02300000000000002, -0.751, -0.34299999999999997, -0.279, 0.19399999999999995], 0.8627867746288798),
    (62, [0.5609999999999999, 0.931, 0.28600000000000003, 0.31099999999999994, 0.7190000000000001, -0.02300000000000002, -0.751, -0.34299999999999997, -0.279, 0.19399999999999995], 0.8627867746288798),
    (63, [0.5609999999999999, 0.931, 0.28600000000000003, 0.31099999999999994, 0.7190000000000001, -0.02300000000000002, -0.751, -0.34299999999999997, -0.279, 0.19399999999999995], 0.8627867746288798),
    (64, [0.5609999999999999, 0.931, 0.28600000000000003, 0.31099999999999994, 0.7190000000000001, -0.02300000000000002, -0.751, -0.34299999999999997, -0.279, 0.19399999999999995], 0.8627867746288798),
    (65, [0.5609999999999999, 0.931, 0.28600000000000003, 0.31099999999999994, 0.7190000000000001, -0.02300000000000002, -0.751, -0.34299999999999997, -0.279, 0.19399999999999995], 0.8627867746288798),
    (66, [0.5609999999999999, 0.931, 0.28600000000000003, 0.31099999999999994, 0.7190000000000001, -0.02300000000000002, -0.751, -0.34299999999999997, -0.279, 0.19399999999999995], 0.8627867746288798),
    (67, [0.5609999999999999, 0.931, 0.28600000000000003, 0.31099999999999994, 0.7190000000000001, -0.02300000000000002, -0.751, -0.34299999999999997, -0.279, 0.19399999999999995], 0.8627867746288798),
    (68, [0.5609999999999999, 0.931, 0.28600000000000003, 0.31099999999999994, 0.7190000000000001, -0.02300000000000002, -0.751, -0.34299999999999997, -0.279, 0.19399999999999995], 0.8627867746288798),
    (69, [0.5609999999999999, 0.931, 0.28600000000000003, 0.31099999999999994, 0.7190000000000001, -0.02300000000000002, -0.751, -0.34299999999999997, -0.279, 0.19399999999999995], 0.8627867746288798),
    (70, [0.5609999999999999, 0.931, 0.28600000000000003, 0.31099999999999994, 0.7190000000000001, -0.02300000000000002, -0.751, -0.34299999999999997, -0.279, 0.19399999999999995], 0.8627867746288798),
    (71, [0.5609999999999999, 0.931, 0.28600000000000003, 0.31099999999999994, 0.7190000000000001, -0.02300000000000002, -0.751, -0.34299999999999997, -0.279, 0.19399999999999995], 0.8627867746288798),
    (72, [0.5609999999999999, 0.931, 0.28600000000000003, 0.31099999999999994, 0.7190000000000001, -0.02300000000000002, -0.751, -0.34299999999999997, -0.279, 0.19399999999999995], 0.8627867746288798),
    (73, [0.5609999999999999, 0.931, 0.28600000000000003, 0.31099999999999994, 0.7190000000000001, -0.02300000000000002, -0.751, -0.34299999999999997, -0.279, 0.19399999999999995], 0.8627867746288798),
    (74, [0.5609999999999999, 0.931, 0.28600000000000003, 0.31099999999999994, 0.7190000000000001, -0.02300000000000002, -0.751, -0.34299999999999997, -0.279, 0.19399999999999995], 0.8627867746288798),
    (75, [0.5609999999999999, 0.931, 0.28600000000000003, 0.31099999999999994, 0.7190000000000001, -0.02300000000000002, -0.751, -0.34299999999999997, -0.279, 0.19399999999999995], 0.8627867746288798),
    (76, [0.5609999999999999, 0.931, 0.28600000000000003, 0.31099999999999994, 0.7190000000000001, -0.02300000000000002, -0.751, -0.34299999999999997, -0.279, 0.19399999999999995], 0.8627867746288798),
    (77, [0.5609999999999999, 0.931, 0.28600000000000003, 0.31099999999999994, 0.7190000000000001, -0.02300000000000002, -0.751, -0.34299999999999997, -0.279, 0.19399999999999995], 0.8627867746288798),
    (78, [0.5609999999999999, 0.931, 0.28600000000000003, 0.31099999999999994, 0.7190000000000001, -0.02300000000000002, -0.751, -0.34299999999999997, -0.279, 0.19399999999999995], 0.8627867746288798),
    (79, [0.5609999999999999, 0.931, 0.28600000000000003, 0.31099999999999994, 0.7190000000000001, -0.02300000000000002, -0.751, -0.34299999999999997, -0.279, 0.19399999999999995], 0.8627867746288798),
    (80, [0.5609999999999999, 0.931, 0.28600000000000003, 0.31099999999999994, 0.7190000000000001, -0.02300000000000002, -0.751, -0.34299999999999997, -0.279, 0.19399999999999995], 0.8627867746288798),
    (81, [0.5609999999999999, 0.931, 0.28600000000000003, 0.31099999999999994, 0.7190000000000001, -0.02300000000000002, -0.751, -0.34299999999999997, -0.279, 0.19399999999999995], 0.8627867746288798),
    (82, [0.5609999999999999, 0.931, 0.28600000000000003, 0.31099999999999994, 0.7190000000000001, -0.02300000000000002, -0.751, -0.34299999999999997, -0.279, 0.19399999999999995], 0.8627867746288798),
    (83, [0.5609999999999999, 0.931, 0.28600000000000003, 0.31099999999999994, 0.7190000000000001, -0.02300000000000002, -0.751, -0.34299999999999997, -0.279, 0.19399999999999995], 0.8627867746288798),
    (84, [0.5609999999999999, 0.931, 0.28600000000000003, 0.31099999999999994, 0.7190000000000001, -0.02300000000000002, -0.751, -0.34299999999999997, -0.279, 0.19399999999999995], 0.8627867746288798),
    (85, [0.5609999999999999, 0.931, 0.28600000000000003, 0.31099999999999994, 0.7190000000000001, -0.02300000000000002, -0.751, -0.34299999999999997, -0.279, 0.19399999999999995], 0.8627867746288798),
    (86, [0.5609999999999999, 0.931, 0.28600000000000003, 0.31099999999999994, 0.7190000000000001, -0.02300000000000002, -0.751, -0.34299999999999997, -0.279, 0.19399999999999995], 0.8627867746288798),
    (87, [0.5609999999999999, 0.931, 0.28600000000000003, 0.31099999999999994, 0.7190000000000001, -0.02300000000000002, -0.751, -0.34299999999999997, -0.279, 0.19399999999999995], 0.8627867746288798),
    (88, [0.5609999999999999, 0.931, 0.28600000000000003, 0.31099999999999994, 0.7190000000000001, -0.02300000000000002, -0.751, -0.34299999999999997, -0.279, 0.19399999999999995], 0.8627867746288798),
    (89, [0.5609999999999999, 0.931, 0.28600000000000003, 0.31099999999999994, 0.7190000000000001, -0.02300000000000002, -0.751, -0.34299999999999997, -0.279, 0.19399999999999995], 0.8627867746288798),
    (90, [0.5609999999999999, 0.931, 0.28600000000000003, 0.31099999999999994, 0.7190000000000001, -0.02300000000000002, -0.751, -0.34299999999999997, -0.279, 0.19399999999999995], 0.8627867746288798),
    (91, [0.5609999999999999, 0.931, 0.28600000000000003, 0.31099999999999994, 0.7190000000000001, -0.02300000000000002, -0.751, -0.34299999999999997, -0.279, 0.19399999999999995], 0.8627867746288798),
    (92, [0.5609999999999999, 0.931, 0.28600000000000003, 0.31099999999999994, 0.7190000000000001, -0.02300000000000002, -0.751, -0.34299999999999997, -0.279, 0.19399999999999995], 0.8627867746288798),
    (93, [0.5609999999999999, 0.931, 0.28600000000000003, 0.31099999999999994, 0.7190000000000001, -0.02300000000000002, -0.751, -0.34299999999999997, -0.279, 0.19399999999999995], 0.8627867746288798),
    (94, [0.5609999999999999, 0.931, 0.28600000000000003, 0.31099999999999994, 0.7190000000000001, -0.02300000000000002, -0.751, -0.34299999999999997, -0.279, 0.19399999999999995], 0.8627867746288798),
    (95, [0.5609999999999999, 0.931, 0.28600000000000003, 0.31099999999999994, 0.7190000000000001, -0.02300000000000002, -0.751, -0.34299999999999997, -0.279, 0.19399999999999995], 0.8627867746288798),
    (96, [0.5609999999999999, 0.931, 0.28600000000000003, 0.31099999999999994, 0.7190000000000001, -0.02300000000000002, -0.751, -0.34299999999999997, -0.279, 0.19399999999999995], 0.8627867746288798),
    (97, [0.5609999999999999, 0.931, 0.28600000000000003, 0.31099999999999994, 0.7190000000000001, -0.02300000000000002, -0.751, -0.34299999999999997, -0.279, 0.19399999999999995], 0.8627867746288798),
    (98, [0.5609999999999999, 0.931, 0.28600000000000003, 0.31099999999999994, 0.7190000000000001, -0.02300000000000002, -0.751, -0.34299999999999997, -0.279, 0.19399999999999995], 0.8627867746288798),
    (99, [0.5609999999999999, 0.931, 0.28600000000000003, 0.31099999999999994, 0.7190000000000001, -0.02300000000000002, -0.751, -0.34299999999999997, -0.279, 0.19399999999999995], 0.8627867746288798),
    (100, [0.5609999999999999, 0.931, 0.28600000000000003, 0.31099999999999994, 0.7190000000000001, -0.02300000000000002, -0.751, -0.34299999999999997, -0.279, 0.19399999999999995], 0.8627867746288798),
    (101, [0.5609999999999999, 0.931, 0.28600000000000003, 0.31099999999999994, 0.7190000000000001, -0.02300000000000002, -0.751, -0.34299999999999997, -0.279, 0.19399999999999995], 0.8627867746288798),
    (102, [0.5609999999999999, 0.931, 0.28600000000000003, 0.31099999999999994, 0.7190000000000001, -0.02300000000000002, -0.751, -0.34299999999999997, -0.279, 0.19399999999999995], 0.8627867746288798),
    (103, [0.5609999999999999, 0.931, 0.28600000000000003, 0.31099999999999994, 0.7190000000000001, -0.02300000000000002, -0.751, -0.34299999999999997, -0.279, 0.19399999999999995], 0.8627867746288798),
    (104, [0.5609999999999999, 0.931, 0.28600000000000003, 0.31099999999999994, 0.7190000000000001, -0.02300000000000002, -0.751, -0.34299999999999997, -0.279, 0.19399999999999995], 0.8627867746288798),
    (105, [0.5609999999999999, 0.931, 0.28600000000000003, 0.31099999999999994, 0.7190000000000001, -0.02300000000000002, -0.751, -0.34299999999999997, -0.279, 0.19399999999999995], 0.8627867746288798),
    (106, [0.5609999999999999, 0.931, 0.28600000000000003, 0.31099999999999994, 0.7190000000000001, -0.02300000000000002, -0.751, -0.34299999999999997, -0.279, 0.19399999999999995], 0.8627867746288798),
    (107, [0.5609999999999999, 0.931, 0.28600000000000003, 0.31099999999999994, 0.7190000000000001, -0.02300000000000002, -0.751, -0.34299999999999997, -0.279, 0.19399999999999995], 0.8627867746288798),
    (108, [0.5609999999999999, 0.931, 0.28600000000000003, 0.31099999999999994, 0.7190000000000001, -0.02300000000000002, -0.751, -0.34299999999999997, -0.279, 0.19399999999999995], 0.8627867746288798),
    (109, [0.5609999999999999, 0.931, 0.28600000000000003, 0.31099999999999994, 0.7190000000000001, -0.02300000000000002, -0.751, -0.34299999999999997, -0.279, 0.19399999999999995], 0.8627867746288798),
    (110, [0.5609999999999999, 0.931, 0.28600000000000003, 0.31099999999999994, 0.7190000000000001, -0.02300000000000002, -0.751, -0.34299999999999997, -0.279, 0.19399999999999995], 0.8627867746288798),
    (111, [0.5609999999999999, 0.931, 0.28600000000000003, 0.31099999999999994, 0.7190000000000001, -0.02300000000000002, -0.751, -0.34299999999999997, -0.279, 0.19399999999999995], 0.8627867746288798),
    (112, [0.5609999999999999, 0.931, 0.28600000000000003, 0.31099999999999994, 0.7190000000000001, -0.02300000000000002, -0.751, -0.34299999999999997, -0.279, 0.19399999999999995], 0.8627867746288798),
    (113, [0.5609999999999999, 0.931, 0.28600000000000003, 0.31099999999999994, 0.7190000000000001, -0.02300000000000002, -0.751, -0.34299999999999997, -0.279, 0.19399999999999995], 0.8627867746288798),
    (114, [0.5609999999999999, 0.931, 0.28600000000000003, 0.31099999999999994, 0.7190000000000001, -0.02300000000000002, -0.751, -0.34299999999999997, -0.279, 0.19399999999999995], 0.8627867746288798),
    (115, [0.5609999999999999, 0.931, 0.28600000000000003, 0.31099999999999994, 0.7190000000000001, -0.02300000000000002, -0.751, -0.34299999999999997, -0.279, 0.19399999999999995], 0.8627867746288798),
    (116, [0.5609999999999999, 0.931, 0.28600000000000003, 0.31099999999999994, 0.7190000000000001, -0.02300000000000002, -0.751, -0.34299999999999997, -0.279, 0.19399999999999995], 0.8627867746288798),
    (117, [0.5609999999999999, 0.931, 0.28600000000000003, 0.31099999999999994, 0.7190000000000001, -0.02300000000000002, -0.751, -0.34299999999999997, -0.279, 0.19399999999999995], 0.8627867746288798),
    (118, [0.5609999999999999, 0.931, 0.28600000000000003, 0.31099999999999994, 0.7190000000000001, -0.02300000000000002, -0.751, -0.34299999999999997, -0.279, 0.19399999999999995], 0.8627867746288798),
    (119, [0.5609999999999999, 0.931, 0.28600000000000003, 0.31099999999999994, 0.7190000000000001, -0.02300000000000002, -0.751, -0.34299999999999997, -0.279, 0.19399999999999995], 0.8627867746288798),
    (120, [0.5609999999999999, 0.931, 0.28600000000000003, 0.31099999999999994, 0.7190000000000001, -0.02300000000000002, -0.751, -0.34299999999999997, -0.279, 0.19399999999999995], 0.8627867746288798),
    (121, [0.5609999999999999, 0.931, 0.28600000000000003, 0.31099999999999994, 0.7190000000000001, -0.02300000000000002, -0.751, -0.34299999999999997, -0.279, 0.19399999999999995], 0.8627867746288798),
    (122, [0.5609999999999999, 0.931, 0.28600000000000003, 0.31099999999999994, 0.7190000000000001, -0.02300000000000002, -0.751, -0.34299999999999997, -0.279, 0.19399999999999995], 0.8627867746288798),
    (123, [0.5609999999999999, 0.931, 0.28600000000000003, 0.31099999999999994, 0.7190000000000001, -0.02300000000000002, -0.751, -0.34299999999999997, -0.279, 0.19399999999999995], 0.8627867746288798),
    (124, [0.5609999999999999, 0.931, 0.28600000000000003, 0.31099999999999994, 0.7190000000000001, -0.02300000000000002, -0.751, -0.34299999999999997, -0.279, 0.19399999999999995], 0.8627867746288798),
    (125, [0.5609999999999999, 0.931, 0.28600000000000003, 0.31099999999999994, 0.7190000000000001, -0.02300000000000002, -0.751, -0.34299999999999997, -0.279, 0.19399999999999995], 0.8627867746288798),
    (126, [0.5609999999999999, 0.931, 0.28600000000000003, 0.31099999999999994, 0.7190000000000001, -0.02300000000000002, -0.751, -0.34299999999999997, -0.279, 0.19399999999999995], 0.8627867746288798),
    (127, [0.5609999999999999, 0.931, 0.28600000000000003, 0.31099999999999994, 0.7190000000000001, -0.02300000000000002, -0.751, -0.34299999999999997, -0.279, 0.19399999999999995], 0.8627867746288798),
    (128, [0.5609999999999999, 0.931, 0.28600000000000003, 0.31099999999999994, 0.7190000000000001, -0.02300000000000002, -0.751, -0.34299999999999997, -0.279, 0.19399999999999995], 0.8627867746288798),
    (129, [0.5609999999999999, 0.931, 0.28600000000000003, 0.31099999999999994, 0.7190000000000001, -0.02300000000000002, -0.751, -0.34299999999999997, -0.279, 0.19399999999999995], 0.8627867746288798),
    (130, [0.5609999999999999, 0.931, 0.28600000000000003, 0.31099999999999994, 0.7190000000000001, -0.02300000000000002, -0.751, -0.34299999999999997, -0.279, 0.19399999999999995], 0.8627867746288798),
    (131, [0.5609999999999999, 0.931, 0.28600000000000003, 0.31099999999999994, 0.7190000000000001, -0.02300000000000002, -0.751, -0.34299999999999997, -0.279, 0.19399999999999995], 0.8627867746288798),
    (132, [0.5609999999999999, 0.931, 0.28600000000000003, 0.31099999999999994, 0.7190000000000001, -0.02300000000000002, -0.751, -0.34299999999999997, -0.279, 0.19399999999999995], 0.8627867746288798),
    (133, [0.5609999999999999, 0.931, 0.28600000000000003, 0.31099999999999994, 0.7190000000000001, -0.02300000000000002, -0.751, -0.34299999999999997, -0.279, 0.19399999999999995], 0.8627867746288798),
    (134, [0.5609999999999999, 0.931, 0.28600000000000003, 0.31099999999999994, 0.7190000000000001, -0.02300000000000002, -0.751, -0.34299999999999997, -0.279, 0.19399999999999995], 0.8627867746288798),
    (135, [0.5609999999999999, 0.931, 0.28600000000000003, 0.31099999999999994, 0.7190000000000001, -0.02300000000000002, -0.751, -0.34299999999999997, -0.279, 0.19399999999999995], 0.8627867746288798),
    (136, [0.5609999999999999, 0.931, 0.28600000000000003, 0.31099999999999994, 0.7190000000000001, -0.02300000000000002, -0.751, -0.34299999999999997, -0.279, 0.19399999999999995], 0.8627867746288798),
    (137, [0.5609999999999999, 0.931, 0.28600000000000003, 0.31099999999999994, 0.7190000000000001, -0.02300000000000002, -0.751, -0.34299999999999997, -0.279, 0.19399999999999995], 0.8627867746288798),
    (138, [0.5609999999999999, 0.931, 0.28600000000000003, 0.31099999999999994, 0.7190000000000001, -0.02300000000000002, -0.751, -0.34299999999999997, -0.279, 0.19399999999999995], 0.8627867746288798),
    (139, [0.5609999999999999, 0.931, 0.28600000000000003, 0.31099999999999994, 0.7190000000000001, -0.02300000000000002, -0.751, -0.34299999999999997, -0.279, 0.19399999999999995], 0.8627867746288798),
    (140, [0.5609999999999999, 0.931, 0.28600000000000003, 0.31099999999999994, 0.7190000000000001, -0.02300000000000002, -0.751, -0.34299999999999997, -0.279, 0.19399999999999995], 0.8627867746288798),
    (141, [0.5609999999999999, 0.931, 0.28600000000000003, 0.31099999999999994, 0.7190000000000001, -0.02300000000000002, -0.751, -0.34299999999999997, -0.279, 0.19399999999999995], 0.8627867746288798),
    (142, [0.5609999999999999, 0.931, 0.28600000000000003, 0.31099999999999994, 0.7190000000000001, -0.02300000000000002, -0.751, -0.34299999999999997, -0.279, 0.19399999999999995], 0.8627867746288798),
    (143, [0.5609999999999999, 0.931, 0.28600000000000003, 0.31099999999999994, 0.7190000000000001, -0.02300000000000002, -0.751, -0.34299999999999997, -0.279, 0.19399999999999995], 0.8627867746288798),
    (144, [0.5609999999999999, 0.931, 0.28600000000000003, 0.31099999999999994, 0.7190000000000001, -0.02300000000000002, -0.751, -0.34299999999999997, -0.279, 0.19399999999999995], 0.8627867746288798),
    (145, [0.5609999999999999, 0.931, 0.28600000000000003, 0.31099999999999994, 0.7190000000000001, -0.02300000000000002, -0.751, -0.34299999999999997, -0.279, 0.19399999999999995], 0.8627867746288798),
    (146, [0.5609999999999999, 0.931, 0.28600000000000003, 0.31099999999999994, 0.7190000000000001, -0.02300000000000002, -0.751, -0.34299999999999997, -0.279, 0.19399999999999995], 0.8627867746288798),
    (147, [0.5609999999999999, 0.931, 0.28600000000000003, 0.31099999999999994, 0.7190000000000001, -0.02300000000000002, -0.751, -0.34299999999999997, -0.279, 0.19399999999999995], 0.8627867746288798),
    (148, [0.5609999999999999, 0.931, 0.28600000000000003, 0.31099999999999994, 0.7190000000000001, -0.02300000000000002, -0.751, -0.34299999999999997, -0.279, 0.19399999999999995], 0.8627867746288798),
    (149, [0.5609999999999999, 0.931, 0.28600000000000003, 0.31099999999999994, 0.7190000000000001, -0.02300000000000002, -0.751, -0.34299999999999997, -0.279, 0.19399999999999995], 0.8627867746288798),
    (150, [0.5609999999999999, 0.931, 0.28600000000000003, 0.31099999999999994, 0.7190000000000001, -0.02300000000000002, -0.751, -0.34299999999999997, -0.279, 0.19399999999999995], 0.8627867746288798),
    (151, [0.5609999999999999, 0.931, 0.28600000000000003, 0.31099999999999994, 0.7190000000000001, -0.02300000000000002, -0.751, -0.34299999999999997, -0.279, 0.19399999999999995], 0.8627867746288798),
    (152, [0.5609999999999999, 0.931, 0.28600000000000003, 0.31099999999999994, 0.7190000000000001, -0.02300000000000002, -0.751, -0.34299999999999997, -0.279, 0.19399999999999995], 0.8627867746288798),
    (153, [0.5609999999999999, 0.931, 0.28600000000000003, 0.31099999999999994, 0.7190000000000001, -0.02300000000000002, -0.751, -0.34299999999999997, -0.279, 0.19399999999999995], 0.8627867746288798),
    (154, [0.5609999999999999, 0.931, 0.28600000000000003, 0.31099999999999994, 0.7190000000000001, -0.02300000000000002, -0.751, -0.34299999999999997, -0.279, 0.19399999999999995], 0.8627867746288798),
    (155, [0.5609999999999999, 0.931, 0.28600000000000003, 0.31099999999999994, 0.7190000000000001, -0.02300000000000002, -0.751, -0.34299999999999997, -0.279, 0.19399999999999995], 0.8627867746288798),
    (156, [0.5609999999999999, 0.931, 0.28600000000000003, 0.31099999999999994, 0.7190000000000001, -0.02300000000000002, -0.751, -0.34299999999999997, -0.279, 0.19399999999999995], 0.8627867746288798),
    (157, [0.5609999999999999, 0.931, 0.28600000000000003, 0.31099999999999994, 0.7190000000000001, -0.02300000000000002, -0.751, -0.34299999999999997, -0.279, 0.19399999999999995], 0.8627867746288798),
    (158, [0.5609999999999999, 0.931, 0.28600000000000003, 0.31099999999999994, 0.7190000000000001, -0.02300000000000002, -0.751, -0.34299999999999997, -0.279, 0.19399999999999995], 0.8627867746288798),
    (159, [0.5609999999999999, 0.931, 0.28600000000000003, 0.31099999999999994, 0.7190000000000001, -0.02300000000000002, -0.751, -0.34299999999999997, -0.279, 0.19399999999999995], 0.8627867746288798),
    (160, [0.5609999999999999, 0.931, 0.28600000000000003, 0.31099999999999994, 0.7190000000000001, -0.02300000000000002, -0.751, -0.34299999999999997, -0.279, 0.19399999999999995], 0.8627867746288798),
    (161, [0.5609999999999999, 0.931, 0.28600000000000003, 0.31099999999999994, 0.7190000000000001, -0.02300000000000002, -0.751, -0.34299999999999997, -0.279, 0.19399999999999995], 0.8627867746288798),
    (162, [0.5609999999999999, 0.931, 0.28600000000000003, 0.31099999999999994, 0.7190000000000001, -0.02300000000000002, -0.751, -0.34299999999999997, -0.279, 0.19399999999999995], 0.8627867746288798),
    (163, [0.5609999999999999, 0.931, 0.28600000000000003, 0.31099999999999994, 0.7190000000000001, -0.02300000000000002, -0.751, -0.34299999999999997, -0.279, 0.19399999999999995], 0.8627867746288798),
    (164, [0.5609999999999999, 0.931, 0.28600000000000003, 0.31099999999999994, 0.7190000000000001, -0.02300000000000002, -0.751, -0.34299999999999997, -0.279, 0.19399999999999995], 0.8627867746288798),
    (165, [0.5609999999999999, 0.931, 0.28600000000000003, 0.31099999999999994, 0.7190000000000001, -0.02300000000000002, -0.751, -0.34299999999999997, -0.279, 0.19399999999999995], 0.8627867746288798),
    (166, [0.5609999999999999, 0.931, 0.28600000000000003, 0.31099999999999994, 0.7190000000000001, -0.02300000000000002, -0.751, -0.34299999999999997, -0.279, 0.19399999999999995], 0.8627867746288798),
    (167, [0.5609999999999999, 0.931, 0.28600000000000003, 0.31099999999999994, 0.7190000000000001, -0.02300000000000002, -0.751, -0.34299999999999997, -0.279, 0.19399999999999995], 0.8627867746288798),
    (168, [0.5609999999999999, 0.931, 0.28600000000000003, 0.31099999999999994, 0.7190000000000001, -0.02300000000000002, -0.751, -0.34299999999999997, -0.279, 0.19399999999999995], 0.8627867746288798),
    (169, [0.5609999999999999, 0.931, 0.28600000000000003, 0.31099999999999994, 0.7190000000000001, -0.02300000000000002, -0.751, -0.34299999999999997, -0.279, 0.19399999999999995], 0.8627867746288798),
    (170, [0.5609999999999999, 0.931, 0.28600000000000003, 0.31099999999999994, 0.7190000000000001, -0.02300000000000002, -0.751, -0.34299999999999997, -0.279, 0.19399999999999995], 0.8627867746288798),
    (171, [0.5609999999999999, 0.931, 0.28600000000000003, 0.31099999999999994, 0.7190000000000001, -0.02300000000000002, -0.751, -0.34299999999999997, -0.279, 0.19399999999999995], 0.8627867746288798),
    (172, [0.5609999999999999, 0.931, 0.28600000000000003, 0.31099999999999994, 0.7190000000000001, -0.02300000000000002, -0.751, -0.34299999999999997, -0.279, 0.19399999999999995], 0.8627867746288798),
    (173, [0.5609999999999999, 0.931, 0.28600000000000003, 0.31099999999999994, 0.7190000000000001, -0.02300000000000002, -0.751, -0.34299999999999997, -0.279, 0.19399999999999995], 0.8627867746288798),
    (174, [0.5609999999999999, 0.931, 0.28600000000000003, 0.31099999999999994, 0.7190000000000001, -0.02300000000000002, -0.751, -0.34299999999999997, -0.279, 0.19399999999999995], 0.8627867746288798),
    (175, [0.5609999999999999, 0.931, 0.28600000000000003, 0.31099999999999994, 0.7190000000000001, -0.02300000000000002, -0.751, -0.34299999999999997, -0.279, 0.19399999999999995], 0.8627867746288798),
    (176, [0.5609999999999999, 0.931, 0.28600000000000003, 0.31099999999999994, 0.7190000000000001, -0.02300000000000002, -0.751, -0.34299999999999997, -0.279, 0.19399999999999995], 0.8627867746288798),
    (177, [0.5609999999999999, 0.931, 0.28600000000000003, 0.31099999999999994, 0.7190000000000001, -0.02300000000000002, -0.751, -0.34299999999999997, -0.279, 0.19399999999999995], 0.8627867746288798),
    (178, [0.5609999999999999, 0.931, 0.28600000000000003, 0.31099999999999994, 0.7190000000000001, -0.02300000000000002, -0.751, -0.34299999999999997, -0.279, 0.19399999999999995], 0.8627867746288798),
    (179, [0.5609999999999999, 0.931, 0.28600000000000003, 0.31099999999999994, 0.7190000000000001, -0.02300000000000002, -0.751, -0.34299999999999997, -0.279, 0.19399999999999995], 0.8627867746288798),
    (180, [0.5609999999999999, 0.931, 0.28600000000000003, 0.31099999999999994, 0.7190000000000001, -0.02300000000000002, -0.751, -0.34299999999999997, -0.279, 0.19399999999999995], 0.8627867746288798),
    (181, [0.5609999999999999, 0.931, 0.28600000000000003, 0.31099999999999994, 0.7190000000000001, -0.02300000000000002, -0.751, -0.34299999999999997, -0.279, 0.19399999999999995], 0.8627867746288798),
    (182, [0.5609999999999999, 0.931, 0.28600000000000003, 0.31099999999999994, 0.7190000000000001, -0.02300000000000002, -0.751, -0.34299999999999997, -0.279, 0.19399999999999995], 0.8627867746288798),
    (183, [0.5609999999999999, 0.931, 0.28600000000000003, 0.31099999999999994, 0.7190000000000001, -0.02300000000000002, -0.751, -0.34299999999999997, -0.279, 0.19399999999999995], 0.8627867746288798),
    (184, [0.5609999999999999, 0.931, 0.28600000000000003, 0.31099999999999994, 0.7190000000000001, -0.02300000000000002, -0.751, -0.34299999999999997, -0.279, 0.19399999999999995], 0.8627867746288798),
    (185, [0.5609999999999999, 0.931, 0.28600000000000003, 0.31099999999999994, 0.7190000000000001, -0.02300000000000002, -0.751, -0.34299999999999997, -0.279, 0.19399999999999995], 0.8627867746288798),
    (186, [0.5609999999999999, 0.931, 0.28600000000000003, 0.31099999999999994, 0.7190000000000001, -0.02300000000000002, -0.751, -0.34299999999999997, -0.279, 0.19399999999999995], 0.8627867746288798),
    (187, [0.5609999999999999, 0.931, 0.28600000000000003, 0.31099999999999994, 0.7190000000000001, -0.02300000000000002, -0.751, -0.34299999999999997, -0.279, 0.19399999999999995], 0.8627867746288798),
    (188, [0.5609999999999999, 0.931, 0.28600000000000003, 0.31099999999999994, 0.7190000000000001, -0.02300000000000002, -0.751, -0.34299999999999997, -0.279, 0.19399999999999995], 0.8627867746288798),
    (189, [0.5609999999999999, 0.931, 0.28600000000000003, 0.31099999999999994, 0.7190000000000001, -0.02300000000000002, -0.751, -0.34299999999999997, -0.279, 0.19399999999999995], 0.8627867746288798),
    (190, [0.5609999999999999, 0.931, 0.28600000000000003, 0.31099999999999994, 0.7190000000000001, -0.02300000000000002, -0.751, -0.34299999999999997, -0.279, 0.19399999999999995], 0.8627867746288798),
    (191, [0.5609999999999999, 0.931, 0.28600000000000003, 0.31099999999999994, 0.7190000000000001, -0.02300000000000002, -0.751, -0.34299999999999997, -0.279, 0.19399999999999995], 0.8627867746288798),
    (192, [0.5609999999999999, 0.931, 0.28600000000000003, 0.31099999999999994, 0.7190000000000001, -0.02300000000000002, -0.751, -0.34299999999999997, -0.279, 0.19399999999999995], 0.8627867746288798),
    (193, [0.5609999999999999, 0.931, 0.28600000000000003, 0.31099999999999994, 0.7190000000000001, -0.02300000000000002, -0.751, -0.34299999999999997, -0.279, 0.19399999999999995], 0.8627867746288798),
    (194, [0.5609999999999999, 0.931, 0.28600000000000003, 0.31099999999999994, 0.7190000000000001, -0.02300000000000002, -0.751, -0.34299999999999997, -0.279, 0.19399999999999995], 0.8627867746288798),
    (195, [0.5609999999999999, 0.931, 0.28600000000000003, 0.31099999999999994, 0.7190000000000001, -0.02300000000000002, -0.751, -0.34299999999999997, -0.279, 0.19399999999999995], 0.8627867746288798),
    (196, [0.5609999999999999, 0.931, 0.28600000000000003, 0.31099999999999994, 0.7190000000000001, -0.02300000000000002, -0.751, -0.34299999999999997, -0.279, 0.19399999999999995], 0.8627867746288798),
    (197, [0.5609999999999999, 0.931, 0.28600000000000003, 0.31099999999999994, 0.7190000000000001, -0.02300000000000002, -0.751, -0.34299999999999997, -0.279, 0.19399999999999995], 0.8627867746288798),
    (198, [0.5609999999999999, 0.931, 0.28600000000000003, 0.31099999999999994, 0.7190000000000001, -0.02300000000000002, -0.751, -0.34299999999999997, -0.279, 0.19399999999999995], 0.8627867746288798),
    (199, [0.5609999999999999, 0.931, 0.28600000000000003, 0.31099999999999994, 0.7190000000000001, -0.02300000000000002, -0.751, -0.34299999999999997, -0.279, 0.19399999999999995], 0.8627867746288798),
    (200, [0.5609999999999999, 0.931, 0.28600000000000003, 0.31099999999999994, 0.7190000000000001, -0.02300000000000002, -0.751, -0.34299999999999997, -0.279, 0.19399999999999995], 0.8627867746288798),
    (201, [0.5609999999999999, 0.931, 0.28600000000000003, 0.31099999999999994, 0.7190000000000001, -0.02300000000000002, -0.751, -0.34299999999999997, -0.279, 0.19399999999999995], 0.8627867746288798),
    (202, [0.5609999999999999, 0.931, 0.28600000000000003, 0.31099999999999994, 0.7190000000000001, -0.02300000000000002, -0.751, -0.34299999999999997, -0.279, 0.19399999999999995], 0.8627867746288798),
    (203, [0.5609999999999999, 0.931, 0.28600000000000003, 0.31099999999999994, 0.7190000000000001, -0.02300000000000002, -0.751, -0.34299999999999997, -0.279, 0.19399999999999995], 0.8627867746288798),
    (204, [0.5609999999999999, 0.931, 0.28600000000000003, 0.31099999999999994, 0.7190000000000001, -0.02300000000000002, -0.751, -0.34299999999999997, -0.279, 0.19399999999999995], 0.8627867746288798),
    (205, [0.5609999999999999, 0.931, 0.28600000000000003, 0.31099999999999994, 0.7190000000000001, -0.02300000000000002, -0.751, -0.34299999999999997, -0.279, 0.19399999999999995], 0.8627867746288798),
    (206, [0.5609999999999999, 0.931, 0.28600000000000003, 0.31099999999999994, 0.7190000000000001, -0.02300000000000002, -0.751, -0.34299999999999997, -0.279, 0.19399999999999995], 0.8627867746288798),
    (207, [0.5609999999999999, 0.931, 0.28600000000000003, 0.31099999999999994, 0.7190000000000001, -0.02300000000000002, -0.751, -0.34299999999999997, -0.279, 0.19399999999999995], 0.8627867746288798),
    (208, [0.5609999999999999, 0.931, 0.28600000000000003, 0.31099999999999994, 0.7190000000000001, -0.02300000000000002, -0.751, -0.34299999999999997, -0.279, 0.19399999999999995], 0.8627867746288798),
    (209, [0.5609999999999999, 0.931, 0.28600000000000003, 0.31099999999999994, 0.7190000000000001, -0.02300000000000002, -0.751, -0.34299999999999997, -0.279, 0.19399999999999995], 0.8627867746288798),
    (210, [0.5609999999999999, 0.931, 0.28600000000000003, 0.31099999999999994, 0.7190000000000001, -0.02300000000000002, -0.751, -0.34299999999999997, -0.279, 0.19399999999999995], 0.8627867746288798),
    (211, [0.546, 0.22999999999999998, 0.673, 0.21199999999999997, -0.752, 0.5609999999999999, 0.7810000000000001, -0.8069999999999999, 0.8500000000000001, -0.28800000000000003], 0.8629217273954115),
    (212, [0.546, 0.22999999999999998, 0.673, 0.21199999999999997, -0.752, 0.5609999999999999, 0.7810000000000001, -0.8069999999999999, 0.8500000000000001, -0.28800000000000003], 0.8629217273954115),
    (213, [0.546, 0.22999999999999998, 0.673, 0.21199999999999997, -0.752, 0.5609999999999999, 0.7810000000000001, -0.8069999999999999, 0.8500000000000001, -0.28800000000000003], 0.8629217273954115),
    (214, [0.546, 0.22999999999999998, 0.673, 0.21199999999999997, -0.752, 0.5609999999999999, 0.7810000000000001, -0.8069999999999999, 0.8500000000000001, -0.28800000000000003], 0.8629217273954115),
    (215, [0.546, 0.22999999999999998, 0.673, 0.21199999999999997, -0.752, 0.5609999999999999, 0.7810000000000001, -0.8069999999999999, 0.8500000000000001, -0.28800000000000003], 0.8629217273954115),
    (216, [0.546, 0.22999999999999998, 0.673, 0.21199999999999997, -0.752, 0.5609999999999999, 0.7810000000000001, -0.8069999999999999, 0.8500000000000001, -0.28800000000000003], 0.8629217273954115),
    (217, [0.546, 0.22999999999999998, 0.673, 0.21199999999999997, -0.752, 0.5609999999999999, 0.7810000000000001, -0.8069999999999999, 0.8500000000000001, -0.28800000000000003], 0.8629217273954115),
    (218, [0.546, 0.22999999999999998, 0.673, 0.21199999999999997, -0.752, 0.5609999999999999, 0.7810000000000001, -0.8069999999999999, 0.8500000000000001, -0.28800000000000003], 0.8629217273954115),
    (219, [0.546, 0.22999999999999998, 0.673, 0.21199999999999997, -0.752, 0.5609999999999999, 0.7810000000000001, -0.8069999999999999, 0.8500000000000001, -0.28800000000000003], 0.8629217273954115),
    (220, [0.546, 0.22999999999999998, 0.673, 0.21199999999999997, -0.752, 0.5609999999999999, 0.7810000000000001, -0.8069999999999999, 0.8500000000000001, -0.28800000000000003], 0.8629217273954115),
    (221, [0.546, 0.22999999999999998, 0.673, 0.21199999999999997, -0.752, 0.5609999999999999, 0.7810000000000001, -0.8069999999999999, 0.8500000000000001, -0.28800000000000003], 0.8629217273954115),
    (222, [0.546, 0.22999999999999998, 0.673, 0.21199999999999997, -0.752, 0.5609999999999999, 0.7810000000000001, -0.8069999999999999, 0.8500000000000001, -0.28800000000000003], 0.8629217273954115),
    (223, [0.546, 0.22999999999999998, 0.673, 0.21199999999999997, -0.752, 0.5609999999999999, 0.7810000000000001, -0.8069999999999999, 0.8500000000000001, -0.28800000000000003], 0.8629217273954115),
    (224, [0.546, 0.22999999999999998, 0.673, 0.21199999999999997, -0.752, 0.5609999999999999, 0.7810000000000001, -0.8069999999999999, 0.8500000000000001, -0.28800000000000003], 0.8629217273954115),
    (225, [0.546, 0.22999999999999998, 0.673, 0.21199999999999997, -0.752, 0.5609999999999999, 0.7810000000000001, -0.8069999999999999, 0.8500000000000001, -0.28800000000000003], 0.8629217273954115),
    (226, [0.546, 0.22999999999999998, 0.673, 0.21199999999999997, -0.752, 0.5609999999999999, 0.7810000000000001, -0.8069999999999999, 0.8500000000000001, -0.28800000000000003], 0.8629217273954115),
    (227, [0.546, 0.22999999999999998, 0.673, 0.21199999999999997, -0.752, 0.5609999999999999, 0.7810000000000001, -0.8069999999999999, 0.8500000000000001, -0.28800000000000003], 0.8629217273954115),
    (228, [0.546, 0.22999999999999998, 0.673, 0.21199999999999997, -0.752, 0.5609999999999999, 0.7810000000000001, -0.8069999999999999, 0.8500000000000001, -0.28800000000000003], 0.8629217273954115),
    (229, [0.546, 0.22999999999999998, 0.673, 0.21199999999999997, -0.752, 0.5609999999999999, 0.7810000000000001, -0.8069999999999999, 0.8500000000000001, -0.28800000000000003], 0.8629217273954115),
    (230, [0.546, 0.22999999999999998, 0.673, 0.21199999999999997, -0.752, 0.5609999999999999, 0.7810000000000001, -0.8069999999999999, 0.8500000000000001, -0.28800000000000003], 0.8629217273954115),
    (231, [0.546, 0.22999999999999998, 0.673, 0.21199999999999997, -0.752, 0.5609999999999999, 0.7810000000000001, -0.8069999999999999, 0.8500000000000001, -0.28800000000000003], 0.8629217273954115),
    (232, [0.546, 0.22999999999999998, 0.673, 0.21199999999999997, -0.752, 0.5609999999999999, 0.7810000000000001, -0.8069999999999999, 0.8500000000000001, -0.28800000000000003], 0.8629217273954115),
    (233, [0.546, 0.22999999999999998, 0.673, 0.21199999999999997, -0.752, 0.5609999999999999, 0.7810000000000001, -0.8069999999999999, 0.8500000000000001, -0.28800000000000003], 0.8629217273954115),
    (234, [0.546, 0.22999999999999998, 0.673, 0.21199999999999997, -0.752, 0.5609999999999999, 0.7810000000000001, -0.8069999999999999, 0.8500000000000001, -0.28800000000000003], 0.8629217273954115),
    (235, [0.546, 0.22999999999999998, 0.673, 0.21199999999999997, -0.752, 0.5609999999999999, 0.7810000000000001, -0.8069999999999999, 0.8500000000000001, -0.28800000000000003], 0.8629217273954115),
    (236, [0.546, 0.22999999999999998, 0.673, 0.21199999999999997, -0.752, 0.5609999999999999, 0.7810000000000001, -0.8069999999999999, 0.8500000000000001, -0.28800000000000003], 0.8629217273954115),
    (237, [0.546, 0.22999999999999998, 0.673, 0.21199999999999997, -0.752, 0.5609999999999999, 0.7810000000000001, -0.8069999999999999, 0.8500000000000001, -0.28800000000000003], 0.8629217273954115),
    (238, [0.546, 0.22999999999999998, 0.673, 0.21199999999999997, -0.752, 0.5609999999999999, 0.7810000000000001, -0.8069999999999999, 0.8500000000000001, -0.28800000000000003], 0.8629217273954115),
    (239, [0.546, 0.22999999999999998, 0.673, 0.21199999999999997, -0.752, 0.5609999999999999, 0.7810000000000001, -0.8069999999999999, 0.8500000000000001, -0.28800000000000003], 0.8629217273954115),
    (240, [0.546, 0.22999999999999998, 0.673, 0.21199999999999997, -0.752, 0.5609999999999999, 0.7810000000000001, -0.8069999999999999, 0.8500000000000001, -0.28800000000000003], 0.8629217273954115),
    (241, [0.546, 0.22999999999999998, 0.673, 0.21199999999999997, -0.752, 0.5609999999999999, 0.7810000000000001, -0.8069999999999999, 0.8500000000000001, -0.28800000000000003], 0.8629217273954115),
    (242, [0.546, 0.22999999999999998, 0.673, 0.21199999999999997, -0.752, 0.5609999999999999, 0.7810000000000001, -0.8069999999999999, 0.8500000000000001, -0.28800000000000003], 0.8629217273954115),
    (243, [0.546, 0.22999999999999998, 0.673, 0.21199999999999997, -0.752, 0.5609999999999999, 0.7810000000000001, -0.8069999999999999, 0.8500000000000001, -0.28800000000000003], 0.8629217273954115),
    (244, [0.546, 0.22999999999999998, 0.673, 0.21199999999999997, -0.752, 0.5609999999999999, 0.7810000000000001, -0.8069999999999999, 0.8500000000000001, -0.28800000000000003], 0.8629217273954115),
    (245, [0.546, 0.22999999999999998, 0.673, 0.21199999999999997, -0.752, 0.5609999999999999, 0.7810000000000001, -0.8069999999999999, 0.8500000000000001, -0.28800000000000003], 0.8629217273954115),
    (246, [0.546, 0.22999999999999998, 0.673, 0.21199999999999997, -0.752, 0.5609999999999999, 0.7810000000000001, -0.8069999999999999, 0.8500000000000001, -0.28800000000000003], 0.8629217273954115),
    (247, [0.546, 0.22999999999999998, 0.673, 0.21199999999999997, -0.752, 0.5609999999999999, 0.7810000000000001, -0.8069999999999999, 0.8500000000000001, -0.28800000000000003], 0.8629217273954115),
    (248, [0.546, 0.22999999999999998, 0.673, 0.21199999999999997, -0.752, 0.5609999999999999, 0.7810000000000001, -0.8069999999999999, 0.8500000000000001, -0.28800000000000003], 0.8629217273954115),
    (249, [0.546, 0.22999999999999998, 0.673, 0.21199999999999997, -0.752, 0.5609999999999999, 0.7810000000000001, -0.8069999999999999, 0.8500000000000001, -0.28800000000000003], 0.8629217273954115),
    (250, [0.546, 0.22999999999999998, 0.673, 0.21199999999999997, -0.752, 0.5609999999999999, 0.7810000000000001, -0.8069999999999999, 0.8500000000000001, -0.28800000000000003], 0.8629217273954115),
    (251, [0.546, 0.22999999999999998, 0.673, 0.21199999999999997, -0.752, 0.5609999999999999, 0.7810000000000001, -0.8069999999999999, 0.8500000000000001, -0.28800000000000003], 0.8629217273954115),
    (252, [0.546, 0.22999999999999998, 0.673, 0.21199999999999997, -0.752, 0.5609999999999999, 0.7810000000000001, -0.8069999999999999, 0.8500000000000001, -0.28800000000000003], 0.8629217273954115),
    (253, [0.546, 0.22999999999999998, 0.673, 0.21199999999999997, -0.752, 0.5609999999999999, 0.7810000000000001, -0.8069999999999999, 0.8500000000000001, -0.28800000000000003], 0.8629217273954115),
    (254, [0.546, 0.22999999999999998, 0.673, 0.21199999999999997, -0.752, 0.5609999999999999, 0.7810000000000001, -0.8069999999999999, 0.8500000000000001, -0.28800000000000003], 0.8629217273954115),
    (255, [0.546, 0.22999999999999998, 0.673, 0.21199999999999997, -0.752, 0.5609999999999999, 0.7810000000000001, -0.8069999999999999, 0.8500000000000001, -0.28800000000000003], 0.8629217273954115),
    (256, [0.546, 0.22999999999999998, 0.673, 0.21199999999999997, -0.752, 0.5609999999999999, 0.7810000000000001, -0.8069999999999999, 0.8500000000000001, -0.28800000000000003], 0.8629217273954115),
    (257, [0.546, 0.22999999999999998, 0.673, 0.21199999999999997, -0.752, 0.5609999999999999, 0.7810000000000001, -0.8069999999999999, 0.8500000000000001, -0.28800000000000003], 0.8629217273954115),
    (258, [0.546, 0.22999999999999998, 0.673, 0.21199999999999997, -0.752, 0.5609999999999999, 0.7810000000000001, -0.8069999999999999, 0.8500000000000001, -0.28800000000000003], 0.8629217273954115),
    (259, [0.546, 0.22999999999999998, 0.673, 0.21199999999999997, -0.752, 0.5609999999999999, 0.7810000000000001, -0.8069999999999999, 0.8500000000000001, -0.28800000000000003], 0.8629217273954115),
    (260, [0.546, 0.22999999999999998, 0.673, 0.21199999999999997, -0.752, 0.5609999999999999, 0.7810000000000001, -0.8069999999999999, 0.8500000000000001, -0.28800000000000003], 0.8629217273954115),
    (261, [0.546, 0.22999999999999998, 0.673, 0.21199999999999997, -0.752, 0.5609999999999999, 0.7810000000000001, -0.8069999999999999, 0.8500000000000001, -0.28800000000000003], 0.8629217273954115),
    (262, [0.546, 0.22999999999999998, 0.673, 0.21199999999999997, -0.752, 0.5609999999999999, 0.7810000000000001, -0.8069999999999999, 0.8500000000000001, -0.28800000000000003], 0.8629217273954115),
    (263, [0.546, 0.22999999999999998, 0.673, 0.21199999999999997, -0.752, 0.5609999999999999, 0.7810000000000001, -0.8069999999999999, 0.8500000000000001, -0.28800000000000003], 0.8629217273954115),
    (264, [0.546, 0.22999999999999998, 0.673, 0.21199999999999997, -0.752, 0.5609999999999999, 0.7810000000000001, -0.8069999999999999, 0.8500000000000001, -0.28800000000000003], 0.8629217273954115),
    (265, [0.546, 0.22999999999999998, 0.673, 0.21199999999999997, -0.752, 0.5609999999999999, 0.7810000000000001, -0.8069999999999999, 0.8500000000000001, -0.28800000000000003], 0.8629217273954115),
    (266, [0.546, 0.22999999999999998, 0.673, 0.21199999999999997, -0.752, 0.5609999999999999, 0.7810000000000001, -0.8069999999999999, 0.8500000000000001, -0.28800000000000003], 0.8629217273954115),
    (267, [0.546, 0.22999999999999998, 0.673, 0.21199999999999997, -0.752, 0.5609999999999999, 0.7810000000000001, -0.8069999999999999, 0.8500000000000001, -0.28800000000000003], 0.8629217273954115),
    (268, [0.546, 0.22999999999999998, 0.673, 0.21199999999999997, -0.752, 0.5609999999999999, 0.7810000000000001, -0.8069999999999999, 0.8500000000000001, -0.28800000000000003], 0.8629217273954115),
    (269, [0.546, 0.22999999999999998, 0.673, 0.21199999999999997, -0.752, 0.5609999999999999, 0.7810000000000001, -0.8069999999999999, 0.8500000000000001, -0.28800000000000003], 0.8629217273954115),
    (270, [0.546, 0.22999999999999998, 0.673, 0.21199999999999997, -0.752, 0.5609999999999999, 0.7810000000000001, -0.8069999999999999, 0.8500000000000001, -0.28800000000000003], 0.8629217273954115),
    (271, [0.546, 0.22999999999999998, 0.673, 0.21199999999999997, -0.752, 0.5609999999999999, 0.7810000000000001, -0.8069999999999999, 0.8500000000000001, -0.28800000000000003], 0.8629217273954115),
    (272, [0.546, 0.22999999999999998, 0.673, 0.21199999999999997, -0.752, 0.5609999999999999, 0.7810000000000001, -0.8069999999999999, 0.8500000000000001, -0.28800000000000003], 0.8629217273954115),
    (273, [0.546, 0.22999999999999998, 0.673, 0.21199999999999997, -0.752, 0.5609999999999999, 0.7810000000000001, -0.8069999999999999, 0.8500000000000001, -0.28800000000000003], 0.8629217273954115),
    (274, [0.546, 0.22999999999999998, 0.673, 0.21199999999999997, -0.752, 0.5609999999999999, 0.7810000000000001, -0.8069999999999999, 0.8500000000000001, -0.28800000000000003], 0.8629217273954115),
    (275, [0.546, 0.22999999999999998, 0.673, 0.21199999999999997, -0.752, 0.5609999999999999, 0.7810000000000001, -0.8069999999999999, 0.8500000000000001, -0.28800000000000003], 0.8629217273954115),
    (276, [0.546, 0.22999999999999998, 0.673, 0.21199999999999997, -0.752, 0.5609999999999999, 0.7810000000000001, -0.8069999999999999, 0.8500000000000001, -0.28800000000000003], 0.8629217273954115),
    (277, [0.546, 0.22999999999999998, 0.673, 0.21199999999999997, -0.752, 0.5609999999999999, 0.7810000000000001, -0.8069999999999999, 0.8500000000000001, -0.28800000000000003], 0.8629217273954115),
    (278, [0.546, 0.22999999999999998, 0.673, 0.21199999999999997, -0.752, 0.5609999999999999, 0.7810000000000001, -0.8069999999999999, 0.8500000000000001, -0.28800000000000003], 0.8629217273954115),
    (279, [0.546, 0.22999999999999998, 0.673, 0.21199999999999997, -0.752, 0.5609999999999999, 0.7810000000000001, -0.8069999999999999, 0.8500000000000001, -0.28800000000000003], 0.8629217273954115),
    (280, [0.546, 0.22999999999999998, 0.673, 0.21199999999999997, -0.752, 0.5609999999999999, 0.7810000000000001, -0.8069999999999999, 0.8500000000000001, -0.28800000000000003], 0.8629217273954115),
    (281, [0.546, 0.22999999999999998, 0.673, 0.21199999999999997, -0.752, 0.5609999999999999, 0.7810000000000001, -0.8069999999999999, 0.8500000000000001, -0.28800000000000003], 0.8629217273954115),
    (282, [0.546, 0.22999999999999998, 0.673, 0.21199999999999997, -0.752, 0.5609999999999999, 0.7810000000000001, -0.8069999999999999, 0.8500000000000001, -0.28800000000000003], 0.8629217273954115),
    (283, [0.546, 0.22999999999999998, 0.673, 0.21199999999999997, -0.752, 0.5609999999999999, 0.7810000000000001, -0.8069999999999999, 0.8500000000000001, -0.28800000000000003], 0.8629217273954115),
    (284, [0.546, 0.22999999999999998, 0.673, 0.21199999999999997, -0.752, 0.5609999999999999, 0.7810000000000001, -0.8069999999999999, 0.8500000000000001, -0.28800000000000003], 0.8629217273954115),
    (285, [0.546, 0.22999999999999998, 0.673, 0.21199999999999997, -0.752, 0.5609999999999999, 0.7810000000000001, -0.8069999999999999, 0.8500000000000001, -0.28800000000000003], 0.8629217273954115),
    (286, [0.546, 0.22999999999999998, 0.673, 0.21199999999999997, -0.752, 0.5609999999999999, 0.7810000000000001, -0.8069999999999999, 0.8500000000000001, -0.28800000000000003], 0.8629217273954115),
    (287, [0.546, 0.22999999999999998, 0.673, 0.21199999999999997, -0.752, 0.5609999999999999, 0.7810000000000001, -0.8069999999999999, 0.8500000000000001, -0.28800000000000003], 0.8629217273954115),
    (288, [0.546, 0.22999999999999998, 0.673, 0.21199999999999997, -0.752, 0.5609999999999999, 0.7810000000000001, -0.8069999999999999, 0.8500000000000001, -0.28800000000000003], 0.8629217273954115),
    (289, [0.546, 0.22999999999999998, 0.673, 0.21199999999999997, -0.752, 0.5609999999999999, 0.7810000000000001, -0.8069999999999999, 0.8500000000000001, -0.28800000000000003], 0.8629217273954115),
    (290, [0.546, 0.22999999999999998, 0.673, 0.21199999999999997, -0.752, 0.5609999999999999, 0.7810000000000001, -0.8069999999999999, 0.8500000000000001, -0.28800000000000003], 0.8629217273954115),
    (291, [0.546, 0.22999999999999998, 0.673, 0.21199999999999997, -0.752, 0.5609999999999999, 0.7810000000000001, -0.8069999999999999, 0.8500000000000001, -0.28800000000000003], 0.8629217273954115),
    (292, [0.546, 0.22999999999999998, 0.673, 0.21199999999999997, -0.752, 0.5609999999999999, 0.7810000000000001, -0.8069999999999999, 0.8500000000000001, -0.28800000000000003], 0.8629217273954115),
    (293, [0.546, 0.22999999999999998, 0.673, 0.21199999999999997, -0.752, 0.5609999999999999, 0.7810000000000001, -0.8069999999999999, 0.8500000000000001, -0.28800000000000003], 0.8629217273954115),
    (294, [0.546, 0.22999999999999998, 0.673, 0.21199999999999997, -0.752, 0.5609999999999999, 0.7810000000000001, -0.8069999999999999, 0.8500000000000001, -0.28800000000000003], 0.8629217273954115),
    (295, [0.546, 0.22999999999999998, 0.673, 0.21199999999999997, -0.752, 0.5609999999999999, 0.7810000000000001, -0.8069999999999999, 0.8500000000000001, -0.28800000000000003], 0.8629217273954115),
    (296, [0.546, 0.22999999999999998, 0.673, 0.21199999999999997, -0.752, 0.5609999999999999, 0.7810000000000001, -0.8069999999999999, 0.8500000000000001, -0.28800000000000003], 0.8629217273954115),
    (297, [0.546, 0.22999999999999998, 0.673, 0.21199999999999997, -0.752, 0.5609999999999999, 0.7810000000000001, -0.8069999999999999, 0.8500000000000001, -0.28800000000000003], 0.8629217273954115),
    (298, [0.546, 0.22999999999999998, 0.673, 0.21199999999999997, -0.752, 0.5609999999999999, 0.7810000000000001, -0.8069999999999999, 0.8500000000000001, -0.28800000000000003], 0.8629217273954115),
    (299, [0.546, 0.22999999999999998, 0.673, 0.21199999999999997, -0.752, 0.5609999999999999, 0.7810000000000001, -0.8069999999999999, 0.8500000000000001, -0.28800000000000003], 0.8629217273954115),
]

