ranges of every chromosome : (-1, 1)
    selection method is: LinearRankingSelection
    crossover method is: UniformCrossover
    pc: The probability of crossover: 0.700000
    pe: Gene exchange probability: 0.500000
    mutation method is: FlipBitBigMutation
    pm: The probability of mutation: 0.200000
    pbm: The probability of big mutation: 0.500000
    alpha: intensive factor: 0.750000
best_fit = [
    (0, [0.6480000000000001, -0.29600000000000004, -0.715, -0.23299999999999998, -0.74, 0.3700000000000001, 0.7270000000000001, 0.6779999999999999, 0.597, 0.21300000000000008], 0.8526585695006748),
    (1, [-0.729, -0.29100000000000004, -0.742, 0.353, -0.876, -0.692, 0.17599999999999993, -0.72, 0.6520000000000001, -0.474], 0.8626585695006748),
    (2, [-0.729, -0.29100000000000004, -0.742, 0.353, -0.876, -0.692, 0.17599999999999993, -0.72, 0.6520000000000001, -0.474], 0.8626585695006748),
    (3, [-0.729, -0.29100000000000004, -0.742, 0.353, -0.876, -0.692, 0.17599999999999993, -0.72, 0.6520000000000001, -0.474], 0.8626585695006748),
    (4, [-0.729, -0.29100000000000004, -0.742, 0.353, -0.876, -0.692, 0.17599999999999993, -0.72, 0.6520000000000001, -0.474], 0.8626585695006748),
    (5, [-0.729, -0.29100000000000004, -0.742, 0.353, -0.876, -0.692, 0.17599999999999993, -0.72, 0.6520000000000001, -0.474], 0.8626585695006748),
    (6, [-0.729, -0.29100000000000004, -0.742, 0.353, -0.876, -0.692, 0.17599999999999993, -0.72, 0.6520000000000001, -0.474], 0.8626585695006748),
    (7, [-0.729, -0.29100000000000004, -0.742, 0.353, -0.876, -0.692, 0.17599999999999993, -0.72, 0.6520000000000001, -0.474], 0.8626585695006748),
    (8, [-0.729, -0.29100000000000004, -0.742, 0.353, -0.876, -0.692, 0.17599999999999993, -0.72, 0.6520000000000001, -0.474], 0.8626585695006748),
    (9, [-0.729, -0.29100000000000004, -0.742, 0.353, -0.876, -0.692, 0.17599999999999993, -0.72, 0.6520000000000001, -0.474], 0.8626585695006748),
    (10, [-0.729, -0.29100000000000004, -0.742, 0.353, -0.876, -0.692, 0.17599999999999993, -0.72, 0.6520000000000001, -0.474], 0.8626585695006748),
    (11, [-0.729, -0.29100000000000004, -0.742, 0.353, -0.876, -0.692, 0.17599999999999993, -0.72, 0.6520000000000001, -0.474], 0.8626585695006748),
    (12, [-0.729, -0.29100000000000004, -0.742, 0.353, -0.876, -0.692, 0.17599999999999993, -0.72, 0.6520000000000001, -0.474], 0.8626585695006748),
    (13, [-0.729, -0.29100000000000004, -0.742, 0.353, -0.876, -0.692, 0.17599999999999993, -0.72, 0.6520000000000001, -0.474], 0.8626585695006748),
    (14, [-0.729, -0.29100000000000004, -0.742, 0.353, -0.876, -0.692, 0.17599999999999993, -0.72, 0.6520000000000001, -0.474], 0.8626585695006748),
    (15, [-0.729, -0.29100000000000004, -0.742, 0.353, -0.876, -0.692, 0.17599999999999993, -0.72, 0.6520000000000001, -0.474], 0.8626585695006748),
    (16, [-0.729, -0.29100000000000004, -0.742, 0.353, -0.876, -0.692, 0.17599999999999993, -0.72, 0.6520000000000001, -0.474], 0.8626585695006748),
    (17, [-0.729, -0.29100000000000004, -0.742, 0.353, -0.876, -0.692, 0.17599999999999993, -0.72, 0.6520000000000001, -0.474], 0.8626585695006748),
    (18, [-0.729, -0.29100000000000004, -0.742, 0.353, -0.876, -0.692, 0.17599999999999993, -0.72, 0.6520000000000001, -0.474], 0.8626585695006748),
    (19, [-0.729, -0.29100000000000004, -0.742, 0.353, -0.876, -0.692, 0.17599999999999993, -0.72, 0.6520000000000001, -0.474], 0.8626585695006748),
    (20, [-0.729, -0.29100000000000004, -0.742, 0.353, -0.876, -0.692, 0.17599999999999993, -0.72, 0.6520000000000001, -0.474], 0.8626585695006748),
    (21, [-0.729, -0.29100000000000004, -0.742, 0.353, -0.876, -0.692, 0.17599999999999993, -0.72, 0.6520000000000001, -0.474], 0.8626585695006748),
    (22, [-0.729, -0.29100000000000004, -0.742, 0.353, -0.876, -0.692, 0.17599999999999993, -0.72, 0.6520000000000001, -0.474], 0.8626585695006748),
    (23, [-0.729, -0.29100000000000004, -0.742, 0.353, -0.876, -0.692, 0.17599999999999993, -0.72, 0.6520000000000001, -0.474], 0.8626585695006748),
    (24, [-0.729, -0.29100000000000004, -0.742, 0.353, -0.876, -0.692, 0.17599999999999993, -0.72, 0.6520000000000001, -0.474], 0.8626585695006748),
    (25, [-0.729, -0.29100000000000004, -0.742, 0.353, -0.876, -0.692, 0.17599999999999993, -0.72, 0.6520000000000001, -0.474], 0.8626585695006748),
    (26, [-0.729, -0.29100000000000004, -0.742, 0.353, -0.876, -0.692, 0.17599999999999993, -0.72, 0.6520000000000001, -0.474], 0.8626585695006748),
    (27, [-0.729, -0.29100000000000004, -0.742, 0.353, -0.876, -0.692, 0.17599999999999993, -0.72, 0.6520000000000001, -0.474], 0.8626585695006748),
    (28, [-0.729, -0.29100000000000004, -0.742, 0.353, -0.876, -0.692, 0.17599999999999993, -0.72, 0.6520000000000001, -0.474], 0.8626585695006748),
    (29, [-0.729, -0.29100000000000004, -0.742, 0.353, -0.876, -0.692, 0.17599999999999993, -0.72, 0.6520000000000001, -0.474], 0.8626585695006748),
    (30, [-0.729, -0.29100000000000004, -0.742, 0.353, -0.876, -0.692, 0.17599999999999993, -0.72, 0.6520000000000001, -0.474], 0.8626585695006748),
    (31, [-0.729, -0.29100000000000004, -0.742, 0.353, -0.876, -0.692, 0.17599999999999993, -0.72, 0.6520000000000001, -0.474], 0.8626585695006748),
    (32, [-0.729, -0.29100000000000004, -0.742, 0.353, -0.876, -0.692, 0.17599999999999993, -0.72, 0.6520000000000001, -0.474], 0.8626585695006748),
    (33, [-0.729, -0.29100000000000004, -0.742, 0.353, -0.876, -0.692, 0.17599999999999993, -0.72, 0.6520000000000001, -0.474], 0.8626585695006748),
    (34, [-0.729, -0.29100000000000004, -0.742, 0.353, -0.876, -0.692, 0.17599999999999993, -0.72, 0.6520000000000001, -0.474], 0.8626585695006748),
    (35, [-0.729, -0.29100000000000004, -0.742, 0.353, -0.876, -0.692, 0.17599999999999993, -0.72, 0.6520000000000001, -0.474], 0.8626585695006748),
    (36, [-0.729, -0.29100000000000004, -0.742, 0.353, -0.876, -0.692, 0.17599999999999993, -0.72, 0.6520000000000001, -0.474], 0.8626585695006748),
    (37, [-0.729, -0.29100000000000004, -0.742, 0.353, -0.876, -0.692, 0.17599999999999993, -0.72, 0.6520000000000001, -0.474], 0.8626585695006748),
    (38, [-0.729, -0.29100000000000004, -0.742, 0.353, -0.876, -0.692, 0.17599999999999993, -0.72, 0.6520000000000001, -0.474], 0.8626585695006748),
    (39, [-0.729, -0.29100000000000004, -0.742, 0.353, -0.876, -0.692, 0.17599999999999993, -0.72, 0.6520000000000001, -0.474], 0.8626585695006748),
    (40, [-0.729, -0.29100000000000004, -0.742, 0.353, -0.876, -0.692, 0.17599999999999993, -0.72, 0.6520000000000001, -0.474], 0.8626585695006748),
    (41, [-0.729, -0.29100000000000004, -0.742, 0.353, -0.876, -0.692, 0.17599999999999993, -0.72, 0.6520000000000001, -0.474], 0.8626585695006748),
    (42, [-0.729, -0.29100000000000004, -0.742, 0.353, -0.876, -0.692, 0.17599999999999993, -0.72, 0.6520000000000001, -0.474], 0.8626585695006748),
    (43, [-0.729, -0.29100000000000004, -0.742, 0.353, -0.876, -0.692, 0.17599999999999993, -0.72, 0.6520000000000001, -0.474], 0.8626585695006748),
    (44, [-0.729, -0.29100000000000004, -0.742, 0.353, -0.876, -0.692, 0.17599999999999993, -0.72, 0.6520000000000001, -0.474], 0.8626585695006748),
    (45, [-0.729, -0.29100000000000004, -0.742, 0.353, -0.876, -0.692, 0.17599999999999993, -0.72, 0.6520000000000001, -0.474], 0.8626585695006748),
    (46, [-0.729, -0.29100000000000004, -0.742, 0.353, -0.876, -0.692, 0.17599999999999993, -0.72, 0.6520000000000001, -0.474], 0.8626585695006748),
    (47, [-0.729, -0.29100000000000004, -0.742, 0.353, -0.876, -0.692, 0.17599999999999993, -0.72, 0.6520000000000001, -0.474], 0.8626585695006748),
    (48, [-0.729, -0.29100000000000004, -0.742, 0.353, -0.876, -0.692, 0.17599999999999993, -0.72, 0.6520000000000001, -0.474], 0.8626585695006748),
    (49, [-0.729, -0.29100000000000004, -0.742, 0.353, -0.876, -0.692, 0.17599999999999993, -0.72, 0.6520000000000001, -0.474], 0.8626585695006748),
    (50, [-0.729, -0.29100000000000004, -0.742, 0.353, -0.876, -0.692, 0.17599999999999993, -0.72, 0.6520000000000001, -0.474], 0.8626585695006748),
    (51, [-0.729, -0.29100000000000004, -0.742, 0.353, -0.876, -0.692, 0.17599999999999993, -0.72, 0.6520000000000001, -0.474], 0.8626585695006748),
    (52, [-0.729, -0.29100000000000004, -0.742, 0.353, -0.876, -0.692, 0.17599999999999993, -0.72, 0.6520000000000001, -0.474], 0.8626585695006748),
    (53, [-0.729, -0.29100000000000004, -0.742, 0.353, -0.876, -0.692, 0.17599999999999993, -0.72, 0.6520000000000001, -0.474], 0.8626585695006748),
    (54, [-0.729, -0.29100000000000004, -0.742, 0.353, -0.876, -0.692, 0.17599999999999993, -0.72, 0.6520000000000001, -0.474], 0.8626585695006748),
    (55, [-0.729, -0.29100000000000004, -0.742, 0.353, -0.876, -0.692, 0.17599999999999993, -0.72, 0.6520000000000001, -0.474], 0.8626585695006748),
    (56, [-0.729, -0.29100000000000004, -0.742, 0.353, -0.876, -0.692, 0.17599999999999993, -0.72, 0.6520000000000001, -0.474], 0.8626585695006748),
    (57, [-0.729, -0.29100000000000004, -0.742, 0.353, -0.876, -0.692, 0.17599999999999993, -0.72, 0.6520000000000001, -0.474], 0.8626585695006748),
    (58, [-0.729, -0.29100000000000004, -0.742, 0.353, -0.876, -0.692, 0.17599999999999993, -0.72, 0.6520000000000001, -0.474], 0.8626585695006748),
    (59, [-0.729, -0.29100000000000004, -0.742, 0.353, -0.876, -0.692, 0.17599999999999993, -0.72, 0.6520000000000001, -0.474], 0.8626585695006748),
    (60, [-0.729, -0.29100000000000004, -0.742, 0.353, -0.876, -0.692, 0.17599999999999993, -0.72, 0.6520000000000001, -0.474], 0.8626585695006748),
    (61, [-0.729, -0.29100000000000004, -0.742, 0.353, -0.876, -0.692, 0.17599999999999993, -0.72, 0.6520000000000001, -0.474], 0.8626585695006748),
    (62, [-0.729, -0.29100000000000004, -0.742, 0.353, -0.876, -0.692, 0.17599999999999993, -0.72, 0.6520000000000001, -0.474], 0.8626585695006748),
    (63, [-0.729, -0.29100000000000004, -0.742, 0.353, -0.876, -0.692, 0.17599999999999993, -0.72, 0.6520000000000001, -0.474], 0.8626585695006748),
    (64, [-0.729, -0.29100000000000004, -0.742, 0.353, -0.876, -0.692, 0.17599999999999993, -0.72, 0.6520000000000001, -0.474], 0.8626585695006748),
    (65, [-0.729, -0.29100000000000004, -0.742, 0.353, -0.876, -0.692, 0.17599999999999993, -0.72, 0.6520000000000001, -0.474], 0.8626585695006748),
    (66, [-0.729, -0.29100000000000004, -0.742, 0.353, -0.876, -0.692, 0.17599999999999993, -0.72, 0.6520000000000001, -0.474], 0.8626585695006748),
    (67, [-0.729, -0.29100000000000004, -0.742, 0.353, -0.876, -0.692, 0.17599999999999993, -0.72, 0.6520000000000001, -0.474], 0.8626585695006748),
    (68, [-0.729, -0.29100000000000004, -0.742, 0.353, -0.876, -0.692, 0.17599999999999993, -0.72, 0.6520000000000001, -0.474], 0.8626585695006748),
    (69, [-0.729, -0.29100000000000004, -0.742, 0.353, -0.876, -0.692, 0.17599999999999993, -0.72, 0.6520000000000001, -0.474], 0.8626585695006748),
    (70, [-0.729, -0.29100000000000004, -0.742, 0.353, -0.876, -0.692, 0.17599999999999993, -0.72, 0.6520000000000001, -0.474], 0.8626585695006748),
    (71, [-0.729, -0.29100000000000004, -0.742, 0.353, -0.876, -0.692, 0.17599999999999993, -0.72, 0.6520000000000001, -0.474], 0.8626585695006748),
    (72, [-0.729, -0.29100000000000004, -0.742, 0.353, -0.876, -0.692, 0.17599999999999993, -0.72, 0.6520000000000001, -0.474], 0.8626585695006748),
    (73, [-0.729, -0.29100000000000004, -0.742, 0.353, -0.876, -0.692, 0.17599999999999993, -0.72, 0.6520000000000001, -0.474], 0.8626585695006748),
    (74, [-0.729, -0.29100000000000004, -0.742, 0.353, -0.876, -0.692, 0.17599999999999993, -0.72, 0.6520000000000001, -0.474], 0.8626585695006748),
    (75, [-0.729, -0.29100000000000004, -0.742, 0.353, -0.876, -0.692, 0.17599999999999993, -0.72, 0.6520000000000001, -0.474], 0.8626585695006748),
    (76, [-0.729, -0.29100000000000004, -0.742, 0.353, -0.876, -0.692, 0.17599999999999993, -0.72, 0.6520000000000001, -0.474], 0.8626585695006748),
    (77, [-0.729, -0.29100000000000004, -0.742, 0.353, -0.876, -0.692, 0.17599999999999993, -0.72, 0.6520000000000001, -0.474], 0.8626585695006748),
    (78, [-0.729, -0.29100000000000004, -0.742, 0.353, -0.876, -0.692, 0.17599999999999993, -0.72, 0.6520000000000001, -0.474], 0.8626585695006748),
    (79, [-0.729, -0.29100000000000004, -0.742, 0.353, -0.876, -0.692, 0.17599999999999993, -0.72, 0.6520000000000001, -0.474], 0.8626585695006748),
    (80, [-0.729, -0.29100000000000004, -0.742, 0.353, -0.876, -0.692, 0.17599999999999993, -0.72, 0.6520000000000001, -0.474], 0.8626585695006748),
    (81, [-0.729, -0.29100000000000004, -0.742, 0.353, -0.876, -0.692, 0.17599999999999993, -0.72, 0.6520000000000001, -0.474], 0.8626585695006748),
    (82, [-0.729, -0.29100000000000004, -0.742, 0.353, -0.876, -0.692, 0.17599999999999993, -0.72, 0.6520000000000001, -0.474], 0.8626585695006748),
    (83, [-0.729, -0.29100000000000004, -0.742, 0.353, -0.876, -0.692, 0.17599999999999993, -0.72, 0.6520000000000001, -0.474], 0.8626585695006748),
    (84, [-0.729, -0.29100000000000004, -0.742, 0.353, -0.876, -0.692, 0.17599999999999993, -0.72, 0.6520000000000001, -0.474], 0.8626585695006748),
    (85, [-0.729, -0.29100000000000004, -0.742, 0.353, -0.876, -0.692, 0.17599999999999993, -0.72, 0.6520000000000001, -0.474], 0.8626585695006748),
    (86, [-0.729, -0.29100000000000004, -0.742, 0.353, -0.876, -0.692, 0.17599999999999993, -0.72, 0.6520000000000001, -0.474], 0.8626585695006748),
    (87, [-0.729, -0.29100000000000004, -0.742, 0.353, -0.876, -0.692, 0.17599999999999993, -0.72, 0.6520000000000001, -0.474], 0.8626585695006748),
    (88, [-0.729, -0.29100000000000004, -0.742, 0.353, -0.876, -0.692, 0.17599999999999993, -0.72, 0.6520000000000001, -0.474], 0.8626585695006748),
    (89, [-0.729, -0.29100000000000004, -0.742, 0.353, -0.876, -0.692, 0.17599999999999993, -0.72, 0.6520000000000001, -0.474], 0.8626585695006748),
    (90, [-0.729, -0.29100000000000004, -0.742, 0.353, -0.876, -0.692, 0.17599999999999993, -0.72, 0.6520000000000001, -0.474], 0.8626585695006748),
    (91, [-0.729, -0.29100000000000004, -0.742, 0.353, -0.876, -0.692, 0.17599999999999993, -0.72, 0.6520000000000001, -0.474], 0.8626585695006748),
    (92, [-0.729, -0.29100000000000004, -0.742, 0.353, -0.876, -0.692, 0.17599999999999993, -0.72, 0.6520000000000001, -0.474], 0.8626585695006748),
    (93, [-0.729, -0.29100000000000004, -0.742, 0.353, -0.876, -0.692, 0.17599999999999993, -0.72, 0.6520000000000001, -0.474], 0.8626585695006748),
    (94, [-0.729, -0.29100000000000004, -0.742, 0.353, -0.876, -0.692, 0.17599999999999993, -0.72, 0.6520000000000001, -0.474], 0.8626585695006748),
    (95, [-0.729, -0.29100000000000004, -0.742, 0.353, -0.876, -0.692, 0.17599999999999993, -0.72, 0.6520000000000001, -0.474], 0.8626585695006748),
    (96, [-0.729, -0.29100000000000004, -0.742, 0.353, -0.876, -0.692, 0.17599999999999993, -0.72, 0.6520000000000001, -0.474], 0.8626585695006748),
    (97, [-0.729, -0.29100000000000004, -0.742, 0.353, -0.876, -0.692, 0.17599999999999993, -0.72, 0.6520000000000001, -0.474], 0.8626585695006748),
    (98, [-0.729, -0.29100000000000004, -0.742, 0.353, -0.876, -0.692, 0.17599999999999993, -0.72, 0.6520000000000001, -0.474], 0.8626585695006748),
    (99, [-0.729, -0.29100000000000004, -0.742, 0.353, -0.876, -0.692, 0.17599999999999993, -0.72, 0.6520000000000001, -0.474], 0.8626585695006748),
    (100, [-0.729, -0.29100000000000004, -0.742, 0.353, -0.876, -0.692, 0.17599999999999993, -0.72, 0.6520000000000001, -0.474], 0.8626585695006748),
    (101, [-0.729, -0.29100000000000004, -0.742, 0.353, -0.876, -0.692, 0.17599999999999993, -0.72, 0.6520000000000001, -0.474], 0.8626585695006748),
    (102, [-0.729, -0.29100000000000004, -0.742, 0.353, -0.876, -0.692, 0.17599999999999993, -0.72, 0.6520000000000001, -0.474], 0.8626585695006748),
    (103, [-0.729, -0.29100000000000004, -0.742, 0.353, -0.876, -0.692, 0.17599999999999993, -0.72, 0.6520000000000001, -0.474], 0.8626585695006748),
    (104, [-0.729, -0.29100000000000004, -0.742, 0.353, -0.876, -0.692, 0.17599999999999993, -0.72, 0.6520000000000001, -0.474], 0.8626585695006748),
    (105, [-0.729, -0.29100000000000004, -0.742, 0.353, -0.876, -0.692, 0.17599999999999993, -0.72, 0.6520000000000001, -0.474], 0.8626585695006748),
    (106, [-0.729, -0.29100000000000004, -0.742, 0.353, -0.876, -0.692, 0.17599999999999993, -0.72, 0.6520000000000001, -0.474], 0.8626585695006748),
    (107, [-0.729, -0.29100000000000004, -0.742, 0.353, -0.876, -0.692, 0.17599999999999993, -0.72, 0.6520000000000001, -0.474], 0.8626585695006748),
    (108, [-0.729, -0.29100000000000004, -0.742, 0.353, -0.876, -0.692, 0.17599999999999993, -0.72, 0.6520000000000001, -0.474], 0.8626585695006748),
    (109, [-0.729, -0.29100000000000004, -0.742, 0.353, -0.876, -0.692, 0.17599999999999993, -0.72, 0.6520000000000001, -0.474], 0.8626585695006748),
    (110, [-0.729, -0.29100000000000004, -0.742, 0.353, -0.876, -0.692, 0.17599999999999993, -0.72, 0.6520000000000001, -0.474], 0.8626585695006748),
    (111, [-0.729, -0.29100000000000004, -0.742, 0.353, -0.876, -0.692, 0.17599999999999993, -0.72, 0.6520000000000001, -0.474], 0.8626585695006748),
    (112, [-0.729, -0.29100000000000004, -0.742, 0.353, -0.876, -0.692, 0.17599999999999993, -0.72, 0.6520000000000001, -0.474], 0.8626585695006748),
    (113, [-0.729, -0.29100000000000004, -0.742, 0.353, -0.876, -0.692, 0.17599999999999993, -0.72, 0.6520000000000001, -0.474], 0.8626585695006748),
    (114, [-0.729, -0.29100000000000004, -0.742, 0.353, -0.876, -0.692, 0.17599999999999993, -0.72, 0.6520000000000001, -0.474], 0.8626585695006748),
    (115, [-0.729, -0.29100000000000004, -0.742, 0.353, -0.876, -0.692, 0.17599999999999993, -0.72, 0.6520000000000001, -0.474], 0.8626585695006748),
    (116, [-0.729, -0.29100000000000004, -0.742, 0.353, -0.876, -0.692, 0.17599999999999993, -0.72, 0.6520000000000001, -0.474], 0.8626585695006748),
    (117, [-0.729, -0.29100000000000004, -0.742, 0.353, -0.876, -0.692, 0.17599999999999993, -0.72, 0.6520000000000001, -0.474], 0.8626585695006748),
    (118, [-0.729, -0.29100000000000004, -0.742, 0.353, -0.876, -0.692, 0.17599999999999993, -0.72, 0.6520000000000001, -0.474], 0.8626585695006748),
    (119, [-0.729, -0.29100000000000004, -0.742, 0.353, -0.876, -0.692, 0.17599999999999993, -0.72, 0.6520000000000001, -0.474], 0.8626585695006748),
    (120, [-0.729, -0.29100000000000004, -0.742, 0.353, -0.876, -0.692, 0.17599999999999993, -0.72, 0.6520000000000001, -0.474], 0.8626585695006748),
    (121, [-0.729, -0.29100000000000004, -0.742, 0.353, -0.876, -0.692, 0.17599999999999993, -0.72, 0.6520000000000001, -0.474], 0.8626585695006748),
    (122, [-0.729, -0.29100000000000004, -0.742, 0.353, -0.876, -0.692, 0.17599999999999993, -0.72, 0.6520000000000001, -0.474], 0.8626585695006748),
    (123, [-0.729, -0.29100000000000004, -0.742, 0.353, -0.876, -0.692, 0.17599999999999993, -0.72, 0.6520000000000001, -0.474], 0.8626585695006748),
    (124, [-0.729, -0.29100000000000004, -0.742, 0.353, -0.876, -0.692, 0.17599999999999993, -0.72, 0.6520000000000001, -0.474], 0.8626585695006748),
    (125, [-0.729, -0.29100000000000004, -0.742, 0.353, -0.876, -0.692, 0.17599999999999993, -0.72, 0.6520000000000001, -0.474], 0.8626585695006748),
    (126, [-0.729, -0.29100000000000004, -0.742, 0.353, -0.876, -0.692, 0.17599999999999993, -0.72, 0.6520000000000001, -0.474], 0.8626585695006748),
    (127, [-0.729, -0.29100000000000004, -0.742, 0.353, -0.876, -0.692, 0.17599999999999993, -0.72, 0.6520000000000001, -0.474], 0.8626585695006748),
    (128, [-0.729, -0.29100000000000004, -0.742, 0.353, -0.876, -0.692, 0.17599999999999993, -0.72, 0.6520000000000001, -0.474], 0.8626585695006748),
    (129, [-0.729, -0.29100000000000004, -0.742, 0.353, -0.876, -0.692, 0.17599999999999993, -0.72, 0.6520000000000001, -0.474], 0.8626585695006748),
    (130, [-0.729, -0.29100000000000004, -0.742, 0.353, -0.876, -0.692, 0.17599999999999993, -0.72, 0.6520000000000001, -0.474], 0.8626585695006748),
    (131, [-0.729, -0.29100000000000004, -0.742, 0.353, -0.876, -0.692, 0.17599999999999993, -0.72, 0.6520000000000001, -0.474], 0.8626585695006748),
    (132, [-0.729, -0.29100000000000004, -0.742, 0.353, -0.876, -0.692, 0.17599999999999993, -0.72, 0.6520000000000001, -0.474], 0.8626585695006748),
    (133, [-0.729, -0.29100000000000004, -0.742, 0.353, -0.876, -0.692, 0.17599999999999993, -0.72, 0.6520000000000001, -0.474], 0.8626585695006748),
    (134, [-0.729, -0.29100000000000004, -0.742, 0.353, -0.876, -0.692, 0.17599999999999993, -0.72, 0.6520000000000001, -0.474], 0.8626585695006748),
    (135, [-0.729, -0.29100000000000004, -0.742, 0.353, -0.876, -0.692, 0.17599999999999993, -0.72, 0.6520000000000001, -0.474], 0.8626585695006748),
    (136, [-0.729, -0.29100000000000004, -0.742, 0.353, -0.876, -0.692, 0.17599999999999993, -0.72, 0.6520000000000001, -0.474], 0.8626585695006748),
    (137, [-0.729, -0.29100000000000004, -0.742, 0.353, -0.876, -0.692, 0.17599999999999993, -0.72, 0.6520000000000001, -0.474], 0.8626585695006748),
    (138, [-0.729, -0.29100000000000004, -0.742, 0.353, -0.876, -0.692, 0.17599999999999993, -0.72, 0.6520000000000001, -0.474], 0.8626585695006748),
    (139, [-0.729, -0.29100000000000004, -0.742, 0.353, -0.876, -0.692, 0.17599999999999993, -0.72, 0.6520000000000001, -0.474], 0.8626585695006748),
    (140, [-0.729, -0.29100000000000004, -0.742, 0.353, -0.876, -0.692, 0.17599999999999993, -0.72, 0.6520000000000001, -0.474], 0.8626585695006748),
    (141, [-0.729, -0.29100000000000004, -0.742, 0.353, -0.876, -0.692, 0.17599999999999993, -0.72, 0.6520000000000001, -0.474], 0.8626585695006748),
    (142, [-0.729, -0.29100000000000004, -0.742, 0.353, -0.876, -0.692, 0.17599999999999993, -0.72, 0.6520000000000001, -0.474], 0.8626585695006748),
    (143, [-0.729, -0.29100000000000004, -0.742, 0.353, -0.876, -0.692, 0.17599999999999993, -0.72, 0.6520000000000001, -0.474], 0.8626585695006748),
    (144, [-0.729, -0.29100000000000004, -0.742, 0.353, -0.876, -0.692, 0.17599999999999993, -0.72, 0.6520000000000001, -0.474], 0.8626585695006748),
    (145, [-0.729, -0.29100000000000004, -0.742, 0.353, -0.876, -0.692, 0.17599999999999993, -0.72, 0.6520000000000001, -0.474], 0.8626585695006748),
    (146, [-0.729, -0.29100000000000004, -0.742, 0.353, -0.876, -0.692, 0.17599999999999993, -0.72, 0.6520000000000001, -0.474], 0.8626585695006748),
    (147, [-0.729, -0.29100000000000004, -0.742, 0.353, -0.876, -0.692, 0.17599999999999993, -0.72, 0.6520000000000001, -0.474], 0.8626585695006748),
    (148, [-0.729, -0.29100000000000004, -0.742, 0.353, -0.876, -0.692, 0.17599999999999993, -0.72, 0.6520000000000001, -0.474], 0.8626585695006748),
    (149, [-0.729, -0.29100000000000004, -0.742, 0.353, -0.876, -0.692, 0.17599999999999993, -0.72, 0.6520000000000001, -0.474], 0.8626585695006748),
    (150, [-0.729, -0.29100000000000004, -0.742, 0.353, -0.876, -0.692, 0.17599999999999993, -0.72, 0.6520000000000001, -0.474], 0.8626585695006748),
    (151, [-0.729, -0.29100000000000004, -0.742, 0.353, -0.876, -0.692, 0.17599999999999993, -0.72, 0.6520000000000001, -0.474], 0.8626585695006748),
    (152, [-0.729, -0.29100000000000004, -0.742, 0.353, -0.876, -0.692, 0.17599999999999993, -0.72, 0.6520000000000001, -0.474], 0.8626585695006748),
    (153, [-0.729, -0.29100000000000004, -0.742, 0.353, -0.876, -0.692, 0.17599999999999993, -0.72, 0.6520000000000001, -0.474], 0.8626585695006748),
    (154, [-0.729, -0.29100000000000004, -0.742, 0.353, -0.876, -0.692, 0.17599999999999993, -0.72, 0.6520000000000001, -0.474], 0.8626585695006748),
    (155, [-0.729, -0.29100000000000004, -0.742, 0.353, -0.876, -0.692, 0.17599999999999993, -0.72, 0.6520000000000001, -0.474], 0.8626585695006748),
    (156, [-0.729, -0.29100000000000004, -0.742, 0.353, -0.876, -0.692, 0.17599999999999993, -0.72, 0.6520000000000001, -0.474], 0.8626585695006748),
    (157, [-0.729, -0.29100000000000004, -0.742, 0.353, -0.876, -0.692, 0.17599999999999993, -0.72, 0.6520000000000001, -0.474], 0.8626585695006748),
    (158, [-0.729, -0.29100000000000004, -0.742, 0.353, -0.876, -0.692, 0.17599999999999993, -0.72, 0.6520000000000001, -0.474], 0.8626585695006748),
    (159, [-0.729, -0.29100000000000004, -0.742, 0.353, -0.876, -0.692, 0.17599999999999993, -0.72, 0.6520000000000001, -0.474], 0.8626585695006748),
    (160, [-0.729, -0.29100000000000004, -0.742, 0.353, -0.876, -0.692, 0.17599999999999993, -0.72, 0.6520000000000001, -0.474], 0.8626585695006748),
    (161, [-0.729, -0.29100000000000004, -0.742, 0.353, -0.876, -0.692, 0.17599999999999993, -0.72, 0.6520000000000001, -0.474], 0.8626585695006748),
    (162, [-0.729, -0.29100000000000004, -0.742, 0.353, -0.876, -0.692, 0.17599999999999993, -0.72, 0.6520000000000001, -0.474], 0.8626585695006748),
    (163, [-0.729, -0.29100000000000004, -0.742, 0.353, -0.876, -0.692, 0.17599999999999993, -0.72, 0.6520000000000001, -0.474], 0.8626585695006748),
    (164, [-0.729, -0.29100000000000004, -0.742, 0.353, -0.876, -0.692, 0.17599999999999993, -0.72, 0.6520000000000001, -0.474], 0.8626585695006748),
    (165, [-0.729, -0.29100000000000004, -0.742, 0.353, -0.876, -0.692, 0.17599999999999993, -0.72, 0.6520000000000001, -0.474], 0.8626585695006748),
    (166, [-0.729, -0.29100000000000004, -0.742, 0.353, -0.876, -0.692, 0.17599999999999993, -0.72, 0.6520000000000001, -0.474], 0.8626585695006748),
    (167, [-0.729, -0.29100000000000004, -0.742, 0.353, -0.876, -0.692, 0.17599999999999993, -0.72, 0.6520000000000001, -0.474], 0.8626585695006748),
    (168, [-0.729, -0.29100000000000004, -0.742, 0.353, -0.876, -0.692, 0.17599999999999993, -0.72, 0.6520000000000001, -0.474], 0.8626585695006748),
    (169, [-0.729, -0.29100000000000004, -0.742, 0.353, -0.876, -0.692, 0.17599999999999993, -0.72, 0.6520000000000001, -0.474], 0.8626585695006748),
    (170, [-0.729, -0.29100000000000004, -0.742, 0.353, -0.876, -0.692, 0.17599999999999993, -0.72, 0.6520000000000001, -0.474], 0.8626585695006748),
    (171, [-0.729, -0.29100000000000004, -0.742, 0.353, -0.876, -0.692, 0.17599999999999993, -0.72, 0.6520000000000001, -0.474], 0.8626585695006748),
    (172, [-0.729, -0.29100000000000004, -0.742, 0.353, -0.876, -0.692, 0.17599999999999993, -0.72, 0.6520000000000001, -0.474], 0.8626585695006748),
    (173, [-0.729, -0.29100000000000004, -0.742, 0.353, -0.876, -0.692, 0.17599999999999993, -0.72, 0.6520000000000001, -0.474], 0.8626585695006748),
    (174, [-0.729, -0.29100000000000004, -0.742, 0.353, -0.876, -0.692, 0.17599999999999993, -0.72, 0.6520000000000001, -0.474], 0.8626585695006748),
    (175, [-0.729, -0.29100000000000004, -0.742, 0.353, -0.876, -0.692, 0.17599999999999993, -0.72, 0.6520000000000001, -0.474], 0.8626585695006748),
    (176, [-0.729, -0.29100000000000004, -0.742, 0.353, -0.876, -0.692, 0.17599999999999993, -0.72, 0.6520000000000001, -0.474], 0.8626585695006748),
    (177, [-0.729, -0.29100000000000004, -0.742, 0.353, -0.876, -0.692, 0.17599999999999993, -0.72, 0.6520000000000001, -0.474], 0.8626585695006748),
    (178, [-0.729, -0.29100000000000004, -0.742, 0.353, -0.876, -0.692, 0.17599999999999993, -0.72, 0.6520000000000001, -0.474], 0.8626585695006748),
    (179, [-0.729, -0.29100000000000004, -0.742, 0.353, -0.876, -0.692, 0.17599999999999993, -0.72, 0.6520000000000001, -0.474], 0.8626585695006748),
    (180, [-0.729, -0.29100000000000004, -0.742, 0.353, -0.876, -0.692, 0.17599999999999993, -0.72, 0.6520000000000001, -0.474], 0.8626585695006748),
    (181, [-0.729, -0.29100000000000004, -0.742, 0.353, -0.876, -0.692, 0.17599999999999993, -0.72, 0.6520000000000001, -0.474], 0.8626585695006748),
    (182, [-0.729, -0.29100000000000004, -0.742, 0.353, -0.876, -0.692, 0.17599999999999993, -0.72, 0.6520000000000001, -0.474], 0.8626585695006748),
    (183, [-0.729, -0.29100000000000004, -0.742, 0.353, -0.876, -0.692, 0.17599999999999993, -0.72, 0.6520000000000001, -0.474], 0.8626585695006748),
    (184, [-0.729, -0.29100000000000004, -0.742, 0.353, -0.876, -0.692, 0.17599999999999993, -0.72, 0.6520000000000001, -0.474], 0.8626585695006748),
    (185, [-0.729, -0.29100000000000004, -0.742, 0.353, -0.876, -0.692, 0.17599999999999993, -0.72, 0.6520000000000001, -0.474], 0.8626585695006748),
    (186, [-0.729, -0.29100000000000004, -0.742, 0.353, -0.876, -0.692, 0.17599999999999993, -0.72, 0.6520000000000001, -0.474], 0.8626585695006748),
    (187, [-0.729, -0.29100000000000004, -0.742, 0.353, -0.876, -0.692, 0.17599999999999993, -0.72, 0.6520000000000001, -0.474], 0.8626585695006748),
    (188, [-0.729, -0.29100000000000004, -0.742, 0.353, -0.876, -0.692, 0.17599999999999993, -0.72, 0.6520000000000001, -0.474], 0.8626585695006748),
    (189, [-0.729, -0.29100000000000004, -0.742, 0.353, -0.876, -0.692, 0.17599999999999993, -0.72, 0.6520000000000001, -0.474], 0.8626585695006748),
    (190, [-0.729, -0.29100000000000004, -0.742, 0.353, -0.876, -0.692, 0.17599999999999993, -0.72, 0.6520000000000001, -0.474], 0.8626585695006748),
    (191, [-0.729, -0.29100000000000004, -0.742, 0.353, -0.876, -0.692, 0.17599999999999993, -0.72, 0.6520000000000001, -0.474], 0.8626585695006748),
    (192, [-0.729, -0.29100000000000004, -0.742, 0.353, -0.876, -0.692, 0.17599999999999993, -0.72, 0.6520000000000001, -0.474], 0.8626585695006748),
    (193, [-0.729, -0.29100000000000004, -0.742, 0.353, -0.876, -0.692, 0.17599999999999993, -0.72, 0.6520000000000001, -0.474], 0.8626585695006748),
    (194, [-0.729, -0.29100000000000004, -0.742, 0.353, -0.876, -0.692, 0.17599999999999993, -0.72, 0.6520000000000001, -0.474], 0.8626585695006748),
    (195, [-0.729, -0.29100000000000004, -0.742, 0.353, -0.876, -0.692, 0.17599999999999993, -0.72, 0.6520000000000001, -0.474], 0.8626585695006748),
    (196, [-0.729, -0.29100000000000004, -0.742, 0.353, -0.876, -0.692, 0.17599999999999993, -0.72, 0.6520000000000001, -0.474], 0.8626585695006748),
    (197, [-0.729, -0.29100000000000004, -0.742, 0.353, -0.876, -0.692, 0.17599999999999993, -0.72, 0.6520000000000001, -0.474], 0.8626585695006748),
    (198, [-0.729, -0.29100000000000004, -0.742, 0.353, -0.876, -0.692, 0.17599999999999993, -0.72, 0.6520000000000001, -0.474], 0.8626585695006748),
    (199, [-0.729, -0.29100000000000004, -0.742, 0.353, -0.876, -0.692, 0.17599999999999993, -0.72, 0.6520000000000001, -0.474], 0.8626585695006748),
    (200, [-0.729, -0.29100000000000004, -0.742, 0.353, -0.876, -0.692, 0.17599999999999993, -0.72, 0.6520000000000001, -0.474], 0.8626585695006748),
    (201, [-0.729, -0.29100000000000004, -0.742, 0.353, -0.876, -0.692, 0.17599999999999993, -0.72, 0.6520000000000001, -0.474], 0.8626585695006748),
    (202, [-0.729, -0.29100000000000004, -0.742, 0.353, -0.876, -0.692, 0.17599999999999993, -0.72, 0.6520000000000001, -0.474], 0.8626585695006748),
    (203, [-0.729, -0.29100000000000004, -0.742, 0.353, -0.876, -0.692, 0.17599999999999993, -0.72, 0.6520000000000001, -0.474], 0.8626585695006748),
    (204, [-0.729, -0.29100000000000004, -0.742, 0.353, -0.876, -0.692, 0.17599999999999993, -0.72, 0.6520000000000001, -0.474], 0.8626585695006748),
    (205, [-0.729, -0.29100000000000004, -0.742, 0.353, -0.876, -0.692, 0.17599999999999993, -0.72, 0.6520000000000001, -0.474], 0.8626585695006748),
    (206, [-0.729, -0.29100000000000004, -0.742, 0.353, -0.876, -0.692, 0.17599999999999993, -0.72, 0.6520000000000001, -0.474], 0.8626585695006748),
    (207, [-0.729, -0.29100000000000004, -0.742, 0.353, -0.876, -0.692, 0.17599999999999993, -0.72, 0.6520000000000001, -0.474], 0.8626585695006748),
    (208, [-0.729, -0.29100000000000004, -0.742, 0.353, -0.876, -0.692, 0.17599999999999993, -0.72, 0.6520000000000001, -0.474], 0.8626585695006748),
    (209, [-0.729, -0.29100000000000004, -0.742, 0.353, -0.876, -0.692, 0.17599999999999993, -0.72, 0.6520000000000001, -0.474], 0.8626585695006748),
    (210, [-0.729, -0.29100000000000004, -0.742, 0.353, -0.876, -0.692, 0.17599999999999993, -0.72, 0.6520000000000001, -0.474], 0.8626585695006748),
    (211, [-0.729, -0.29100000000000004, -0.742, 0.353, -0.876, -0.692, 0.17599999999999993, -0.72, 0.6520000000000001, -0.474], 0.8626585695006748),
    (212, [-0.729, -0.29100000000000004, -0.742, 0.353, -0.876, -0.692, 0.17599999999999993, -0.72, 0.6520000000000001, -0.474], 0.8626585695006748),
    (213, [-0.729, -0.29100000000000004, -0.742, 0.353, -0.876, -0.692, 0.17599999999999993, -0.72, 0.6520000000000001, -0.474], 0.8626585695006748),
    (214, [-0.729, -0.29100000000000004, -0.742, 0.353, -0.876, -0.692, 0.17599999999999993, -0.72, 0.6520000000000001, -0.474], 0.8626585695006748),
    (215, [-0.729, -0.29100000000000004, -0.742, 0.353, -0.876, -0.692, 0.17599999999999993, -0.72, 0.6520000000000001, -0.474], 0.8626585695006748),
    (216, [-0.729, -0.29100000000000004, -0.742, 0.353, -0.876, -0.692, 0.17599999999999993, -0.72, 0.6520000000000001, -0.474], 0.8626585695006748),
    (217, [-0.729, -0.29100000000000004, -0.742, 0.353, -0.876, -0.692, 0.17599999999999993, -0.72, 0.6520000000000001, -0.474], 0.8626585695006748),
    (218, [-0.729, -0.29100000000000004, -0.742, 0.353, -0.876, -0.692, 0.17599999999999993, -0.72, 0.6520000000000001, -0.474], 0.8626585695006748),
    (219, [-0.729, -0.29100000000000004, -0.742, 0.353, -0.876, -0.692, 0.17599999999999993, -0.72, 0.6520000000000001, -0.474], 0.8626585695006748),
    (220, [-0.729, -0.29100000000000004, -0.742, 0.353, -0.876, -0.692, 0.17599999999999993, -0.72, 0.6520000000000001, -0.474], 0.8626585695006748),
    (221, [-0.729, -0.29100000000000004, -0.742, 0.353, -0.876, -0.692, 0.17599999999999993, -0.72, 0.6520000000000001, -0.474], 0.8626585695006748),
    (222, [-0.729, -0.29100000000000004, -0.742, 0.353, -0.876, -0.692, 0.17599999999999993, -0.72, 0.6520000000000001, -0.474], 0.8626585695006748),
    (223, [-0.729, -0.29100000000000004, -0.742, 0.353, -0.876, -0.692, 0.17599999999999993, -0.72, 0.6520000000000001, -0.474], 0.8626585695006748),
    (224, [-0.729, -0.29100000000000004, -0.742, 0.353, -0.876, -0.692, 0.17599999999999993, -0.72, 0.6520000000000001, -0.474], 0.8626585695006748),
    (225, [-0.729, -0.29100000000000004, -0.742, 0.353, -0.876, -0.692, 0.17599999999999993, -0.72, 0.6520000000000001, -0.474], 0.8626585695006748),
    (226, [-0.729, -0.29100000000000004, -0.742, 0.353, -0.876, -0.692, 0.17599999999999993, -0.72, 0.6520000000000001, -0.474], 0.8626585695006748),
    (227, [-0.729, -0.29100000000000004, -0.742, 0.353, -0.876, -0.692, 0.17599999999999993, -0.72, 0.6520000000000001, -0.474], 0.8626585695006748),
    (228, [-0.729, -0.29100000000000004, -0.742, 0.353, -0.876, -0.692, 0.17599999999999993, -0.72, 0.6520000000000001, -0.474], 0.8626585695006748),
    (229, [-0.729, -0.29100000000000004, -0.742, 0.353, -0.876, -0.692, 0.17599999999999993, -0.72, 0.6520000000000001, -0.474], 0.8626585695006748),
    (230, [-0.729, -0.29100000000000004, -0.742, 0.353, -0.876, -0.692, 0.17599999999999993, -0.72, 0.6520000000000001, -0.474], 0.8626585695006748),
    (231, [0.40200000000000014, -0.878, -0.384, 0.07400000000000007, -0.938, 0.01100000000000012, 0.5760000000000001, 0.9279999999999999, -0.29600000000000004, 0.27300000000000013], 0.8677867746288799),
    (232, [0.40200000000000014, -0.878, -0.384, 0.07400000000000007, -0.938, 0.01100000000000012, 0.5760000000000001, 0.9279999999999999, -0.29600000000000004, 0.27300000000000013], 0.8677867746288799),
    (233, [0.40200000000000014, -0.878, -0.384, 0.07400000000000007, -0.938, 0.01100000000000012, 0.5760000000000001, 0.9279999999999999, -0.29600000000000004, 0.27300000000000013], 0.8677867746288799),
    (234, [0.40200000000000014, -0.878, -0.384, 0.07400000000000007, -0.938, 0.01100000000000012, 0.5760000000000001, 0.9279999999999999, -0.29600000000000004, 0.27300000000000013], 0.8677867746288799),
    (235, [0.40200000000000014, -0.878, -0.384, 0.07400000000000007, -0.938, 0.01100000000000012, 0.5760000000000001, 0.9279999999999999, -0.29600000000000004, 0.27300000000000013], 0.8677867746288799),
    (236, [0.40200000000000014, -0.878, -0.384, 0.07400000000000007, -0.938, 0.01100000000000012, 0.5760000000000001, 0.9279999999999999, -0.29600000000000004, 0.27300000000000013], 0.8677867746288799),
    (237, [0.40200000000000014, -0.878, -0.384, 0.07400000000000007, -0.938, 0.01100000000000012, 0.5760000000000001, 0.9279999999999999, -0.29600000000000004, 0.27300000000000013], 0.8677867746288799),
    (238, [0.40200000000000014, -0.878, -0.384, 0.07400000000000007, -0.938, 0.01100000000000012, 0.5760000000000001, 0.9279999999999999, -0.29600000000000004, 0.27300000000000013], 0.8677867746288799),
    (239, [0.40200000000000014, -0.878, -0.384, 0.07400000000000007, -0.938, 0.01100000000000012, 0.5760000000000001, 0.9279999999999999, -0.29600000000000004, 0.27300000000000013], 0.8677867746288799),
    (240, [0.40200000000000014, -0.878, -0.384, 0.07400000000000007, -0.938, 0.01100000000000012, 0.5760000000000001, 0.9279999999999999, -0.29600000000000004, 0.27300000000000013], 0.8677867746288799),
    (241, [0.40200000000000014, -0.878, -0.384, 0.07400000000000007, -0.938, 0.01100000000000012, 0.5760000000000001, 0.9279999999999999, -0.29600000000000004, 0.27300000000000013], 0.8677867746288799),
    (242, [0.40200000000000014, -0.878, -0.384, 0.07400000000000007, -0.938, 0.01100000000000012, 0.5760000000000001, 0.9279999999999999, -0.29600000000000004, 0.27300000000000013], 0.8677867746288799),
    (243, [0.40200000000000014, -0.878, -0.384, 0.07400000000000007, -0.938, 0.01100000000000012, 0.5760000000000001, 0.9279999999999999, -0.29600000000000004, 0.27300000000000013], 0.8677867746288799),
    (244, [0.40200000000000014, -0.878, -0.384, 0.07400000000000007, -0.938, 0.01100000000000012, 0.5760000000000001, 0.9279999999999999, -0.29600000000000004, 0.27300000000000013], 0.8677867746288799),
    (245, [0.40200000000000014, -0.878, -0.384, 0.07400000000000007, -0.938, 0.01100000000000012, 0.5760000000000001, 0.9279999999999999, -0.29600000000000004, 0.27300000000000013], 0.8677867746288799),
    (246, [0.40200000000000014, -0.878, -0.384, 0.07400000000000007, -0.938, 0.01100000000000012, 0.5760000000000001, 0.9279999999999999, -0.29600000000000004, 0.27300000000000013], 0.8677867746288799),
    (247, [0.40200000000000014, -0.878, -0.384, 0.07400000000000007, -0.938, 0.01100000000000012, 0.5760000000000001, 0.9279999999999999, -0.29600000000000004, 0.27300000000000013], 0.8677867746288799),
    (248, [0.40200000000000014, -0.878, -0.384, 0.07400000000000007, -0.938, 0.01100000000000012, 0.5760000000000001, 0.9279999999999999, -0.29600000000000004, 0.27300000000000013], 0.8677867746288799),
    (249, [0.40200000000000014, -0.878, -0.384, 0.07400000000000007, -0.938, 0.01100000000000012, 0.5760000000000001, 0.9279999999999999, -0.29600000000000004, 0.27300000000000013], 0.8677867746288799),
    (250, [0.40200000000000014, -0.878, -0.384, 0.07400000000000007, -0.938, 0.01100000000000012, 0.5760000000000001, 0.9279999999999999, -0.29600000000000004, 0.27300000000000013], 0.8677867746288799),
    (251, [0.40200000000000014, -0.878, -0.384, 0.07400000000000007, -0.938, 0.01100000000000012, 0.5760000000000001, 0.9279999999999999, -0.29600000000000004, 0.27300000000000013], 0.8677867746288799),
    (252, [0.40200000000000014, -0.878, -0.384, 0.07400000000000007, -0.938, 0.01100000000000012, 0.5760000000000001, 0.9279999999999999, -0.29600000000000004, 0.27300000000000013], 0.8677867746288799),
    (253, [0.40200000000000014, -0.878, -0.384, 0.07400000000000007, -0.938, 0.01100000000000012, 0.5760000000000001, 0.9279999999999999, -0.29600000000000004, 0.27300000000000013], 0.8677867746288799),
    (254, [0.40200000000000014, -0.878, -0.384, 0.07400000000000007, -0.938, 0.01100000000000012, 0.5760000000000001, 0.9279999999999999, -0.29600000000000004, 0.27300000000000013], 0.8677867746288799),
    (255, [0.40200000000000014, -0.878, -0.384, 0.07400000000000007, -0.938, 0.01100000000000012, 0.5760000000000001, 0.9279999999999999, -0.29600000000000004, 0.27300000000000013], 0.8677867746288799),
    (256, [0.40200000000000014, -0.878, -0.384, 0.07400000000000007, -0.938, 0.01100000000000012, 0.5760000000000001, 0.9279999999999999, -0.29600000000000004, 0.27300000000000013], 0.8677867746288799),
    (257, [0.40200000000000014, -0.878, -0.384, 0.07400000000000007, -0.938, 0.01100000000000012, 0.5760000000000001, 0.9279999999999999, -0.29600000000000004, 0.27300000000000013], 0.8677867746288799),
    (258, [0.40200000000000014, -0.878, -0.384, 0.07400000000000007, -0.938, 0.01100000000000012, 0.5760000000000001, 0.9279999999999999, -0.29600000000000004, 0.27300000000000013], 0.8677867746288799),
    (259, [0.40200000000000014, -0.878, -0.384, 0.07400000000000007, -0.938, 0.01100000000000012, 0.5760000000000001, 0.9279999999999999, -0.29600000000000004, 0.27300000000000013], 0.8677867746288799),
    (260, [0.40200000000000014, -0.878, -0.384, 0.07400000000000007, -0.938, 0.01100000000000012, 0.5760000000000001, 0.9279999999999999, -0.29600000000000004, 0.27300000000000013], 0.8677867746288799),
    (261, [0.40200000000000014, -0.878, -0.384, 0.07400000000000007, -0.938, 0.01100000000000012, 0.5760000000000001, 0.9279999999999999, -0.29600000000000004, 0.27300000000000013], 0.8677867746288799),
    (262, [0.40200000000000014, -0.878, -0.384, 0.07400000000000007, -0.938, 0.01100000000000012, 0.5760000000000001, 0.9279999999999999, -0.29600000000000004, 0.27300000000000013], 0.8677867746288799),
    (263, [0.40200000000000014, -0.878, -0.384, 0.07400000000000007, -0.938, 0.01100000000000012, 0.5760000000000001, 0.9279999999999999, -0.29600000000000004, 0.27300000000000013], 0.8677867746288799),
    (264, [0.40200000000000014, -0.878, -0.384, 0.07400000000000007, -0.938, 0.01100000000000012, 0.5760000000000001, 0.9279999999999999, -0.29600000000000004, 0.27300000000000013], 0.8677867746288799),
    (265, [0.40200000000000014, -0.878, -0.384, 0.07400000000000007, -0.938, 0.01100000000000012, 0.5760000000000001, 0.9279999999999999, -0.29600000000000004, 0.27300000000000013], 0.8677867746288799),
    (266, [0.40200000000000014, -0.878, -0.384, 0.07400000000000007, -0.938, 0.01100000000000012, 0.5760000000000001, 0.9279999999999999, -0.29600000000000004, 0.27300000000000013], 0.8677867746288799),
    (267, [0.40200000000000014, -0.878, -0.384, 0.07400000000000007, -0.938, 0.01100000000000012, 0.5760000000000001, 0.9279999999999999, -0.29600000000000004, 0.27300000000000013], 0.8677867746288799),
    (268, [0.40200000000000014, -0.878, -0.384, 0.07400000000000007, -0.938, 0.01100000000000012, 0.5760000000000001, 0.9279999999999999, -0.29600000000000004, 0.27300000000000013], 0.8677867746288799),
    (269, [0.40200000000000014, -0.878, -0.384, 0.07400000000000007, -0.938, 0.01100000000000012, 0.5760000000000001, 0.9279999999999999, -0.29600000000000004, 0.27300000000000013], 0.8677867746288799),
    (270, [0.40200000000000014, -0.878, -0.384, 0.07400000000000007, -0.938, 0.01100000000000012, 0.5760000000000001, 0.9279999999999999, -0.29600000000000004, 0.27300000000000013], 0.8677867746288799),
    (271, [0.40200000000000014, -0.878, -0.384, 0.07400000000000007, -0.938, 0.01100000000000012, 0.5760000000000001, 0.9279999999999999, -0.29600000000000004, 0.27300000000000013], 0.8677867746288799),
    (272, [0.40200000000000014, -0.878, -0.384, 0.07400000000000007, -0.938, 0.01100000000000012, 0.5760000000000001, 0.9279999999999999, -0.29600000000000004, 0.27300000000000013], 0.8677867746288799),
    (273, [0.40200000000000014, -0.878, -0.384, 0.07400000000000007, -0.938, 0.01100000000000012, 0.5760000000000001, 0.9279999999999999, -0.29600000000000004, 0.27300000000000013], 0.8677867746288799),
    (274, [0.40200000000000014, -0.878, -0.384, 0.07400000000000007, -0.938, 0.01100000000000012, 0.5760000000000001, 0.9279999999999999, -0.29600000000000004, 0.27300000000000013], 0.8677867746288799),
    (275, [0.40200000000000014, -0.878, -0.384, 0.07400000000000007, -0.938, 0.01100000000000012, 0.5760000000000001, 0.9279999999999999, -0.29600000000000004, 0.27300000000000013], 0.8677867746288799),
    (276, [0.40200000000000014, -0.878, -0.384, 0.07400000000000007, -0.938, 0.01100000000000012, 0.5760000000000001, 0.9279999999999999, -0.29600000000000004, 0.27300000000000013], 0.8677867746288799),
    (277, [0.40200000000000014, -0.878, -0.384, 0.07400000000000007, -0.938, 0.01100000000000012, 0.5760000000000001, 0.9279999999999999, -0.29600000000000004, 0.27300000000000013], 0.8677867746288799),
    (278, [0.40200000000000014, -0.878, -0.384, 0.07400000000000007, -0.938, 0.01100000000000012, 0.5760000000000001, 0.9279999999999999, -0.29600000000000004, 0.27300000000000013], 0.8677867746288799),
    (279, [0.40200000000000014, -0.878, -0.384, 0.07400000000000007, -0.938, 0.01100000000000012, 0.5760000000000001, 0.9279999999999999, -0.29600000000000004, 0.27300000000000013], 0.8677867746288799),
    (280, [0.40200000000000014, -0.878, -0.384, 0.07400000000000007, -0.938, 0.01100000000000012, 0.5760000000000001, 0.9279999999999999, -0.29600000000000004, 0.27300000000000013], 0.8677867746288799),
    (281, [0.40200000000000014, -0.878, -0.384, 0.07400000000000007, -0.938, 0.01100000000000012, 0.5760000000000001, 0.9279999999999999, -0.29600000000000004, 0.27300000000000013], 0.8677867746288799),
    (282, [0.40200000000000014, -0.878, -0.384, 0.07400000000000007, -0.938, 0.01100000000000012, 0.5760000000000001, 0.9279999999999999, -0.29600000000000004, 0.27300000000000013], 0.8677867746288799),
    (283, [0.40200000000000014, -0.878, -0.384, 0.07400000000000007, -0.938, 0.01100000000000012, 0.5760000000000001, 0.9279999999999999, -0.29600000000000004, 0.27300000000000013], 0.8677867746288799),
    (284, [0.40200000000000014, -0.878, -0.384, 0.07400000000000007, -0.938, 0.01100000000000012, 0.5760000000000001, 0.9279999999999999, -0.29600000000000004, 0.27300000000000013], 0.8677867746288799),
    (285, [0.40200000000000014, -0.878, -0.384, 0.07400000000000007, -0.938, 0.01100000000000012, 0.5760000000000001, 0.9279999999999999, -0.29600000000000004, 0.27300000000000013], 0.8677867746288799),
    (286, [0.40200000000000014, -0.878, -0.384, 0.07400000000000007, -0.938, 0.01100000000000012, 0.5760000000000001, 0.9279999999999999, -0.29600000000000004, 0.27300000000000013], 0.8677867746288799),
    (287, [0.40200000000000014, -0.878, -0.384, 0.07400000000000007, -0.938, 0.01100000000000012, 0.5760000000000001, 0.9279999999999999, -0.29600000000000004, 0.27300000000000013], 0.8677867746288799),
    (288, [0.40200000000000014, -0.878, -0.384, 0.07400000000000007, -0.938, 0.01100000000000012, 0.5760000000000001, 0.9279999999999999, -0.29600000000000004, 0.27300000000000013], 0.8677867746288799),
    (289, [0.40200000000000014, -0.878, -0.384, 0.07400000000000007, -0.938, 0.01100000000000012, 0.5760000000000001, 0.9279999999999999, -0.29600000000000004, 0.27300000000000013], 0.8677867746288799),
    (290, [0.40200000000000014, -0.878, -0.384, 0.07400000000000007, -0.938, 0.01100000000000012, 0.5760000000000001, 0.9279999999999999, -0.29600000000000004, 0.27300000000000013], 0.8677867746288799),
    (291, [0.40200000000000014, -0.878, -0.384, 0.07400000000000007, -0.938, 0.01100000000000012, 0.5760000000000001, 0.9279999999999999, -0.29600000000000004, 0.27300000000000013], 0.8677867746288799),
    (292, [0.40200000000000014, -0.878, -0.384, 0.07400000000000007, -0.938, 0.01100000000000012, 0.5760000000000001, 0.9279999999999999, -0.29600000000000004, 0.27300000000000013], 0.8677867746288799),
    (293, [0.40200000000000014, -0.878, -0.384, 0.07400000000000007, -0.938, 0.01100000000000012, 0.5760000000000001, 0.9279999999999999, -0.29600000000000004, 0.27300000000000013], 0.8677867746288799),
    (294, [0.40200000000000014, -0.878, -0.384, 0.07400000000000007, -0.938, 0.01100000000000012, 0.5760000000000001, 0.9279999999999999, -0.29600000000000004, 0.27300000000000013], 0.8677867746288799),
    (295, [0.40200000000000014, -0.878, -0.384, 0.07400000000000007, -0.938, 0.01100000000000012, 0.5760000000000001, 0.9279999999999999, -0.29600000000000004, 0.27300000000000013], 0.8677867746288799),
    (296, [0.40200000000000014, -0.878, -0.384, 0.07400000000000007, -0.938, 0.01100000000000012, 0.5760000000000001, 0.9279999999999999, -0.29600000000000004, 0.27300000000000013], 0.8677867746288799),
    (297, [0.40200000000000014, -0.878, -0.384, 0.07400000000000007, -0.938, 0.01100000000000012, 0.5760000000000001, 0.9279999999999999, -0.29600000000000004, 0.27300000000000013], 0.8677867746288799),
    (298, [0.40200000000000014, -0.878, -0.384, 0.07400000000000007, -0.938, 0.01100000000000012, 0.5760000000000001, 0.9279999999999999, -0.29600000000000004, 0.27300000000000013], 0.8677867746288799),
    (299, [0.40200000000000014, -0.878, -0.384, 0.07400000000000007, -0.938, 0.01100000000000012, 0.5760000000000001, 0.9279999999999999, -0.29600000000000004, 0.27300000000000013], 0.8677867746288799),
]

