ranges of every chromosome : (-2, 2)
    selection method is: RouletteWheelSelection
    crossover method is: UniformCrossover
    pc: The probability of crossover: 0.700000
    pe: Gene exchange probability: 0.500000
    mutation method is: FlipBitBigMutation
    pm: The probability of mutation: 0.100000
    pbm: The probability of big mutation: 0.500000
    alpha: intensive factor: 0.600000
best_fit = [
    (0, [1, 1, 1, 1, 1, 1, 1, 1, 1, 1], 0.8480499325236167),
    (1, [1, 1, 1, 1, 1, 1, 1, 1, 1, 1], 0.8480499325236167),
    (2, [-0.7889999999999999, -0.2769999999999999, 0.6379999999999999, -0.14500000000000002, -1.111, 0.46799999999999997, 0.8210000000000002, -1.217, -1.438, 1.025], 0.8523954116059379),
    (3, [-0.7889999999999999, -0.2769999999999999, 0.6379999999999999, -0.14500000000000002, -1.111, 0.46799999999999997, 0.8210000000000002, -1.217, -1.438, 1.025], 0.8523954116059379),
    (4, [-0.7889999999999999, -0.2769999999999999, 0.6379999999999999, -0.14500000000000002, -1.111, 0.46799999999999997, 0.8210000000000002, -1.217, -1.438, 1.025], 0.8523954116059379),
    (5, [-1.0030000000000001, 0.9689999999999999, 1.3719999999999999, 1.9450000000000003, -1.302, 0.5619999999999998, -1.941, 1.3820000000000001, 1.5870000000000002, 0.2530000000000001], 0.8581781376518218),
    (6, [-1.0030000000000001, 0.9689999999999999, 1.3719999999999999, 1.9450000000000003, -1.302, 0.5619999999999998, -1.941, 1.3820000000000001, 1.5870000000000002, 0.2530000000000001], 0.8581781376518218),
    (7, [-1.0030000000000001, 0.9689999999999999, 1.3719999999999999, 1.9450000000000003, -1.302, 0.5619999999999998, -1.941, 1.3820000000000001, 1.5870000000000002, 0.2530000000000001], 0.8581781376518218),
    (8, [-1.0030000000000001, 0.9689999999999999, 1.3719999999999999, 1.9450000000000003, -1.302, 0.5619999999999998, -1.941, 1.3820000000000001, 1.5870000000000002, 0.2530000000000001], 0.8581781376518218),
    (9, [-1.0030000000000001, 0.9689999999999999, 1.3719999999999999, 1.9450000000000003, -1.302, 0.5619999999999998, -1.941, 1.3820000000000001, 1.5870000000000002, 0.2530000000000001], 0.8581781376518218),
    (10, [-1.0030000000000001, 0.9689999999999999, 1.3719999999999999, 1.9450000000000003, -1.302, 0.5619999999999998, -1.941, 1.3820000000000001, 1.5870000000000002, 0.2530000000000001], 0.8581781376518218),
    (11, [-1.0030000000000001, 0.9689999999999999, 1.3719999999999999, 1.9450000000000003, -1.302, 0.5619999999999998, -1.941, 1.3820000000000001, 1.5870000000000002, 0.2530000000000001], 0.8581781376518218),
    (12, [-1.0030000000000001, 0.9689999999999999, 1.3719999999999999, 1.9450000000000003, -1.302, 0.5619999999999998, -1.941, 1.3820000000000001, 1.5870000000000002, 0.2530000000000001], 0.8581781376518218),
    (13, [-1.0030000000000001, 0.9689999999999999, 1.3719999999999999, 1.9450000000000003, -1.302, 0.5619999999999998, -1.941, 1.3820000000000001, 1.5870000000000002, 0.2530000000000001], 0.8581781376518218),
    (14, [-1.0030000000000001, 0.9689999999999999, 1.3719999999999999, 1.9450000000000003, -1.302, 0.5619999999999998, -1.941, 1.3820000000000001, 1.5870000000000002, 0.2530000000000001], 0.8581781376518218),
    (15, [-1.0030000000000001, 0.9689999999999999, 1.3719999999999999, 1.9450000000000003, -1.302, 0.5619999999999998, -1.941, 1.3820000000000001, 1.5870000000000002, 0.2530000000000001], 0.8581781376518218),
    (16, [-1.0030000000000001, 0.9689999999999999, 1.3719999999999999, 1.9450000000000003, -1.302, 0.5619999999999998, -1.941, 1.3820000000000001, 1.5870000000000002, 0.2530000000000001], 0.8581781376518218),
    (17, [-1.0030000000000001, 0.9689999999999999, 1.3719999999999999, 1.9450000000000003, -1.302, 0.5619999999999998, -1.941, 1.3820000000000001, 1.5870000000000002, 0.2530000000000001], 0.8581781376518218),
    (18, [-1.0030000000000001, 0.9689999999999999, 1.3719999999999999, 1.9450000000000003, -1.302, 0.5619999999999998, -1.941, 1.3820000000000001, 1.5870000000000002, 0.2530000000000001], 0.8581781376518218),
    (19, [-1.0030000000000001, 0.9689999999999999, 1.3719999999999999, 1.9450000000000003, -1.302, 0.5619999999999998, -1.941, 1.3820000000000001, 1.5870000000000002, 0.2530000000000001], 0.8581781376518218),
    (20, [-1.0030000000000001, 0.9689999999999999, 1.3719999999999999, 1.9450000000000003, -1.302, 0.5619999999999998, -1.941, 1.3820000000000001, 1.5870000000000002, 0.2530000000000001], 0.8581781376518218),
    (21, [-1.0030000000000001, 0.9689999999999999, 1.3719999999999999, 1.9450000000000003, -1.302, 0.5619999999999998, -1.941, 1.3820000000000001, 1.5870000000000002, 0.2530000000000001], 0.8581781376518218),
    (22, [-1.0030000000000001, 0.9689999999999999, 1.3719999999999999, 1.9450000000000003, -1.302, 0.5619999999999998, -1.941, 1.3820000000000001, 1.5870000000000002, 0.2530000000000001], 0.8581781376518218),
    (23, [-1.0030000000000001, 0.9689999999999999, 1.3719999999999999, 1.9450000000000003, -1.302, 0.5619999999999998, -1.941, 1.3820000000000001, 1.5870000000000002, 0.2530000000000001], 0.8581781376518218),
    (24, [-1.0030000000000001, 0.9689999999999999, 1.3719999999999999, 1.9450000000000003, -1.302, 0.5619999999999998, -1.941, 1.3820000000000001, 1.5870000000000002, 0.2530000000000001], 0.8581781376518218),
    (25, [-1.0030000000000001, 0.9689999999999999, 1.3719999999999999, 1.9450000000000003, -1.302, 0.5619999999999998, -1.941, 1.3820000000000001, 1.5870000000000002, 0.2530000000000001], 0.8581781376518218),
    (26, [-1.0030000000000001, 0.9689999999999999, 1.3719999999999999, 1.9450000000000003, -1.302, 0.5619999999999998, -1.941, 1.3820000000000001, 1.5870000000000002, 0.2530000000000001], 0.8581781376518218),
    (27, [-1.0030000000000001, 0.9689999999999999, 1.3719999999999999, 1.9450000000000003, -1.302, 0.5619999999999998, -1.941, 1.3820000000000001, 1.5870000000000002, 0.2530000000000001], 0.8581781376518218),
    (28, [-1.0030000000000001, 0.9689999999999999, 1.3719999999999999, 1.9450000000000003, -1.302, 0.5619999999999998, -1.941, 1.3820000000000001, 1.5870000000000002, 0.2530000000000001], 0.8581781376518218),
    (29, [-1.0030000000000001, 0.9689999999999999, 1.3719999999999999, 1.9450000000000003, -1.302, 0.5619999999999998, -1.941, 1.3820000000000001, 1.5870000000000002, 0.2530000000000001], 0.8581781376518218),
    (30, [-1.0030000000000001, 0.9689999999999999, 1.3719999999999999, 1.9450000000000003, -1.302, 0.5619999999999998, -1.941, 1.3820000000000001, 1.5870000000000002, 0.2530000000000001], 0.8581781376518218),
    (31, [-1.0030000000000001, 0.9689999999999999, 1.3719999999999999, 1.9450000000000003, -1.302, 0.5619999999999998, -1.941, 1.3820000000000001, 1.5870000000000002, 0.2530000000000001], 0.8581781376518218),
    (32, [-1.0030000000000001, 0.9689999999999999, 1.3719999999999999, 1.9450000000000003, -1.302, 0.5619999999999998, -1.941, 1.3820000000000001, 1.5870000000000002, 0.2530000000000001], 0.8581781376518218),
    (33, [-1.0030000000000001, 0.9689999999999999, 1.3719999999999999, 1.9450000000000003, -1.302, 0.5619999999999998, -1.941, 1.3820000000000001, 1.5870000000000002, 0.2530000000000001], 0.8581781376518218),
    (34, [-1.0030000000000001, 0.9689999999999999, 1.3719999999999999, 1.9450000000000003, -1.302, 0.5619999999999998, -1.941, 1.3820000000000001, 1.5870000000000002, 0.2530000000000001], 0.8581781376518218),
    (35, [-1.0030000000000001, 0.9689999999999999, 1.3719999999999999, 1.9450000000000003, -1.302, 0.5619999999999998, -1.941, 1.3820000000000001, 1.5870000000000002, 0.2530000000000001], 0.8581781376518218),
    (36, [-1.0030000000000001, 0.9689999999999999, 1.3719999999999999, 1.9450000000000003, -1.302, 0.5619999999999998, -1.941, 1.3820000000000001, 1.5870000000000002, 0.2530000000000001], 0.8581781376518218),
    (37, [-1.0030000000000001, 0.9689999999999999, 1.3719999999999999, 1.9450000000000003, -1.302, 0.5619999999999998, -1.941, 1.3820000000000001, 1.5870000000000002, 0.2530000000000001], 0.8581781376518218),
    (38, [-1.0030000000000001, 0.9689999999999999, 1.3719999999999999, 1.9450000000000003, -1.302, 0.5619999999999998, -1.941, 1.3820000000000001, 1.5870000000000002, 0.2530000000000001], 0.8581781376518218),
    (39, [-1.0030000000000001, 0.9689999999999999, 1.3719999999999999, 1.9450000000000003, -1.302, 0.5619999999999998, -1.941, 1.3820000000000001, 1.5870000000000002, 0.2530000000000001], 0.8581781376518218),
    (40, [-1.0030000000000001, 0.9689999999999999, 1.3719999999999999, 1.9450000000000003, -1.302, 0.5619999999999998, -1.941, 1.3820000000000001, 1.5870000000000002, 0.2530000000000001], 0.8581781376518218),
    (41, [-1.0030000000000001, 0.9689999999999999, 1.3719999999999999, 1.9450000000000003, -1.302, 0.5619999999999998, -1.941, 1.3820000000000001, 1.5870000000000002, 0.2530000000000001], 0.8581781376518218),
    (42, [-1.0030000000000001, 0.9689999999999999, 1.3719999999999999, 1.9450000000000003, -1.302, 0.5619999999999998, -1.941, 1.3820000000000001, 1.5870000000000002, 0.2530000000000001], 0.8581781376518218),
    (43, [-1.0030000000000001, 0.9689999999999999, 1.3719999999999999, 1.9450000000000003, -1.302, 0.5619999999999998, -1.941, 1.3820000000000001, 1.5870000000000002, 0.2530000000000001], 0.8581781376518218),
    (44, [-1.0030000000000001, 0.9689999999999999, 1.3719999999999999, 1.9450000000000003, -1.302, 0.5619999999999998, -1.941, 1.3820000000000001, 1.5870000000000002, 0.2530000000000001], 0.8581781376518218),
    (45, [-1.0030000000000001, 0.9689999999999999, 1.3719999999999999, 1.9450000000000003, -1.302, 0.5619999999999998, -1.941, 1.3820000000000001, 1.5870000000000002, 0.2530000000000001], 0.8581781376518218),
    (46, [-1.0030000000000001, 0.9689999999999999, 1.3719999999999999, 1.9450000000000003, -1.302, 0.5619999999999998, -1.941, 1.3820000000000001, 1.5870000000000002, 0.2530000000000001], 0.8581781376518218),
    (47, [-1.0030000000000001, 0.9689999999999999, 1.3719999999999999, 1.9450000000000003, -1.302, 0.5619999999999998, -1.941, 1.3820000000000001, 1.5870000000000002, 0.2530000000000001], 0.8581781376518218),
    (48, [-1.0030000000000001, 0.9689999999999999, 1.3719999999999999, 1.9450000000000003, -1.302, 0.5619999999999998, -1.941, 1.3820000000000001, 1.5870000000000002, 0.2530000000000001], 0.8581781376518218),
    (49, [-1.0030000000000001, 0.9689999999999999, 1.3719999999999999, 1.9450000000000003, -1.302, 0.5619999999999998, -1.941, 1.3820000000000001, 1.5870000000000002, 0.2530000000000001], 0.8581781376518218),
    (50, [-1.0030000000000001, 0.9689999999999999, 1.3719999999999999, 1.9450000000000003, -1.302, 0.5619999999999998, -1.941, 1.3820000000000001, 1.5870000000000002, 0.2530000000000001], 0.8581781376518218),
    (51, [-1.0030000000000001, 0.9689999999999999, 1.3719999999999999, 1.9450000000000003, -1.302, 0.5619999999999998, -1.941, 1.3820000000000001, 1.5870000000000002, 0.2530000000000001], 0.8581781376518218),
    (52, [-1.0030000000000001, 0.9689999999999999, 1.3719999999999999, 1.9450000000000003, -1.302, 0.5619999999999998, -1.941, 1.3820000000000001, 1.5870000000000002, 0.2530000000000001], 0.8581781376518218),
    (53, [-1.0030000000000001, 0.9689999999999999, 1.3719999999999999, 1.9450000000000003, -1.302, 0.5619999999999998, -1.941, 1.3820000000000001, 1.5870000000000002, 0.2530000000000001], 0.8581781376518218),
    (54, [-1.0030000000000001, 0.9689999999999999, 1.3719999999999999, 1.9450000000000003, -1.302, 0.5619999999999998, -1.941, 1.3820000000000001, 1.5870000000000002, 0.2530000000000001], 0.8581781376518218),
    (55, [-1.0030000000000001, 0.9689999999999999, 1.3719999999999999, 1.9450000000000003, -1.302, 0.5619999999999998, -1.941, 1.3820000000000001, 1.5870000000000002, 0.2530000000000001], 0.8581781376518218),
    (56, [-1.0030000000000001, 0.9689999999999999, 1.3719999999999999, 1.9450000000000003, -1.302, 0.5619999999999998, -1.941, 1.3820000000000001, 1.5870000000000002, 0.2530000000000001], 0.8581781376518218),
    (57, [-1.0030000000000001, 0.9689999999999999, 1.3719999999999999, 1.9450000000000003, -1.302, 0.5619999999999998, -1.941, 1.3820000000000001, 1.5870000000000002, 0.2530000000000001], 0.8581781376518218),
    (58, [-1.0030000000000001, 0.9689999999999999, 1.3719999999999999, 1.9450000000000003, -1.302, 0.5619999999999998, -1.941, 1.3820000000000001, 1.5870000000000002, 0.2530000000000001], 0.8581781376518218),
    (59, [-1.0030000000000001, 0.9689999999999999, 1.3719999999999999, 1.9450000000000003, -1.302, 0.5619999999999998, -1.941, 1.3820000000000001, 1.5870000000000002, 0.2530000000000001], 0.8581781376518218),
    (60, [-1.0030000000000001, 0.9689999999999999, 1.3719999999999999, 1.9450000000000003, -1.302, 0.5619999999999998, -1.941, 1.3820000000000001, 1.5870000000000002, 0.2530000000000001], 0.8581781376518218),
    (61, [-1.0030000000000001, 0.9689999999999999, 1.3719999999999999, 1.9450000000000003, -1.302, 0.5619999999999998, -1.941, 1.3820000000000001, 1.5870000000000002, 0.2530000000000001], 0.8581781376518218),
    (62, [-1.0030000000000001, 0.9689999999999999, 1.3719999999999999, 1.9450000000000003, -1.302, 0.5619999999999998, -1.941, 1.3820000000000001, 1.5870000000000002, 0.2530000000000001], 0.8581781376518218),
    (63, [-1.0030000000000001, 0.9689999999999999, 1.3719999999999999, 1.9450000000000003, -1.302, 0.5619999999999998, -1.941, 1.3820000000000001, 1.5870000000000002, 0.2530000000000001], 0.8581781376518218),
    (64, [-1.0030000000000001, 0.9689999999999999, 1.3719999999999999, 1.9450000000000003, -1.302, 0.5619999999999998, -1.941, 1.3820000000000001, 1.5870000000000002, 0.2530000000000001], 0.8581781376518218),
    (65, [-1.0030000000000001, 0.9689999999999999, 1.3719999999999999, 1.9450000000000003, -1.302, 0.5619999999999998, -1.941, 1.3820000000000001, 1.5870000000000002, 0.2530000000000001], 0.8581781376518218),
    (66, [-1.0030000000000001, 0.9689999999999999, 1.3719999999999999, 1.9450000000000003, -1.302, 0.5619999999999998, -1.941, 1.3820000000000001, 1.5870000000000002, 0.2530000000000001], 0.8581781376518218),
    (67, [-1.0030000000000001, 0.9689999999999999, 1.3719999999999999, 1.9450000000000003, -1.302, 0.5619999999999998, -1.941, 1.3820000000000001, 1.5870000000000002, 0.2530000000000001], 0.8581781376518218),
    (68, [-1.0030000000000001, 0.9689999999999999, 1.3719999999999999, 1.9450000000000003, -1.302, 0.5619999999999998, -1.941, 1.3820000000000001, 1.5870000000000002, 0.2530000000000001], 0.8581781376518218),
    (69, [-1.0030000000000001, 0.9689999999999999, 1.3719999999999999, 1.9450000000000003, -1.302, 0.5619999999999998, -1.941, 1.3820000000000001, 1.5870000000000002, 0.2530000000000001], 0.8581781376518218),
    (70, [-1.0030000000000001, 0.9689999999999999, 1.3719999999999999, 1.9450000000000003, -1.302, 0.5619999999999998, -1.941, 1.3820000000000001, 1.5870000000000002, 0.2530000000000001], 0.8581781376518218),
    (71, [-1.0030000000000001, 0.9689999999999999, 1.3719999999999999, 1.9450000000000003, -1.302, 0.5619999999999998, -1.941, 1.3820000000000001, 1.5870000000000002, 0.2530000000000001], 0.8581781376518218),
    (72, [-1.0030000000000001, 0.9689999999999999, 1.3719999999999999, 1.9450000000000003, -1.302, 0.5619999999999998, -1.941, 1.3820000000000001, 1.5870000000000002, 0.2530000000000001], 0.8581781376518218),
    (73, [-1.0030000000000001, 0.9689999999999999, 1.3719999999999999, 1.9450000000000003, -1.302, 0.5619999999999998, -1.941, 1.3820000000000001, 1.5870000000000002, 0.2530000000000001], 0.8581781376518218),
    (74, [-1.0030000000000001, 0.9689999999999999, 1.3719999999999999, 1.9450000000000003, -1.302, 0.5619999999999998, -1.941, 1.3820000000000001, 1.5870000000000002, 0.2530000000000001], 0.8581781376518218),
    (75, [-1.0030000000000001, 0.9689999999999999, 1.3719999999999999, 1.9450000000000003, -1.302, 0.5619999999999998, -1.941, 1.3820000000000001, 1.5870000000000002, 0.2530000000000001], 0.8581781376518218),
    (76, [-1.0030000000000001, 0.9689999999999999, 1.3719999999999999, 1.9450000000000003, -1.302, 0.5619999999999998, -1.941, 1.3820000000000001, 1.5870000000000002, 0.2530000000000001], 0.8581781376518218),
    (77, [-1.0030000000000001, 0.9689999999999999, 1.3719999999999999, 1.9450000000000003, -1.302, 0.5619999999999998, -1.941, 1.3820000000000001, 1.5870000000000002, 0.2530000000000001], 0.8581781376518218),
    (78, [-1.0030000000000001, 0.9689999999999999, 1.3719999999999999, 1.9450000000000003, -1.302, 0.5619999999999998, -1.941, 1.3820000000000001, 1.5870000000000002, 0.2530000000000001], 0.8581781376518218),
    (79, [-1.0030000000000001, 0.9689999999999999, 1.3719999999999999, 1.9450000000000003, -1.302, 0.5619999999999998, -1.941, 1.3820000000000001, 1.5870000000000002, 0.2530000000000001], 0.8581781376518218),
    (80, [-1.0030000000000001, 0.9689999999999999, 1.3719999999999999, 1.9450000000000003, -1.302, 0.5619999999999998, -1.941, 1.3820000000000001, 1.5870000000000002, 0.2530000000000001], 0.8581781376518218),
    (81, [-1.0030000000000001, 0.9689999999999999, 1.3719999999999999, 1.9450000000000003, -1.302, 0.5619999999999998, -1.941, 1.3820000000000001, 1.5870000000000002, 0.2530000000000001], 0.8581781376518218),
    (82, [-1.0030000000000001, 0.9689999999999999, 1.3719999999999999, 1.9450000000000003, -1.302, 0.5619999999999998, -1.941, 1.3820000000000001, 1.5870000000000002, 0.2530000000000001], 0.8581781376518218),
    (83, [-1.0030000000000001, 0.9689999999999999, 1.3719999999999999, 1.9450000000000003, -1.302, 0.5619999999999998, -1.941, 1.3820000000000001, 1.5870000000000002, 0.2530000000000001], 0.8581781376518218),
    (84, [-1.0030000000000001, 0.9689999999999999, 1.3719999999999999, 1.9450000000000003, -1.302, 0.5619999999999998, -1.941, 1.3820000000000001, 1.5870000000000002, 0.2530000000000001], 0.8581781376518218),
    (85, [-1.0030000000000001, 0.9689999999999999, 1.3719999999999999, 1.9450000000000003, -1.302, 0.5619999999999998, -1.941, 1.3820000000000001, 1.5870000000000002, 0.2530000000000001], 0.8581781376518218),
    (86, [-1.0030000000000001, 0.9689999999999999, 1.3719999999999999, 1.9450000000000003, -1.302, 0.5619999999999998, -1.941, 1.3820000000000001, 1.5870000000000002, 0.2530000000000001], 0.8581781376518218),
    (87, [-1.0030000000000001, 0.9689999999999999, 1.3719999999999999, 1.9450000000000003, -1.302, 0.5619999999999998, -1.941, 1.3820000000000001, 1.5870000000000002, 0.2530000000000001], 0.8581781376518218),
    (88, [-1.0030000000000001, 0.9689999999999999, 1.3719999999999999, 1.9450000000000003, -1.302, 0.5619999999999998, -1.941, 1.3820000000000001, 1.5870000000000002, 0.2530000000000001], 0.8581781376518218),
    (89, [-1.0030000000000001, 0.9689999999999999, 1.3719999999999999, 1.9450000000000003, -1.302, 0.5619999999999998, -1.941, 1.3820000000000001, 1.5870000000000002, 0.2530000000000001], 0.8581781376518218),
    (90, [-1.0030000000000001, 0.9689999999999999, 1.3719999999999999, 1.9450000000000003, -1.302, 0.5619999999999998, -1.941, 1.3820000000000001, 1.5870000000000002, 0.2530000000000001], 0.8581781376518218),
    (91, [-1.0030000000000001, 0.9689999999999999, 1.3719999999999999, 1.9450000000000003, -1.302, 0.5619999999999998, -1.941, 1.3820000000000001, 1.5870000000000002, 0.2530000000000001], 0.8581781376518218),
    (92, [-1.0030000000000001, 0.9689999999999999, 1.3719999999999999, 1.9450000000000003, -1.302, 0.5619999999999998, -1.941, 1.3820000000000001, 1.5870000000000002, 0.2530000000000001], 0.8581781376518218),
    (93, [-1.0030000000000001, 0.9689999999999999, 1.3719999999999999, 1.9450000000000003, -1.302, 0.5619999999999998, -1.941, 1.3820000000000001, 1.5870000000000002, 0.2530000000000001], 0.8581781376518218),
    (94, [-1.0030000000000001, 0.9689999999999999, 1.3719999999999999, 1.9450000000000003, -1.302, 0.5619999999999998, -1.941, 1.3820000000000001, 1.5870000000000002, 0.2530000000000001], 0.8581781376518218),
    (95, [-1.0030000000000001, 0.9689999999999999, 1.3719999999999999, 1.9450000000000003, -1.302, 0.5619999999999998, -1.941, 1.3820000000000001, 1.5870000000000002, 0.2530000000000001], 0.8581781376518218),
    (96, [-1.0030000000000001, 0.9689999999999999, 1.3719999999999999, 1.9450000000000003, -1.302, 0.5619999999999998, -1.941, 1.3820000000000001, 1.5870000000000002, 0.2530000000000001], 0.8581781376518218),
    (97, [-1.0030000000000001, 0.9689999999999999, 1.3719999999999999, 1.9450000000000003, -1.302, 0.5619999999999998, -1.941, 1.3820000000000001, 1.5870000000000002, 0.2530000000000001], 0.8581781376518218),
    (98, [-1.0030000000000001, 0.9689999999999999, 1.3719999999999999, 1.9450000000000003, -1.302, 0.5619999999999998, -1.941, 1.3820000000000001, 1.5870000000000002, 0.2530000000000001], 0.8581781376518218),
    (99, [-1.0030000000000001, 0.9689999999999999, 1.3719999999999999, 1.9450000000000003, -1.302, 0.5619999999999998, -1.941, 1.3820000000000001, 1.5870000000000002, 0.2530000000000001], 0.8581781376518218),
    (100, [-1.0030000000000001, 0.9689999999999999, 1.3719999999999999, 1.9450000000000003, -1.302, 0.5619999999999998, -1.941, 1.3820000000000001, 1.5870000000000002, 0.2530000000000001], 0.8581781376518218),
    (101, [-1.0030000000000001, 0.9689999999999999, 1.3719999999999999, 1.9450000000000003, -1.302, 0.5619999999999998, -1.941, 1.3820000000000001, 1.5870000000000002, 0.2530000000000001], 0.8581781376518218),
    (102, [-1.0030000000000001, 0.9689999999999999, 1.3719999999999999, 1.9450000000000003, -1.302, 0.5619999999999998, -1.941, 1.3820000000000001, 1.5870000000000002, 0.2530000000000001], 0.8581781376518218),
    (103, [-1.0030000000000001, 0.9689999999999999, 1.3719999999999999, 1.9450000000000003, -1.302, 0.5619999999999998, -1.941, 1.3820000000000001, 1.5870000000000002, 0.2530000000000001], 0.8581781376518218),
    (104, [-1.0030000000000001, 0.9689999999999999, 1.3719999999999999, 1.9450000000000003, -1.302, 0.5619999999999998, -1.941, 1.3820000000000001, 1.5870000000000002, 0.2530000000000001], 0.8581781376518218),
    (105, [-1.0030000000000001, 0.9689999999999999, 1.3719999999999999, 1.9450000000000003, -1.302, 0.5619999999999998, -1.941, 1.3820000000000001, 1.5870000000000002, 0.2530000000000001], 0.8581781376518218),
    (106, [-1.0030000000000001, 0.9689999999999999, 1.3719999999999999, 1.9450000000000003, -1.302, 0.5619999999999998, -1.941, 1.3820000000000001, 1.5870000000000002, 0.2530000000000001], 0.8581781376518218),
    (107, [-1.0030000000000001, 0.9689999999999999, 1.3719999999999999, 1.9450000000000003, -1.302, 0.5619999999999998, -1.941, 1.3820000000000001, 1.5870000000000002, 0.2530000000000001], 0.8581781376518218),
    (108, [-1.0030000000000001, 0.9689999999999999, 1.3719999999999999, 1.9450000000000003, -1.302, 0.5619999999999998, -1.941, 1.3820000000000001, 1.5870000000000002, 0.2530000000000001], 0.8581781376518218),
    (109, [-1.0030000000000001, 0.9689999999999999, 1.3719999999999999, 1.9450000000000003, -1.302, 0.5619999999999998, -1.941, 1.3820000000000001, 1.5870000000000002, 0.2530000000000001], 0.8581781376518218),
    (110, [-1.0030000000000001, 0.9689999999999999, 1.3719999999999999, 1.9450000000000003, -1.302, 0.5619999999999998, -1.941, 1.3820000000000001, 1.5870000000000002, 0.2530000000000001], 0.8581781376518218),
    (111, [-1.0030000000000001, 0.9689999999999999, 1.3719999999999999, 1.9450000000000003, -1.302, 0.5619999999999998, -1.941, 1.3820000000000001, 1.5870000000000002, 0.2530000000000001], 0.8581781376518218),
    (112, [-1.0030000000000001, 0.9689999999999999, 1.3719999999999999, 1.9450000000000003, -1.302, 0.5619999999999998, -1.941, 1.3820000000000001, 1.5870000000000002, 0.2530000000000001], 0.8581781376518218),
    (113, [-1.0030000000000001, 0.9689999999999999, 1.3719999999999999, 1.9450000000000003, -1.302, 0.5619999999999998, -1.941, 1.3820000000000001, 1.5870000000000002, 0.2530000000000001], 0.8581781376518218),
    (114, [-1.0030000000000001, 0.9689999999999999, 1.3719999999999999, 1.9450000000000003, -1.302, 0.5619999999999998, -1.941, 1.3820000000000001, 1.5870000000000002, 0.2530000000000001], 0.8581781376518218),
    (115, [-1.0030000000000001, 0.9689999999999999, 1.3719999999999999, 1.9450000000000003, -1.302, 0.5619999999999998, -1.941, 1.3820000000000001, 1.5870000000000002, 0.2530000000000001], 0.8581781376518218),
    (116, [0.7130000000000001, -0.258, 0.6150000000000002, -1.673, -0.8049999999999999, -1.097, 0.28400000000000025, 1.702, -1.3359999999999999, -1.099], 0.8581848852901484),
    (117, [0.7130000000000001, -0.258, 0.6150000000000002, -1.673, -0.8049999999999999, -1.097, 0.28400000000000025, 1.702, -1.3359999999999999, -1.099], 0.8581848852901484),
    (118, [0.7130000000000001, -0.258, 0.6150000000000002, -1.673, -0.8049999999999999, -1.097, 0.28400000000000025, 1.702, -1.3359999999999999, -1.099], 0.8581848852901484),
    (119, [0.7130000000000001, -0.258, 0.6150000000000002, -1.673, -0.8049999999999999, -1.097, 0.28400000000000025, 1.702, -1.3359999999999999, -1.099], 0.8581848852901484),
    (120, [0.7130000000000001, -0.258, 0.6150000000000002, -1.673, -0.8049999999999999, -1.097, 0.28400000000000025, 1.702, -1.3359999999999999, -1.099], 0.8581848852901484),
    (121, [0.7130000000000001, -0.258, 0.6150000000000002, -1.673, -0.8049999999999999, -1.097, 0.28400000000000025, 1.702, -1.3359999999999999, -1.099], 0.8581848852901484),
    (122, [0.7130000000000001, -0.258, 0.6150000000000002, -1.673, -0.8049999999999999, -1.097, 0.28400000000000025, 1.702, -1.3359999999999999, -1.099], 0.8581848852901484),
    (123, [0.7130000000000001, -0.258, 0.6150000000000002, -1.673, -0.8049999999999999, -1.097, 0.28400000000000025, 1.702, -1.3359999999999999, -1.099], 0.8581848852901484),
    (124, [0.7130000000000001, -0.258, 0.6150000000000002, -1.673, -0.8049999999999999, -1.097, 0.28400000000000025, 1.702, -1.3359999999999999, -1.099], 0.8581848852901484),
    (125, [0.7130000000000001, -0.258, 0.6150000000000002, -1.673, -0.8049999999999999, -1.097, 0.28400000000000025, 1.702, -1.3359999999999999, -1.099], 0.8581848852901484),
    (126, [0.7130000000000001, -0.258, 0.6150000000000002, -1.673, -0.8049999999999999, -1.097, 0.28400000000000025, 1.702, -1.3359999999999999, -1.099], 0.8581848852901484),
    (127, [0.7130000000000001, -0.258, 0.6150000000000002, -1.673, -0.8049999999999999, -1.097, 0.28400000000000025, 1.702, -1.3359999999999999, -1.099], 0.8581848852901484),
    (128, [0.7130000000000001, -0.258, 0.6150000000000002, -1.673, -0.8049999999999999, -1.097, 0.28400000000000025, 1.702, -1.3359999999999999, -1.099], 0.8581848852901484),
    (129, [0.7130000000000001, -0.258, 0.6150000000000002, -1.673, -0.8049999999999999, -1.097, 0.28400000000000025, 1.702, -1.3359999999999999, -1.099], 0.8581848852901484),
    (130, [0.7130000000000001, -0.258, 0.6150000000000002, -1.673, -0.8049999999999999, -1.097, 0.28400000000000025, 1.702, -1.3359999999999999, -1.099], 0.8581848852901484),
    (131, [0.7130000000000001, -0.258, 0.6150000000000002, -1.673, -0.8049999999999999, -1.097, 0.28400000000000025, 1.702, -1.3359999999999999, -1.099], 0.8581848852901484),
    (132, [0.7130000000000001, -0.258, 0.6150000000000002, -1.673, -0.8049999999999999, -1.097, 0.28400000000000025, 1.702, -1.3359999999999999, -1.099], 0.8581848852901484),
    (133, [0.7130000000000001, -0.258, 0.6150000000000002, -1.673, -0.8049999999999999, -1.097, 0.28400000000000025, 1.702, -1.3359999999999999, -1.099], 0.8581848852901484),
    (134, [0.7130000000000001, -0.258, 0.6150000000000002, -1.673, -0.8049999999999999, -1.097, 0.28400000000000025, 1.702, -1.3359999999999999, -1.099], 0.8581848852901484),
    (135, [0.7130000000000001, -0.258, 0.6150000000000002, -1.673, -0.8049999999999999, -1.097, 0.28400000000000025, 1.702, -1.3359999999999999, -1.099], 0.8581848852901484),
    (136, [0.7130000000000001, -0.258, 0.6150000000000002, -1.673, -0.8049999999999999, -1.097, 0.28400000000000025, 1.702, -1.3359999999999999, -1.099], 0.8581848852901484),
    (137, [0.7130000000000001, -0.258, 0.6150000000000002, -1.673, -0.8049999999999999, -1.097, 0.28400000000000025, 1.702, -1.3359999999999999, -1.099], 0.8581848852901484),
    (138, [0.7130000000000001, -0.258, 0.6150000000000002, -1.673, -0.8049999999999999, -1.097, 0.28400000000000025, 1.702, -1.3359999999999999, -1.099], 0.8581848852901484),
    (139, [0.7130000000000001, -0.258, 0.6150000000000002, -1.673, -0.8049999999999999, -1.097, 0.28400000000000025, 1.702, -1.3359999999999999, -1.099], 0.8581848852901484),
    (140, [0.7130000000000001, -0.258, 0.6150000000000002, -1.673, -0.8049999999999999, -1.097, 0.28400000000000025, 1.702, -1.3359999999999999, -1.099], 0.8581848852901484),
    (141, [0.7130000000000001, -0.258, 0.6150000000000002, -1.673, -0.8049999999999999, -1.097, 0.28400000000000025, 1.702, -1.3359999999999999, -1.099], 0.8581848852901484),
    (142, [0.7130000000000001, -0.258, 0.6150000000000002, -1.673, -0.8049999999999999, -1.097, 0.28400000000000025, 1.702, -1.3359999999999999, -1.099], 0.8581848852901484),
    (143, [0.7130000000000001, -0.258, 0.6150000000000002, -1.673, -0.8049999999999999, -1.097, 0.28400000000000025, 1.702, -1.3359999999999999, -1.099], 0.8581848852901484),
    (144, [0.7130000000000001, -0.258, 0.6150000000000002, -1.673, -0.8049999999999999, -1.097, 0.28400000000000025, 1.702, -1.3359999999999999, -1.099], 0.8581848852901484),
    (145, [0.7130000000000001, -0.258, 0.6150000000000002, -1.673, -0.8049999999999999, -1.097, 0.28400000000000025, 1.702, -1.3359999999999999, -1.099], 0.8581848852901484),
    (146, [0.7130000000000001, -0.258, 0.6150000000000002, -1.673, -0.8049999999999999, -1.097, 0.28400000000000025, 1.702, -1.3359999999999999, -1.099], 0.8581848852901484),
    (147, [0.7130000000000001, -0.258, 0.6150000000000002, -1.673, -0.8049999999999999, -1.097, 0.28400000000000025, 1.702, -1.3359999999999999, -1.099], 0.8581848852901484),
    (148, [0.7130000000000001, -0.258, 0.6150000000000002, -1.673, -0.8049999999999999, -1.097, 0.28400000000000025, 1.702, -1.3359999999999999, -1.099], 0.8581848852901484),
    (149, [0.7130000000000001, -0.258, 0.6150000000000002, -1.673, -0.8049999999999999, -1.097, 0.28400000000000025, 1.702, -1.3359999999999999, -1.099], 0.8581848852901484),
    (150, [0.7130000000000001, -0.258, 0.6150000000000002, -1.673, -0.8049999999999999, -1.097, 0.28400000000000025, 1.702, -1.3359999999999999, -1.099], 0.8581848852901484),
    (151, [0.7130000000000001, -0.258, 0.6150000000000002, -1.673, -0.8049999999999999, -1.097, 0.28400000000000025, 1.702, -1.3359999999999999, -1.099], 0.8581848852901484),
    (152, [0.7130000000000001, -0.258, 0.6150000000000002, -1.673, -0.8049999999999999, -1.097, 0.28400000000000025, 1.702, -1.3359999999999999, -1.099], 0.8581848852901484),
    (153, [0.7130000000000001, -0.258, 0.6150000000000002, -1.673, -0.8049999999999999, -1.097, 0.28400000000000025, 1.702, -1.3359999999999999, -1.099], 0.8581848852901484),
    (154, [0.7130000000000001, -0.258, 0.6150000000000002, -1.673, -0.8049999999999999, -1.097, 0.28400000000000025, 1.702, -1.3359999999999999, -1.099], 0.8581848852901484),
    (155, [0.7130000000000001, -0.258, 0.6150000000000002, -1.673, -0.8049999999999999, -1.097, 0.28400000000000025, 1.702, -1.3359999999999999, -1.099], 0.8581848852901484),
    (156, [0.7130000000000001, -0.258, 0.6150000000000002, -1.673, -0.8049999999999999, -1.097, 0.28400000000000025, 1.702, -1.3359999999999999, -1.099], 0.8581848852901484),
    (157, [0.7130000000000001, -0.258, 0.6150000000000002, -1.673, -0.8049999999999999, -1.097, 0.28400000000000025, 1.702, -1.3359999999999999, -1.099], 0.8581848852901484),
    (158, [0.7130000000000001, -0.258, 0.6150000000000002, -1.673, -0.8049999999999999, -1.097, 0.28400000000000025, 1.702, -1.3359999999999999, -1.099], 0.8581848852901484),
    (159, [0.7130000000000001, -0.258, 0.6150000000000002, -1.673, -0.8049999999999999, -1.097, 0.28400000000000025, 1.702, -1.3359999999999999, -1.099], 0.8581848852901484),
    (160, [0.7130000000000001, -0.258, 0.6150000000000002, -1.673, -0.8049999999999999, -1.097, 0.28400000000000025, 1.702, -1.3359999999999999, -1.099], 0.8581848852901484),
    (161, [0.7130000000000001, -0.258, 0.6150000000000002, -1.673, -0.8049999999999999, -1.097, 0.28400000000000025, 1.702, -1.3359999999999999, -1.099], 0.8581848852901484),
    (162, [0.7130000000000001, -0.258, 0.6150000000000002, -1.673, -0.8049999999999999, -1.097, 0.28400000000000025, 1.702, -1.3359999999999999, -1.099], 0.8581848852901484),
    (163, [0.7130000000000001, -0.258, 0.6150000000000002, -1.673, -0.8049999999999999, -1.097, 0.28400000000000025, 1.702, -1.3359999999999999, -1.099], 0.8581848852901484),
    (164, [0.7130000000000001, -0.258, 0.6150000000000002, -1.673, -0.8049999999999999, -1.097, 0.28400000000000025, 1.702, -1.3359999999999999, -1.099], 0.8581848852901484),
    (165, [0.7130000000000001, -0.258, 0.6150000000000002, -1.673, -0.8049999999999999, -1.097, 0.28400000000000025, 1.702, -1.3359999999999999, -1.099], 0.8581848852901484),
    (166, [0.7130000000000001, -0.258, 0.6150000000000002, -1.673, -0.8049999999999999, -1.097, 0.28400000000000025, 1.702, -1.3359999999999999, -1.099], 0.8581848852901484),
    (167, [0.7130000000000001, -0.258, 0.6150000000000002, -1.673, -0.8049999999999999, -1.097, 0.28400000000000025, 1.702, -1.3359999999999999, -1.099], 0.8581848852901484),
    (168, [0.7130000000000001, -0.258, 0.6150000000000002, -1.673, -0.8049999999999999, -1.097, 0.28400000000000025, 1.702, -1.3359999999999999, -1.099], 0.8581848852901484),
    (169, [0.7130000000000001, -0.258, 0.6150000000000002, -1.673, -0.8049999999999999, -1.097, 0.28400000000000025, 1.702, -1.3359999999999999, -1.099], 0.8581848852901484),
    (170, [0.7130000000000001, -0.258, 0.6150000000000002, -1.673, -0.8049999999999999, -1.097, 0.28400000000000025, 1.702, -1.3359999999999999, -1.099], 0.8581848852901484),
    (171, [0.7130000000000001, -0.258, 0.6150000000000002, -1.673, -0.8049999999999999, -1.097, 0.28400000000000025, 1.702, -1.3359999999999999, -1.099], 0.8581848852901484),
    (172, [0.7130000000000001, -0.258, 0.6150000000000002, -1.673, -0.8049999999999999, -1.097, 0.28400000000000025, 1.702, -1.3359999999999999, -1.099], 0.8581848852901484),
    (173, [0.7130000000000001, -0.258, 0.6150000000000002, -1.673, -0.8049999999999999, -1.097, 0.28400000000000025, 1.702, -1.3359999999999999, -1.099], 0.8581848852901484),
    (174, [0.7130000000000001, -0.258, 0.6150000000000002, -1.673, -0.8049999999999999, -1.097, 0.28400000000000025, 1.702, -1.3359999999999999, -1.099], 0.8581848852901484),
    (175, [0.7130000000000001, -0.258, 0.6150000000000002, -1.673, -0.8049999999999999, -1.097, 0.28400000000000025, 1.702, -1.3359999999999999, -1.099], 0.8581848852901484),
    (176, [0.7130000000000001, -0.258, 0.6150000000000002, -1.673, -0.8049999999999999, -1.097, 0.28400000000000025, 1.702, -1.3359999999999999, -1.099], 0.8581848852901484),
    (177, [0.7130000000000001, -0.258, 0.6150000000000002, -1.673, -0.8049999999999999, -1.097, 0.28400000000000025, 1.702, -1.3359999999999999, -1.099], 0.8581848852901484),
    (178, [0.7130000000000001, -0.258, 0.6150000000000002, -1.673, -0.8049999999999999, -1.097, 0.28400000000000025, 1.702, -1.3359999999999999, -1.099], 0.8581848852901484),
    (179, [0.7130000000000001, -0.258, 0.6150000000000002, -1.673, -0.8049999999999999, -1.097, 0.28400000000000025, 1.702, -1.3359999999999999, -1.099], 0.8581848852901484),
    (180, [0.7130000000000001, -0.258, 0.6150000000000002, -1.673, -0.8049999999999999, -1.097, 0.28400000000000025, 1.702, -1.3359999999999999, -1.099], 0.8581848852901484),
    (181, [0.7130000000000001, -0.258, 0.6150000000000002, -1.673, -0.8049999999999999, -1.097, 0.28400000000000025, 1.702, -1.3359999999999999, -1.099], 0.8581848852901484),
    (182, [0.7130000000000001, -0.258, 0.6150000000000002, -1.673, -0.8049999999999999, -1.097, 0.28400000000000025, 1.702, -1.3359999999999999, -1.099], 0.8581848852901484),
    (183, [0.7130000000000001, -0.258, 0.6150000000000002, -1.673, -0.8049999999999999, -1.097, 0.28400000000000025, 1.702, -1.3359999999999999, -1.099], 0.8581848852901484),
    (184, [0.7130000000000001, -0.258, 0.6150000000000002, -1.673, -0.8049999999999999, -1.097, 0.28400000000000025, 1.702, -1.3359999999999999, -1.099], 0.8581848852901484),
    (185, [0.7130000000000001, -0.258, 0.6150000000000002, -1.673, -0.8049999999999999, -1.097, 0.28400000000000025, 1.702, -1.3359999999999999, -1.099], 0.8581848852901484),
    (186, [0.7130000000000001, -0.258, 0.6150000000000002, -1.673, -0.8049999999999999, -1.097, 0.28400000000000025, 1.702, -1.3359999999999999, -1.099], 0.8581848852901484),
    (187, [0.7130000000000001, -0.258, 0.6150000000000002, -1.673, -0.8049999999999999, -1.097, 0.28400000000000025, 1.702, -1.3359999999999999, -1.099], 0.8581848852901484),
    (188, [0.7130000000000001, -0.258, 0.6150000000000002, -1.673, -0.8049999999999999, -1.097, 0.28400000000000025, 1.702, -1.3359999999999999, -1.099], 0.8581848852901484),
    (189, [0.7130000000000001, -0.258, 0.6150000000000002, -1.673, -0.8049999999999999, -1.097, 0.28400000000000025, 1.702, -1.3359999999999999, -1.099], 0.8581848852901484),
    (190, [0.7130000000000001, -0.258, 0.6150000000000002, -1.673, -0.8049999999999999, -1.097, 0.28400000000000025, 1.702, -1.3359999999999999, -1.099], 0.8581848852901484),
    (191, [0.7130000000000001, -0.258, 0.6150000000000002, -1.673, -0.8049999999999999, -1.097, 0.28400000000000025, 1.702, -1.3359999999999999, -1.099], 0.8581848852901484),
    (192, [0.7130000000000001, -0.258, 0.6150000000000002, -1.673, -0.8049999999999999, -1.097, 0.28400000000000025, 1.702, -1.3359999999999999, -1.099], 0.8581848852901484),
    (193, [0.7130000000000001, -0.258, 0.6150000000000002, -1.673, -0.8049999999999999, -1.097, 0.28400000000000025, 1.702, -1.3359999999999999, -1.099], 0.8581848852901484),
    (194, [0.7130000000000001, -0.258, 0.6150000000000002, -1.673, -0.8049999999999999, -1.097, 0.28400000000000025, 1.702, -1.3359999999999999, -1.099], 0.8581848852901484),
    (195, [0.7130000000000001, -0.258, 0.6150000000000002, -1.673, -0.8049999999999999, -1.097, 0.28400000000000025, 1.702, -1.3359999999999999, -1.099], 0.8581848852901484),
    (196, [0.7130000000000001, -0.258, 0.6150000000000002, -1.673, -0.8049999999999999, -1.097, 0.28400000000000025, 1.702, -1.3359999999999999, -1.099], 0.8581848852901484),
    (197, [0.7130000000000001, -0.258, 0.6150000000000002, -1.673, -0.8049999999999999, -1.097, 0.28400000000000025, 1.702, -1.3359999999999999, -1.099], 0.8581848852901484),
    (198, [0.7130000000000001, -0.258, 0.6150000000000002, -1.673, -0.8049999999999999, -1.097, 0.28400000000000025, 1.702, -1.3359999999999999, -1.099], 0.8581848852901484),
    (199, [0.7130000000000001, -0.258, 0.6150000000000002, -1.673, -0.8049999999999999, -1.097, 0.28400000000000025, 1.702, -1.3359999999999999, -1.099], 0.8581848852901484),
    (200, [0.7130000000000001, -0.258, 0.6150000000000002, -1.673, -0.8049999999999999, -1.097, 0.28400000000000025, 1.702, -1.3359999999999999, -1.099], 0.8581848852901484),
    (201, [0.7130000000000001, -0.258, 0.6150000000000002, -1.673, -0.8049999999999999, -1.097, 0.28400000000000025, 1.702, -1.3359999999999999, -1.099], 0.8581848852901484),
    (202, [0.7130000000000001, -0.258, 0.6150000000000002, -1.673, -0.8049999999999999, -1.097, 0.28400000000000025, 1.702, -1.3359999999999999, -1.099], 0.8581848852901484),
    (203, [0.7130000000000001, -0.258, 0.6150000000000002, -1.673, -0.8049999999999999, -1.097, 0.28400000000000025, 1.702, -1.3359999999999999, -1.099], 0.8581848852901484),
    (204, [0.7130000000000001, -0.258, 0.6150000000000002, -1.673, -0.8049999999999999, -1.097, 0.28400000000000025, 1.702, -1.3359999999999999, -1.099], 0.8581848852901484),
    (205, [0.7130000000000001, -0.258, 0.6150000000000002, -1.673, -0.8049999999999999, -1.097, 0.28400000000000025, 1.702, -1.3359999999999999, -1.099], 0.8581848852901484),
    (206, [0.7130000000000001, -0.258, 0.6150000000000002, -1.673, -0.8049999999999999, -1.097, 0.28400000000000025, 1.702, -1.3359999999999999, -1.099], 0.8581848852901484),
    (207, [0.7130000000000001, -0.258, 0.6150000000000002, -1.673, -0.8049999999999999, -1.097, 0.28400000000000025, 1.702, -1.3359999999999999, -1.099], 0.8581848852901484),
    (208, [0.7130000000000001, -0.258, 0.6150000000000002, -1.673, -0.8049999999999999, -1.097, 0.28400000000000025, 1.702, -1.3359999999999999, -1.099], 0.8581848852901484),
    (209, [0.7130000000000001, -0.258, 0.6150000000000002, -1.673, -0.8049999999999999, -1.097, 0.28400000000000025, 1.702, -1.3359999999999999, -1.099], 0.8581848852901484),
    (210, [0.7130000000000001, -0.258, 0.6150000000000002, -1.673, -0.8049999999999999, -1.097, 0.28400000000000025, 1.702, -1.3359999999999999, -1.099], 0.8581848852901484),
    (211, [0.7130000000000001, -0.258, 0.6150000000000002, -1.673, -0.8049999999999999, -1.097, 0.28400000000000025, 1.702, -1.3359999999999999, -1.099], 0.8581848852901484),
    (212, [0.7130000000000001, -0.258, 0.6150000000000002, -1.673, -0.8049999999999999, -1.097, 0.28400000000000025, 1.702, -1.3359999999999999, -1.099], 0.8581848852901484),
    (213, [0.7130000000000001, -0.258, 0.6150000000000002, -1.673, -0.8049999999999999, -1.097, 0.28400000000000025, 1.702, -1.3359999999999999, -1.099], 0.8581848852901484),
    (214, [0.7130000000000001, -0.258, 0.6150000000000002, -1.673, -0.8049999999999999, -1.097, 0.28400000000000025, 1.702, -1.3359999999999999, -1.099], 0.8581848852901484),
    (215, [0.7130000000000001, -0.258, 0.6150000000000002, -1.673, -0.8049999999999999, -1.097, 0.28400000000000025, 1.702, -1.3359999999999999, -1.099], 0.8581848852901484),
    (216, [0.7130000000000001, -0.258, 0.6150000000000002, -1.673, -0.8049999999999999, -1.097, 0.28400000000000025, 1.702, -1.3359999999999999, -1.099], 0.8581848852901484),
    (217, [0.7130000000000001, -0.258, 0.6150000000000002, -1.673, -0.8049999999999999, -1.097, 0.28400000000000025, 1.702, -1.3359999999999999, -1.099], 0.8581848852901484),
    (218, [0.7130000000000001, -0.258, 0.6150000000000002, -1.673, -0.8049999999999999, -1.097, 0.28400000000000025, 1.702, -1.3359999999999999, -1.099], 0.8581848852901484),
    (219, [0.7130000000000001, -0.258, 0.6150000000000002, -1.673, -0.8049999999999999, -1.097, 0.28400000000000025, 1.702, -1.3359999999999999, -1.099], 0.8581848852901484),
    (220, [0.7130000000000001, -0.258, 0.6150000000000002, -1.673, -0.8049999999999999, -1.097, 0.28400000000000025, 1.702, -1.3359999999999999, -1.099], 0.8581848852901484),
    (221, [0.7130000000000001, -0.258, 0.6150000000000002, -1.673, -0.8049999999999999, -1.097, 0.28400000000000025, 1.702, -1.3359999999999999, -1.099], 0.8581848852901484),
    (222, [0.7130000000000001, -0.258, 0.6150000000000002, -1.673, -0.8049999999999999, -1.097, 0.28400000000000025, 1.702, -1.3359999999999999, -1.099], 0.8581848852901484),
    (223, [0.7130000000000001, -0.258, 0.6150000000000002, -1.673, -0.8049999999999999, -1.097, 0.28400000000000025, 1.702, -1.3359999999999999, -1.099], 0.8581848852901484),
    (224, [0.7130000000000001, -0.258, 0.6150000000000002, -1.673, -0.8049999999999999, -1.097, 0.28400000000000025, 1.702, -1.3359999999999999, -1.099], 0.8581848852901484),
    (225, [0.7130000000000001, -0.258, 0.6150000000000002, -1.673, -0.8049999999999999, -1.097, 0.28400000000000025, 1.702, -1.3359999999999999, -1.099], 0.8581848852901484),
    (226, [0.7130000000000001, -0.258, 0.6150000000000002, -1.673, -0.8049999999999999, -1.097, 0.28400000000000025, 1.702, -1.3359999999999999, -1.099], 0.8581848852901484),
    (227, [0.7130000000000001, -0.258, 0.6150000000000002, -1.673, -0.8049999999999999, -1.097, 0.28400000000000025, 1.702, -1.3359999999999999, -1.099], 0.8581848852901484),
    (228, [0.7130000000000001, -0.258, 0.6150000000000002, -1.673, -0.8049999999999999, -1.097, 0.28400000000000025, 1.702, -1.3359999999999999, -1.099], 0.8581848852901484),
    (229, [0.7130000000000001, -0.258, 0.6150000000000002, -1.673, -0.8049999999999999, -1.097, 0.28400000000000025, 1.702, -1.3359999999999999, -1.099], 0.8581848852901484),
    (230, [0.7130000000000001, -0.258, 0.6150000000000002, -1.673, -0.8049999999999999, -1.097, 0.28400000000000025, 1.702, -1.3359999999999999, -1.099], 0.8581848852901484),
    (231, [0.7130000000000001, -0.258, 0.6150000000000002, -1.673, -0.8049999999999999, -1.097, 0.28400000000000025, 1.702, -1.3359999999999999, -1.099], 0.8581848852901484),
    (232, [0.7130000000000001, -0.258, 0.6150000000000002, -1.673, -0.8049999999999999, -1.097, 0.28400000000000025, 1.702, -1.3359999999999999, -1.099], 0.8581848852901484),
    (233, [0.7130000000000001, -0.258, 0.6150000000000002, -1.673, -0.8049999999999999, -1.097, 0.28400000000000025, 1.702, -1.3359999999999999, -1.099], 0.8581848852901484),
    (234, [0.7130000000000001, -0.258, 0.6150000000000002, -1.673, -0.8049999999999999, -1.097, 0.28400000000000025, 1.702, -1.3359999999999999, -1.099], 0.8581848852901484),
    (235, [0.7130000000000001, -0.258, 0.6150000000000002, -1.673, -0.8049999999999999, -1.097, 0.28400000000000025, 1.702, -1.3359999999999999, -1.099], 0.8581848852901484),
    (236, [0.7130000000000001, -0.258, 0.6150000000000002, -1.673, -0.8049999999999999, -1.097, 0.28400000000000025, 1.702, -1.3359999999999999, -1.099], 0.8581848852901484),
    (237, [0.7130000000000001, -0.258, 0.6150000000000002, -1.673, -0.8049999999999999, -1.097, 0.28400000000000025, 1.702, -1.3359999999999999, -1.099], 0.8581848852901484),
    (238, [0.7130000000000001, -0.258, 0.6150000000000002, -1.673, -0.8049999999999999, -1.097, 0.28400000000000025, 1.702, -1.3359999999999999, -1.099], 0.8581848852901484),
    (239, [0.7130000000000001, -0.258, 0.6150000000000002, -1.673, -0.8049999999999999, -1.097, 0.28400000000000025, 1.702, -1.3359999999999999, -1.099], 0.8581848852901484),
    (240, [0.7130000000000001, -0.258, 0.6150000000000002, -1.673, -0.8049999999999999, -1.097, 0.28400000000000025, 1.702, -1.3359999999999999, -1.099], 0.8581848852901484),
    (241, [0.7130000000000001, -0.258, 0.6150000000000002, -1.673, -0.8049999999999999, -1.097, 0.28400000000000025, 1.702, -1.3359999999999999, -1.099], 0.8581848852901484),
    (242, [0.7130000000000001, -0.258, 0.6150000000000002, -1.673, -0.8049999999999999, -1.097, 0.28400000000000025, 1.702, -1.3359999999999999, -1.099], 0.8581848852901484),
    (243, [0.7130000000000001, -0.258, 0.6150000000000002, -1.673, -0.8049999999999999, -1.097, 0.28400000000000025, 1.702, -1.3359999999999999, -1.099], 0.8581848852901484),
    (244, [0.7130000000000001, -0.258, 0.6150000000000002, -1.673, -0.8049999999999999, -1.097, 0.28400000000000025, 1.702, -1.3359999999999999, -1.099], 0.8581848852901484),
    (245, [0.7130000000000001, -0.258, 0.6150000000000002, -1.673, -0.8049999999999999, -1.097, 0.28400000000000025, 1.702, -1.3359999999999999, -1.099], 0.8581848852901484),
    (246, [0.7130000000000001, -0.258, 0.6150000000000002, -1.673, -0.8049999999999999, -1.097, 0.28400000000000025, 1.702, -1.3359999999999999, -1.099], 0.8581848852901484),
    (247, [0.7130000000000001, -0.258, 0.6150000000000002, -1.673, -0.8049999999999999, -1.097, 0.28400000000000025, 1.702, -1.3359999999999999, -1.099], 0.8581848852901484),
    (248, [0.7130000000000001, -0.258, 0.6150000000000002, -1.673, -0.8049999999999999, -1.097, 0.28400000000000025, 1.702, -1.3359999999999999, -1.099], 0.8581848852901484),
    (249, [0.7130000000000001, -0.258, 0.6150000000000002, -1.673, -0.8049999999999999, -1.097, 0.28400000000000025, 1.702, -1.3359999999999999, -1.099], 0.8581848852901484),
    (250, [0.7130000000000001, -0.258, 0.6150000000000002, -1.673, -0.8049999999999999, -1.097, 0.28400000000000025, 1.702, -1.3359999999999999, -1.099], 0.8581848852901484),
    (251, [0.7130000000000001, -0.258, 0.6150000000000002, -1.673, -0.8049999999999999, -1.097, 0.28400000000000025, 1.702, -1.3359999999999999, -1.099], 0.8581848852901484),
    (252, [0.7130000000000001, -0.258, 0.6150000000000002, -1.673, -0.8049999999999999, -1.097, 0.28400000000000025, 1.702, -1.3359999999999999, -1.099], 0.8581848852901484),
    (253, [0.7130000000000001, -0.258, 0.6150000000000002, -1.673, -0.8049999999999999, -1.097, 0.28400000000000025, 1.702, -1.3359999999999999, -1.099], 0.8581848852901484),
    (254, [0.7130000000000001, -0.258, 0.6150000000000002, -1.673, -0.8049999999999999, -1.097, 0.28400000000000025, 1.702, -1.3359999999999999, -1.099], 0.8581848852901484),
    (255, [0.7130000000000001, -0.258, 0.6150000000000002, -1.673, -0.8049999999999999, -1.097, 0.28400000000000025, 1.702, -1.3359999999999999, -1.099], 0.8581848852901484),
    (256, [0.7130000000000001, -0.258, 0.6150000000000002, -1.673, -0.8049999999999999, -1.097, 0.28400000000000025, 1.702, -1.3359999999999999, -1.099], 0.8581848852901484),
    (257, [0.7130000000000001, -0.258, 0.6150000000000002, -1.673, -0.8049999999999999, -1.097, 0.28400000000000025, 1.702, -1.3359999999999999, -1.099], 0.8581848852901484),
    (258, [0.7130000000000001, -0.258, 0.6150000000000002, -1.673, -0.8049999999999999, -1.097, 0.28400000000000025, 1.702, -1.3359999999999999, -1.099], 0.8581848852901484),
    (259, [0.7130000000000001, -0.258, 0.6150000000000002, -1.673, -0.8049999999999999, -1.097, 0.28400000000000025, 1.702, -1.3359999999999999, -1.099], 0.8581848852901484),
    (260, [0.7130000000000001, -0.258, 0.6150000000000002, -1.673, -0.8049999999999999, -1.097, 0.28400000000000025, 1.702, -1.3359999999999999, -1.099], 0.8581848852901484),
    (261, [0.7130000000000001, -0.258, 0.6150000000000002, -1.673, -0.8049999999999999, -1.097, 0.28400000000000025, 1.702, -1.3359999999999999, -1.099], 0.8581848852901484),
    (262, [0.7130000000000001, -0.258, 0.6150000000000002, -1.673, -0.8049999999999999, -1.097, 0.28400000000000025, 1.702, -1.3359999999999999, -1.099], 0.8581848852901484),
    (263, [0.7130000000000001, -0.258, 0.6150000000000002, -1.673, -0.8049999999999999, -1.097, 0.28400000000000025, 1.702, -1.3359999999999999, -1.099], 0.8581848852901484),
    (264, [0.7130000000000001, -0.258, 0.6150000000000002, -1.673, -0.8049999999999999, -1.097, 0.28400000000000025, 1.702, -1.3359999999999999, -1.099], 0.8581848852901484),
    (265, [0.7130000000000001, -0.258, 0.6150000000000002, -1.673, -0.8049999999999999, -1.097, 0.28400000000000025, 1.702, -1.3359999999999999, -1.099], 0.8581848852901484),
    (266, [0.7130000000000001, -0.258, 0.6150000000000002, -1.673, -0.8049999999999999, -1.097, 0.28400000000000025, 1.702, -1.3359999999999999, -1.099], 0.8581848852901484),
    (267, [0.7130000000000001, -0.258, 0.6150000000000002, -1.673, -0.8049999999999999, -1.097, 0.28400000000000025, 1.702, -1.3359999999999999, -1.099], 0.8581848852901484),
    (268, [0.7130000000000001, -0.258, 0.6150000000000002, -1.673, -0.8049999999999999, -1.097, 0.28400000000000025, 1.702, -1.3359999999999999, -1.099], 0.8581848852901484),
    (269, [0.7130000000000001, -0.258, 0.6150000000000002, -1.673, -0.8049999999999999, -1.097, 0.28400000000000025, 1.702, -1.3359999999999999, -1.099], 0.8581848852901484),
    (270, [0.7130000000000001, -0.258, 0.6150000000000002, -1.673, -0.8049999999999999, -1.097, 0.28400000000000025, 1.702, -1.3359999999999999, -1.099], 0.8581848852901484),
    (271, [0.7130000000000001, -0.258, 0.6150000000000002, -1.673, -0.8049999999999999, -1.097, 0.28400000000000025, 1.702, -1.3359999999999999, -1.099], 0.8581848852901484),
    (272, [0.7130000000000001, -0.258, 0.6150000000000002, -1.673, -0.8049999999999999, -1.097, 0.28400000000000025, 1.702, -1.3359999999999999, -1.099], 0.8581848852901484),
    (273, [0.7130000000000001, -0.258, 0.6150000000000002, -1.673, -0.8049999999999999, -1.097, 0.28400000000000025, 1.702, -1.3359999999999999, -1.099], 0.8581848852901484),
    (274, [0.7130000000000001, -0.258, 0.6150000000000002, -1.673, -0.8049999999999999, -1.097, 0.28400000000000025, 1.702, -1.3359999999999999, -1.099], 0.8581848852901484),
    (275, [0.7130000000000001, -0.258, 0.6150000000000002, -1.673, -0.8049999999999999, -1.097, 0.28400000000000025, 1.702, -1.3359999999999999, -1.099], 0.8581848852901484),
    (276, [0.7130000000000001, -0.258, 0.6150000000000002, -1.673, -0.8049999999999999, -1.097, 0.28400000000000025, 1.702, -1.3359999999999999, -1.099], 0.8581848852901484),
    (277, [0.7130000000000001, -0.258, 0.6150000000000002, -1.673, -0.8049999999999999, -1.097, 0.28400000000000025, 1.702, -1.3359999999999999, -1.099], 0.8581848852901484),
    (278, [0.7130000000000001, -0.258, 0.6150000000000002, -1.673, -0.8049999999999999, -1.097, 0.28400000000000025, 1.702, -1.3359999999999999, -1.099], 0.8581848852901484),
    (279, [0.7130000000000001, -0.258, 0.6150000000000002, -1.673, -0.8049999999999999, -1.097, 0.28400000000000025, 1.702, -1.3359999999999999, -1.099], 0.8581848852901484),
    (280, [0.7130000000000001, -0.258, 0.6150000000000002, -1.673, -0.8049999999999999, -1.097, 0.28400000000000025, 1.702, -1.3359999999999999, -1.099], 0.8581848852901484),
    (281, [0.7130000000000001, -0.258, 0.6150000000000002, -1.673, -0.8049999999999999, -1.097, 0.28400000000000025, 1.702, -1.3359999999999999, -1.099], 0.8581848852901484),
    (282, [0.7130000000000001, -0.258, 0.6150000000000002, -1.673, -0.8049999999999999, -1.097, 0.28400000000000025, 1.702, -1.3359999999999999, -1.099], 0.8581848852901484),
    (283, [0.7130000000000001, -0.258, 0.6150000000000002, -1.673, -0.8049999999999999, -1.097, 0.28400000000000025, 1.702, -1.3359999999999999, -1.099], 0.8581848852901484),
    (284, [0.7130000000000001, -0.258, 0.6150000000000002, -1.673, -0.8049999999999999, -1.097, 0.28400000000000025, 1.702, -1.3359999999999999, -1.099], 0.8581848852901484),
    (285, [0.7130000000000001, -0.258, 0.6150000000000002, -1.673, -0.8049999999999999, -1.097, 0.28400000000000025, 1.702, -1.3359999999999999, -1.099], 0.8581848852901484),
    (286, [0.7130000000000001, -0.258, 0.6150000000000002, -1.673, -0.8049999999999999, -1.097, 0.28400000000000025, 1.702, -1.3359999999999999, -1.099], 0.8581848852901484),
    (287, [0.7130000000000001, -0.258, 0.6150000000000002, -1.673, -0.8049999999999999, -1.097, 0.28400000000000025, 1.702, -1.3359999999999999, -1.099], 0.8581848852901484),
    (288, [0.7130000000000001, -0.258, 0.6150000000000002, -1.673, -0.8049999999999999, -1.097, 0.28400000000000025, 1.702, -1.3359999999999999, -1.099], 0.8581848852901484),
    (289, [0.7130000000000001, -0.258, 0.6150000000000002, -1.673, -0.8049999999999999, -1.097, 0.28400000000000025, 1.702, -1.3359999999999999, -1.099], 0.8581848852901484),
    (290, [0.7130000000000001, -0.258, 0.6150000000000002, -1.673, -0.8049999999999999, -1.097, 0.28400000000000025, 1.702, -1.3359999999999999, -1.099], 0.8581848852901484),
    (291, [0.7130000000000001, -0.258, 0.6150000000000002, -1.673, -0.8049999999999999, -1.097, 0.28400000000000025, 1.702, -1.3359999999999999, -1.099], 0.8581848852901484),
    (292, [-1.018, 1.2650000000000001, -1.205, 0.04499999999999993, 0.19799999999999995, 0.5409999999999999, -0.7709999999999999, -0.758, -0.526, -0.8919999999999999], 0.8631848852901485),
    (293, [-1.018, 1.2650000000000001, -1.205, 0.04499999999999993, 0.19799999999999995, 0.5409999999999999, -0.7709999999999999, -0.758, -0.526, -0.8919999999999999], 0.8631848852901485),
    (294, [-1.018, 1.2650000000000001, -1.205, 0.04499999999999993, 0.19799999999999995, 0.5409999999999999, -0.7709999999999999, -0.758, -0.526, -0.8919999999999999], 0.8631848852901485),
    (295, [-1.018, 1.2650000000000001, -1.205, 0.04499999999999993, 0.19799999999999995, 0.5409999999999999, -0.7709999999999999, -0.758, -0.526, -0.8919999999999999], 0.8631848852901485),
    (296, [-1.018, 1.2650000000000001, -1.205, 0.04499999999999993, 0.19799999999999995, 0.5409999999999999, -0.7709999999999999, -0.758, -0.526, -0.8919999999999999], 0.8631848852901485),
    (297, [-1.018, 1.2650000000000001, -1.205, 0.04499999999999993, 0.19799999999999995, 0.5409999999999999, -0.7709999999999999, -0.758, -0.526, -0.8919999999999999], 0.8631848852901485),
    (298, [-1.018, 1.2650000000000001, -1.205, 0.04499999999999993, 0.19799999999999995, 0.5409999999999999, -0.7709999999999999, -0.758, -0.526, -0.8919999999999999], 0.8631848852901485),
    (299, [-1.018, 1.2650000000000001, -1.205, 0.04499999999999993, 0.19799999999999995, 0.5409999999999999, -0.7709999999999999, -0.758, -0.526, -0.8919999999999999], 0.8631848852901485),
]

