ranges of every chromosome : (-2, 2)
    selection method is: LinearRankingSelection
    crossover method is: UniformCrossover
    pc: The probability of crossover: 0.700000
    pe: Gene exchange probability: 0.500000
    mutation method is: FlipBitBigMutation
    pm: The probability of mutation: 0.200000
    pbm: The probability of big mutation: 0.500000
    alpha: intensive factor: 0.750000
best_fit = [
    (0, [1, 1, 1, 1, 1, 1, 1, 1, 1, 1], 0.8480499325236167),
    (1, [1, 1, 1, 1, 1, 1, 1, 1, 1, 1], 0.8480499325236167),
    (2, [1, 1, 1, 1, 1, 1, 1, 1, 1, 1], 0.8480499325236167),
    (3, [1, 1, 1, 1, 1, 1, 1, 1, 1, 1], 0.8480499325236167),
    (4, [1, 1, 1, 1, 1, 1, 1, 1, 1, 1], 0.8480499325236167),
    (5, [1, 1, 1, 1, 1, 1, 1, 1, 1, 1], 0.8480499325236167),
    (6, [1, 1, 1, 1, 1, 1, 1, 1, 1, 1], 0.8480499325236167),
    (7, [1, 1, 1, 1, 1, 1, 1, 1, 1, 1], 0.8480499325236167),
    (8, [1.0700000000000003, -0.756, -1.0819999999999999, -0.274, -0.30200000000000005, 0.06599999999999984, -1.568, 0.6600000000000001, -0.687, 0.18599999999999994], 0.8526653171390013),
    (9, [1.0700000000000003, -0.756, -1.0819999999999999, -0.274, -0.30200000000000005, 0.06599999999999984, -1.568, 0.6600000000000001, -0.687, 0.18599999999999994], 0.8526653171390013),
    (10, [1.0700000000000003, -0.756, -1.0819999999999999, -0.274, -0.30200000000000005, 0.06599999999999984, -1.568, 0.6600000000000001, -0.687, 0.18599999999999994], 0.8526653171390013),
    (11, [1.0700000000000003, -0.756, -1.0819999999999999, -0.274, -0.30200000000000005, 0.06599999999999984, -1.568, 0.6600000000000001, -0.687, 0.18599999999999994], 0.8526653171390013),
    (12, [1.0700000000000003, -0.756, -1.0819999999999999, -0.274, -0.30200000000000005, 0.06599999999999984, -1.568, 0.6600000000000001, -0.687, 0.18599999999999994], 0.8526653171390013),
    (13, [1.0700000000000003, -0.756, -1.0819999999999999, -0.274, -0.30200000000000005, 0.06599999999999984, -1.568, 0.6600000000000001, -0.687, 0.18599999999999994], 0.8526653171390013),
    (14, [1.0700000000000003, -0.756, -1.0819999999999999, -0.274, -0.30200000000000005, 0.06599999999999984, -1.568, 0.6600000000000001, -0.687, 0.18599999999999994], 0.8526653171390013),
    (15, [1.0700000000000003, -0.756, -1.0819999999999999, -0.274, -0.30200000000000005, 0.06599999999999984, -1.568, 0.6600000000000001, -0.687, 0.18599999999999994], 0.8526653171390013),
    (16, [1.0700000000000003, -0.756, -1.0819999999999999, -0.274, -0.30200000000000005, 0.06599999999999984, -1.568, 0.6600000000000001, -0.687, 0.18599999999999994], 0.8526653171390013),
    (17, [1.0700000000000003, -0.756, -1.0819999999999999, -0.274, -0.30200000000000005, 0.06599999999999984, -1.568, 0.6600000000000001, -0.687, 0.18599999999999994], 0.8526653171390013),
    (18, [1.0700000000000003, -0.756, -1.0819999999999999, -0.274, -0.30200000000000005, 0.06599999999999984, -1.568, 0.6600000000000001, -0.687, 0.18599999999999994], 0.8526653171390013),
    (19, [1.0660000000000003, 1.1590000000000003, -0.9410000000000001, 1.751, 0.6920000000000002, -0.8799999999999999, -1.827, 0.8359999999999999, -0.8779999999999999, -0.1419999999999999], 0.8533130904183537),
    (20, [1.0660000000000003, 1.1590000000000003, -0.9410000000000001, 1.751, 0.6920000000000002, -0.8799999999999999, -1.827, 0.8359999999999999, -0.8779999999999999, -0.1419999999999999], 0.8533130904183537),
    (21, [1.0660000000000003, 1.1590000000000003, -0.9410000000000001, 1.751, 0.6920000000000002, -0.8799999999999999, -1.827, 0.8359999999999999, -0.8779999999999999, -0.1419999999999999], 0.8533130904183537),
    (22, [1.0660000000000003, 1.1590000000000003, -0.9410000000000001, 1.751, 0.6920000000000002, -0.8799999999999999, -1.827, 0.8359999999999999, -0.8779999999999999, -0.1419999999999999], 0.8533130904183537),
    (23, [1.0660000000000003, 1.1590000000000003, -0.9410000000000001, 1.751, 0.6920000000000002, -0.8799999999999999, -1.827, 0.8359999999999999, -0.8779999999999999, -0.1419999999999999], 0.8533130904183537),
    (24, [1.0660000000000003, 1.1590000000000003, -0.9410000000000001, 1.751, 0.6920000000000002, -0.8799999999999999, -1.827, 0.8359999999999999, -0.8779999999999999, -0.1419999999999999], 0.8533130904183537),
    (25, [1.0660000000000003, 1.1590000000000003, -0.9410000000000001, 1.751, 0.6920000000000002, -0.8799999999999999, -1.827, 0.8359999999999999, -0.8779999999999999, -0.1419999999999999], 0.8533130904183537),
    (26, [0.9170000000000003, -0.9510000000000001, -1.674, 1.064, -1.0, -0.2589999999999999, -0.4159999999999999, -1.462, 1.162, -0.631], 0.8581781376518218),
    (27, [0.9170000000000003, -0.9510000000000001, -1.674, 1.064, -1.0, -0.2589999999999999, -0.4159999999999999, -1.462, 1.162, -0.631], 0.8581781376518218),
    (28, [0.9170000000000003, -0.9510000000000001, -1.674, 1.064, -1.0, -0.2589999999999999, -0.4159999999999999, -1.462, 1.162, -0.631], 0.8581781376518218),
    (29, [0.9170000000000003, -0.9510000000000001, -1.674, 1.064, -1.0, -0.2589999999999999, -0.4159999999999999, -1.462, 1.162, -0.631], 0.8581781376518218),
    (30, [0.9170000000000003, -0.9510000000000001, -1.674, 1.064, -1.0, -0.2589999999999999, -0.4159999999999999, -1.462, 1.162, -0.631], 0.8581781376518218),
    (31, [0.9170000000000003, -0.9510000000000001, -1.674, 1.064, -1.0, -0.2589999999999999, -0.4159999999999999, -1.462, 1.162, -0.631], 0.8581781376518218),
    (32, [0.9170000000000003, -0.9510000000000001, -1.674, 1.064, -1.0, -0.2589999999999999, -0.4159999999999999, -1.462, 1.162, -0.631], 0.8581781376518218),
    (33, [0.9170000000000003, -0.9510000000000001, -1.674, 1.064, -1.0, -0.2589999999999999, -0.4159999999999999, -1.462, 1.162, -0.631], 0.8581781376518218),
    (34, [0.9170000000000003, -0.9510000000000001, -1.674, 1.064, -1.0, -0.2589999999999999, -0.4159999999999999, -1.462, 1.162, -0.631], 0.8581781376518218),
    (35, [0.9170000000000003, -0.9510000000000001, -1.674, 1.064, -1.0, -0.2589999999999999, -0.4159999999999999, -1.462, 1.162, -0.631], 0.8581781376518218),
    (36, [0.9170000000000003, -0.9510000000000001, -1.674, 1.064, -1.0, -0.2589999999999999, -0.4159999999999999, -1.462, 1.162, -0.631], 0.8581781376518218),
    (37, [0.9170000000000003, -0.9510000000000001, -1.674, 1.064, -1.0, -0.2589999999999999, -0.4159999999999999, -1.462, 1.162, -0.631], 0.8581781376518218),
    (38, [0.9170000000000003, -0.9510000000000001, -1.674, 1.064, -1.0, -0.2589999999999999, -0.4159999999999999, -1.462, 1.162, -0.631], 0.8581781376518218),
    (39, [0.9170000000000003, -0.9510000000000001, -1.674, 1.064, -1.0, -0.2589999999999999, -0.4159999999999999, -1.462, 1.162, -0.631], 0.8581781376518218),
    (40, [0.9170000000000003, -0.9510000000000001, -1.674, 1.064, -1.0, -0.2589999999999999, -0.4159999999999999, -1.462, 1.162, -0.631], 0.8581781376518218),
    (41, [0.9170000000000003, -0.9510000000000001, -1.674, 1.064, -1.0, -0.2589999999999999, -0.4159999999999999, -1.462, 1.162, -0.631], 0.8581781376518218),
    (42, [0.9170000000000003, -0.9510000000000001, -1.674, 1.064, -1.0, -0.2589999999999999, -0.4159999999999999, -1.462, 1.162, -0.631], 0.8581781376518218),
    (43, [0.9170000000000003, -0.9510000000000001, -1.674, 1.064, -1.0, -0.2589999999999999, -0.4159999999999999, -1.462, 1.162, -0.631], 0.8581781376518218),
    (44, [0.9170000000000003, -0.9510000000000001, -1.674, 1.064, -1.0, -0.2589999999999999, -0.4159999999999999, -1.462, 1.162, -0.631], 0.8581781376518218),
    (45, [0.9170000000000003, -0.9510000000000001, -1.674, 1.064, -1.0, -0.2589999999999999, -0.4159999999999999, -1.462, 1.162, -0.631], 0.8581781376518218),
    (46, [0.9170000000000003, -0.9510000000000001, -1.674, 1.064, -1.0, -0.2589999999999999, -0.4159999999999999, -1.462, 1.162, -0.631], 0.8581781376518218),
    (47, [0.9170000000000003, -0.9510000000000001, -1.674, 1.064, -1.0, -0.2589999999999999, -0.4159999999999999, -1.462, 1.162, -0.631], 0.8581781376518218),
    (48, [0.9170000000000003, -0.9510000000000001, -1.674, 1.064, -1.0, -0.2589999999999999, -0.4159999999999999, -1.462, 1.162, -0.631], 0.8581781376518218),
    (49, [0.9170000000000003, -0.9510000000000001, -1.674, 1.064, -1.0, -0.2589999999999999, -0.4159999999999999, -1.462, 1.162, -0.631], 0.8581781376518218),
    (50, [0.9170000000000003, -0.9510000000000001, -1.674, 1.064, -1.0, -0.2589999999999999, -0.4159999999999999, -1.462, 1.162, -0.631], 0.8581781376518218),
    (51, [0.9170000000000003, -0.9510000000000001, -1.674, 1.064, -1.0, -0.2589999999999999, -0.4159999999999999, -1.462, 1.162, -0.631], 0.8581781376518218),
    (52, [0.9170000000000003, -0.9510000000000001, -1.674, 1.064, -1.0, -0.2589999999999999, -0.4159999999999999, -1.462, 1.162, -0.631], 0.8581781376518218),
    (53, [0.9170000000000003, -0.9510000000000001, -1.674, 1.064, -1.0, -0.2589999999999999, -0.4159999999999999, -1.462, 1.162, -0.631], 0.8581781376518218),
    (54, [0.9170000000000003, -0.9510000000000001, -1.674, 1.064, -1.0, -0.2589999999999999, -0.4159999999999999, -1.462, 1.162, -0.631], 0.8581781376518218),
    (55, [0.9170000000000003, -0.9510000000000001, -1.674, 1.064, -1.0, -0.2589999999999999, -0.4159999999999999, -1.462, 1.162, -0.631], 0.8581781376518218),
    (56, [0.9170000000000003, -0.9510000000000001, -1.674, 1.064, -1.0, -0.2589999999999999, -0.4159999999999999, -1.462, 1.162, -0.631], 0.8581781376518218),
    (57, [0.9170000000000003, -0.9510000000000001, -1.674, 1.064, -1.0, -0.2589999999999999, -0.4159999999999999, -1.462, 1.162, -0.631], 0.8581781376518218),
    (58, [0.9170000000000003, -0.9510000000000001, -1.674, 1.064, -1.0, -0.2589999999999999, -0.4159999999999999, -1.462, 1.162, -0.631], 0.8581781376518218),
    (59, [0.9170000000000003, -0.9510000000000001, -1.674, 1.064, -1.0, -0.2589999999999999, -0.4159999999999999, -1.462, 1.162, -0.631], 0.8581781376518218),
    (60, [0.9170000000000003, -0.9510000000000001, -1.674, 1.064, -1.0, -0.2589999999999999, -0.4159999999999999, -1.462, 1.162, -0.631], 0.8581781376518218),
    (61, [0.9170000000000003, -0.9510000000000001, -1.674, 1.064, -1.0, -0.2589999999999999, -0.4159999999999999, -1.462, 1.162, -0.631], 0.8581781376518218),
    (62, [0.9170000000000003, -0.9510000000000001, -1.674, 1.064, -1.0, -0.2589999999999999, -0.4159999999999999, -1.462, 1.162, -0.631], 0.8581781376518218),
    (63, [0.9170000000000003, -0.9510000000000001, -1.674, 1.064, -1.0, -0.2589999999999999, -0.4159999999999999, -1.462, 1.162, -0.631], 0.8581781376518218),
    (64, [0.9170000000000003, -0.9510000000000001, -1.674, 1.064, -1.0, -0.2589999999999999, -0.4159999999999999, -1.462, 1.162, -0.631], 0.8581781376518218),
    (65, [0.9170000000000003, -0.9510000000000001, -1.674, 1.064, -1.0, -0.2589999999999999, -0.4159999999999999, -1.462, 1.162, -0.631], 0.8581781376518218),
    (66, [0.9170000000000003, -0.9510000000000001, -1.674, 1.064, -1.0, -0.2589999999999999, -0.4159999999999999, -1.462, 1.162, -0.631], 0.8581781376518218),
    (67, [0.9170000000000003, -0.9510000000000001, -1.674, 1.064, -1.0, -0.2589999999999999, -0.4159999999999999, -1.462, 1.162, -0.631], 0.8581781376518218),
    (68, [0.9170000000000003, -0.9510000000000001, -1.674, 1.064, -1.0, -0.2589999999999999, -0.4159999999999999, -1.462, 1.162, -0.631], 0.8581781376518218),
    (69, [0.9170000000000003, -0.9510000000000001, -1.674, 1.064, -1.0, -0.2589999999999999, -0.4159999999999999, -1.462, 1.162, -0.631], 0.8581781376518218),
    (70, [0.9170000000000003, -0.9510000000000001, -1.674, 1.064, -1.0, -0.2589999999999999, -0.4159999999999999, -1.462, 1.162, -0.631], 0.8581781376518218),
    (71, [0.9170000000000003, -0.9510000000000001, -1.674, 1.064, -1.0, -0.2589999999999999, -0.4159999999999999, -1.462, 1.162, -0.631], 0.8581781376518218),
    (72, [0.9170000000000003, -0.9510000000000001, -1.674, 1.064, -1.0, -0.2589999999999999, -0.4159999999999999, -1.462, 1.162, -0.631], 0.8581781376518218),
    (73, [0.9170000000000003, -0.9510000000000001, -1.674, 1.064, -1.0, -0.2589999999999999, -0.4159999999999999, -1.462, 1.162, -0.631], 0.8581781376518218),
    (74, [0.9170000000000003, -0.9510000000000001, -1.674, 1.064, -1.0, -0.2589999999999999, -0.4159999999999999, -1.462, 1.162, -0.631], 0.8581781376518218),
    (75, [0.9170000000000003, -0.9510000000000001, -1.674, 1.064, -1.0, -0.2589999999999999, -0.4159999999999999, -1.462, 1.162, -0.631], 0.8581781376518218),
    (76, [0.9170000000000003, -0.9510000000000001, -1.674, 1.064, -1.0, -0.2589999999999999, -0.4159999999999999, -1.462, 1.162, -0.631], 0.8581781376518218),
    (77, [0.9170000000000003, -0.9510000000000001, -1.674, 1.064, -1.0, -0.2589999999999999, -0.4159999999999999, -1.462, 1.162, -0.631], 0.8581781376518218),
    (78, [0.9170000000000003, -0.9510000000000001, -1.674, 1.064, -1.0, -0.2589999999999999, -0.4159999999999999, -1.462, 1.162, -0.631], 0.8581781376518218),
    (79, [0.9170000000000003, -0.9510000000000001, -1.674, 1.064, -1.0, -0.2589999999999999, -0.4159999999999999, -1.462, 1.162, -0.631], 0.8581781376518218),
    (80, [0.9170000000000003, -0.9510000000000001, -1.674, 1.064, -1.0, -0.2589999999999999, -0.4159999999999999, -1.462, 1.162, -0.631], 0.8581781376518218),
    (81, [0.9170000000000003, -0.9510000000000001, -1.674, 1.064, -1.0, -0.2589999999999999, -0.4159999999999999, -1.462, 1.162, -0.631], 0.8581781376518218),
    (82, [0.9170000000000003, -0.9510000000000001, -1.674, 1.064, -1.0, -0.2589999999999999, -0.4159999999999999, -1.462, 1.162, -0.631], 0.8581781376518218),
    (83, [0.9170000000000003, -0.9510000000000001, -1.674, 1.064, -1.0, -0.2589999999999999, -0.4159999999999999, -1.462, 1.162, -0.631], 0.8581781376518218),
    (84, [0.9170000000000003, -0.9510000000000001, -1.674, 1.064, -1.0, -0.2589999999999999, -0.4159999999999999, -1.462, 1.162, -0.631], 0.8581781376518218),
    (85, [0.9170000000000003, -0.9510000000000001, -1.674, 1.064, -1.0, -0.2589999999999999, -0.4159999999999999, -1.462, 1.162, -0.631], 0.8581781376518218),
    (86, [0.9170000000000003, -0.9510000000000001, -1.674, 1.064, -1.0, -0.2589999999999999, -0.4159999999999999, -1.462, 1.162, -0.631], 0.8581781376518218),
    (87, [0.9170000000000003, -0.9510000000000001, -1.674, 1.064, -1.0, -0.2589999999999999, -0.4159999999999999, -1.462, 1.162, -0.631], 0.8581781376518218),
    (88, [0.9170000000000003, -0.9510000000000001, -1.674, 1.064, -1.0, -0.2589999999999999, -0.4159999999999999, -1.462, 1.162, -0.631], 0.8581781376518218),
    (89, [0.9170000000000003, -0.9510000000000001, -1.674, 1.064, -1.0, -0.2589999999999999, -0.4159999999999999, -1.462, 1.162, -0.631], 0.8581781376518218),
    (90, [0.9170000000000003, -0.9510000000000001, -1.674, 1.064, -1.0, -0.2589999999999999, -0.4159999999999999, -1.462, 1.162, -0.631], 0.8581781376518218),
    (91, [0.9170000000000003, -0.9510000000000001, -1.674, 1.064, -1.0, -0.2589999999999999, -0.4159999999999999, -1.462, 1.162, -0.631], 0.8581781376518218),
    (92, [0.9170000000000003, -0.9510000000000001, -1.674, 1.064, -1.0, -0.2589999999999999, -0.4159999999999999, -1.462, 1.162, -0.631], 0.8581781376518218),
    (93, [0.9170000000000003, -0.9510000000000001, -1.674, 1.064, -1.0, -0.2589999999999999, -0.4159999999999999, -1.462, 1.162, -0.631], 0.8581781376518218),
    (94, [0.9170000000000003, -0.9510000000000001, -1.674, 1.064, -1.0, -0.2589999999999999, -0.4159999999999999, -1.462, 1.162, -0.631], 0.8581781376518218),
    (95, [0.9170000000000003, -0.9510000000000001, -1.674, 1.064, -1.0, -0.2589999999999999, -0.4159999999999999, -1.462, 1.162, -0.631], 0.8581781376518218),
    (96, [0.9170000000000003, -0.9510000000000001, -1.674, 1.064, -1.0, -0.2589999999999999, -0.4159999999999999, -1.462, 1.162, -0.631], 0.8581781376518218),
    (97, [0.9170000000000003, -0.9510000000000001, -1.674, 1.064, -1.0, -0.2589999999999999, -0.4159999999999999, -1.462, 1.162, -0.631], 0.8581781376518218),
    (98, [0.9170000000000003, -0.9510000000000001, -1.674, 1.064, -1.0, -0.2589999999999999, -0.4159999999999999, -1.462, 1.162, -0.631], 0.8581781376518218),
    (99, [0.9170000000000003, -0.9510000000000001, -1.674, 1.064, -1.0, -0.2589999999999999, -0.4159999999999999, -1.462, 1.162, -0.631], 0.8581781376518218),
    (100, [0.9170000000000003, -0.9510000000000001, -1.674, 1.064, -1.0, -0.2589999999999999, -0.4159999999999999, -1.462, 1.162, -0.631], 0.8581781376518218),
    (101, [0.9170000000000003, -0.9510000000000001, -1.674, 1.064, -1.0, -0.2589999999999999, -0.4159999999999999, -1.462, 1.162, -0.631], 0.8581781376518218),
    (102, [0.9170000000000003, -0.9510000000000001, -1.674, 1.064, -1.0, -0.2589999999999999, -0.4159999999999999, -1.462, 1.162, -0.631], 0.8581781376518218),
    (103, [0.9170000000000003, -0.9510000000000001, -1.674, 1.064, -1.0, -0.2589999999999999, -0.4159999999999999, -1.462, 1.162, -0.631], 0.8581781376518218),
    (104, [0.9170000000000003, -0.9510000000000001, -1.674, 1.064, -1.0, -0.2589999999999999, -0.4159999999999999, -1.462, 1.162, -0.631], 0.8581781376518218),
    (105, [0.9170000000000003, -0.9510000000000001, -1.674, 1.064, -1.0, -0.2589999999999999, -0.4159999999999999, -1.462, 1.162, -0.631], 0.8581781376518218),
    (106, [0.9170000000000003, -0.9510000000000001, -1.674, 1.064, -1.0, -0.2589999999999999, -0.4159999999999999, -1.462, 1.162, -0.631], 0.8581781376518218),
    (107, [0.9170000000000003, -0.9510000000000001, -1.674, 1.064, -1.0, -0.2589999999999999, -0.4159999999999999, -1.462, 1.162, -0.631], 0.8581781376518218),
    (108, [0.9170000000000003, -0.9510000000000001, -1.674, 1.064, -1.0, -0.2589999999999999, -0.4159999999999999, -1.462, 1.162, -0.631], 0.8581781376518218),
    (109, [0.9170000000000003, -0.9510000000000001, -1.674, 1.064, -1.0, -0.2589999999999999, -0.4159999999999999, -1.462, 1.162, -0.631], 0.8581781376518218),
    (110, [0.9170000000000003, -0.9510000000000001, -1.674, 1.064, -1.0, -0.2589999999999999, -0.4159999999999999, -1.462, 1.162, -0.631], 0.8581781376518218),
    (111, [0.9170000000000003, -0.9510000000000001, -1.674, 1.064, -1.0, -0.2589999999999999, -0.4159999999999999, -1.462, 1.162, -0.631], 0.8581781376518218),
    (112, [0.9170000000000003, -0.9510000000000001, -1.674, 1.064, -1.0, -0.2589999999999999, -0.4159999999999999, -1.462, 1.162, -0.631], 0.8581781376518218),
    (113, [0.9170000000000003, -0.9510000000000001, -1.674, 1.064, -1.0, -0.2589999999999999, -0.4159999999999999, -1.462, 1.162, -0.631], 0.8581781376518218),
    (114, [0.9170000000000003, -0.9510000000000001, -1.674, 1.064, -1.0, -0.2589999999999999, -0.4159999999999999, -1.462, 1.162, -0.631], 0.8581781376518218),
    (115, [0.9170000000000003, -0.9510000000000001, -1.674, 1.064, -1.0, -0.2589999999999999, -0.4159999999999999, -1.462, 1.162, -0.631], 0.8581781376518218),
    (116, [0.9170000000000003, -0.9510000000000001, -1.674, 1.064, -1.0, -0.2589999999999999, -0.4159999999999999, -1.462, 1.162, -0.631], 0.8581781376518218),
    (117, [0.9170000000000003, -0.9510000000000001, -1.674, 1.064, -1.0, -0.2589999999999999, -0.4159999999999999, -1.462, 1.162, -0.631], 0.8581781376518218),
    (118, [0.9170000000000003, -0.9510000000000001, -1.674, 1.064, -1.0, -0.2589999999999999, -0.4159999999999999, -1.462, 1.162, -0.631], 0.8581781376518218),
    (119, [0.9170000000000003, -0.9510000000000001, -1.674, 1.064, -1.0, -0.2589999999999999, -0.4159999999999999, -1.462, 1.162, -0.631], 0.8581781376518218),
    (120, [0.9170000000000003, -0.9510000000000001, -1.674, 1.064, -1.0, -0.2589999999999999, -0.4159999999999999, -1.462, 1.162, -0.631], 0.8581781376518218),
    (121, [0.9170000000000003, -0.9510000000000001, -1.674, 1.064, -1.0, -0.2589999999999999, -0.4159999999999999, -1.462, 1.162, -0.631], 0.8581781376518218),
    (122, [0.8639999999999999, -1.182, -1.021, -0.381, 0.524, -0.6239999999999999, 0.5640000000000001, -0.907, 0.722, -0.06299999999999994], 0.8630499325236167),
    (123, [0.8639999999999999, -1.182, -1.021, -0.381, 0.524, -0.6239999999999999, 0.5640000000000001, -0.907, 0.722, -0.06299999999999994], 0.8630499325236167),
    (124, [0.8639999999999999, -1.182, -1.021, -0.381, 0.524, -0.6239999999999999, 0.5640000000000001, -0.907, 0.722, -0.06299999999999994], 0.8630499325236167),
    (125, [0.8639999999999999, -1.182, -1.021, -0.381, 0.524, -0.6239999999999999, 0.5640000000000001, -0.907, 0.722, -0.06299999999999994], 0.8630499325236167),
    (126, [0.8639999999999999, -1.182, -1.021, -0.381, 0.524, -0.6239999999999999, 0.5640000000000001, -0.907, 0.722, -0.06299999999999994], 0.8630499325236167),
    (127, [0.8639999999999999, -1.182, -1.021, -0.381, 0.524, -0.6239999999999999, 0.5640000000000001, -0.907, 0.722, -0.06299999999999994], 0.8630499325236167),
    (128, [0.8639999999999999, -1.182, -1.021, -0.381, 0.524, -0.6239999999999999, 0.5640000000000001, -0.907, 0.722, -0.06299999999999994], 0.8630499325236167),
    (129, [0.8639999999999999, -1.182, -1.021, -0.381, 0.524, -0.6239999999999999, 0.5640000000000001, -0.907, 0.722, -0.06299999999999994], 0.8630499325236167),
    (130, [0.8639999999999999, -1.182, -1.021, -0.381, 0.524, -0.6239999999999999, 0.5640000000000001, -0.907, 0.722, -0.06299999999999994], 0.8630499325236167),
    (131, [0.8639999999999999, -1.182, -1.021, -0.381, 0.524, -0.6239999999999999, 0.5640000000000001, -0.907, 0.722, -0.06299999999999994], 0.8630499325236167),
    (132, [0.8639999999999999, -1.182, -1.021, -0.381, 0.524, -0.6239999999999999, 0.5640000000000001, -0.907, 0.722, -0.06299999999999994], 0.8630499325236167),
    (133, [0.8639999999999999, -1.182, -1.021, -0.381, 0.524, -0.6239999999999999, 0.5640000000000001, -0.907, 0.722, -0.06299999999999994], 0.8630499325236167),
    (134, [0.8639999999999999, -1.182, -1.021, -0.381, 0.524, -0.6239999999999999, 0.5640000000000001, -0.907, 0.722, -0.06299999999999994], 0.8630499325236167),
    (135, [0.8639999999999999, -1.182, -1.021, -0.381, 0.524, -0.6239999999999999, 0.5640000000000001, -0.907, 0.722, -0.06299999999999994], 0.8630499325236167),
    (136, [0.8639999999999999, -1.182, -1.021, -0.381, 0.524, -0.6239999999999999, 0.5640000000000001, -0.907, 0.722, -0.06299999999999994], 0.8630499325236167),
    (137, [0.8639999999999999, -1.182, -1.021, -0.381, 0.524, -0.6239999999999999, 0.5640000000000001, -0.907, 0.722, -0.06299999999999994], 0.8630499325236167),
    (138, [0.8639999999999999, -1.182, -1.021, -0.381, 0.524, -0.6239999999999999, 0.5640000000000001, -0.907, 0.722, -0.06299999999999994], 0.8630499325236167),
    (139, [0.8639999999999999, -1.182, -1.021, -0.381, 0.524, -0.6239999999999999, 0.5640000000000001, -0.907, 0.722, -0.06299999999999994], 0.8630499325236167),
    (140, [0.8639999999999999, -1.182, -1.021, -0.381, 0.524, -0.6239999999999999, 0.5640000000000001, -0.907, 0.722, -0.06299999999999994], 0.8630499325236167),
    (141, [0.8639999999999999, -1.182, -1.021, -0.381, 0.524, -0.6239999999999999, 0.5640000000000001, -0.907, 0.722, -0.06299999999999994], 0.8630499325236167),
    (142, [0.8639999999999999, -1.182, -1.021, -0.381, 0.524, -0.6239999999999999, 0.5640000000000001, -0.907, 0.722, -0.06299999999999994], 0.8630499325236167),
    (143, [0.8639999999999999, -1.182, -1.021, -0.381, 0.524, -0.6239999999999999, 0.5640000000000001, -0.907, 0.722, -0.06299999999999994], 0.8630499325236167),
    (144, [0.8639999999999999, -1.182, -1.021, -0.381, 0.524, -0.6239999999999999, 0.5640000000000001, -0.907, 0.722, -0.06299999999999994], 0.8630499325236167),
    (145, [0.8639999999999999, -1.182, -1.021, -0.381, 0.524, -0.6239999999999999, 0.5640000000000001, -0.907, 0.722, -0.06299999999999994], 0.8630499325236167),
    (146, [0.8639999999999999, -1.182, -1.021, -0.381, 0.524, -0.6239999999999999, 0.5640000000000001, -0.907, 0.722, -0.06299999999999994], 0.8630499325236167),
    (147, [0.8639999999999999, -1.182, -1.021, -0.381, 0.524, -0.6239999999999999, 0.5640000000000001, -0.907, 0.722, -0.06299999999999994], 0.8630499325236167),
    (148, [0.8639999999999999, -1.182, -1.021, -0.381, 0.524, -0.6239999999999999, 0.5640000000000001, -0.907, 0.722, -0.06299999999999994], 0.8630499325236167),
    (149, [0.8639999999999999, -1.182, -1.021, -0.381, 0.524, -0.6239999999999999, 0.5640000000000001, -0.907, 0.722, -0.06299999999999994], 0.8630499325236167),
    (150, [0.8639999999999999, -1.182, -1.021, -0.381, 0.524, -0.6239999999999999, 0.5640000000000001, -0.907, 0.722, -0.06299999999999994], 0.8630499325236167),
    (151, [0.8639999999999999, -1.182, -1.021, -0.381, 0.524, -0.6239999999999999, 0.5640000000000001, -0.907, 0.722, -0.06299999999999994], 0.8630499325236167),
    (152, [0.8639999999999999, -1.182, -1.021, -0.381, 0.524, -0.6239999999999999, 0.5640000000000001, -0.907, 0.722, -0.06299999999999994], 0.8630499325236167),
    (153, [0.8639999999999999, -1.182, -1.021, -0.381, 0.524, -0.6239999999999999, 0.5640000000000001, -0.907, 0.722, -0.06299999999999994], 0.8630499325236167),
    (154, [0.8639999999999999, -1.182, -1.021, -0.381, 0.524, -0.6239999999999999, 0.5640000000000001, -0.907, 0.722, -0.06299999999999994], 0.8630499325236167),
    (155, [0.8639999999999999, -1.182, -1.021, -0.381, 0.524, -0.6239999999999999, 0.5640000000000001, -0.907, 0.722, -0.06299999999999994], 0.8630499325236167),
    (156, [0.8639999999999999, -1.182, -1.021, -0.381, 0.524, -0.6239999999999999, 0.5640000000000001, -0.907, 0.722, -0.06299999999999994], 0.8630499325236167),
    (157, [0.8639999999999999, -1.182, -1.021, -0.381, 0.524, -0.6239999999999999, 0.5640000000000001, -0.907, 0.722, -0.06299999999999994], 0.8630499325236167),
    (158, [0.8639999999999999, -1.182, -1.021, -0.381, 0.524, -0.6239999999999999, 0.5640000000000001, -0.907, 0.722, -0.06299999999999994], 0.8630499325236167),
    (159, [0.8639999999999999, -1.182, -1.021, -0.381, 0.524, -0.6239999999999999, 0.5640000000000001, -0.907, 0.722, -0.06299999999999994], 0.8630499325236167),
    (160, [0.8639999999999999, -1.182, -1.021, -0.381, 0.524, -0.6239999999999999, 0.5640000000000001, -0.907, 0.722, -0.06299999999999994], 0.8630499325236167),
    (161, [0.8639999999999999, -1.182, -1.021, -0.381, 0.524, -0.6239999999999999, 0.5640000000000001, -0.907, 0.722, -0.06299999999999994], 0.8630499325236167),
    (162, [0.8639999999999999, -1.182, -1.021, -0.381, 0.524, -0.6239999999999999, 0.5640000000000001, -0.907, 0.722, -0.06299999999999994], 0.8630499325236167),
    (163, [0.8639999999999999, -1.182, -1.021, -0.381, 0.524, -0.6239999999999999, 0.5640000000000001, -0.907, 0.722, -0.06299999999999994], 0.8630499325236167),
    (164, [0.8639999999999999, -1.182, -1.021, -0.381, 0.524, -0.6239999999999999, 0.5640000000000001, -0.907, 0.722, -0.06299999999999994], 0.8630499325236167),
    (165, [0.8639999999999999, -1.182, -1.021, -0.381, 0.524, -0.6239999999999999, 0.5640000000000001, -0.907, 0.722, -0.06299999999999994], 0.8630499325236167),
    (166, [0.8639999999999999, -1.182, -1.021, -0.381, 0.524, -0.6239999999999999, 0.5640000000000001, -0.907, 0.722, -0.06299999999999994], 0.8630499325236167),
    (167, [0.8639999999999999, -1.182, -1.021, -0.381, 0.524, -0.6239999999999999, 0.5640000000000001, -0.907, 0.722, -0.06299999999999994], 0.8630499325236167),
    (168, [0.8639999999999999, -1.182, -1.021, -0.381, 0.524, -0.6239999999999999, 0.5640000000000001, -0.907, 0.722, -0.06299999999999994], 0.8630499325236167),
    (169, [0.8639999999999999, -1.182, -1.021, -0.381, 0.524, -0.6239999999999999, 0.5640000000000001, -0.907, 0.722, -0.06299999999999994], 0.8630499325236167),
    (170, [0.8639999999999999, -1.182, -1.021, -0.381, 0.524, -0.6239999999999999, 0.5640000000000001, -0.907, 0.722, -0.06299999999999994], 0.8630499325236167),
    (171, [0.8639999999999999, -1.182, -1.021, -0.381, 0.524, -0.6239999999999999, 0.5640000000000001, -0.907, 0.722, -0.06299999999999994], 0.8630499325236167),
    (172, [0.8639999999999999, -1.182, -1.021, -0.381, 0.524, -0.6239999999999999, 0.5640000000000001, -0.907, 0.722, -0.06299999999999994], 0.8630499325236167),
    (173, [0.8639999999999999, -1.182, -1.021, -0.381, 0.524, -0.6239999999999999, 0.5640000000000001, -0.907, 0.722, -0.06299999999999994], 0.8630499325236167),
    (174, [0.8639999999999999, -1.182, -1.021, -0.381, 0.524, -0.6239999999999999, 0.5640000000000001, -0.907, 0.722, -0.06299999999999994], 0.8630499325236167),
    (175, [0.8639999999999999, -1.182, -1.021, -0.381, 0.524, -0.6239999999999999, 0.5640000000000001, -0.907, 0.722, -0.06299999999999994], 0.8630499325236167),
    (176, [0.8639999999999999, -1.182, -1.021, -0.381, 0.524, -0.6239999999999999, 0.5640000000000001, -0.907, 0.722, -0.06299999999999994], 0.8630499325236167),
    (177, [0.8639999999999999, -1.182, -1.021, -0.381, 0.524, -0.6239999999999999, 0.5640000000000001, -0.907, 0.722, -0.06299999999999994], 0.8630499325236167),
    (178, [0.8639999999999999, -1.182, -1.021, -0.381, 0.524, -0.6239999999999999, 0.5640000000000001, -0.907, 0.722, -0.06299999999999994], 0.8630499325236167),
    (179, [0.8639999999999999, -1.182, -1.021, -0.381, 0.524, -0.6239999999999999, 0.5640000000000001, -0.907, 0.722, -0.06299999999999994], 0.8630499325236167),
    (180, [0.8639999999999999, -1.182, -1.021, -0.381, 0.524, -0.6239999999999999, 0.5640000000000001, -0.907, 0.722, -0.06299999999999994], 0.8630499325236167),
    (181, [0.8639999999999999, -1.182, -1.021, -0.381, 0.524, -0.6239999999999999, 0.5640000000000001, -0.907, 0.722, -0.06299999999999994], 0.8630499325236167),
    (182, [0.8639999999999999, -1.182, -1.021, -0.381, 0.524, -0.6239999999999999, 0.5640000000000001, -0.907, 0.722, -0.06299999999999994], 0.8630499325236167),
    (183, [0.8639999999999999, -1.182, -1.021, -0.381, 0.524, -0.6239999999999999, 0.5640000000000001, -0.907, 0.722, -0.06299999999999994], 0.8630499325236167),
    (184, [0.8639999999999999, -1.182, -1.021, -0.381, 0.524, -0.6239999999999999, 0.5640000000000001, -0.907, 0.722, -0.06299999999999994], 0.8630499325236167),
    (185, [0.8639999999999999, -1.182, -1.021, -0.381, 0.524, -0.6239999999999999, 0.5640000000000001, -0.907, 0.722, -0.06299999999999994], 0.8630499325236167),
    (186, [0.8639999999999999, -1.182, -1.021, -0.381, 0.524, -0.6239999999999999, 0.5640000000000001, -0.907, 0.722, -0.06299999999999994], 0.8630499325236167),
    (187, [0.8639999999999999, -1.182, -1.021, -0.381, 0.524, -0.6239999999999999, 0.5640000000000001, -0.907, 0.722, -0.06299999999999994], 0.8630499325236167),
    (188, [0.8639999999999999, -1.182, -1.021, -0.381, 0.524, -0.6239999999999999, 0.5640000000000001, -0.907, 0.722, -0.06299999999999994], 0.8630499325236167),
    (189, [0.8639999999999999, -1.182, -1.021, -0.381, 0.524, -0.6239999999999999, 0.5640000000000001, -0.907, 0.722, -0.06299999999999994], 0.8630499325236167),
    (190, [0.8639999999999999, -1.182, -1.021, -0.381, 0.524, -0.6239999999999999, 0.5640000000000001, -0.907, 0.722, -0.06299999999999994], 0.8630499325236167),
    (191, [0.8639999999999999, -1.182, -1.021, -0.381, 0.524, -0.6239999999999999, 0.5640000000000001, -0.907, 0.722, -0.06299999999999994], 0.8630499325236167),
    (192, [0.8639999999999999, -1.182, -1.021, -0.381, 0.524, -0.6239999999999999, 0.5640000000000001, -0.907, 0.722, -0.06299999999999994], 0.8630499325236167),
    (193, [0.8639999999999999, -1.182, -1.021, -0.381, 0.524, -0.6239999999999999, 0.5640000000000001, -0.907, 0.722, -0.06299999999999994], 0.8630499325236167),
    (194, [0.8639999999999999, -1.182, -1.021, -0.381, 0.524, -0.6239999999999999, 0.5640000000000001, -0.907, 0.722, -0.06299999999999994], 0.8630499325236167),
    (195, [0.8639999999999999, -1.182, -1.021, -0.381, 0.524, -0.6239999999999999, 0.5640000000000001, -0.907, 0.722, -0.06299999999999994], 0.8630499325236167),
    (196, [0.8639999999999999, -1.182, -1.021, -0.381, 0.524, -0.6239999999999999, 0.5640000000000001, -0.907, 0.722, -0.06299999999999994], 0.8630499325236167),
    (197, [0.8639999999999999, -1.182, -1.021, -0.381, 0.524, -0.6239999999999999, 0.5640000000000001, -0.907, 0.722, -0.06299999999999994], 0.8630499325236167),
    (198, [0.8639999999999999, -1.182, -1.021, -0.381, 0.524, -0.6239999999999999, 0.5640000000000001, -0.907, 0.722, -0.06299999999999994], 0.8630499325236167),
    (199, [0.8639999999999999, -1.182, -1.021, -0.381, 0.524, -0.6239999999999999, 0.5640000000000001, -0.907, 0.722, -0.06299999999999994], 0.8630499325236167),
    (200, [0.8639999999999999, -1.182, -1.021, -0.381, 0.524, -0.6239999999999999, 0.5640000000000001, -0.907, 0.722, -0.06299999999999994], 0.8630499325236167),
    (201, [0.8639999999999999, -1.182, -1.021, -0.381, 0.524, -0.6239999999999999, 0.5640000000000001, -0.907, 0.722, -0.06299999999999994], 0.8630499325236167),
    (202, [0.8639999999999999, -1.182, -1.021, -0.381, 0.524, -0.6239999999999999, 0.5640000000000001, -0.907, 0.722, -0.06299999999999994], 0.8630499325236167),
    (203, [0.8639999999999999, -1.182, -1.021, -0.381, 0.524, -0.6239999999999999, 0.5640000000000001, -0.907, 0.722, -0.06299999999999994], 0.8630499325236167),
    (204, [0.8639999999999999, -1.182, -1.021, -0.381, 0.524, -0.6239999999999999, 0.5640000000000001, -0.907, 0.722, -0.06299999999999994], 0.8630499325236167),
    (205, [0.8639999999999999, -1.182, -1.021, -0.381, 0.524, -0.6239999999999999, 0.5640000000000001, -0.907, 0.722, -0.06299999999999994], 0.8630499325236167),
    (206, [0.8639999999999999, -1.182, -1.021, -0.381, 0.524, -0.6239999999999999, 0.5640000000000001, -0.907, 0.722, -0.06299999999999994], 0.8630499325236167),
    (207, [0.8639999999999999, -1.182, -1.021, -0.381, 0.524, -0.6239999999999999, 0.5640000000000001, -0.907, 0.722, -0.06299999999999994], 0.8630499325236167),
    (208, [0.8639999999999999, -1.182, -1.021, -0.381, 0.524, -0.6239999999999999, 0.5640000000000001, -0.907, 0.722, -0.06299999999999994], 0.8630499325236167),
    (209, [0.8639999999999999, -1.182, -1.021, -0.381, 0.524, -0.6239999999999999, 0.5640000000000001, -0.907, 0.722, -0.06299999999999994], 0.8630499325236167),
    (210, [0.8639999999999999, -1.182, -1.021, -0.381, 0.524, -0.6239999999999999, 0.5640000000000001, -0.907, 0.722, -0.06299999999999994], 0.8630499325236167),
    (211, [0.8639999999999999, -1.182, -1.021, -0.381, 0.524, -0.6239999999999999, 0.5640000000000001, -0.907, 0.722, -0.06299999999999994], 0.8630499325236167),
    (212, [0.8639999999999999, -1.182, -1.021, -0.381, 0.524, -0.6239999999999999, 0.5640000000000001, -0.907, 0.722, -0.06299999999999994], 0.8630499325236167),
    (213, [0.8639999999999999, -1.182, -1.021, -0.381, 0.524, -0.6239999999999999, 0.5640000000000001, -0.907, 0.722, -0.06299999999999994], 0.8630499325236167),
    (214, [0.8639999999999999, -1.182, -1.021, -0.381, 0.524, -0.6239999999999999, 0.5640000000000001, -0.907, 0.722, -0.06299999999999994], 0.8630499325236167),
    (215, [0.8639999999999999, -1.182, -1.021, -0.381, 0.524, -0.6239999999999999, 0.5640000000000001, -0.907, 0.722, -0.06299999999999994], 0.8630499325236167),
    (216, [0.8639999999999999, -1.182, -1.021, -0.381, 0.524, -0.6239999999999999, 0.5640000000000001, -0.907, 0.722, -0.06299999999999994], 0.8630499325236167),
    (217, [0.8639999999999999, -1.182, -1.021, -0.381, 0.524, -0.6239999999999999, 0.5640000000000001, -0.907, 0.722, -0.06299999999999994], 0.8630499325236167),
    (218, [0.8639999999999999, -1.182, -1.021, -0.381, 0.524, -0.6239999999999999, 0.5640000000000001, -0.907, 0.722, -0.06299999999999994], 0.8630499325236167),
    (219, [0.8639999999999999, -1.182, -1.021, -0.381, 0.524, -0.6239999999999999, 0.5640000000000001, -0.907, 0.722, -0.06299999999999994], 0.8630499325236167),
    (220, [0.8639999999999999, -1.182, -1.021, -0.381, 0.524, -0.6239999999999999, 0.5640000000000001, -0.907, 0.722, -0.06299999999999994], 0.8630499325236167),
    (221, [0.8639999999999999, -1.182, -1.021, -0.381, 0.524, -0.6239999999999999, 0.5640000000000001, -0.907, 0.722, -0.06299999999999994], 0.8630499325236167),
    (222, [0.8639999999999999, -1.182, -1.021, -0.381, 0.524, -0.6239999999999999, 0.5640000000000001, -0.907, 0.722, -0.06299999999999994], 0.8630499325236167),
    (223, [0.8639999999999999, -1.182, -1.021, -0.381, 0.524, -0.6239999999999999, 0.5640000000000001, -0.907, 0.722, -0.06299999999999994], 0.8630499325236167),
    (224, [0.8639999999999999, -1.182, -1.021, -0.381, 0.524, -0.6239999999999999, 0.5640000000000001, -0.907, 0.722, -0.06299999999999994], 0.8630499325236167),
    (225, [0.8639999999999999, -1.182, -1.021, -0.381, 0.524, -0.6239999999999999, 0.5640000000000001, -0.907, 0.722, -0.06299999999999994], 0.8630499325236167),
    (226, [0.8639999999999999, -1.182, -1.021, -0.381, 0.524, -0.6239999999999999, 0.5640000000000001, -0.907, 0.722, -0.06299999999999994], 0.8630499325236167),
    (227, [0.8639999999999999, -1.182, -1.021, -0.381, 0.524, -0.6239999999999999, 0.5640000000000001, -0.907, 0.722, -0.06299999999999994], 0.8630499325236167),
    (228, [0.8639999999999999, -1.182, -1.021, -0.381, 0.524, -0.6239999999999999, 0.5640000000000001, -0.907, 0.722, -0.06299999999999994], 0.8630499325236167),
    (229, [0.8639999999999999, -1.182, -1.021, -0.381, 0.524, -0.6239999999999999, 0.5640000000000001, -0.907, 0.722, -0.06299999999999994], 0.8630499325236167),
    (230, [0.8639999999999999, -1.182, -1.021, -0.381, 0.524, -0.6239999999999999, 0.5640000000000001, -0.907, 0.722, -0.06299999999999994], 0.8630499325236167),
    (231, [0.8639999999999999, -1.182, -1.021, -0.381, 0.524, -0.6239999999999999, 0.5640000000000001, -0.907, 0.722, -0.06299999999999994], 0.8630499325236167),
    (232, [0.8639999999999999, -1.182, -1.021, -0.381, 0.524, -0.6239999999999999, 0.5640000000000001, -0.907, 0.722, -0.06299999999999994], 0.8630499325236167),
    (233, [0.8639999999999999, -1.182, -1.021, -0.381, 0.524, -0.6239999999999999, 0.5640000000000001, -0.907, 0.722, -0.06299999999999994], 0.8630499325236167),
    (234, [0.8639999999999999, -1.182, -1.021, -0.381, 0.524, -0.6239999999999999, 0.5640000000000001, -0.907, 0.722, -0.06299999999999994], 0.8630499325236167),
    (235, [0.8639999999999999, -1.182, -1.021, -0.381, 0.524, -0.6239999999999999, 0.5640000000000001, -0.907, 0.722, -0.06299999999999994], 0.8630499325236167),
    (236, [0.8639999999999999, -1.182, -1.021, -0.381, 0.524, -0.6239999999999999, 0.5640000000000001, -0.907, 0.722, -0.06299999999999994], 0.8630499325236167),
    (237, [0.8639999999999999, -1.182, -1.021, -0.381, 0.524, -0.6239999999999999, 0.5640000000000001, -0.907, 0.722, -0.06299999999999994], 0.8630499325236167),
    (238, [0.8639999999999999, -1.182, -1.021, -0.381, 0.524, -0.6239999999999999, 0.5640000000000001, -0.907, 0.722, -0.06299999999999994], 0.8630499325236167),
    (239, [0.8639999999999999, -1.182, -1.021, -0.381, 0.524, -0.6239999999999999, 0.5640000000000001, -0.907, 0.722, -0.06299999999999994], 0.8630499325236167),
    (240, [0.8639999999999999, -1.182, -1.021, -0.381, 0.524, -0.6239999999999999, 0.5640000000000001, -0.907, 0.722, -0.06299999999999994], 0.8630499325236167),
    (241, [0.8639999999999999, -1.182, -1.021, -0.381, 0.524, -0.6239999999999999, 0.5640000000000001, -0.907, 0.722, -0.06299999999999994], 0.8630499325236167),
    (242, [0.8639999999999999, -1.182, -1.021, -0.381, 0.524, -0.6239999999999999, 0.5640000000000001, -0.907, 0.722, -0.06299999999999994], 0.8630499325236167),
    (243, [0.8639999999999999, -1.182, -1.021, -0.381, 0.524, -0.6239999999999999, 0.5640000000000001, -0.907, 0.722, -0.06299999999999994], 0.8630499325236167),
    (244, [0.8639999999999999, -1.182, -1.021, -0.381, 0.524, -0.6239999999999999, 0.5640000000000001, -0.907, 0.722, -0.06299999999999994], 0.8630499325236167),
    (245, [0.8639999999999999, -1.182, -1.021, -0.381, 0.524, -0.6239999999999999, 0.5640000000000001, -0.907, 0.722, -0.06299999999999994], 0.8630499325236167),
    (246, [0.8639999999999999, -1.182, -1.021, -0.381, 0.524, -0.6239999999999999, 0.5640000000000001, -0.907, 0.722, -0.06299999999999994], 0.8630499325236167),
    (247, [0.8639999999999999, -1.182, -1.021, -0.381, 0.524, -0.6239999999999999, 0.5640000000000001, -0.907, 0.722, -0.06299999999999994], 0.8630499325236167),
    (248, [0.8639999999999999, -1.182, -1.021, -0.381, 0.524, -0.6239999999999999, 0.5640000000000001, -0.907, 0.722, -0.06299999999999994], 0.8630499325236167),
    (249, [0.8639999999999999, -1.182, -1.021, -0.381, 0.524, -0.6239999999999999, 0.5640000000000001, -0.907, 0.722, -0.06299999999999994], 0.8630499325236167),
    (250, [0.8639999999999999, -1.182, -1.021, -0.381, 0.524, -0.6239999999999999, 0.5640000000000001, -0.907, 0.722, -0.06299999999999994], 0.8630499325236167),
    (251, [0.8639999999999999, -1.182, -1.021, -0.381, 0.524, -0.6239999999999999, 0.5640000000000001, -0.907, 0.722, -0.06299999999999994], 0.8630499325236167),
    (252, [0.8639999999999999, -1.182, -1.021, -0.381, 0.524, -0.6239999999999999, 0.5640000000000001, -0.907, 0.722, -0.06299999999999994], 0.8630499325236167),
    (253, [0.8639999999999999, -1.182, -1.021, -0.381, 0.524, -0.6239999999999999, 0.5640000000000001, -0.907, 0.722, -0.06299999999999994], 0.8630499325236167),
    (254, [0.8639999999999999, -1.182, -1.021, -0.381, 0.524, -0.6239999999999999, 0.5640000000000001, -0.907, 0.722, -0.06299999999999994], 0.8630499325236167),
    (255, [0.8639999999999999, -1.182, -1.021, -0.381, 0.524, -0.6239999999999999, 0.5640000000000001, -0.907, 0.722, -0.06299999999999994], 0.8630499325236167),
    (256, [0.8639999999999999, -1.182, -1.021, -0.381, 0.524, -0.6239999999999999, 0.5640000000000001, -0.907, 0.722, -0.06299999999999994], 0.8630499325236167),
    (257, [0.8639999999999999, -1.182, -1.021, -0.381, 0.524, -0.6239999999999999, 0.5640000000000001, -0.907, 0.722, -0.06299999999999994], 0.8630499325236167),
    (258, [0.8639999999999999, -1.182, -1.021, -0.381, 0.524, -0.6239999999999999, 0.5640000000000001, -0.907, 0.722, -0.06299999999999994], 0.8630499325236167),
    (259, [0.8639999999999999, -1.182, -1.021, -0.381, 0.524, -0.6239999999999999, 0.5640000000000001, -0.907, 0.722, -0.06299999999999994], 0.8630499325236167),
    (260, [0.8639999999999999, -1.182, -1.021, -0.381, 0.524, -0.6239999999999999, 0.5640000000000001, -0.907, 0.722, -0.06299999999999994], 0.8630499325236167),
    (261, [0.8639999999999999, -1.182, -1.021, -0.381, 0.524, -0.6239999999999999, 0.5640000000000001, -0.907, 0.722, -0.06299999999999994], 0.8630499325236167),
    (262, [0.8639999999999999, -1.182, -1.021, -0.381, 0.524, -0.6239999999999999, 0.5640000000000001, -0.907, 0.722, -0.06299999999999994], 0.8630499325236167),
    (263, [0.8639999999999999, -1.182, -1.021, -0.381, 0.524, -0.6239999999999999, 0.5640000000000001, -0.907, 0.722, -0.06299999999999994], 0.8630499325236167),
    (264, [0.8639999999999999, -1.182, -1.021, -0.381, 0.524, -0.6239999999999999, 0.5640000000000001, -0.907, 0.722, -0.06299999999999994], 0.8630499325236167),
    (265, [0.8639999999999999, -1.182, -1.021, -0.381, 0.524, -0.6239999999999999, 0.5640000000000001, -0.907, 0.722, -0.06299999999999994], 0.8630499325236167),
    (266, [0.8639999999999999, -1.182, -1.021, -0.381, 0.524, -0.6239999999999999, 0.5640000000000001, -0.907, 0.722, -0.06299999999999994], 0.8630499325236167),
    (267, [0.8639999999999999, -1.182, -1.021, -0.381, 0.524, -0.6239999999999999, 0.5640000000000001, -0.907, 0.722, -0.06299999999999994], 0.8630499325236167),
    (268, [0.8639999999999999, -1.182, -1.021, -0.381, 0.524, -0.6239999999999999, 0.5640000000000001, -0.907, 0.722, -0.06299999999999994], 0.8630499325236167),
    (269, [0.8639999999999999, -1.182, -1.021, -0.381, 0.524, -0.6239999999999999, 0.5640000000000001, -0.907, 0.722, -0.06299999999999994], 0.8630499325236167),
    (270, [0.8639999999999999, -1.182, -1.021, -0.381, 0.524, -0.6239999999999999, 0.5640000000000001, -0.907, 0.722, -0.06299999999999994], 0.8630499325236167),
    (271, [0.8639999999999999, -1.182, -1.021, -0.381, 0.524, -0.6239999999999999, 0.5640000000000001, -0.907, 0.722, -0.06299999999999994], 0.8630499325236167),
    (272, [0.8639999999999999, -1.182, -1.021, -0.381, 0.524, -0.6239999999999999, 0.5640000000000001, -0.907, 0.722, -0.06299999999999994], 0.8630499325236167),
    (273, [0.8639999999999999, -1.182, -1.021, -0.381, 0.524, -0.6239999999999999, 0.5640000000000001, -0.907, 0.722, -0.06299999999999994], 0.8630499325236167),
    (274, [0.8639999999999999, -1.182, -1.021, -0.381, 0.524, -0.6239999999999999, 0.5640000000000001, -0.907, 0.722, -0.06299999999999994], 0.8630499325236167),
    (275, [0.8639999999999999, -1.182, -1.021, -0.381, 0.524, -0.6239999999999999, 0.5640000000000001, -0.907, 0.722, -0.06299999999999994], 0.8630499325236167),
    (276, [0.8639999999999999, -1.182, -1.021, -0.381, 0.524, -0.6239999999999999, 0.5640000000000001, -0.907, 0.722, -0.06299999999999994], 0.8630499325236167),
    (277, [0.8639999999999999, -1.182, -1.021, -0.381, 0.524, -0.6239999999999999, 0.5640000000000001, -0.907, 0.722, -0.06299999999999994], 0.8630499325236167),
    (278, [0.8639999999999999, -1.182, -1.021, -0.381, 0.524, -0.6239999999999999, 0.5640000000000001, -0.907, 0.722, -0.06299999999999994], 0.8630499325236167),
    (279, [0.8639999999999999, -1.182, -1.021, -0.381, 0.524, -0.6239999999999999, 0.5640000000000001, -0.907, 0.722, -0.06299999999999994], 0.8630499325236167),
    (280, [0.8639999999999999, -1.182, -1.021, -0.381, 0.524, -0.6239999999999999, 0.5640000000000001, -0.907, 0.722, -0.06299999999999994], 0.8630499325236167),
    (281, [0.8639999999999999, -1.182, -1.021, -0.381, 0.524, -0.6239999999999999, 0.5640000000000001, -0.907, 0.722, -0.06299999999999994], 0.8630499325236167),
    (282, [0.8639999999999999, -1.182, -1.021, -0.381, 0.524, -0.6239999999999999, 0.5640000000000001, -0.907, 0.722, -0.06299999999999994], 0.8630499325236167),
    (283, [0.8639999999999999, -1.182, -1.021, -0.381, 0.524, -0.6239999999999999, 0.5640000000000001, -0.907, 0.722, -0.06299999999999994], 0.8630499325236167),
    (284, [0.8639999999999999, -1.182, -1.021, -0.381, 0.524, -0.6239999999999999, 0.5640000000000001, -0.907, 0.722, -0.06299999999999994], 0.8630499325236167),
    (285, [0.8639999999999999, -1.182, -1.021, -0.381, 0.524, -0.6239999999999999, 0.5640000000000001, -0.907, 0.722, -0.06299999999999994], 0.8630499325236167),
    (286, [0.8639999999999999, -1.182, -1.021, -0.381, 0.524, -0.6239999999999999, 0.5640000000000001, -0.907, 0.722, -0.06299999999999994], 0.8630499325236167),
    (287, [0.8639999999999999, -1.182, -1.021, -0.381, 0.524, -0.6239999999999999, 0.5640000000000001, -0.907, 0.722, -0.06299999999999994], 0.8630499325236167),
    (288, [0.8639999999999999, -1.182, -1.021, -0.381, 0.524, -0.6239999999999999, 0.5640000000000001, -0.907, 0.722, -0.06299999999999994], 0.8630499325236167),
    (289, [0.8639999999999999, -1.182, -1.021, -0.381, 0.524, -0.6239999999999999, 0.5640000000000001, -0.907, 0.722, -0.06299999999999994], 0.8630499325236167),
    (290, [0.8639999999999999, -1.182, -1.021, -0.381, 0.524, -0.6239999999999999, 0.5640000000000001, -0.907, 0.722, -0.06299999999999994], 0.8630499325236167),
    (291, [0.8639999999999999, -1.182, -1.021, -0.381, 0.524, -0.6239999999999999, 0.5640000000000001, -0.907, 0.722, -0.06299999999999994], 0.8630499325236167),
    (292, [0.8639999999999999, -1.182, -1.021, -0.381, 0.524, -0.6239999999999999, 0.5640000000000001, -0.907, 0.722, -0.06299999999999994], 0.8630499325236167),
    (293, [0.8639999999999999, -1.182, -1.021, -0.381, 0.524, -0.6239999999999999, 0.5640000000000001, -0.907, 0.722, -0.06299999999999994], 0.8630499325236167),
    (294, [0.8639999999999999, -1.182, -1.021, -0.381, 0.524, -0.6239999999999999, 0.5640000000000001, -0.907, 0.722, -0.06299999999999994], 0.8630499325236167),
    (295, [0.8639999999999999, -1.182, -1.021, -0.381, 0.524, -0.6239999999999999, 0.5640000000000001, -0.907, 0.722, -0.06299999999999994], 0.8630499325236167),
    (296, [0.8639999999999999, -1.182, -1.021, -0.381, 0.524, -0.6239999999999999, 0.5640000000000001, -0.907, 0.722, -0.06299999999999994], 0.8630499325236167),
    (297, [0.8639999999999999, -1.182, -1.021, -0.381, 0.524, -0.6239999999999999, 0.5640000000000001, -0.907, 0.722, -0.06299999999999994], 0.8630499325236167),
    (298, [0.8639999999999999, -1.182, -1.021, -0.381, 0.524, -0.6239999999999999, 0.5640000000000001, -0.907, 0.722, -0.06299999999999994], 0.8630499325236167),
    (299, [0.8639999999999999, -1.182, -1.021, -0.381, 0.524, -0.6239999999999999, 0.5640000000000001, -0.907, 0.722, -0.06299999999999994], 0.8630499325236167),
]

