ranges of every chromosome : (-1, 1)
    selection method is: RouletteWheelSelection
    crossover method is: UniformCrossover
    pc: The probability of crossover: 0.700000
    pe: Gene exchange probability: 0.500000
    mutation method is: FlipBitBigMutation
    pm: The probability of mutation: 0.100000
    pbm: The probability of big mutation: 0.500000
    alpha: intensive factor: 0.600000
best_fit = [
    (0, [1, 1, 1, 1, 1, 1, 1, 1, 1, 1], 0.8480499325236167),
    (1, [0.29600000000000004, 0.13000000000000012, 0.5700000000000001, 0.16399999999999992, -0.374, 0.403, -0.975, 0.6659999999999999, 0.4930000000000001, -0.71], 0.8526585695006748),
    (2, [0.29600000000000004, 0.13000000000000012, 0.5700000000000001, 0.16399999999999992, -0.374, 0.403, -0.975, 0.6659999999999999, 0.4930000000000001, -0.71], 0.8526585695006748),
    (3, [0.29600000000000004, 0.13000000000000012, 0.5700000000000001, 0.16399999999999992, -0.374, 0.403, -0.975, 0.6659999999999999, 0.4930000000000001, -0.71], 0.8526585695006748),
    (4, [0.29600000000000004, 0.13000000000000012, 0.5700000000000001, 0.16399999999999992, -0.374, 0.403, -0.975, 0.6659999999999999, 0.4930000000000001, -0.71], 0.8526585695006748),
    (5, [0.29600000000000004, 0.13000000000000012, 0.5700000000000001, 0.16399999999999992, -0.374, 0.403, -0.975, 0.6659999999999999, 0.4930000000000001, -0.71], 0.8526585695006748),
    (6, [0.29600000000000004, 0.13000000000000012, 0.5700000000000001, 0.16399999999999992, -0.374, 0.403, -0.975, 0.6659999999999999, 0.4930000000000001, -0.71], 0.8526585695006748),
    (7, [0.29600000000000004, 0.13000000000000012, 0.5700000000000001, 0.16399999999999992, -0.374, 0.403, -0.975, 0.6659999999999999, 0.4930000000000001, -0.71], 0.8526585695006748),
    (8, [0.29600000000000004, 0.13000000000000012, 0.5700000000000001, 0.16399999999999992, -0.374, 0.403, -0.975, 0.6659999999999999, 0.4930000000000001, -0.71], 0.8526585695006748),
    (9, [0.29600000000000004, 0.13000000000000012, 0.5700000000000001, 0.16399999999999992, -0.374, 0.403, -0.975, 0.6659999999999999, 0.4930000000000001, -0.71], 0.8526585695006748),
    (10, [0.5190000000000001, 0.786, 0.5389999999999999, -0.30699999999999994, -0.562, 0.18300000000000005, 0.9080000000000001, 0.788, -0.391, -0.18599999999999994], 0.8575303643724697),
    (11, [0.5190000000000001, 0.786, 0.5389999999999999, -0.30699999999999994, -0.562, 0.18300000000000005, 0.9080000000000001, 0.788, -0.391, -0.18599999999999994], 0.8575303643724697),
    (12, [0.5190000000000001, 0.786, 0.5389999999999999, -0.30699999999999994, -0.562, 0.18300000000000005, 0.9080000000000001, 0.788, -0.391, -0.18599999999999994], 0.8575303643724697),
    (13, [0.5190000000000001, 0.786, 0.5389999999999999, -0.30699999999999994, -0.562, 0.18300000000000005, 0.9080000000000001, 0.788, -0.391, -0.18599999999999994], 0.8575303643724697),
    (14, [0.5190000000000001, 0.786, 0.5389999999999999, -0.30699999999999994, -0.562, 0.18300000000000005, 0.9080000000000001, 0.788, -0.391, -0.18599999999999994], 0.8575303643724697),
    (15, [0.5190000000000001, 0.786, 0.5389999999999999, -0.30699999999999994, -0.562, 0.18300000000000005, 0.9080000000000001, 0.788, -0.391, -0.18599999999999994], 0.8575303643724697),
    (16, [0.5190000000000001, 0.786, 0.5389999999999999, -0.30699999999999994, -0.562, 0.18300000000000005, 0.9080000000000001, 0.788, -0.391, -0.18599999999999994], 0.8575303643724697),
    (17, [0.5190000000000001, 0.786, 0.5389999999999999, -0.30699999999999994, -0.562, 0.18300000000000005, 0.9080000000000001, 0.788, -0.391, -0.18599999999999994], 0.8575303643724697),
    (18, [0.5190000000000001, 0.786, 0.5389999999999999, -0.30699999999999994, -0.562, 0.18300000000000005, 0.9080000000000001, 0.788, -0.391, -0.18599999999999994], 0.8575303643724697),
    (19, [0.5190000000000001, 0.786, 0.5389999999999999, -0.30699999999999994, -0.562, 0.18300000000000005, 0.9080000000000001, 0.788, -0.391, -0.18599999999999994], 0.8575303643724697),
    (20, [0.5190000000000001, 0.786, 0.5389999999999999, -0.30699999999999994, -0.562, 0.18300000000000005, 0.9080000000000001, 0.788, -0.391, -0.18599999999999994], 0.8575303643724697),
    (21, [0.5190000000000001, 0.786, 0.5389999999999999, -0.30699999999999994, -0.562, 0.18300000000000005, 0.9080000000000001, 0.788, -0.391, -0.18599999999999994], 0.8575303643724697),
    (22, [0.5190000000000001, 0.786, 0.5389999999999999, -0.30699999999999994, -0.562, 0.18300000000000005, 0.9080000000000001, 0.788, -0.391, -0.18599999999999994], 0.8575303643724697),
    (23, [0.5190000000000001, 0.786, 0.5389999999999999, -0.30699999999999994, -0.562, 0.18300000000000005, 0.9080000000000001, 0.788, -0.391, -0.18599999999999994], 0.8575303643724697),
    (24, [0.5190000000000001, 0.786, 0.5389999999999999, -0.30699999999999994, -0.562, 0.18300000000000005, 0.9080000000000001, 0.788, -0.391, -0.18599999999999994], 0.8575303643724697),
    (25, [0.5190000000000001, 0.786, 0.5389999999999999, -0.30699999999999994, -0.562, 0.18300000000000005, 0.9080000000000001, 0.788, -0.391, -0.18599999999999994], 0.8575303643724697),
    (26, [0.5190000000000001, 0.786, 0.5389999999999999, -0.30699999999999994, -0.562, 0.18300000000000005, 0.9080000000000001, 0.788, -0.391, -0.18599999999999994], 0.8575303643724697),
    (27, [0.5190000000000001, 0.786, 0.5389999999999999, -0.30699999999999994, -0.562, 0.18300000000000005, 0.9080000000000001, 0.788, -0.391, -0.18599999999999994], 0.8575303643724697),
    (28, [0.5190000000000001, 0.786, 0.5389999999999999, -0.30699999999999994, -0.562, 0.18300000000000005, 0.9080000000000001, 0.788, -0.391, -0.18599999999999994], 0.8575303643724697),
    (29, [0.5190000000000001, 0.786, 0.5389999999999999, -0.30699999999999994, -0.562, 0.18300000000000005, 0.9080000000000001, 0.788, -0.391, -0.18599999999999994], 0.8575303643724697),
    (30, [0.5190000000000001, 0.786, 0.5389999999999999, -0.30699999999999994, -0.562, 0.18300000000000005, 0.9080000000000001, 0.788, -0.391, -0.18599999999999994], 0.8575303643724697),
    (31, [0.5190000000000001, 0.786, 0.5389999999999999, -0.30699999999999994, -0.562, 0.18300000000000005, 0.9080000000000001, 0.788, -0.391, -0.18599999999999994], 0.8575303643724697),
    (32, [0.5190000000000001, 0.786, 0.5389999999999999, -0.30699999999999994, -0.562, 0.18300000000000005, 0.9080000000000001, 0.788, -0.391, -0.18599999999999994], 0.8575303643724697),
    (33, [0.5190000000000001, 0.786, 0.5389999999999999, -0.30699999999999994, -0.562, 0.18300000000000005, 0.9080000000000001, 0.788, -0.391, -0.18599999999999994], 0.8575303643724697),
    (34, [0.5190000000000001, 0.786, 0.5389999999999999, -0.30699999999999994, -0.562, 0.18300000000000005, 0.9080000000000001, 0.788, -0.391, -0.18599999999999994], 0.8575303643724697),
    (35, [0.5190000000000001, 0.786, 0.5389999999999999, -0.30699999999999994, -0.562, 0.18300000000000005, 0.9080000000000001, 0.788, -0.391, -0.18599999999999994], 0.8575303643724697),
    (36, [0.5190000000000001, 0.786, 0.5389999999999999, -0.30699999999999994, -0.562, 0.18300000000000005, 0.9080000000000001, 0.788, -0.391, -0.18599999999999994], 0.8575303643724697),
    (37, [0.5190000000000001, 0.786, 0.5389999999999999, -0.30699999999999994, -0.562, 0.18300000000000005, 0.9080000000000001, 0.788, -0.391, -0.18599999999999994], 0.8575303643724697),
    (38, [0.5190000000000001, 0.786, 0.5389999999999999, -0.30699999999999994, -0.562, 0.18300000000000005, 0.9080000000000001, 0.788, -0.391, -0.18599999999999994], 0.8575303643724697),
    (39, [0.5190000000000001, 0.786, 0.5389999999999999, -0.30699999999999994, -0.562, 0.18300000000000005, 0.9080000000000001, 0.788, -0.391, -0.18599999999999994], 0.8575303643724697),
    (40, [0.5190000000000001, 0.786, 0.5389999999999999, -0.30699999999999994, -0.562, 0.18300000000000005, 0.9080000000000001, 0.788, -0.391, -0.18599999999999994], 0.8575303643724697),
    (41, [0.5190000000000001, 0.786, 0.5389999999999999, -0.30699999999999994, -0.562, 0.18300000000000005, 0.9080000000000001, 0.788, -0.391, -0.18599999999999994], 0.8575303643724697),
    (42, [0.5190000000000001, 0.786, 0.5389999999999999, -0.30699999999999994, -0.562, 0.18300000000000005, 0.9080000000000001, 0.788, -0.391, -0.18599999999999994], 0.8575303643724697),
    (43, [0.5190000000000001, 0.786, 0.5389999999999999, -0.30699999999999994, -0.562, 0.18300000000000005, 0.9080000000000001, 0.788, -0.391, -0.18599999999999994], 0.8575303643724697),
    (44, [0.5190000000000001, 0.786, 0.5389999999999999, -0.30699999999999994, -0.562, 0.18300000000000005, 0.9080000000000001, 0.788, -0.391, -0.18599999999999994], 0.8575303643724697),
    (45, [0.5190000000000001, 0.786, 0.5389999999999999, -0.30699999999999994, -0.562, 0.18300000000000005, 0.9080000000000001, 0.788, -0.391, -0.18599999999999994], 0.8575303643724697),
    (46, [0.5190000000000001, 0.786, 0.5389999999999999, -0.30699999999999994, -0.562, 0.18300000000000005, 0.9080000000000001, 0.788, -0.391, -0.18599999999999994], 0.8575303643724697),
    (47, [0.5190000000000001, 0.786, 0.5389999999999999, -0.30699999999999994, -0.562, 0.18300000000000005, 0.9080000000000001, 0.788, -0.391, -0.18599999999999994], 0.8575303643724697),
    (48, [0.5190000000000001, 0.786, 0.5389999999999999, -0.30699999999999994, -0.562, 0.18300000000000005, 0.9080000000000001, 0.788, -0.391, -0.18599999999999994], 0.8575303643724697),
    (49, [0.5190000000000001, 0.786, 0.5389999999999999, -0.30699999999999994, -0.562, 0.18300000000000005, 0.9080000000000001, 0.788, -0.391, -0.18599999999999994], 0.8575303643724697),
    (50, [0.5190000000000001, 0.786, 0.5389999999999999, -0.30699999999999994, -0.562, 0.18300000000000005, 0.9080000000000001, 0.788, -0.391, -0.18599999999999994], 0.8575303643724697),
    (51, [0.5190000000000001, 0.786, 0.5389999999999999, -0.30699999999999994, -0.562, 0.18300000000000005, 0.9080000000000001, 0.788, -0.391, -0.18599999999999994], 0.8575303643724697),
    (52, [0.5190000000000001, 0.786, 0.5389999999999999, -0.30699999999999994, -0.562, 0.18300000000000005, 0.9080000000000001, 0.788, -0.391, -0.18599999999999994], 0.8575303643724697),
    (53, [0.5190000000000001, 0.786, 0.5389999999999999, -0.30699999999999994, -0.562, 0.18300000000000005, 0.9080000000000001, 0.788, -0.391, -0.18599999999999994], 0.8575303643724697),
    (54, [0.5190000000000001, 0.786, 0.5389999999999999, -0.30699999999999994, -0.562, 0.18300000000000005, 0.9080000000000001, 0.788, -0.391, -0.18599999999999994], 0.8575303643724697),
    (55, [0.5190000000000001, 0.786, 0.5389999999999999, -0.30699999999999994, -0.562, 0.18300000000000005, 0.9080000000000001, 0.788, -0.391, -0.18599999999999994], 0.8575303643724697),
    (56, [0.5190000000000001, 0.786, 0.5389999999999999, -0.30699999999999994, -0.562, 0.18300000000000005, 0.9080000000000001, 0.788, -0.391, -0.18599999999999994], 0.8575303643724697),
    (57, [0.5190000000000001, 0.786, 0.5389999999999999, -0.30699999999999994, -0.562, 0.18300000000000005, 0.9080000000000001, 0.788, -0.391, -0.18599999999999994], 0.8575303643724697),
    (58, [0.5190000000000001, 0.786, 0.5389999999999999, -0.30699999999999994, -0.562, 0.18300000000000005, 0.9080000000000001, 0.788, -0.391, -0.18599999999999994], 0.8575303643724697),
    (59, [0.5190000000000001, 0.786, 0.5389999999999999, -0.30699999999999994, -0.562, 0.18300000000000005, 0.9080000000000001, 0.788, -0.391, -0.18599999999999994], 0.8575303643724697),
    (60, [0.5190000000000001, 0.786, 0.5389999999999999, -0.30699999999999994, -0.562, 0.18300000000000005, 0.9080000000000001, 0.788, -0.391, -0.18599999999999994], 0.8575303643724697),
    (61, [0.5190000000000001, 0.786, 0.5389999999999999, -0.30699999999999994, -0.562, 0.18300000000000005, 0.9080000000000001, 0.788, -0.391, -0.18599999999999994], 0.8575303643724697),
    (62, [0.5190000000000001, 0.786, 0.5389999999999999, -0.30699999999999994, -0.562, 0.18300000000000005, 0.9080000000000001, 0.788, -0.391, -0.18599999999999994], 0.8575303643724697),
    (63, [0.5190000000000001, 0.786, 0.5389999999999999, -0.30699999999999994, -0.562, 0.18300000000000005, 0.9080000000000001, 0.788, -0.391, -0.18599999999999994], 0.8575303643724697),
    (64, [0.5190000000000001, 0.786, 0.5389999999999999, -0.30699999999999994, -0.562, 0.18300000000000005, 0.9080000000000001, 0.788, -0.391, -0.18599999999999994], 0.8575303643724697),
    (65, [0.5190000000000001, 0.786, 0.5389999999999999, -0.30699999999999994, -0.562, 0.18300000000000005, 0.9080000000000001, 0.788, -0.391, -0.18599999999999994], 0.8575303643724697),
    (66, [0.5190000000000001, 0.786, 0.5389999999999999, -0.30699999999999994, -0.562, 0.18300000000000005, 0.9080000000000001, 0.788, -0.391, -0.18599999999999994], 0.8575303643724697),
    (67, [0.5190000000000001, 0.786, 0.5389999999999999, -0.30699999999999994, -0.562, 0.18300000000000005, 0.9080000000000001, 0.788, -0.391, -0.18599999999999994], 0.8575303643724697),
    (68, [0.5190000000000001, 0.786, 0.5389999999999999, -0.30699999999999994, -0.562, 0.18300000000000005, 0.9080000000000001, 0.788, -0.391, -0.18599999999999994], 0.8575303643724697),
    (69, [0.5190000000000001, 0.786, 0.5389999999999999, -0.30699999999999994, -0.562, 0.18300000000000005, 0.9080000000000001, 0.788, -0.391, -0.18599999999999994], 0.8575303643724697),
    (70, [0.5190000000000001, 0.786, 0.5389999999999999, -0.30699999999999994, -0.562, 0.18300000000000005, 0.9080000000000001, 0.788, -0.391, -0.18599999999999994], 0.8575303643724697),
    (71, [0.5190000000000001, 0.786, 0.5389999999999999, -0.30699999999999994, -0.562, 0.18300000000000005, 0.9080000000000001, 0.788, -0.391, -0.18599999999999994], 0.8575303643724697),
    (72, [0.5190000000000001, 0.786, 0.5389999999999999, -0.30699999999999994, -0.562, 0.18300000000000005, 0.9080000000000001, 0.788, -0.391, -0.18599999999999994], 0.8575303643724697),
    (73, [0.30299999999999994, -0.17499999999999993, -0.06999999999999995, -0.279, 0.972, -0.683, 0.13800000000000012, -0.947, -0.839, 0.698], 0.8627935222672065),
    (74, [0.30299999999999994, -0.17499999999999993, -0.06999999999999995, -0.279, 0.972, -0.683, 0.13800000000000012, -0.947, -0.839, 0.698], 0.8627935222672065),
    (75, [0.30299999999999994, -0.17499999999999993, -0.06999999999999995, -0.279, 0.972, -0.683, 0.13800000000000012, -0.947, -0.839, 0.698], 0.8627935222672065),
    (76, [0.30299999999999994, -0.17499999999999993, -0.06999999999999995, -0.279, 0.972, -0.683, 0.13800000000000012, -0.947, -0.839, 0.698], 0.8627935222672065),
    (77, [0.30299999999999994, -0.17499999999999993, -0.06999999999999995, -0.279, 0.972, -0.683, 0.13800000000000012, -0.947, -0.839, 0.698], 0.8627935222672065),
    (78, [0.30299999999999994, -0.17499999999999993, -0.06999999999999995, -0.279, 0.972, -0.683, 0.13800000000000012, -0.947, -0.839, 0.698], 0.8627935222672065),
    (79, [0.30299999999999994, -0.17499999999999993, -0.06999999999999995, -0.279, 0.972, -0.683, 0.13800000000000012, -0.947, -0.839, 0.698], 0.8627935222672065),
    (80, [0.30299999999999994, -0.17499999999999993, -0.06999999999999995, -0.279, 0.972, -0.683, 0.13800000000000012, -0.947, -0.839, 0.698], 0.8627935222672065),
    (81, [0.30299999999999994, -0.17499999999999993, -0.06999999999999995, -0.279, 0.972, -0.683, 0.13800000000000012, -0.947, -0.839, 0.698], 0.8627935222672065),
    (82, [0.30299999999999994, -0.17499999999999993, -0.06999999999999995, -0.279, 0.972, -0.683, 0.13800000000000012, -0.947, -0.839, 0.698], 0.8627935222672065),
    (83, [0.30299999999999994, -0.17499999999999993, -0.06999999999999995, -0.279, 0.972, -0.683, 0.13800000000000012, -0.947, -0.839, 0.698], 0.8627935222672065),
    (84, [0.30299999999999994, -0.17499999999999993, -0.06999999999999995, -0.279, 0.972, -0.683, 0.13800000000000012, -0.947, -0.839, 0.698], 0.8627935222672065),
    (85, [0.30299999999999994, -0.17499999999999993, -0.06999999999999995, -0.279, 0.972, -0.683, 0.13800000000000012, -0.947, -0.839, 0.698], 0.8627935222672065),
    (86, [0.30299999999999994, -0.17499999999999993, -0.06999999999999995, -0.279, 0.972, -0.683, 0.13800000000000012, -0.947, -0.839, 0.698], 0.8627935222672065),
    (87, [0.30299999999999994, -0.17499999999999993, -0.06999999999999995, -0.279, 0.972, -0.683, 0.13800000000000012, -0.947, -0.839, 0.698], 0.8627935222672065),
    (88, [0.30299999999999994, -0.17499999999999993, -0.06999999999999995, -0.279, 0.972, -0.683, 0.13800000000000012, -0.947, -0.839, 0.698], 0.8627935222672065),
    (89, [0.30299999999999994, -0.17499999999999993, -0.06999999999999995, -0.279, 0.972, -0.683, 0.13800000000000012, -0.947, -0.839, 0.698], 0.8627935222672065),
    (90, [0.30299999999999994, -0.17499999999999993, -0.06999999999999995, -0.279, 0.972, -0.683, 0.13800000000000012, -0.947, -0.839, 0.698], 0.8627935222672065),
    (91, [0.30299999999999994, -0.17499999999999993, -0.06999999999999995, -0.279, 0.972, -0.683, 0.13800000000000012, -0.947, -0.839, 0.698], 0.8627935222672065),
    (92, [0.30299999999999994, -0.17499999999999993, -0.06999999999999995, -0.279, 0.972, -0.683, 0.13800000000000012, -0.947, -0.839, 0.698], 0.8627935222672065),
    (93, [0.30299999999999994, -0.17499999999999993, -0.06999999999999995, -0.279, 0.972, -0.683, 0.13800000000000012, -0.947, -0.839, 0.698], 0.8627935222672065),
    (94, [0.30299999999999994, -0.17499999999999993, -0.06999999999999995, -0.279, 0.972, -0.683, 0.13800000000000012, -0.947, -0.839, 0.698], 0.8627935222672065),
    (95, [0.30299999999999994, -0.17499999999999993, -0.06999999999999995, -0.279, 0.972, -0.683, 0.13800000000000012, -0.947, -0.839, 0.698], 0.8627935222672065),
    (96, [0.30299999999999994, -0.17499999999999993, -0.06999999999999995, -0.279, 0.972, -0.683, 0.13800000000000012, -0.947, -0.839, 0.698], 0.8627935222672065),
    (97, [0.30299999999999994, -0.17499999999999993, -0.06999999999999995, -0.279, 0.972, -0.683, 0.13800000000000012, -0.947, -0.839, 0.698], 0.8627935222672065),
    (98, [0.30299999999999994, -0.17499999999999993, -0.06999999999999995, -0.279, 0.972, -0.683, 0.13800000000000012, -0.947, -0.839, 0.698], 0.8627935222672065),
    (99, [0.30299999999999994, -0.17499999999999993, -0.06999999999999995, -0.279, 0.972, -0.683, 0.13800000000000012, -0.947, -0.839, 0.698], 0.8627935222672065),
    (100, [0.30299999999999994, -0.17499999999999993, -0.06999999999999995, -0.279, 0.972, -0.683, 0.13800000000000012, -0.947, -0.839, 0.698], 0.8627935222672065),
    (101, [0.30299999999999994, -0.17499999999999993, -0.06999999999999995, -0.279, 0.972, -0.683, 0.13800000000000012, -0.947, -0.839, 0.698], 0.8627935222672065),
    (102, [0.30299999999999994, -0.17499999999999993, -0.06999999999999995, -0.279, 0.972, -0.683, 0.13800000000000012, -0.947, -0.839, 0.698], 0.8627935222672065),
    (103, [0.30299999999999994, -0.17499999999999993, -0.06999999999999995, -0.279, 0.972, -0.683, 0.13800000000000012, -0.947, -0.839, 0.698], 0.8627935222672065),
    (104, [0.30299999999999994, -0.17499999999999993, -0.06999999999999995, -0.279, 0.972, -0.683, 0.13800000000000012, -0.947, -0.839, 0.698], 0.8627935222672065),
    (105, [0.30299999999999994, -0.17499999999999993, -0.06999999999999995, -0.279, 0.972, -0.683, 0.13800000000000012, -0.947, -0.839, 0.698], 0.8627935222672065),
    (106, [0.30299999999999994, -0.17499999999999993, -0.06999999999999995, -0.279, 0.972, -0.683, 0.13800000000000012, -0.947, -0.839, 0.698], 0.8627935222672065),
    (107, [0.30299999999999994, -0.17499999999999993, -0.06999999999999995, -0.279, 0.972, -0.683, 0.13800000000000012, -0.947, -0.839, 0.698], 0.8627935222672065),
    (108, [0.30299999999999994, -0.17499999999999993, -0.06999999999999995, -0.279, 0.972, -0.683, 0.13800000000000012, -0.947, -0.839, 0.698], 0.8627935222672065),
    (109, [0.30299999999999994, -0.17499999999999993, -0.06999999999999995, -0.279, 0.972, -0.683, 0.13800000000000012, -0.947, -0.839, 0.698], 0.8627935222672065),
    (110, [0.30299999999999994, -0.17499999999999993, -0.06999999999999995, -0.279, 0.972, -0.683, 0.13800000000000012, -0.947, -0.839, 0.698], 0.8627935222672065),
    (111, [0.30299999999999994, -0.17499999999999993, -0.06999999999999995, -0.279, 0.972, -0.683, 0.13800000000000012, -0.947, -0.839, 0.698], 0.8627935222672065),
    (112, [0.30299999999999994, -0.17499999999999993, -0.06999999999999995, -0.279, 0.972, -0.683, 0.13800000000000012, -0.947, -0.839, 0.698], 0.8627935222672065),
    (113, [0.30299999999999994, -0.17499999999999993, -0.06999999999999995, -0.279, 0.972, -0.683, 0.13800000000000012, -0.947, -0.839, 0.698], 0.8627935222672065),
    (114, [0.30299999999999994, -0.17499999999999993, -0.06999999999999995, -0.279, 0.972, -0.683, 0.13800000000000012, -0.947, -0.839, 0.698], 0.8627935222672065),
    (115, [0.30299999999999994, -0.17499999999999993, -0.06999999999999995, -0.279, 0.972, -0.683, 0.13800000000000012, -0.947, -0.839, 0.698], 0.8627935222672065),
    (116, [0.30299999999999994, -0.17499999999999993, -0.06999999999999995, -0.279, 0.972, -0.683, 0.13800000000000012, -0.947, -0.839, 0.698], 0.8627935222672065),
    (117, [0.30299999999999994, -0.17499999999999993, -0.06999999999999995, -0.279, 0.972, -0.683, 0.13800000000000012, -0.947, -0.839, 0.698], 0.8627935222672065),
    (118, [0.30299999999999994, -0.17499999999999993, -0.06999999999999995, -0.279, 0.972, -0.683, 0.13800000000000012, -0.947, -0.839, 0.698], 0.8627935222672065),
    (119, [0.30299999999999994, -0.17499999999999993, -0.06999999999999995, -0.279, 0.972, -0.683, 0.13800000000000012, -0.947, -0.839, 0.698], 0.8627935222672065),
    (120, [0.30299999999999994, -0.17499999999999993, -0.06999999999999995, -0.279, 0.972, -0.683, 0.13800000000000012, -0.947, -0.839, 0.698], 0.8627935222672065),
    (121, [0.30299999999999994, -0.17499999999999993, -0.06999999999999995, -0.279, 0.972, -0.683, 0.13800000000000012, -0.947, -0.839, 0.698], 0.8627935222672065),
    (122, [0.30299999999999994, -0.17499999999999993, -0.06999999999999995, -0.279, 0.972, -0.683, 0.13800000000000012, -0.947, -0.839, 0.698], 0.8627935222672065),
    (123, [0.30299999999999994, -0.17499999999999993, -0.06999999999999995, -0.279, 0.972, -0.683, 0.13800000000000012, -0.947, -0.839, 0.698], 0.8627935222672065),
    (124, [0.30299999999999994, -0.17499999999999993, -0.06999999999999995, -0.279, 0.972, -0.683, 0.13800000000000012, -0.947, -0.839, 0.698], 0.8627935222672065),
    (125, [0.30299999999999994, -0.17499999999999993, -0.06999999999999995, -0.279, 0.972, -0.683, 0.13800000000000012, -0.947, -0.839, 0.698], 0.8627935222672065),
    (126, [0.30299999999999994, -0.17499999999999993, -0.06999999999999995, -0.279, 0.972, -0.683, 0.13800000000000012, -0.947, -0.839, 0.698], 0.8627935222672065),
    (127, [0.30299999999999994, -0.17499999999999993, -0.06999999999999995, -0.279, 0.972, -0.683, 0.13800000000000012, -0.947, -0.839, 0.698], 0.8627935222672065),
    (128, [0.30299999999999994, -0.17499999999999993, -0.06999999999999995, -0.279, 0.972, -0.683, 0.13800000000000012, -0.947, -0.839, 0.698], 0.8627935222672065),
    (129, [0.30299999999999994, -0.17499999999999993, -0.06999999999999995, -0.279, 0.972, -0.683, 0.13800000000000012, -0.947, -0.839, 0.698], 0.8627935222672065),
    (130, [0.30299999999999994, -0.17499999999999993, -0.06999999999999995, -0.279, 0.972, -0.683, 0.13800000000000012, -0.947, -0.839, 0.698], 0.8627935222672065),
    (131, [0.30299999999999994, -0.17499999999999993, -0.06999999999999995, -0.279, 0.972, -0.683, 0.13800000000000012, -0.947, -0.839, 0.698], 0.8627935222672065),
    (132, [0.30299999999999994, -0.17499999999999993, -0.06999999999999995, -0.279, 0.972, -0.683, 0.13800000000000012, -0.947, -0.839, 0.698], 0.8627935222672065),
    (133, [0.30299999999999994, -0.17499999999999993, -0.06999999999999995, -0.279, 0.972, -0.683, 0.13800000000000012, -0.947, -0.839, 0.698], 0.8627935222672065),
    (134, [0.30299999999999994, -0.17499999999999993, -0.06999999999999995, -0.279, 0.972, -0.683, 0.13800000000000012, -0.947, -0.839, 0.698], 0.8627935222672065),
    (135, [0.30299999999999994, -0.17499999999999993, -0.06999999999999995, -0.279, 0.972, -0.683, 0.13800000000000012, -0.947, -0.839, 0.698], 0.8627935222672065),
    (136, [0.30299999999999994, -0.17499999999999993, -0.06999999999999995, -0.279, 0.972, -0.683, 0.13800000000000012, -0.947, -0.839, 0.698], 0.8627935222672065),
    (137, [0.30299999999999994, -0.17499999999999993, -0.06999999999999995, -0.279, 0.972, -0.683, 0.13800000000000012, -0.947, -0.839, 0.698], 0.8627935222672065),
    (138, [0.30299999999999994, -0.17499999999999993, -0.06999999999999995, -0.279, 0.972, -0.683, 0.13800000000000012, -0.947, -0.839, 0.698], 0.8627935222672065),
    (139, [0.30299999999999994, -0.17499999999999993, -0.06999999999999995, -0.279, 0.972, -0.683, 0.13800000000000012, -0.947, -0.839, 0.698], 0.8627935222672065),
    (140, [0.30299999999999994, -0.17499999999999993, -0.06999999999999995, -0.279, 0.972, -0.683, 0.13800000000000012, -0.947, -0.839, 0.698], 0.8627935222672065),
    (141, [0.30299999999999994, -0.17499999999999993, -0.06999999999999995, -0.279, 0.972, -0.683, 0.13800000000000012, -0.947, -0.839, 0.698], 0.8627935222672065),
    (142, [0.30299999999999994, -0.17499999999999993, -0.06999999999999995, -0.279, 0.972, -0.683, 0.13800000000000012, -0.947, -0.839, 0.698], 0.8627935222672065),
    (143, [0.30299999999999994, -0.17499999999999993, -0.06999999999999995, -0.279, 0.972, -0.683, 0.13800000000000012, -0.947, -0.839, 0.698], 0.8627935222672065),
    (144, [0.30299999999999994, -0.17499999999999993, -0.06999999999999995, -0.279, 0.972, -0.683, 0.13800000000000012, -0.947, -0.839, 0.698], 0.8627935222672065),
    (145, [0.30299999999999994, -0.17499999999999993, -0.06999999999999995, -0.279, 0.972, -0.683, 0.13800000000000012, -0.947, -0.839, 0.698], 0.8627935222672065),
    (146, [0.30299999999999994, -0.17499999999999993, -0.06999999999999995, -0.279, 0.972, -0.683, 0.13800000000000012, -0.947, -0.839, 0.698], 0.8627935222672065),
    (147, [0.30299999999999994, -0.17499999999999993, -0.06999999999999995, -0.279, 0.972, -0.683, 0.13800000000000012, -0.947, -0.839, 0.698], 0.8627935222672065),
    (148, [0.30299999999999994, -0.17499999999999993, -0.06999999999999995, -0.279, 0.972, -0.683, 0.13800000000000012, -0.947, -0.839, 0.698], 0.8627935222672065),
    (149, [0.30299999999999994, -0.17499999999999993, -0.06999999999999995, -0.279, 0.972, -0.683, 0.13800000000000012, -0.947, -0.839, 0.698], 0.8627935222672065),
    (150, [0.30299999999999994, -0.17499999999999993, -0.06999999999999995, -0.279, 0.972, -0.683, 0.13800000000000012, -0.947, -0.839, 0.698], 0.8627935222672065),
    (151, [0.30299999999999994, -0.17499999999999993, -0.06999999999999995, -0.279, 0.972, -0.683, 0.13800000000000012, -0.947, -0.839, 0.698], 0.8627935222672065),
    (152, [0.30299999999999994, -0.17499999999999993, -0.06999999999999995, -0.279, 0.972, -0.683, 0.13800000000000012, -0.947, -0.839, 0.698], 0.8627935222672065),
    (153, [0.30299999999999994, -0.17499999999999993, -0.06999999999999995, -0.279, 0.972, -0.683, 0.13800000000000012, -0.947, -0.839, 0.698], 0.8627935222672065),
    (154, [0.30299999999999994, -0.17499999999999993, -0.06999999999999995, -0.279, 0.972, -0.683, 0.13800000000000012, -0.947, -0.839, 0.698], 0.8627935222672065),
    (155, [0.30299999999999994, -0.17499999999999993, -0.06999999999999995, -0.279, 0.972, -0.683, 0.13800000000000012, -0.947, -0.839, 0.698], 0.8627935222672065),
    (156, [0.30299999999999994, -0.17499999999999993, -0.06999999999999995, -0.279, 0.972, -0.683, 0.13800000000000012, -0.947, -0.839, 0.698], 0.8627935222672065),
    (157, [0.30299999999999994, -0.17499999999999993, -0.06999999999999995, -0.279, 0.972, -0.683, 0.13800000000000012, -0.947, -0.839, 0.698], 0.8627935222672065),
    (158, [0.30299999999999994, -0.17499999999999993, -0.06999999999999995, -0.279, 0.972, -0.683, 0.13800000000000012, -0.947, -0.839, 0.698], 0.8627935222672065),
    (159, [0.30299999999999994, -0.17499999999999993, -0.06999999999999995, -0.279, 0.972, -0.683, 0.13800000000000012, -0.947, -0.839, 0.698], 0.8627935222672065),
    (160, [0.30299999999999994, -0.17499999999999993, -0.06999999999999995, -0.279, 0.972, -0.683, 0.13800000000000012, -0.947, -0.839, 0.698], 0.8627935222672065),
    (161, [0.30299999999999994, -0.17499999999999993, -0.06999999999999995, -0.279, 0.972, -0.683, 0.13800000000000012, -0.947, -0.839, 0.698], 0.8627935222672065),
    (162, [0.30299999999999994, -0.17499999999999993, -0.06999999999999995, -0.279, 0.972, -0.683, 0.13800000000000012, -0.947, -0.839, 0.698], 0.8627935222672065),
    (163, [0.30299999999999994, -0.17499999999999993, -0.06999999999999995, -0.279, 0.972, -0.683, 0.13800000000000012, -0.947, -0.839, 0.698], 0.8627935222672065),
    (164, [0.30299999999999994, -0.17499999999999993, -0.06999999999999995, -0.279, 0.972, -0.683, 0.13800000000000012, -0.947, -0.839, 0.698], 0.8627935222672065),
    (165, [0.30299999999999994, -0.17499999999999993, -0.06999999999999995, -0.279, 0.972, -0.683, 0.13800000000000012, -0.947, -0.839, 0.698], 0.8627935222672065),
    (166, [0.30299999999999994, -0.17499999999999993, -0.06999999999999995, -0.279, 0.972, -0.683, 0.13800000000000012, -0.947, -0.839, 0.698], 0.8627935222672065),
    (167, [0.30299999999999994, -0.17499999999999993, -0.06999999999999995, -0.279, 0.972, -0.683, 0.13800000000000012, -0.947, -0.839, 0.698], 0.8627935222672065),
    (168, [0.30299999999999994, -0.17499999999999993, -0.06999999999999995, -0.279, 0.972, -0.683, 0.13800000000000012, -0.947, -0.839, 0.698], 0.8627935222672065),
    (169, [0.30299999999999994, -0.17499999999999993, -0.06999999999999995, -0.279, 0.972, -0.683, 0.13800000000000012, -0.947, -0.839, 0.698], 0.8627935222672065),
    (170, [0.30299999999999994, -0.17499999999999993, -0.06999999999999995, -0.279, 0.972, -0.683, 0.13800000000000012, -0.947, -0.839, 0.698], 0.8627935222672065),
    (171, [0.30299999999999994, -0.17499999999999993, -0.06999999999999995, -0.279, 0.972, -0.683, 0.13800000000000012, -0.947, -0.839, 0.698], 0.8627935222672065),
    (172, [0.30299999999999994, -0.17499999999999993, -0.06999999999999995, -0.279, 0.972, -0.683, 0.13800000000000012, -0.947, -0.839, 0.698], 0.8627935222672065),
    (173, [0.30299999999999994, -0.17499999999999993, -0.06999999999999995, -0.279, 0.972, -0.683, 0.13800000000000012, -0.947, -0.839, 0.698], 0.8627935222672065),
    (174, [0.30299999999999994, -0.17499999999999993, -0.06999999999999995, -0.279, 0.972, -0.683, 0.13800000000000012, -0.947, -0.839, 0.698], 0.8627935222672065),
    (175, [0.30299999999999994, -0.17499999999999993, -0.06999999999999995, -0.279, 0.972, -0.683, 0.13800000000000012, -0.947, -0.839, 0.698], 0.8627935222672065),
    (176, [0.30299999999999994, -0.17499999999999993, -0.06999999999999995, -0.279, 0.972, -0.683, 0.13800000000000012, -0.947, -0.839, 0.698], 0.8627935222672065),
    (177, [0.30299999999999994, -0.17499999999999993, -0.06999999999999995, -0.279, 0.972, -0.683, 0.13800000000000012, -0.947, -0.839, 0.698], 0.8627935222672065),
    (178, [0.30299999999999994, -0.17499999999999993, -0.06999999999999995, -0.279, 0.972, -0.683, 0.13800000000000012, -0.947, -0.839, 0.698], 0.8627935222672065),
    (179, [0.30299999999999994, -0.17499999999999993, -0.06999999999999995, -0.279, 0.972, -0.683, 0.13800000000000012, -0.947, -0.839, 0.698], 0.8627935222672065),
    (180, [0.30299999999999994, -0.17499999999999993, -0.06999999999999995, -0.279, 0.972, -0.683, 0.13800000000000012, -0.947, -0.839, 0.698], 0.8627935222672065),
    (181, [0.30299999999999994, -0.17499999999999993, -0.06999999999999995, -0.279, 0.972, -0.683, 0.13800000000000012, -0.947, -0.839, 0.698], 0.8627935222672065),
    (182, [0.30299999999999994, -0.17499999999999993, -0.06999999999999995, -0.279, 0.972, -0.683, 0.13800000000000012, -0.947, -0.839, 0.698], 0.8627935222672065),
    (183, [0.30299999999999994, -0.17499999999999993, -0.06999999999999995, -0.279, 0.972, -0.683, 0.13800000000000012, -0.947, -0.839, 0.698], 0.8627935222672065),
    (184, [0.30299999999999994, -0.17499999999999993, -0.06999999999999995, -0.279, 0.972, -0.683, 0.13800000000000012, -0.947, -0.839, 0.698], 0.8627935222672065),
    (185, [0.30299999999999994, -0.17499999999999993, -0.06999999999999995, -0.279, 0.972, -0.683, 0.13800000000000012, -0.947, -0.839, 0.698], 0.8627935222672065),
    (186, [0.30299999999999994, -0.17499999999999993, -0.06999999999999995, -0.279, 0.972, -0.683, 0.13800000000000012, -0.947, -0.839, 0.698], 0.8627935222672065),
    (187, [0.30299999999999994, -0.17499999999999993, -0.06999999999999995, -0.279, 0.972, -0.683, 0.13800000000000012, -0.947, -0.839, 0.698], 0.8627935222672065),
    (188, [0.30299999999999994, -0.17499999999999993, -0.06999999999999995, -0.279, 0.972, -0.683, 0.13800000000000012, -0.947, -0.839, 0.698], 0.8627935222672065),
    (189, [0.30299999999999994, -0.17499999999999993, -0.06999999999999995, -0.279, 0.972, -0.683, 0.13800000000000012, -0.947, -0.839, 0.698], 0.8627935222672065),
    (190, [0.30299999999999994, -0.17499999999999993, -0.06999999999999995, -0.279, 0.972, -0.683, 0.13800000000000012, -0.947, -0.839, 0.698], 0.8627935222672065),
    (191, [0.30299999999999994, -0.17499999999999993, -0.06999999999999995, -0.279, 0.972, -0.683, 0.13800000000000012, -0.947, -0.839, 0.698], 0.8627935222672065),
    (192, [0.30299999999999994, -0.17499999999999993, -0.06999999999999995, -0.279, 0.972, -0.683, 0.13800000000000012, -0.947, -0.839, 0.698], 0.8627935222672065),
    (193, [0.30299999999999994, -0.17499999999999993, -0.06999999999999995, -0.279, 0.972, -0.683, 0.13800000000000012, -0.947, -0.839, 0.698], 0.8627935222672065),
    (194, [0.30299999999999994, -0.17499999999999993, -0.06999999999999995, -0.279, 0.972, -0.683, 0.13800000000000012, -0.947, -0.839, 0.698], 0.8627935222672065),
    (195, [0.30299999999999994, -0.17499999999999993, -0.06999999999999995, -0.279, 0.972, -0.683, 0.13800000000000012, -0.947, -0.839, 0.698], 0.8627935222672065),
    (196, [0.30299999999999994, -0.17499999999999993, -0.06999999999999995, -0.279, 0.972, -0.683, 0.13800000000000012, -0.947, -0.839, 0.698], 0.8627935222672065),
    (197, [0.30299999999999994, -0.17499999999999993, -0.06999999999999995, -0.279, 0.972, -0.683, 0.13800000000000012, -0.947, -0.839, 0.698], 0.8627935222672065),
    (198, [0.30299999999999994, -0.17499999999999993, -0.06999999999999995, -0.279, 0.972, -0.683, 0.13800000000000012, -0.947, -0.839, 0.698], 0.8627935222672065),
    (199, [0.30299999999999994, -0.17499999999999993, -0.06999999999999995, -0.279, 0.972, -0.683, 0.13800000000000012, -0.947, -0.839, 0.698], 0.8627935222672065),
    (200, [0.30299999999999994, -0.17499999999999993, -0.06999999999999995, -0.279, 0.972, -0.683, 0.13800000000000012, -0.947, -0.839, 0.698], 0.8627935222672065),
    (201, [0.30299999999999994, -0.17499999999999993, -0.06999999999999995, -0.279, 0.972, -0.683, 0.13800000000000012, -0.947, -0.839, 0.698], 0.8627935222672065),
    (202, [0.30299999999999994, -0.17499999999999993, -0.06999999999999995, -0.279, 0.972, -0.683, 0.13800000000000012, -0.947, -0.839, 0.698], 0.8627935222672065),
    (203, [0.30299999999999994, -0.17499999999999993, -0.06999999999999995, -0.279, 0.972, -0.683, 0.13800000000000012, -0.947, -0.839, 0.698], 0.8627935222672065),
    (204, [0.30299999999999994, -0.17499999999999993, -0.06999999999999995, -0.279, 0.972, -0.683, 0.13800000000000012, -0.947, -0.839, 0.698], 0.8627935222672065),
    (205, [0.30299999999999994, -0.17499999999999993, -0.06999999999999995, -0.279, 0.972, -0.683, 0.13800000000000012, -0.947, -0.839, 0.698], 0.8627935222672065),
    (206, [0.30299999999999994, -0.17499999999999993, -0.06999999999999995, -0.279, 0.972, -0.683, 0.13800000000000012, -0.947, -0.839, 0.698], 0.8627935222672065),
    (207, [0.30299999999999994, -0.17499999999999993, -0.06999999999999995, -0.279, 0.972, -0.683, 0.13800000000000012, -0.947, -0.839, 0.698], 0.8627935222672065),
    (208, [0.30299999999999994, -0.17499999999999993, -0.06999999999999995, -0.279, 0.972, -0.683, 0.13800000000000012, -0.947, -0.839, 0.698], 0.8627935222672065),
    (209, [0.30299999999999994, -0.17499999999999993, -0.06999999999999995, -0.279, 0.972, -0.683, 0.13800000000000012, -0.947, -0.839, 0.698], 0.8627935222672065),
    (210, [0.30299999999999994, -0.17499999999999993, -0.06999999999999995, -0.279, 0.972, -0.683, 0.13800000000000012, -0.947, -0.839, 0.698], 0.8627935222672065),
    (211, [0.30299999999999994, -0.17499999999999993, -0.06999999999999995, -0.279, 0.972, -0.683, 0.13800000000000012, -0.947, -0.839, 0.698], 0.8627935222672065),
    (212, [0.30299999999999994, -0.17499999999999993, -0.06999999999999995, -0.279, 0.972, -0.683, 0.13800000000000012, -0.947, -0.839, 0.698], 0.8627935222672065),
    (213, [0.30299999999999994, -0.17499999999999993, -0.06999999999999995, -0.279, 0.972, -0.683, 0.13800000000000012, -0.947, -0.839, 0.698], 0.8627935222672065),
    (214, [0.30299999999999994, -0.17499999999999993, -0.06999999999999995, -0.279, 0.972, -0.683, 0.13800000000000012, -0.947, -0.839, 0.698], 0.8627935222672065),
    (215, [0.30299999999999994, -0.17499999999999993, -0.06999999999999995, -0.279, 0.972, -0.683, 0.13800000000000012, -0.947, -0.839, 0.698], 0.8627935222672065),
    (216, [0.30299999999999994, -0.17499999999999993, -0.06999999999999995, -0.279, 0.972, -0.683, 0.13800000000000012, -0.947, -0.839, 0.698], 0.8627935222672065),
    (217, [0.30299999999999994, -0.17499999999999993, -0.06999999999999995, -0.279, 0.972, -0.683, 0.13800000000000012, -0.947, -0.839, 0.698], 0.8627935222672065),
    (218, [-0.905, 0.8400000000000001, -0.366, -0.22599999999999998, -0.629, -0.589, 0.667, -0.966, -0.33399999999999996, -0.241], 0.8630499325236167),
    (219, [-0.905, 0.8400000000000001, -0.366, -0.22599999999999998, -0.629, -0.589, 0.667, -0.966, -0.33399999999999996, -0.241], 0.8630499325236167),
    (220, [-0.905, 0.8400000000000001, -0.366, -0.22599999999999998, -0.629, -0.589, 0.667, -0.966, -0.33399999999999996, -0.241], 0.8630499325236167),
    (221, [-0.905, 0.8400000000000001, -0.366, -0.22599999999999998, -0.629, -0.589, 0.667, -0.966, -0.33399999999999996, -0.241], 0.8630499325236167),
    (222, [-0.905, 0.8400000000000001, -0.366, -0.22599999999999998, -0.629, -0.589, 0.667, -0.966, -0.33399999999999996, -0.241], 0.8630499325236167),
    (223, [-0.905, 0.8400000000000001, -0.366, -0.22599999999999998, -0.629, -0.589, 0.667, -0.966, -0.33399999999999996, -0.241], 0.8630499325236167),
    (224, [-0.905, 0.8400000000000001, -0.366, -0.22599999999999998, -0.629, -0.589, 0.667, -0.966, -0.33399999999999996, -0.241], 0.8630499325236167),
    (225, [-0.905, 0.8400000000000001, -0.366, -0.22599999999999998, -0.629, -0.589, 0.667, -0.966, -0.33399999999999996, -0.241], 0.8630499325236167),
    (226, [-0.905, 0.8400000000000001, -0.366, -0.22599999999999998, -0.629, -0.589, 0.667, -0.966, -0.33399999999999996, -0.241], 0.8630499325236167),
    (227, [-0.905, 0.8400000000000001, -0.366, -0.22599999999999998, -0.629, -0.589, 0.667, -0.966, -0.33399999999999996, -0.241], 0.8630499325236167),
    (228, [-0.905, 0.8400000000000001, -0.366, -0.22599999999999998, -0.629, -0.589, 0.667, -0.966, -0.33399999999999996, -0.241], 0.8630499325236167),
    (229, [-0.905, 0.8400000000000001, -0.366, -0.22599999999999998, -0.629, -0.589, 0.667, -0.966, -0.33399999999999996, -0.241], 0.8630499325236167),
    (230, [-0.905, 0.8400000000000001, -0.366, -0.22599999999999998, -0.629, -0.589, 0.667, -0.966, -0.33399999999999996, -0.241], 0.8630499325236167),
    (231, [-0.905, 0.8400000000000001, -0.366, -0.22599999999999998, -0.629, -0.589, 0.667, -0.966, -0.33399999999999996, -0.241], 0.8630499325236167),
    (232, [-0.905, 0.8400000000000001, -0.366, -0.22599999999999998, -0.629, -0.589, 0.667, -0.966, -0.33399999999999996, -0.241], 0.8630499325236167),
    (233, [-0.905, 0.8400000000000001, -0.366, -0.22599999999999998, -0.629, -0.589, 0.667, -0.966, -0.33399999999999996, -0.241], 0.8630499325236167),
    (234, [-0.905, 0.8400000000000001, -0.366, -0.22599999999999998, -0.629, -0.589, 0.667, -0.966, -0.33399999999999996, -0.241], 0.8630499325236167),
    (235, [-0.905, 0.8400000000000001, -0.366, -0.22599999999999998, -0.629, -0.589, 0.667, -0.966, -0.33399999999999996, -0.241], 0.8630499325236167),
    (236, [-0.905, 0.8400000000000001, -0.366, -0.22599999999999998, -0.629, -0.589, 0.667, -0.966, -0.33399999999999996, -0.241], 0.8630499325236167),
    (237, [-0.905, 0.8400000000000001, -0.366, -0.22599999999999998, -0.629, -0.589, 0.667, -0.966, -0.33399999999999996, -0.241], 0.8630499325236167),
    (238, [-0.905, 0.8400000000000001, -0.366, -0.22599999999999998, -0.629, -0.589, 0.667, -0.966, -0.33399999999999996, -0.241], 0.8630499325236167),
    (239, [-0.905, 0.8400000000000001, -0.366, -0.22599999999999998, -0.629, -0.589, 0.667, -0.966, -0.33399999999999996, -0.241], 0.8630499325236167),
    (240, [-0.905, 0.8400000000000001, -0.366, -0.22599999999999998, -0.629, -0.589, 0.667, -0.966, -0.33399999999999996, -0.241], 0.8630499325236167),
    (241, [-0.905, 0.8400000000000001, -0.366, -0.22599999999999998, -0.629, -0.589, 0.667, -0.966, -0.33399999999999996, -0.241], 0.8630499325236167),
    (242, [-0.905, 0.8400000000000001, -0.366, -0.22599999999999998, -0.629, -0.589, 0.667, -0.966, -0.33399999999999996, -0.241], 0.8630499325236167),
    (243, [-0.905, 0.8400000000000001, -0.366, -0.22599999999999998, -0.629, -0.589, 0.667, -0.966, -0.33399999999999996, -0.241], 0.8630499325236167),
    (244, [-0.905, 0.8400000000000001, -0.366, -0.22599999999999998, -0.629, -0.589, 0.667, -0.966, -0.33399999999999996, -0.241], 0.8630499325236167),
    (245, [-0.905, 0.8400000000000001, -0.366, -0.22599999999999998, -0.629, -0.589, 0.667, -0.966, -0.33399999999999996, -0.241], 0.8630499325236167),
    (246, [-0.905, 0.8400000000000001, -0.366, -0.22599999999999998, -0.629, -0.589, 0.667, -0.966, -0.33399999999999996, -0.241], 0.8630499325236167),
    (247, [-0.905, 0.8400000000000001, -0.366, -0.22599999999999998, -0.629, -0.589, 0.667, -0.966, -0.33399999999999996, -0.241], 0.8630499325236167),
    (248, [-0.905, 0.8400000000000001, -0.366, -0.22599999999999998, -0.629, -0.589, 0.667, -0.966, -0.33399999999999996, -0.241], 0.8630499325236167),
    (249, [-0.905, 0.8400000000000001, -0.366, -0.22599999999999998, -0.629, -0.589, 0.667, -0.966, -0.33399999999999996, -0.241], 0.8630499325236167),
    (250, [-0.905, 0.8400000000000001, -0.366, -0.22599999999999998, -0.629, -0.589, 0.667, -0.966, -0.33399999999999996, -0.241], 0.8630499325236167),
    (251, [-0.905, 0.8400000000000001, -0.366, -0.22599999999999998, -0.629, -0.589, 0.667, -0.966, -0.33399999999999996, -0.241], 0.8630499325236167),
    (252, [-0.905, 0.8400000000000001, -0.366, -0.22599999999999998, -0.629, -0.589, 0.667, -0.966, -0.33399999999999996, -0.241], 0.8630499325236167),
    (253, [-0.905, 0.8400000000000001, -0.366, -0.22599999999999998, -0.629, -0.589, 0.667, -0.966, -0.33399999999999996, -0.241], 0.8630499325236167),
    (254, [-0.905, 0.8400000000000001, -0.366, -0.22599999999999998, -0.629, -0.589, 0.667, -0.966, -0.33399999999999996, -0.241], 0.8630499325236167),
    (255, [-0.905, 0.8400000000000001, -0.366, -0.22599999999999998, -0.629, -0.589, 0.667, -0.966, -0.33399999999999996, -0.241], 0.8630499325236167),
    (256, [-0.905, 0.8400000000000001, -0.366, -0.22599999999999998, -0.629, -0.589, 0.667, -0.966, -0.33399999999999996, -0.241], 0.8630499325236167),
    (257, [-0.905, 0.8400000000000001, -0.366, -0.22599999999999998, -0.629, -0.589, 0.667, -0.966, -0.33399999999999996, -0.241], 0.8630499325236167),
    (258, [-0.905, 0.8400000000000001, -0.366, -0.22599999999999998, -0.629, -0.589, 0.667, -0.966, -0.33399999999999996, -0.241], 0.8630499325236167),
    (259, [-0.905, 0.8400000000000001, -0.366, -0.22599999999999998, -0.629, -0.589, 0.667, -0.966, -0.33399999999999996, -0.241], 0.8630499325236167),
    (260, [-0.905, 0.8400000000000001, -0.366, -0.22599999999999998, -0.629, -0.589, 0.667, -0.966, -0.33399999999999996, -0.241], 0.8630499325236167),
    (261, [-0.905, 0.8400000000000001, -0.366, -0.22599999999999998, -0.629, -0.589, 0.667, -0.966, -0.33399999999999996, -0.241], 0.8630499325236167),
    (262, [-0.905, 0.8400000000000001, -0.366, -0.22599999999999998, -0.629, -0.589, 0.667, -0.966, -0.33399999999999996, -0.241], 0.8630499325236167),
    (263, [-0.905, 0.8400000000000001, -0.366, -0.22599999999999998, -0.629, -0.589, 0.667, -0.966, -0.33399999999999996, -0.241], 0.8630499325236167),
    (264, [-0.905, 0.8400000000000001, -0.366, -0.22599999999999998, -0.629, -0.589, 0.667, -0.966, -0.33399999999999996, -0.241], 0.8630499325236167),
    (265, [-0.905, 0.8400000000000001, -0.366, -0.22599999999999998, -0.629, -0.589, 0.667, -0.966, -0.33399999999999996, -0.241], 0.8630499325236167),
    (266, [-0.905, 0.8400000000000001, -0.366, -0.22599999999999998, -0.629, -0.589, 0.667, -0.966, -0.33399999999999996, -0.241], 0.8630499325236167),
    (267, [-0.905, 0.8400000000000001, -0.366, -0.22599999999999998, -0.629, -0.589, 0.667, -0.966, -0.33399999999999996, -0.241], 0.8630499325236167),
    (268, [-0.905, 0.8400000000000001, -0.366, -0.22599999999999998, -0.629, -0.589, 0.667, -0.966, -0.33399999999999996, -0.241], 0.8630499325236167),
    (269, [-0.905, 0.8400000000000001, -0.366, -0.22599999999999998, -0.629, -0.589, 0.667, -0.966, -0.33399999999999996, -0.241], 0.8630499325236167),
    (270, [-0.905, 0.8400000000000001, -0.366, -0.22599999999999998, -0.629, -0.589, 0.667, -0.966, -0.33399999999999996, -0.241], 0.8630499325236167),
    (271, [-0.905, 0.8400000000000001, -0.366, -0.22599999999999998, -0.629, -0.589, 0.667, -0.966, -0.33399999999999996, -0.241], 0.8630499325236167),
    (272, [-0.905, 0.8400000000000001, -0.366, -0.22599999999999998, -0.629, -0.589, 0.667, -0.966, -0.33399999999999996, -0.241], 0.8630499325236167),
    (273, [-0.905, 0.8400000000000001, -0.366, -0.22599999999999998, -0.629, -0.589, 0.667, -0.966, -0.33399999999999996, -0.241], 0.8630499325236167),
    (274, [-0.905, 0.8400000000000001, -0.366, -0.22599999999999998, -0.629, -0.589, 0.667, -0.966, -0.33399999999999996, -0.241], 0.8630499325236167),
    (275, [-0.905, 0.8400000000000001, -0.366, -0.22599999999999998, -0.629, -0.589, 0.667, -0.966, -0.33399999999999996, -0.241], 0.8630499325236167),
    (276, [-0.905, 0.8400000000000001, -0.366, -0.22599999999999998, -0.629, -0.589, 0.667, -0.966, -0.33399999999999996, -0.241], 0.8630499325236167),
    (277, [-0.905, 0.8400000000000001, -0.366, -0.22599999999999998, -0.629, -0.589, 0.667, -0.966, -0.33399999999999996, -0.241], 0.8630499325236167),
    (278, [-0.905, 0.8400000000000001, -0.366, -0.22599999999999998, -0.629, -0.589, 0.667, -0.966, -0.33399999999999996, -0.241], 0.8630499325236167),
    (279, [-0.905, 0.8400000000000001, -0.366, -0.22599999999999998, -0.629, -0.589, 0.667, -0.966, -0.33399999999999996, -0.241], 0.8630499325236167),
    (280, [-0.905, 0.8400000000000001, -0.366, -0.22599999999999998, -0.629, -0.589, 0.667, -0.966, -0.33399999999999996, -0.241], 0.8630499325236167),
    (281, [-0.905, 0.8400000000000001, -0.366, -0.22599999999999998, -0.629, -0.589, 0.667, -0.966, -0.33399999999999996, -0.241], 0.8630499325236167),
    (282, [-0.905, 0.8400000000000001, -0.366, -0.22599999999999998, -0.629, -0.589, 0.667, -0.966, -0.33399999999999996, -0.241], 0.8630499325236167),
    (283, [-0.905, 0.8400000000000001, -0.366, -0.22599999999999998, -0.629, -0.589, 0.667, -0.966, -0.33399999999999996, -0.241], 0.8630499325236167),
    (284, [-0.905, 0.8400000000000001, -0.366, -0.22599999999999998, -0.629, -0.589, 0.667, -0.966, -0.33399999999999996, -0.241], 0.8630499325236167),
    (285, [-0.905, 0.8400000000000001, -0.366, -0.22599999999999998, -0.629, -0.589, 0.667, -0.966, -0.33399999999999996, -0.241], 0.8630499325236167),
    (286, [-0.905, 0.8400000000000001, -0.366, -0.22599999999999998, -0.629, -0.589, 0.667, -0.966, -0.33399999999999996, -0.241], 0.8630499325236167),
    (287, [-0.905, 0.8400000000000001, -0.366, -0.22599999999999998, -0.629, -0.589, 0.667, -0.966, -0.33399999999999996, -0.241], 0.8630499325236167),
    (288, [-0.905, 0.8400000000000001, -0.366, -0.22599999999999998, -0.629, -0.589, 0.667, -0.966, -0.33399999999999996, -0.241], 0.8630499325236167),
    (289, [-0.905, 0.8400000000000001, -0.366, -0.22599999999999998, -0.629, -0.589, 0.667, -0.966, -0.33399999999999996, -0.241], 0.8630499325236167),
    (290, [-0.905, 0.8400000000000001, -0.366, -0.22599999999999998, -0.629, -0.589, 0.667, -0.966, -0.33399999999999996, -0.241], 0.8630499325236167),
    (291, [-0.905, 0.8400000000000001, -0.366, -0.22599999999999998, -0.629, -0.589, 0.667, -0.966, -0.33399999999999996, -0.241], 0.8630499325236167),
    (292, [-0.905, 0.8400000000000001, -0.366, -0.22599999999999998, -0.629, -0.589, 0.667, -0.966, -0.33399999999999996, -0.241], 0.8630499325236167),
    (293, [-0.905, 0.8400000000000001, -0.366, -0.22599999999999998, -0.629, -0.589, 0.667, -0.966, -0.33399999999999996, -0.241], 0.8630499325236167),
    (294, [-0.905, 0.8400000000000001, -0.366, -0.22599999999999998, -0.629, -0.589, 0.667, -0.966, -0.33399999999999996, -0.241], 0.8630499325236167),
    (295, [-0.905, 0.8400000000000001, -0.366, -0.22599999999999998, -0.629, -0.589, 0.667, -0.966, -0.33399999999999996, -0.241], 0.8630499325236167),
    (296, [-0.905, 0.8400000000000001, -0.366, -0.22599999999999998, -0.629, -0.589, 0.667, -0.966, -0.33399999999999996, -0.241], 0.8630499325236167),
    (297, [-0.905, 0.8400000000000001, -0.366, -0.22599999999999998, -0.629, -0.589, 0.667, -0.966, -0.33399999999999996, -0.241], 0.8630499325236167),
    (298, [-0.905, 0.8400000000000001, -0.366, -0.22599999999999998, -0.629, -0.589, 0.667, -0.966, -0.33399999999999996, -0.241], 0.8630499325236167),
    (299, [-0.905, 0.8400000000000001, -0.366, -0.22599999999999998, -0.629, -0.589, 0.667, -0.966, -0.33399999999999996, -0.241], 0.8630499325236167),
]

