ranges of every chromosome : (-2, 2)
    selection method is: LinearRankingSelection
    crossover method is: UniformCrossover
    pc: The probability of crossover: 0.850000
    pe: Gene exchange probability: 0.500000
    mutation method is: FlipBitBigMutation
    pm: The probability of mutation: 0.200000
    pbm: The probability of big mutation: 0.500000
    alpha: intensive factor: 0.750000
best_fit = [
    (0, [1, 1, 1, 1, 1, 1, 1, 1, 1, 1], 0.8480499325236167),
    (1, [1, 1, 1, 1, 1, 1, 1, 1, 1, 1], 0.8480499325236167),
    (2, [1, 1, 1, 1, 1, 1, 1, 1, 1, 1], 0.8480499325236167),
    (3, [-1.038, -0.871, -1.154, -1.978, -1.055, -0.7509999999999999, -1.172, 0.935, -1.376, -0.357], 0.8633063427800269),
    (4, [-1.038, -0.871, -1.154, -1.978, -1.055, -0.7509999999999999, -1.172, 0.935, -1.376, -0.357], 0.8633063427800269),
    (5, [-1.038, -0.871, -1.154, -1.978, -1.055, -0.7509999999999999, -1.172, 0.935, -1.376, -0.357], 0.8633063427800269),
    (6, [-1.038, -0.871, -1.154, -1.978, -1.055, -0.7509999999999999, -1.172, 0.935, -1.376, -0.357], 0.8633063427800269),
    (7, [-1.038, -0.871, -1.154, -1.978, -1.055, -0.7509999999999999, -1.172, 0.935, -1.376, -0.357], 0.8633063427800269),
    (8, [-1.038, -0.871, -1.154, -1.978, -1.055, -0.7509999999999999, -1.172, 0.935, -1.376, -0.357], 0.8633063427800269),
    (9, [-1.038, -0.871, -1.154, -1.978, -1.055, -0.7509999999999999, -1.172, 0.935, -1.376, -0.357], 0.8633063427800269),
    (10, [-1.038, -0.871, -1.154, -1.978, -1.055, -0.7509999999999999, -1.172, 0.935, -1.376, -0.357], 0.8633063427800269),
    (11, [-1.038, -0.871, -1.154, -1.978, -1.055, -0.7509999999999999, -1.172, 0.935, -1.376, -0.357], 0.8633063427800269),
    (12, [-1.038, -0.871, -1.154, -1.978, -1.055, -0.7509999999999999, -1.172, 0.935, -1.376, -0.357], 0.8633063427800269),
    (13, [-1.038, -0.871, -1.154, -1.978, -1.055, -0.7509999999999999, -1.172, 0.935, -1.376, -0.357], 0.8633063427800269),
    (14, [-1.038, -0.871, -1.154, -1.978, -1.055, -0.7509999999999999, -1.172, 0.935, -1.376, -0.357], 0.8633063427800269),
    (15, [-1.038, -0.871, -1.154, -1.978, -1.055, -0.7509999999999999, -1.172, 0.935, -1.376, -0.357], 0.8633063427800269),
    (16, [-1.038, -0.871, -1.154, -1.978, -1.055, -0.7509999999999999, -1.172, 0.935, -1.376, -0.357], 0.8633063427800269),
    (17, [-1.038, -0.871, -1.154, -1.978, -1.055, -0.7509999999999999, -1.172, 0.935, -1.376, -0.357], 0.8633063427800269),
    (18, [-1.038, -0.871, -1.154, -1.978, -1.055, -0.7509999999999999, -1.172, 0.935, -1.376, -0.357], 0.8633063427800269),
    (19, [-1.038, -0.871, -1.154, -1.978, -1.055, -0.7509999999999999, -1.172, 0.935, -1.376, -0.357], 0.8633063427800269),
    (20, [-1.038, -0.871, -1.154, -1.978, -1.055, -0.7509999999999999, -1.172, 0.935, -1.376, -0.357], 0.8633063427800269),
    (21, [-1.038, -0.871, -1.154, -1.978, -1.055, -0.7509999999999999, -1.172, 0.935, -1.376, -0.357], 0.8633063427800269),
    (22, [-1.038, -0.871, -1.154, -1.978, -1.055, -0.7509999999999999, -1.172, 0.935, -1.376, -0.357], 0.8633063427800269),
    (23, [-1.038, -0.871, -1.154, -1.978, -1.055, -0.7509999999999999, -1.172, 0.935, -1.376, -0.357], 0.8633063427800269),
    (24, [-1.038, -0.871, -1.154, -1.978, -1.055, -0.7509999999999999, -1.172, 0.935, -1.376, -0.357], 0.8633063427800269),
    (25, [-1.038, -0.871, -1.154, -1.978, -1.055, -0.7509999999999999, -1.172, 0.935, -1.376, -0.357], 0.8633063427800269),
    (26, [-1.038, -0.871, -1.154, -1.978, -1.055, -0.7509999999999999, -1.172, 0.935, -1.376, -0.357], 0.8633063427800269),
    (27, [-1.038, -0.871, -1.154, -1.978, -1.055, -0.7509999999999999, -1.172, 0.935, -1.376, -0.357], 0.8633063427800269),
    (28, [-1.038, -0.871, -1.154, -1.978, -1.055, -0.7509999999999999, -1.172, 0.935, -1.376, -0.357], 0.8633063427800269),
    (29, [-1.038, -0.871, -1.154, -1.978, -1.055, -0.7509999999999999, -1.172, 0.935, -1.376, -0.357], 0.8633063427800269),
    (30, [-1.038, -0.871, -1.154, -1.978, -1.055, -0.7509999999999999, -1.172, 0.935, -1.376, -0.357], 0.8633063427800269),
    (31, [-1.038, -0.871, -1.154, -1.978, -1.055, -0.7509999999999999, -1.172, 0.935, -1.376, -0.357], 0.8633063427800269),
    (32, [-1.038, -0.871, -1.154, -1.978, -1.055, -0.7509999999999999, -1.172, 0.935, -1.376, -0.357], 0.8633063427800269),
    (33, [-1.038, -0.871, -1.154, -1.978, -1.055, -0.7509999999999999, -1.172, 0.935, -1.376, -0.357], 0.8633063427800269),
    (34, [-1.038, -0.871, -1.154, -1.978, -1.055, -0.7509999999999999, -1.172, 0.935, -1.376, -0.357], 0.8633063427800269),
    (35, [-1.038, -0.871, -1.154, -1.978, -1.055, -0.7509999999999999, -1.172, 0.935, -1.376, -0.357], 0.8633063427800269),
    (36, [-1.038, -0.871, -1.154, -1.978, -1.055, -0.7509999999999999, -1.172, 0.935, -1.376, -0.357], 0.8633063427800269),
    (37, [-1.038, -0.871, -1.154, -1.978, -1.055, -0.7509999999999999, -1.172, 0.935, -1.376, -0.357], 0.8633063427800269),
    (38, [-1.038, -0.871, -1.154, -1.978, -1.055, -0.7509999999999999, -1.172, 0.935, -1.376, -0.357], 0.8633063427800269),
    (39, [-1.038, -0.871, -1.154, -1.978, -1.055, -0.7509999999999999, -1.172, 0.935, -1.376, -0.357], 0.8633063427800269),
    (40, [-1.038, -0.871, -1.154, -1.978, -1.055, -0.7509999999999999, -1.172, 0.935, -1.376, -0.357], 0.8633063427800269),
    (41, [-1.038, -0.871, -1.154, -1.978, -1.055, -0.7509999999999999, -1.172, 0.935, -1.376, -0.357], 0.8633063427800269),
    (42, [-1.038, -0.871, -1.154, -1.978, -1.055, -0.7509999999999999, -1.172, 0.935, -1.376, -0.357], 0.8633063427800269),
    (43, [-1.038, -0.871, -1.154, -1.978, -1.055, -0.7509999999999999, -1.172, 0.935, -1.376, -0.357], 0.8633063427800269),
    (44, [-1.038, -0.871, -1.154, -1.978, -1.055, -0.7509999999999999, -1.172, 0.935, -1.376, -0.357], 0.8633063427800269),
    (45, [-1.038, -0.871, -1.154, -1.978, -1.055, -0.7509999999999999, -1.172, 0.935, -1.376, -0.357], 0.8633063427800269),
    (46, [-1.038, -0.871, -1.154, -1.978, -1.055, -0.7509999999999999, -1.172, 0.935, -1.376, -0.357], 0.8633063427800269),
    (47, [-1.038, -0.871, -1.154, -1.978, -1.055, -0.7509999999999999, -1.172, 0.935, -1.376, -0.357], 0.8633063427800269),
    (48, [-1.038, -0.871, -1.154, -1.978, -1.055, -0.7509999999999999, -1.172, 0.935, -1.376, -0.357], 0.8633063427800269),
    (49, [-1.038, -0.871, -1.154, -1.978, -1.055, -0.7509999999999999, -1.172, 0.935, -1.376, -0.357], 0.8633063427800269),
    (50, [-1.038, -0.871, -1.154, -1.978, -1.055, -0.7509999999999999, -1.172, 0.935, -1.376, -0.357], 0.8633063427800269),
    (51, [-1.038, -0.871, -1.154, -1.978, -1.055, -0.7509999999999999, -1.172, 0.935, -1.376, -0.357], 0.8633063427800269),
    (52, [-1.038, -0.871, -1.154, -1.978, -1.055, -0.7509999999999999, -1.172, 0.935, -1.376, -0.357], 0.8633063427800269),
    (53, [-1.038, -0.871, -1.154, -1.978, -1.055, -0.7509999999999999, -1.172, 0.935, -1.376, -0.357], 0.8633063427800269),
    (54, [-1.038, -0.871, -1.154, -1.978, -1.055, -0.7509999999999999, -1.172, 0.935, -1.376, -0.357], 0.8633063427800269),
    (55, [-1.038, -0.871, -1.154, -1.978, -1.055, -0.7509999999999999, -1.172, 0.935, -1.376, -0.357], 0.8633063427800269),
    (56, [-1.038, -0.871, -1.154, -1.978, -1.055, -0.7509999999999999, -1.172, 0.935, -1.376, -0.357], 0.8633063427800269),
    (57, [-1.038, -0.871, -1.154, -1.978, -1.055, -0.7509999999999999, -1.172, 0.935, -1.376, -0.357], 0.8633063427800269),
    (58, [-1.038, -0.871, -1.154, -1.978, -1.055, -0.7509999999999999, -1.172, 0.935, -1.376, -0.357], 0.8633063427800269),
    (59, [-1.038, -0.871, -1.154, -1.978, -1.055, -0.7509999999999999, -1.172, 0.935, -1.376, -0.357], 0.8633063427800269),
    (60, [-1.038, -0.871, -1.154, -1.978, -1.055, -0.7509999999999999, -1.172, 0.935, -1.376, -0.357], 0.8633063427800269),
    (61, [-1.038, -0.871, -1.154, -1.978, -1.055, -0.7509999999999999, -1.172, 0.935, -1.376, -0.357], 0.8633063427800269),
    (62, [-1.038, -0.871, -1.154, -1.978, -1.055, -0.7509999999999999, -1.172, 0.935, -1.376, -0.357], 0.8633063427800269),
    (63, [-1.038, -0.871, -1.154, -1.978, -1.055, -0.7509999999999999, -1.172, 0.935, -1.376, -0.357], 0.8633063427800269),
    (64, [-1.038, -0.871, -1.154, -1.978, -1.055, -0.7509999999999999, -1.172, 0.935, -1.376, -0.357], 0.8633063427800269),
    (65, [-1.038, -0.871, -1.154, -1.978, -1.055, -0.7509999999999999, -1.172, 0.935, -1.376, -0.357], 0.8633063427800269),
    (66, [-1.038, -0.871, -1.154, -1.978, -1.055, -0.7509999999999999, -1.172, 0.935, -1.376, -0.357], 0.8633063427800269),
    (67, [-1.038, -0.871, -1.154, -1.978, -1.055, -0.7509999999999999, -1.172, 0.935, -1.376, -0.357], 0.8633063427800269),
    (68, [-1.038, -0.871, -1.154, -1.978, -1.055, -0.7509999999999999, -1.172, 0.935, -1.376, -0.357], 0.8633063427800269),
    (69, [-1.038, -0.871, -1.154, -1.978, -1.055, -0.7509999999999999, -1.172, 0.935, -1.376, -0.357], 0.8633063427800269),
    (70, [-1.038, -0.871, -1.154, -1.978, -1.055, -0.7509999999999999, -1.172, 0.935, -1.376, -0.357], 0.8633063427800269),
    (71, [-1.038, -0.871, -1.154, -1.978, -1.055, -0.7509999999999999, -1.172, 0.935, -1.376, -0.357], 0.8633063427800269),
    (72, [-1.038, -0.871, -1.154, -1.978, -1.055, -0.7509999999999999, -1.172, 0.935, -1.376, -0.357], 0.8633063427800269),
    (73, [-1.038, -0.871, -1.154, -1.978, -1.055, -0.7509999999999999, -1.172, 0.935, -1.376, -0.357], 0.8633063427800269),
    (74, [-1.038, -0.871, -1.154, -1.978, -1.055, -0.7509999999999999, -1.172, 0.935, -1.376, -0.357], 0.8633063427800269),
    (75, [-1.038, -0.871, -1.154, -1.978, -1.055, -0.7509999999999999, -1.172, 0.935, -1.376, -0.357], 0.8633063427800269),
    (76, [-1.038, -0.871, -1.154, -1.978, -1.055, -0.7509999999999999, -1.172, 0.935, -1.376, -0.357], 0.8633063427800269),
    (77, [-1.038, -0.871, -1.154, -1.978, -1.055, -0.7509999999999999, -1.172, 0.935, -1.376, -0.357], 0.8633063427800269),
    (78, [-1.038, -0.871, -1.154, -1.978, -1.055, -0.7509999999999999, -1.172, 0.935, -1.376, -0.357], 0.8633063427800269),
    (79, [-1.038, -0.871, -1.154, -1.978, -1.055, -0.7509999999999999, -1.172, 0.935, -1.376, -0.357], 0.8633063427800269),
    (80, [-1.038, -0.871, -1.154, -1.978, -1.055, -0.7509999999999999, -1.172, 0.935, -1.376, -0.357], 0.8633063427800269),
    (81, [-1.038, -0.871, -1.154, -1.978, -1.055, -0.7509999999999999, -1.172, 0.935, -1.376, -0.357], 0.8633063427800269),
    (82, [-1.038, -0.871, -1.154, -1.978, -1.055, -0.7509999999999999, -1.172, 0.935, -1.376, -0.357], 0.8633063427800269),
    (83, [-1.038, -0.871, -1.154, -1.978, -1.055, -0.7509999999999999, -1.172, 0.935, -1.376, -0.357], 0.8633063427800269),
    (84, [-1.038, -0.871, -1.154, -1.978, -1.055, -0.7509999999999999, -1.172, 0.935, -1.376, -0.357], 0.8633063427800269),
    (85, [-1.038, -0.871, -1.154, -1.978, -1.055, -0.7509999999999999, -1.172, 0.935, -1.376, -0.357], 0.8633063427800269),
    (86, [-1.038, -0.871, -1.154, -1.978, -1.055, -0.7509999999999999, -1.172, 0.935, -1.376, -0.357], 0.8633063427800269),
    (87, [-1.038, -0.871, -1.154, -1.978, -1.055, -0.7509999999999999, -1.172, 0.935, -1.376, -0.357], 0.8633063427800269),
    (88, [-1.038, -0.871, -1.154, -1.978, -1.055, -0.7509999999999999, -1.172, 0.935, -1.376, -0.357], 0.8633063427800269),
    (89, [-1.038, -0.871, -1.154, -1.978, -1.055, -0.7509999999999999, -1.172, 0.935, -1.376, -0.357], 0.8633063427800269),
    (90, [-1.038, -0.871, -1.154, -1.978, -1.055, -0.7509999999999999, -1.172, 0.935, -1.376, -0.357], 0.8633063427800269),
    (91, [-1.038, -0.871, -1.154, -1.978, -1.055, -0.7509999999999999, -1.172, 0.935, -1.376, -0.357], 0.8633063427800269),
    (92, [-1.038, -0.871, -1.154, -1.978, -1.055, -0.7509999999999999, -1.172, 0.935, -1.376, -0.357], 0.8633063427800269),
    (93, [-1.038, -0.871, -1.154, -1.978, -1.055, -0.7509999999999999, -1.172, 0.935, -1.376, -0.357], 0.8633063427800269),
    (94, [-1.038, -0.871, -1.154, -1.978, -1.055, -0.7509999999999999, -1.172, 0.935, -1.376, -0.357], 0.8633063427800269),
    (95, [-1.038, -0.871, -1.154, -1.978, -1.055, -0.7509999999999999, -1.172, 0.935, -1.376, -0.357], 0.8633063427800269),
    (96, [-1.038, -0.871, -1.154, -1.978, -1.055, -0.7509999999999999, -1.172, 0.935, -1.376, -0.357], 0.8633063427800269),
    (97, [-1.038, -0.871, -1.154, -1.978, -1.055, -0.7509999999999999, -1.172, 0.935, -1.376, -0.357], 0.8633063427800269),
    (98, [-1.038, -0.871, -1.154, -1.978, -1.055, -0.7509999999999999, -1.172, 0.935, -1.376, -0.357], 0.8633063427800269),
    (99, [-1.038, -0.871, -1.154, -1.978, -1.055, -0.7509999999999999, -1.172, 0.935, -1.376, -0.357], 0.8633063427800269),
    (100, [-1.038, -0.871, -1.154, -1.978, -1.055, -0.7509999999999999, -1.172, 0.935, -1.376, -0.357], 0.8633063427800269),
    (101, [-1.038, -0.871, -1.154, -1.978, -1.055, -0.7509999999999999, -1.172, 0.935, -1.376, -0.357], 0.8633063427800269),
    (102, [-1.038, -0.871, -1.154, -1.978, -1.055, -0.7509999999999999, -1.172, 0.935, -1.376, -0.357], 0.8633063427800269),
    (103, [-1.038, -0.871, -1.154, -1.978, -1.055, -0.7509999999999999, -1.172, 0.935, -1.376, -0.357], 0.8633063427800269),
    (104, [-1.038, -0.871, -1.154, -1.978, -1.055, -0.7509999999999999, -1.172, 0.935, -1.376, -0.357], 0.8633063427800269),
    (105, [-1.038, -0.871, -1.154, -1.978, -1.055, -0.7509999999999999, -1.172, 0.935, -1.376, -0.357], 0.8633063427800269),
    (106, [-1.038, -0.871, -1.154, -1.978, -1.055, -0.7509999999999999, -1.172, 0.935, -1.376, -0.357], 0.8633063427800269),
    (107, [-1.038, -0.871, -1.154, -1.978, -1.055, -0.7509999999999999, -1.172, 0.935, -1.376, -0.357], 0.8633063427800269),
    (108, [-1.038, -0.871, -1.154, -1.978, -1.055, -0.7509999999999999, -1.172, 0.935, -1.376, -0.357], 0.8633063427800269),
    (109, [-1.038, -0.871, -1.154, -1.978, -1.055, -0.7509999999999999, -1.172, 0.935, -1.376, -0.357], 0.8633063427800269),
    (110, [-1.038, -0.871, -1.154, -1.978, -1.055, -0.7509999999999999, -1.172, 0.935, -1.376, -0.357], 0.8633063427800269),
    (111, [-1.038, -0.871, -1.154, -1.978, -1.055, -0.7509999999999999, -1.172, 0.935, -1.376, -0.357], 0.8633063427800269),
    (112, [-1.038, -0.871, -1.154, -1.978, -1.055, -0.7509999999999999, -1.172, 0.935, -1.376, -0.357], 0.8633063427800269),
    (113, [-1.038, -0.871, -1.154, -1.978, -1.055, -0.7509999999999999, -1.172, 0.935, -1.376, -0.357], 0.8633063427800269),
    (114, [-1.038, -0.871, -1.154, -1.978, -1.055, -0.7509999999999999, -1.172, 0.935, -1.376, -0.357], 0.8633063427800269),
    (115, [-1.038, -0.871, -1.154, -1.978, -1.055, -0.7509999999999999, -1.172, 0.935, -1.376, -0.357], 0.8633063427800269),
    (116, [-1.038, -0.871, -1.154, -1.978, -1.055, -0.7509999999999999, -1.172, 0.935, -1.376, -0.357], 0.8633063427800269),
    (117, [-1.038, -0.871, -1.154, -1.978, -1.055, -0.7509999999999999, -1.172, 0.935, -1.376, -0.357], 0.8633063427800269),
    (118, [-1.038, -0.871, -1.154, -1.978, -1.055, -0.7509999999999999, -1.172, 0.935, -1.376, -0.357], 0.8633063427800269),
    (119, [-1.038, -0.871, -1.154, -1.978, -1.055, -0.7509999999999999, -1.172, 0.935, -1.376, -0.357], 0.8633063427800269),
    (120, [-1.038, -0.871, -1.154, -1.978, -1.055, -0.7509999999999999, -1.172, 0.935, -1.376, -0.357], 0.8633063427800269),
    (121, [-1.038, -0.871, -1.154, -1.978, -1.055, -0.7509999999999999, -1.172, 0.935, -1.376, -0.357], 0.8633063427800269),
    (122, [-1.038, -0.871, -1.154, -1.978, -1.055, -0.7509999999999999, -1.172, 0.935, -1.376, -0.357], 0.8633063427800269),
    (123, [-1.038, -0.871, -1.154, -1.978, -1.055, -0.7509999999999999, -1.172, 0.935, -1.376, -0.357], 0.8633063427800269),
    (124, [-1.038, -0.871, -1.154, -1.978, -1.055, -0.7509999999999999, -1.172, 0.935, -1.376, -0.357], 0.8633063427800269),
    (125, [-1.038, -0.871, -1.154, -1.978, -1.055, -0.7509999999999999, -1.172, 0.935, -1.376, -0.357], 0.8633063427800269),
    (126, [-1.038, -0.871, -1.154, -1.978, -1.055, -0.7509999999999999, -1.172, 0.935, -1.376, -0.357], 0.8633063427800269),
    (127, [-1.038, -0.871, -1.154, -1.978, -1.055, -0.7509999999999999, -1.172, 0.935, -1.376, -0.357], 0.8633063427800269),
    (128, [-1.038, -0.871, -1.154, -1.978, -1.055, -0.7509999999999999, -1.172, 0.935, -1.376, -0.357], 0.8633063427800269),
    (129, [-1.038, -0.871, -1.154, -1.978, -1.055, -0.7509999999999999, -1.172, 0.935, -1.376, -0.357], 0.8633063427800269),
    (130, [-1.038, -0.871, -1.154, -1.978, -1.055, -0.7509999999999999, -1.172, 0.935, -1.376, -0.357], 0.8633063427800269),
    (131, [-1.038, -0.871, -1.154, -1.978, -1.055, -0.7509999999999999, -1.172, 0.935, -1.376, -0.357], 0.8633063427800269),
    (132, [-1.038, -0.871, -1.154, -1.978, -1.055, -0.7509999999999999, -1.172, 0.935, -1.376, -0.357], 0.8633063427800269),
    (133, [-1.038, -0.871, -1.154, -1.978, -1.055, -0.7509999999999999, -1.172, 0.935, -1.376, -0.357], 0.8633063427800269),
    (134, [-1.038, -0.871, -1.154, -1.978, -1.055, -0.7509999999999999, -1.172, 0.935, -1.376, -0.357], 0.8633063427800269),
    (135, [-1.038, -0.871, -1.154, -1.978, -1.055, -0.7509999999999999, -1.172, 0.935, -1.376, -0.357], 0.8633063427800269),
    (136, [-1.038, -0.871, -1.154, -1.978, -1.055, -0.7509999999999999, -1.172, 0.935, -1.376, -0.357], 0.8633063427800269),
    (137, [-1.038, -0.871, -1.154, -1.978, -1.055, -0.7509999999999999, -1.172, 0.935, -1.376, -0.357], 0.8633063427800269),
    (138, [-1.038, -0.871, -1.154, -1.978, -1.055, -0.7509999999999999, -1.172, 0.935, -1.376, -0.357], 0.8633063427800269),
    (139, [-1.038, -0.871, -1.154, -1.978, -1.055, -0.7509999999999999, -1.172, 0.935, -1.376, -0.357], 0.8633063427800269),
    (140, [-1.038, -0.871, -1.154, -1.978, -1.055, -0.7509999999999999, -1.172, 0.935, -1.376, -0.357], 0.8633063427800269),
    (141, [-1.038, -0.871, -1.154, -1.978, -1.055, -0.7509999999999999, -1.172, 0.935, -1.376, -0.357], 0.8633063427800269),
    (142, [-1.038, -0.871, -1.154, -1.978, -1.055, -0.7509999999999999, -1.172, 0.935, -1.376, -0.357], 0.8633063427800269),
    (143, [-1.038, -0.871, -1.154, -1.978, -1.055, -0.7509999999999999, -1.172, 0.935, -1.376, -0.357], 0.8633063427800269),
    (144, [-1.038, -0.871, -1.154, -1.978, -1.055, -0.7509999999999999, -1.172, 0.935, -1.376, -0.357], 0.8633063427800269),
    (145, [-1.038, -0.871, -1.154, -1.978, -1.055, -0.7509999999999999, -1.172, 0.935, -1.376, -0.357], 0.8633063427800269),
    (146, [-1.038, -0.871, -1.154, -1.978, -1.055, -0.7509999999999999, -1.172, 0.935, -1.376, -0.357], 0.8633063427800269),
    (147, [-1.038, -0.871, -1.154, -1.978, -1.055, -0.7509999999999999, -1.172, 0.935, -1.376, -0.357], 0.8633063427800269),
    (148, [-1.038, -0.871, -1.154, -1.978, -1.055, -0.7509999999999999, -1.172, 0.935, -1.376, -0.357], 0.8633063427800269),
    (149, [-1.038, -0.871, -1.154, -1.978, -1.055, -0.7509999999999999, -1.172, 0.935, -1.376, -0.357], 0.8633063427800269),
    (150, [-1.038, -0.871, -1.154, -1.978, -1.055, -0.7509999999999999, -1.172, 0.935, -1.376, -0.357], 0.8633063427800269),
    (151, [-1.038, -0.871, -1.154, -1.978, -1.055, -0.7509999999999999, -1.172, 0.935, -1.376, -0.357], 0.8633063427800269),
    (152, [-1.038, -0.871, -1.154, -1.978, -1.055, -0.7509999999999999, -1.172, 0.935, -1.376, -0.357], 0.8633063427800269),
    (153, [-1.038, -0.871, -1.154, -1.978, -1.055, -0.7509999999999999, -1.172, 0.935, -1.376, -0.357], 0.8633063427800269),
    (154, [-1.038, -0.871, -1.154, -1.978, -1.055, -0.7509999999999999, -1.172, 0.935, -1.376, -0.357], 0.8633063427800269),
    (155, [-1.038, -0.871, -1.154, -1.978, -1.055, -0.7509999999999999, -1.172, 0.935, -1.376, -0.357], 0.8633063427800269),
    (156, [-1.038, -0.871, -1.154, -1.978, -1.055, -0.7509999999999999, -1.172, 0.935, -1.376, -0.357], 0.8633063427800269),
    (157, [-1.038, -0.871, -1.154, -1.978, -1.055, -0.7509999999999999, -1.172, 0.935, -1.376, -0.357], 0.8633063427800269),
    (158, [-1.038, -0.871, -1.154, -1.978, -1.055, -0.7509999999999999, -1.172, 0.935, -1.376, -0.357], 0.8633063427800269),
    (159, [-1.038, -0.871, -1.154, -1.978, -1.055, -0.7509999999999999, -1.172, 0.935, -1.376, -0.357], 0.8633063427800269),
    (160, [-1.038, -0.871, -1.154, -1.978, -1.055, -0.7509999999999999, -1.172, 0.935, -1.376, -0.357], 0.8633063427800269),
    (161, [-1.038, -0.871, -1.154, -1.978, -1.055, -0.7509999999999999, -1.172, 0.935, -1.376, -0.357], 0.8633063427800269),
    (162, [-1.038, -0.871, -1.154, -1.978, -1.055, -0.7509999999999999, -1.172, 0.935, -1.376, -0.357], 0.8633063427800269),
    (163, [-1.038, -0.871, -1.154, -1.978, -1.055, -0.7509999999999999, -1.172, 0.935, -1.376, -0.357], 0.8633063427800269),
    (164, [-1.038, -0.871, -1.154, -1.978, -1.055, -0.7509999999999999, -1.172, 0.935, -1.376, -0.357], 0.8633063427800269),
    (165, [-1.038, -0.871, -1.154, -1.978, -1.055, -0.7509999999999999, -1.172, 0.935, -1.376, -0.357], 0.8633063427800269),
    (166, [-1.038, -0.871, -1.154, -1.978, -1.055, -0.7509999999999999, -1.172, 0.935, -1.376, -0.357], 0.8633063427800269),
    (167, [-1.038, -0.871, -1.154, -1.978, -1.055, -0.7509999999999999, -1.172, 0.935, -1.376, -0.357], 0.8633063427800269),
    (168, [-1.038, -0.871, -1.154, -1.978, -1.055, -0.7509999999999999, -1.172, 0.935, -1.376, -0.357], 0.8633063427800269),
    (169, [-1.038, -0.871, -1.154, -1.978, -1.055, -0.7509999999999999, -1.172, 0.935, -1.376, -0.357], 0.8633063427800269),
    (170, [-1.038, -0.871, -1.154, -1.978, -1.055, -0.7509999999999999, -1.172, 0.935, -1.376, -0.357], 0.8633063427800269),
    (171, [-1.038, -0.871, -1.154, -1.978, -1.055, -0.7509999999999999, -1.172, 0.935, -1.376, -0.357], 0.8633063427800269),
    (172, [-1.038, -0.871, -1.154, -1.978, -1.055, -0.7509999999999999, -1.172, 0.935, -1.376, -0.357], 0.8633063427800269),
    (173, [-1.038, -0.871, -1.154, -1.978, -1.055, -0.7509999999999999, -1.172, 0.935, -1.376, -0.357], 0.8633063427800269),
    (174, [-1.038, -0.871, -1.154, -1.978, -1.055, -0.7509999999999999, -1.172, 0.935, -1.376, -0.357], 0.8633063427800269),
    (175, [-1.038, -0.871, -1.154, -1.978, -1.055, -0.7509999999999999, -1.172, 0.935, -1.376, -0.357], 0.8633063427800269),
    (176, [-1.038, -0.871, -1.154, -1.978, -1.055, -0.7509999999999999, -1.172, 0.935, -1.376, -0.357], 0.8633063427800269),
    (177, [-1.038, -0.871, -1.154, -1.978, -1.055, -0.7509999999999999, -1.172, 0.935, -1.376, -0.357], 0.8633063427800269),
    (178, [-1.038, -0.871, -1.154, -1.978, -1.055, -0.7509999999999999, -1.172, 0.935, -1.376, -0.357], 0.8633063427800269),
    (179, [-1.038, -0.871, -1.154, -1.978, -1.055, -0.7509999999999999, -1.172, 0.935, -1.376, -0.357], 0.8633063427800269),
    (180, [-1.038, -0.871, -1.154, -1.978, -1.055, -0.7509999999999999, -1.172, 0.935, -1.376, -0.357], 0.8633063427800269),
    (181, [-1.038, -0.871, -1.154, -1.978, -1.055, -0.7509999999999999, -1.172, 0.935, -1.376, -0.357], 0.8633063427800269),
    (182, [-1.038, -0.871, -1.154, -1.978, -1.055, -0.7509999999999999, -1.172, 0.935, -1.376, -0.357], 0.8633063427800269),
    (183, [-1.038, -0.871, -1.154, -1.978, -1.055, -0.7509999999999999, -1.172, 0.935, -1.376, -0.357], 0.8633063427800269),
    (184, [-1.038, -0.871, -1.154, -1.978, -1.055, -0.7509999999999999, -1.172, 0.935, -1.376, -0.357], 0.8633063427800269),
    (185, [-1.038, -0.871, -1.154, -1.978, -1.055, -0.7509999999999999, -1.172, 0.935, -1.376, -0.357], 0.8633063427800269),
    (186, [-1.038, -0.871, -1.154, -1.978, -1.055, -0.7509999999999999, -1.172, 0.935, -1.376, -0.357], 0.8633063427800269),
    (187, [-1.038, -0.871, -1.154, -1.978, -1.055, -0.7509999999999999, -1.172, 0.935, -1.376, -0.357], 0.8633063427800269),
    (188, [-1.038, -0.871, -1.154, -1.978, -1.055, -0.7509999999999999, -1.172, 0.935, -1.376, -0.357], 0.8633063427800269),
    (189, [-1.038, -0.871, -1.154, -1.978, -1.055, -0.7509999999999999, -1.172, 0.935, -1.376, -0.357], 0.8633063427800269),
    (190, [-1.038, -0.871, -1.154, -1.978, -1.055, -0.7509999999999999, -1.172, 0.935, -1.376, -0.357], 0.8633063427800269),
    (191, [-1.038, -0.871, -1.154, -1.978, -1.055, -0.7509999999999999, -1.172, 0.935, -1.376, -0.357], 0.8633063427800269),
    (192, [-1.038, -0.871, -1.154, -1.978, -1.055, -0.7509999999999999, -1.172, 0.935, -1.376, -0.357], 0.8633063427800269),
    (193, [-1.038, -0.871, -1.154, -1.978, -1.055, -0.7509999999999999, -1.172, 0.935, -1.376, -0.357], 0.8633063427800269),
    (194, [-1.038, -0.871, -1.154, -1.978, -1.055, -0.7509999999999999, -1.172, 0.935, -1.376, -0.357], 0.8633063427800269),
    (195, [-1.038, -0.871, -1.154, -1.978, -1.055, -0.7509999999999999, -1.172, 0.935, -1.376, -0.357], 0.8633063427800269),
    (196, [-1.038, -0.871, -1.154, -1.978, -1.055, -0.7509999999999999, -1.172, 0.935, -1.376, -0.357], 0.8633063427800269),
    (197, [-1.038, -0.871, -1.154, -1.978, -1.055, -0.7509999999999999, -1.172, 0.935, -1.376, -0.357], 0.8633063427800269),
    (198, [-1.038, -0.871, -1.154, -1.978, -1.055, -0.7509999999999999, -1.172, 0.935, -1.376, -0.357], 0.8633063427800269),
    (199, [-1.038, -0.871, -1.154, -1.978, -1.055, -0.7509999999999999, -1.172, 0.935, -1.376, -0.357], 0.8633063427800269),
    (200, [-1.038, -0.871, -1.154, -1.978, -1.055, -0.7509999999999999, -1.172, 0.935, -1.376, -0.357], 0.8633063427800269),
    (201, [-1.038, -0.871, -1.154, -1.978, -1.055, -0.7509999999999999, -1.172, 0.935, -1.376, -0.357], 0.8633063427800269),
    (202, [-1.038, -0.871, -1.154, -1.978, -1.055, -0.7509999999999999, -1.172, 0.935, -1.376, -0.357], 0.8633063427800269),
    (203, [-1.038, -0.871, -1.154, -1.978, -1.055, -0.7509999999999999, -1.172, 0.935, -1.376, -0.357], 0.8633063427800269),
    (204, [-1.038, -0.871, -1.154, -1.978, -1.055, -0.7509999999999999, -1.172, 0.935, -1.376, -0.357], 0.8633063427800269),
    (205, [-1.038, -0.871, -1.154, -1.978, -1.055, -0.7509999999999999, -1.172, 0.935, -1.376, -0.357], 0.8633063427800269),
    (206, [-1.038, -0.871, -1.154, -1.978, -1.055, -0.7509999999999999, -1.172, 0.935, -1.376, -0.357], 0.8633063427800269),
    (207, [-1.038, -0.871, -1.154, -1.978, -1.055, -0.7509999999999999, -1.172, 0.935, -1.376, -0.357], 0.8633063427800269),
    (208, [-1.038, -0.871, -1.154, -1.978, -1.055, -0.7509999999999999, -1.172, 0.935, -1.376, -0.357], 0.8633063427800269),
    (209, [-1.038, -0.871, -1.154, -1.978, -1.055, -0.7509999999999999, -1.172, 0.935, -1.376, -0.357], 0.8633063427800269),
    (210, [-1.038, -0.871, -1.154, -1.978, -1.055, -0.7509999999999999, -1.172, 0.935, -1.376, -0.357], 0.8633063427800269),
    (211, [-1.038, -0.871, -1.154, -1.978, -1.055, -0.7509999999999999, -1.172, 0.935, -1.376, -0.357], 0.8633063427800269),
    (212, [-1.038, -0.871, -1.154, -1.978, -1.055, -0.7509999999999999, -1.172, 0.935, -1.376, -0.357], 0.8633063427800269),
    (213, [-1.038, -0.871, -1.154, -1.978, -1.055, -0.7509999999999999, -1.172, 0.935, -1.376, -0.357], 0.8633063427800269),
    (214, [-1.038, -0.871, -1.154, -1.978, -1.055, -0.7509999999999999, -1.172, 0.935, -1.376, -0.357], 0.8633063427800269),
    (215, [-1.038, -0.871, -1.154, -1.978, -1.055, -0.7509999999999999, -1.172, 0.935, -1.376, -0.357], 0.8633063427800269),
    (216, [-1.038, -0.871, -1.154, -1.978, -1.055, -0.7509999999999999, -1.172, 0.935, -1.376, -0.357], 0.8633063427800269),
    (217, [-1.038, -0.871, -1.154, -1.978, -1.055, -0.7509999999999999, -1.172, 0.935, -1.376, -0.357], 0.8633063427800269),
    (218, [-1.038, -0.871, -1.154, -1.978, -1.055, -0.7509999999999999, -1.172, 0.935, -1.376, -0.357], 0.8633063427800269),
    (219, [-1.038, -0.871, -1.154, -1.978, -1.055, -0.7509999999999999, -1.172, 0.935, -1.376, -0.357], 0.8633063427800269),
    (220, [-1.038, -0.871, -1.154, -1.978, -1.055, -0.7509999999999999, -1.172, 0.935, -1.376, -0.357], 0.8633063427800269),
    (221, [-1.038, -0.871, -1.154, -1.978, -1.055, -0.7509999999999999, -1.172, 0.935, -1.376, -0.357], 0.8633063427800269),
    (222, [-1.038, -0.871, -1.154, -1.978, -1.055, -0.7509999999999999, -1.172, 0.935, -1.376, -0.357], 0.8633063427800269),
    (223, [-1.038, -0.871, -1.154, -1.978, -1.055, -0.7509999999999999, -1.172, 0.935, -1.376, -0.357], 0.8633063427800269),
    (224, [-1.038, -0.871, -1.154, -1.978, -1.055, -0.7509999999999999, -1.172, 0.935, -1.376, -0.357], 0.8633063427800269),
    (225, [-1.038, -0.871, -1.154, -1.978, -1.055, -0.7509999999999999, -1.172, 0.935, -1.376, -0.357], 0.8633063427800269),
    (226, [-1.038, -0.871, -1.154, -1.978, -1.055, -0.7509999999999999, -1.172, 0.935, -1.376, -0.357], 0.8633063427800269),
    (227, [-1.038, -0.871, -1.154, -1.978, -1.055, -0.7509999999999999, -1.172, 0.935, -1.376, -0.357], 0.8633063427800269),
    (228, [-1.038, -0.871, -1.154, -1.978, -1.055, -0.7509999999999999, -1.172, 0.935, -1.376, -0.357], 0.8633063427800269),
    (229, [-1.038, -0.871, -1.154, -1.978, -1.055, -0.7509999999999999, -1.172, 0.935, -1.376, -0.357], 0.8633063427800269),
    (230, [-1.038, -0.871, -1.154, -1.978, -1.055, -0.7509999999999999, -1.172, 0.935, -1.376, -0.357], 0.8633063427800269),
    (231, [-1.038, -0.871, -1.154, -1.978, -1.055, -0.7509999999999999, -1.172, 0.935, -1.376, -0.357], 0.8633063427800269),
    (232, [-1.038, -0.871, -1.154, -1.978, -1.055, -0.7509999999999999, -1.172, 0.935, -1.376, -0.357], 0.8633063427800269),
    (233, [-1.038, -0.871, -1.154, -1.978, -1.055, -0.7509999999999999, -1.172, 0.935, -1.376, -0.357], 0.8633063427800269),
    (234, [-1.038, -0.871, -1.154, -1.978, -1.055, -0.7509999999999999, -1.172, 0.935, -1.376, -0.357], 0.8633063427800269),
    (235, [-1.038, -0.871, -1.154, -1.978, -1.055, -0.7509999999999999, -1.172, 0.935, -1.376, -0.357], 0.8633063427800269),
    (236, [-1.038, -0.871, -1.154, -1.978, -1.055, -0.7509999999999999, -1.172, 0.935, -1.376, -0.357], 0.8633063427800269),
    (237, [-1.038, -0.871, -1.154, -1.978, -1.055, -0.7509999999999999, -1.172, 0.935, -1.376, -0.357], 0.8633063427800269),
    (238, [-1.038, -0.871, -1.154, -1.978, -1.055, -0.7509999999999999, -1.172, 0.935, -1.376, -0.357], 0.8633063427800269),
    (239, [-1.038, -0.871, -1.154, -1.978, -1.055, -0.7509999999999999, -1.172, 0.935, -1.376, -0.357], 0.8633063427800269),
    (240, [-1.038, -0.871, -1.154, -1.978, -1.055, -0.7509999999999999, -1.172, 0.935, -1.376, -0.357], 0.8633063427800269),
    (241, [-1.038, -0.871, -1.154, -1.978, -1.055, -0.7509999999999999, -1.172, 0.935, -1.376, -0.357], 0.8633063427800269),
    (242, [-1.038, -0.871, -1.154, -1.978, -1.055, -0.7509999999999999, -1.172, 0.935, -1.376, -0.357], 0.8633063427800269),
    (243, [-1.038, -0.871, -1.154, -1.978, -1.055, -0.7509999999999999, -1.172, 0.935, -1.376, -0.357], 0.8633063427800269),
    (244, [-1.038, -0.871, -1.154, -1.978, -1.055, -0.7509999999999999, -1.172, 0.935, -1.376, -0.357], 0.8633063427800269),
    (245, [-1.038, -0.871, -1.154, -1.978, -1.055, -0.7509999999999999, -1.172, 0.935, -1.376, -0.357], 0.8633063427800269),
    (246, [-1.038, -0.871, -1.154, -1.978, -1.055, -0.7509999999999999, -1.172, 0.935, -1.376, -0.357], 0.8633063427800269),
    (247, [-1.038, -0.871, -1.154, -1.978, -1.055, -0.7509999999999999, -1.172, 0.935, -1.376, -0.357], 0.8633063427800269),
    (248, [-1.038, -0.871, -1.154, -1.978, -1.055, -0.7509999999999999, -1.172, 0.935, -1.376, -0.357], 0.8633063427800269),
    (249, [-1.038, -0.871, -1.154, -1.978, -1.055, -0.7509999999999999, -1.172, 0.935, -1.376, -0.357], 0.8633063427800269),
    (250, [-1.038, -0.871, -1.154, -1.978, -1.055, -0.7509999999999999, -1.172, 0.935, -1.376, -0.357], 0.8633063427800269),
    (251, [-1.038, -0.871, -1.154, -1.978, -1.055, -0.7509999999999999, -1.172, 0.935, -1.376, -0.357], 0.8633063427800269),
    (252, [-1.038, -0.871, -1.154, -1.978, -1.055, -0.7509999999999999, -1.172, 0.935, -1.376, -0.357], 0.8633063427800269),
    (253, [-1.038, -0.871, -1.154, -1.978, -1.055, -0.7509999999999999, -1.172, 0.935, -1.376, -0.357], 0.8633063427800269),
    (254, [-1.038, -0.871, -1.154, -1.978, -1.055, -0.7509999999999999, -1.172, 0.935, -1.376, -0.357], 0.8633063427800269),
    (255, [-1.038, -0.871, -1.154, -1.978, -1.055, -0.7509999999999999, -1.172, 0.935, -1.376, -0.357], 0.8633063427800269),
    (256, [-1.038, -0.871, -1.154, -1.978, -1.055, -0.7509999999999999, -1.172, 0.935, -1.376, -0.357], 0.8633063427800269),
    (257, [-1.038, -0.871, -1.154, -1.978, -1.055, -0.7509999999999999, -1.172, 0.935, -1.376, -0.357], 0.8633063427800269),
    (258, [-1.038, -0.871, -1.154, -1.978, -1.055, -0.7509999999999999, -1.172, 0.935, -1.376, -0.357], 0.8633063427800269),
    (259, [-1.038, -0.871, -1.154, -1.978, -1.055, -0.7509999999999999, -1.172, 0.935, -1.376, -0.357], 0.8633063427800269),
    (260, [-1.038, -0.871, -1.154, -1.978, -1.055, -0.7509999999999999, -1.172, 0.935, -1.376, -0.357], 0.8633063427800269),
    (261, [-1.038, -0.871, -1.154, -1.978, -1.055, -0.7509999999999999, -1.172, 0.935, -1.376, -0.357], 0.8633063427800269),
    (262, [-1.038, -0.871, -1.154, -1.978, -1.055, -0.7509999999999999, -1.172, 0.935, -1.376, -0.357], 0.8633063427800269),
    (263, [-1.038, -0.871, -1.154, -1.978, -1.055, -0.7509999999999999, -1.172, 0.935, -1.376, -0.357], 0.8633063427800269),
    (264, [-1.038, -0.871, -1.154, -1.978, -1.055, -0.7509999999999999, -1.172, 0.935, -1.376, -0.357], 0.8633063427800269),
    (265, [-1.038, -0.871, -1.154, -1.978, -1.055, -0.7509999999999999, -1.172, 0.935, -1.376, -0.357], 0.8633063427800269),
    (266, [-1.038, -0.871, -1.154, -1.978, -1.055, -0.7509999999999999, -1.172, 0.935, -1.376, -0.357], 0.8633063427800269),
    (267, [-1.038, -0.871, -1.154, -1.978, -1.055, -0.7509999999999999, -1.172, 0.935, -1.376, -0.357], 0.8633063427800269),
    (268, [-1.038, -0.871, -1.154, -1.978, -1.055, -0.7509999999999999, -1.172, 0.935, -1.376, -0.357], 0.8633063427800269),
    (269, [-1.038, -0.871, -1.154, -1.978, -1.055, -0.7509999999999999, -1.172, 0.935, -1.376, -0.357], 0.8633063427800269),
    (270, [-1.038, -0.871, -1.154, -1.978, -1.055, -0.7509999999999999, -1.172, 0.935, -1.376, -0.357], 0.8633063427800269),
    (271, [-1.038, -0.871, -1.154, -1.978, -1.055, -0.7509999999999999, -1.172, 0.935, -1.376, -0.357], 0.8633063427800269),
    (272, [-1.038, -0.871, -1.154, -1.978, -1.055, -0.7509999999999999, -1.172, 0.935, -1.376, -0.357], 0.8633063427800269),
    (273, [-1.038, -0.871, -1.154, -1.978, -1.055, -0.7509999999999999, -1.172, 0.935, -1.376, -0.357], 0.8633063427800269),
    (274, [-1.038, -0.871, -1.154, -1.978, -1.055, -0.7509999999999999, -1.172, 0.935, -1.376, -0.357], 0.8633063427800269),
    (275, [-1.038, -0.871, -1.154, -1.978, -1.055, -0.7509999999999999, -1.172, 0.935, -1.376, -0.357], 0.8633063427800269),
    (276, [-1.038, -0.871, -1.154, -1.978, -1.055, -0.7509999999999999, -1.172, 0.935, -1.376, -0.357], 0.8633063427800269),
    (277, [-1.038, -0.871, -1.154, -1.978, -1.055, -0.7509999999999999, -1.172, 0.935, -1.376, -0.357], 0.8633063427800269),
    (278, [-1.038, -0.871, -1.154, -1.978, -1.055, -0.7509999999999999, -1.172, 0.935, -1.376, -0.357], 0.8633063427800269),
    (279, [-1.038, -0.871, -1.154, -1.978, -1.055, -0.7509999999999999, -1.172, 0.935, -1.376, -0.357], 0.8633063427800269),
    (280, [-1.038, -0.871, -1.154, -1.978, -1.055, -0.7509999999999999, -1.172, 0.935, -1.376, -0.357], 0.8633063427800269),
    (281, [-1.038, -0.871, -1.154, -1.978, -1.055, -0.7509999999999999, -1.172, 0.935, -1.376, -0.357], 0.8633063427800269),
    (282, [-1.038, -0.871, -1.154, -1.978, -1.055, -0.7509999999999999, -1.172, 0.935, -1.376, -0.357], 0.8633063427800269),
    (283, [-1.038, -0.871, -1.154, -1.978, -1.055, -0.7509999999999999, -1.172, 0.935, -1.376, -0.357], 0.8633063427800269),
    (284, [-1.038, -0.871, -1.154, -1.978, -1.055, -0.7509999999999999, -1.172, 0.935, -1.376, -0.357], 0.8633063427800269),
    (285, [-1.038, -0.871, -1.154, -1.978, -1.055, -0.7509999999999999, -1.172, 0.935, -1.376, -0.357], 0.8633063427800269),
    (286, [-1.038, -0.871, -1.154, -1.978, -1.055, -0.7509999999999999, -1.172, 0.935, -1.376, -0.357], 0.8633063427800269),
    (287, [-1.038, -0.871, -1.154, -1.978, -1.055, -0.7509999999999999, -1.172, 0.935, -1.376, -0.357], 0.8633063427800269),
    (288, [-1.038, -0.871, -1.154, -1.978, -1.055, -0.7509999999999999, -1.172, 0.935, -1.376, -0.357], 0.8633063427800269),
    (289, [-1.038, -0.871, -1.154, -1.978, -1.055, -0.7509999999999999, -1.172, 0.935, -1.376, -0.357], 0.8633063427800269),
    (290, [-1.038, -0.871, -1.154, -1.978, -1.055, -0.7509999999999999, -1.172, 0.935, -1.376, -0.357], 0.8633063427800269),
    (291, [-1.038, -0.871, -1.154, -1.978, -1.055, -0.7509999999999999, -1.172, 0.935, -1.376, -0.357], 0.8633063427800269),
    (292, [-1.038, -0.871, -1.154, -1.978, -1.055, -0.7509999999999999, -1.172, 0.935, -1.376, -0.357], 0.8633063427800269),
    (293, [-1.038, -0.871, -1.154, -1.978, -1.055, -0.7509999999999999, -1.172, 0.935, -1.376, -0.357], 0.8633063427800269),
    (294, [-1.038, -0.871, -1.154, -1.978, -1.055, -0.7509999999999999, -1.172, 0.935, -1.376, -0.357], 0.8633063427800269),
    (295, [-1.038, -0.871, -1.154, -1.978, -1.055, -0.7509999999999999, -1.172, 0.935, -1.376, -0.357], 0.8633063427800269),
    (296, [-1.038, -0.871, -1.154, -1.978, -1.055, -0.7509999999999999, -1.172, 0.935, -1.376, -0.357], 0.8633063427800269),
    (297, [-1.038, -0.871, -1.154, -1.978, -1.055, -0.7509999999999999, -1.172, 0.935, -1.376, -0.357], 0.8633063427800269),
    (298, [-1.038, -0.871, -1.154, -1.978, -1.055, -0.7509999999999999, -1.172, 0.935, -1.376, -0.357], 0.8633063427800269),
    (299, [-1.038, -0.871, -1.154, -1.978, -1.055, -0.7509999999999999, -1.172, 0.935, -1.376, -0.357], 0.8633063427800269),
]

