ranges of every chromosome : (-2, 2)
    selection method is: RouletteWheelSelection
    crossover method is: UniformCrossover
    pc: The probability of crossover: 1.000000
    pe: Gene exchange probability: 0.500000
    mutation method is: FlipBitBigMutation
    pm: The probability of mutation: 0.100000
    pbm: The probability of big mutation: 0.500000
    alpha: intensive factor: 0.800000
best_fit = [
    (0, [1, 1, 1, 1, 1, 1, 1, 1, 1, 1], 0.8480499325236167),
    (1, [1, 1, 1, 1, 1, 1, 1, 1, 1, 1], 0.8480499325236167),
    (2, [1, 1, 1, 1, 1, 1, 1, 1, 1, 1], 0.8480499325236167),
    (3, [1, 1, 1, 1, 1, 1, 1, 1, 1, 1], 0.8480499325236167),
    (4, [1, 1, 1, 1, 1, 1, 1, 1, 1, 1], 0.8480499325236167),
    (5, [1, 1, 1, 1, 1, 1, 1, 1, 1, 1], 0.8480499325236167),
    (6, [1, 1, 1, 1, 1, 1, 1, 1, 1, 1], 0.8480499325236167),
    (7, [1, 1, 1, 1, 1, 1, 1, 1, 1, 1], 0.8480499325236167),
    (8, [1, 1, 1, 1, 1, 1, 1, 1, 1, 1], 0.8480499325236167),
    (9, [1, 1, 1, 1, 1, 1, 1, 1, 1, 1], 0.8480499325236167),
    (10, [1, 1, 1, 1, 1, 1, 1, 1, 1, 1], 0.8480499325236167),
    (11, [1, 1, 1, 1, 1, 1, 1, 1, 1, 1], 0.8480499325236167),
    (12, [1, 1, 1, 1, 1, 1, 1, 1, 1, 1], 0.8480499325236167),
    (13, [1, 1, 1, 1, 1, 1, 1, 1, 1, 1], 0.8480499325236167),
    (14, [1, 1, 1, 1, 1, 1, 1, 1, 1, 1], 0.8480499325236167),
    (15, [1, 1, 1, 1, 1, 1, 1, 1, 1, 1], 0.8480499325236167),
    (16, [1, 1, 1, 1, 1, 1, 1, 1, 1, 1], 0.8480499325236167),
    (17, [1, 1, 1, 1, 1, 1, 1, 1, 1, 1], 0.8480499325236167),
    (18, [1, 1, 1, 1, 1, 1, 1, 1, 1, 1], 0.8480499325236167),
    (19, [1, 1, 1, 1, 1, 1, 1, 1, 1, 1], 0.8480499325236167),
    (20, [1, 1, 1, 1, 1, 1, 1, 1, 1, 1], 0.8480499325236167),
    (21, [1, 1, 1, 1, 1, 1, 1, 1, 1, 1], 0.8480499325236167),
    (22, [1, 1, 1, 1, 1, 1, 1, 1, 1, 1], 0.8480499325236167),
    (23, [1, 1, 1, 1, 1, 1, 1, 1, 1, 1], 0.8480499325236167),
    (24, [1, 1, 1, 1, 1, 1, 1, 1, 1, 1], 0.8480499325236167),
    (25, [1, 1, 1, 1, 1, 1, 1, 1, 1, 1], 0.8480499325236167),
    (26, [1, 1, 1, 1, 1, 1, 1, 1, 1, 1], 0.8480499325236167),
    (27, [1, 1, 1, 1, 1, 1, 1, 1, 1, 1], 0.8480499325236167),
    (28, [0.44200000000000017, -0.399, 0.41400000000000015, 0.19799999999999995, 0.9870000000000001, -0.6219999999999999, -0.9650000000000001, -1.1320000000000001, -1.539, -1.29], 0.8526585695006748),
    (29, [0.44200000000000017, -0.399, 0.41400000000000015, 0.19799999999999995, 0.9870000000000001, -0.6219999999999999, -0.9650000000000001, -1.1320000000000001, -1.539, -1.29], 0.8526585695006748),
    (30, [0.44200000000000017, -0.399, 0.41400000000000015, 0.19799999999999995, 0.9870000000000001, -0.6219999999999999, -0.9650000000000001, -1.1320000000000001, -1.539, -1.29], 0.8526585695006748),
    (31, [0.44200000000000017, -0.399, 0.41400000000000015, 0.19799999999999995, 0.9870000000000001, -0.6219999999999999, -0.9650000000000001, -1.1320000000000001, -1.539, -1.29], 0.8526585695006748),
    (32, [0.44200000000000017, -0.399, 0.41400000000000015, 0.19799999999999995, 0.9870000000000001, -0.6219999999999999, -0.9650000000000001, -1.1320000000000001, -1.539, -1.29], 0.8526585695006748),
    (33, [0.44200000000000017, -0.399, 0.41400000000000015, 0.19799999999999995, 0.9870000000000001, -0.6219999999999999, -0.9650000000000001, -1.1320000000000001, -1.539, -1.29], 0.8526585695006748),
    (34, [0.44200000000000017, -0.399, 0.41400000000000015, 0.19799999999999995, 0.9870000000000001, -0.6219999999999999, -0.9650000000000001, -1.1320000000000001, -1.539, -1.29], 0.8526585695006748),
    (35, [0.44200000000000017, -0.399, 0.41400000000000015, 0.19799999999999995, 0.9870000000000001, -0.6219999999999999, -0.9650000000000001, -1.1320000000000001, -1.539, -1.29], 0.8526585695006748),
    (36, [0.44200000000000017, -0.399, 0.41400000000000015, 0.19799999999999995, 0.9870000000000001, -0.6219999999999999, -0.9650000000000001, -1.1320000000000001, -1.539, -1.29], 0.8526585695006748),
    (37, [0.44200000000000017, -0.399, 0.41400000000000015, 0.19799999999999995, 0.9870000000000001, -0.6219999999999999, -0.9650000000000001, -1.1320000000000001, -1.539, -1.29], 0.8526585695006748),
    (38, [0.44200000000000017, -0.399, 0.41400000000000015, 0.19799999999999995, 0.9870000000000001, -0.6219999999999999, -0.9650000000000001, -1.1320000000000001, -1.539, -1.29], 0.8526585695006748),
    (39, [0.44200000000000017, -0.399, 0.41400000000000015, 0.19799999999999995, 0.9870000000000001, -0.6219999999999999, -0.9650000000000001, -1.1320000000000001, -1.539, -1.29], 0.8526585695006748),
    (40, [0.44200000000000017, -0.399, 0.41400000000000015, 0.19799999999999995, 0.9870000000000001, -0.6219999999999999, -0.9650000000000001, -1.1320000000000001, -1.539, -1.29], 0.8526585695006748),
    (41, [-0.6719999999999999, -1.173, 0.9529999999999998, 1.2530000000000001, 1.085, -1.548, 0.726, 1.016, 1.584, 1.697], 0.8529217273954115),
    (42, [-0.6719999999999999, -1.173, 0.9529999999999998, 1.2530000000000001, 1.085, -1.548, 0.726, 1.016, 1.584, 1.697], 0.8529217273954115),
    (43, [-0.6719999999999999, -1.173, 0.9529999999999998, 1.2530000000000001, 1.085, -1.548, 0.726, 1.016, 1.584, 1.697], 0.8529217273954115),
    (44, [-0.6719999999999999, -1.173, 0.9529999999999998, 1.2530000000000001, 1.085, -1.548, 0.726, 1.016, 1.584, 1.697], 0.8529217273954115),
    (45, [-0.6719999999999999, -1.173, 0.9529999999999998, 1.2530000000000001, 1.085, -1.548, 0.726, 1.016, 1.584, 1.697], 0.8529217273954115),
    (46, [-0.6719999999999999, -1.173, 0.9529999999999998, 1.2530000000000001, 1.085, -1.548, 0.726, 1.016, 1.584, 1.697], 0.8529217273954115),
    (47, [-0.6719999999999999, -1.173, 0.9529999999999998, 1.2530000000000001, 1.085, -1.548, 0.726, 1.016, 1.584, 1.697], 0.8529217273954115),
    (48, [-0.6719999999999999, -1.173, 0.9529999999999998, 1.2530000000000001, 1.085, -1.548, 0.726, 1.016, 1.584, 1.697], 0.8529217273954115),
    (49, [-0.6719999999999999, -1.173, 0.9529999999999998, 1.2530000000000001, 1.085, -1.548, 0.726, 1.016, 1.584, 1.697], 0.8529217273954115),
    (50, [-0.6719999999999999, -1.173, 0.9529999999999998, 1.2530000000000001, 1.085, -1.548, 0.726, 1.016, 1.584, 1.697], 0.8529217273954115),
    (51, [-0.6719999999999999, -1.173, 0.9529999999999998, 1.2530000000000001, 1.085, -1.548, 0.726, 1.016, 1.584, 1.697], 0.8529217273954115),
    (52, [-0.6719999999999999, -1.173, 0.9529999999999998, 1.2530000000000001, 1.085, -1.548, 0.726, 1.016, 1.584, 1.697], 0.8529217273954115),
    (53, [-0.6719999999999999, -1.173, 0.9529999999999998, 1.2530000000000001, 1.085, -1.548, 0.726, 1.016, 1.584, 1.697], 0.8529217273954115),
    (54, [-0.6719999999999999, -1.173, 0.9529999999999998, 1.2530000000000001, 1.085, -1.548, 0.726, 1.016, 1.584, 1.697], 0.8529217273954115),
    (55, [-0.6719999999999999, -1.173, 0.9529999999999998, 1.2530000000000001, 1.085, -1.548, 0.726, 1.016, 1.584, 1.697], 0.8529217273954115),
    (56, [-0.6719999999999999, -1.173, 0.9529999999999998, 1.2530000000000001, 1.085, -1.548, 0.726, 1.016, 1.584, 1.697], 0.8529217273954115),
    (57, [-0.6719999999999999, -1.173, 0.9529999999999998, 1.2530000000000001, 1.085, -1.548, 0.726, 1.016, 1.584, 1.697], 0.8529217273954115),
    (58, [-0.6719999999999999, -1.173, 0.9529999999999998, 1.2530000000000001, 1.085, -1.548, 0.726, 1.016, 1.584, 1.697], 0.8529217273954115),
    (59, [-0.6719999999999999, -1.173, 0.9529999999999998, 1.2530000000000001, 1.085, -1.548, 0.726, 1.016, 1.584, 1.697], 0.8529217273954115),
    (60, [-0.6719999999999999, -1.173, 0.9529999999999998, 1.2530000000000001, 1.085, -1.548, 0.726, 1.016, 1.584, 1.697], 0.8529217273954115),
    (61, [-0.6719999999999999, -1.173, 0.9529999999999998, 1.2530000000000001, 1.085, -1.548, 0.726, 1.016, 1.584, 1.697], 0.8529217273954115),
    (62, [-0.6719999999999999, -1.173, 0.9529999999999998, 1.2530000000000001, 1.085, -1.548, 0.726, 1.016, 1.584, 1.697], 0.8529217273954115),
    (63, [-0.6719999999999999, -1.173, 0.9529999999999998, 1.2530000000000001, 1.085, -1.548, 0.726, 1.016, 1.584, 1.697], 0.8529217273954115),
    (64, [-0.6719999999999999, -1.173, 0.9529999999999998, 1.2530000000000001, 1.085, -1.548, 0.726, 1.016, 1.584, 1.697], 0.8529217273954115),
    (65, [-0.6719999999999999, -1.173, 0.9529999999999998, 1.2530000000000001, 1.085, -1.548, 0.726, 1.016, 1.584, 1.697], 0.8529217273954115),
    (66, [-0.6719999999999999, -1.173, 0.9529999999999998, 1.2530000000000001, 1.085, -1.548, 0.726, 1.016, 1.584, 1.697], 0.8529217273954115),
    (67, [-0.6719999999999999, -1.173, 0.9529999999999998, 1.2530000000000001, 1.085, -1.548, 0.726, 1.016, 1.584, 1.697], 0.8529217273954115),
    (68, [-0.6719999999999999, -1.173, 0.9529999999999998, 1.2530000000000001, 1.085, -1.548, 0.726, 1.016, 1.584, 1.697], 0.8529217273954115),
    (69, [-0.6719999999999999, -1.173, 0.9529999999999998, 1.2530000000000001, 1.085, -1.548, 0.726, 1.016, 1.584, 1.697], 0.8529217273954115),
    (70, [-0.8779999999999999, -1.143, -0.742, 0.02200000000000024, -0.7329999999999999, 0.3959999999999999, 0.2560000000000002, -1.385, 0.9900000000000002, -1.662], 0.8581848852901484),
    (71, [-0.8779999999999999, -1.143, -0.742, 0.02200000000000024, -0.7329999999999999, 0.3959999999999999, 0.2560000000000002, -1.385, 0.9900000000000002, -1.662], 0.8581848852901484),
    (72, [-0.8779999999999999, -1.143, -0.742, 0.02200000000000024, -0.7329999999999999, 0.3959999999999999, 0.2560000000000002, -1.385, 0.9900000000000002, -1.662], 0.8581848852901484),
    (73, [-0.8779999999999999, -1.143, -0.742, 0.02200000000000024, -0.7329999999999999, 0.3959999999999999, 0.2560000000000002, -1.385, 0.9900000000000002, -1.662], 0.8581848852901484),
    (74, [-0.8779999999999999, -1.143, -0.742, 0.02200000000000024, -0.7329999999999999, 0.3959999999999999, 0.2560000000000002, -1.385, 0.9900000000000002, -1.662], 0.8581848852901484),
    (75, [-0.8779999999999999, -1.143, -0.742, 0.02200000000000024, -0.7329999999999999, 0.3959999999999999, 0.2560000000000002, -1.385, 0.9900000000000002, -1.662], 0.8581848852901484),
    (76, [-0.8779999999999999, -1.143, -0.742, 0.02200000000000024, -0.7329999999999999, 0.3959999999999999, 0.2560000000000002, -1.385, 0.9900000000000002, -1.662], 0.8581848852901484),
    (77, [-0.8779999999999999, -1.143, -0.742, 0.02200000000000024, -0.7329999999999999, 0.3959999999999999, 0.2560000000000002, -1.385, 0.9900000000000002, -1.662], 0.8581848852901484),
    (78, [-0.8779999999999999, -1.143, -0.742, 0.02200000000000024, -0.7329999999999999, 0.3959999999999999, 0.2560000000000002, -1.385, 0.9900000000000002, -1.662], 0.8581848852901484),
    (79, [-0.8779999999999999, -1.143, -0.742, 0.02200000000000024, -0.7329999999999999, 0.3959999999999999, 0.2560000000000002, -1.385, 0.9900000000000002, -1.662], 0.8581848852901484),
    (80, [-0.8779999999999999, -1.143, -0.742, 0.02200000000000024, -0.7329999999999999, 0.3959999999999999, 0.2560000000000002, -1.385, 0.9900000000000002, -1.662], 0.8581848852901484),
    (81, [-0.8779999999999999, -1.143, -0.742, 0.02200000000000024, -0.7329999999999999, 0.3959999999999999, 0.2560000000000002, -1.385, 0.9900000000000002, -1.662], 0.8581848852901484),
    (82, [-0.8779999999999999, -1.143, -0.742, 0.02200000000000024, -0.7329999999999999, 0.3959999999999999, 0.2560000000000002, -1.385, 0.9900000000000002, -1.662], 0.8581848852901484),
    (83, [-0.8779999999999999, -1.143, -0.742, 0.02200000000000024, -0.7329999999999999, 0.3959999999999999, 0.2560000000000002, -1.385, 0.9900000000000002, -1.662], 0.8581848852901484),
    (84, [-0.8779999999999999, -1.143, -0.742, 0.02200000000000024, -0.7329999999999999, 0.3959999999999999, 0.2560000000000002, -1.385, 0.9900000000000002, -1.662], 0.8581848852901484),
    (85, [-0.8779999999999999, -1.143, -0.742, 0.02200000000000024, -0.7329999999999999, 0.3959999999999999, 0.2560000000000002, -1.385, 0.9900000000000002, -1.662], 0.8581848852901484),
    (86, [-0.8779999999999999, -1.143, -0.742, 0.02200000000000024, -0.7329999999999999, 0.3959999999999999, 0.2560000000000002, -1.385, 0.9900000000000002, -1.662], 0.8581848852901484),
    (87, [-0.8779999999999999, -1.143, -0.742, 0.02200000000000024, -0.7329999999999999, 0.3959999999999999, 0.2560000000000002, -1.385, 0.9900000000000002, -1.662], 0.8581848852901484),
    (88, [-0.8779999999999999, -1.143, -0.742, 0.02200000000000024, -0.7329999999999999, 0.3959999999999999, 0.2560000000000002, -1.385, 0.9900000000000002, -1.662], 0.8581848852901484),
    (89, [-0.8779999999999999, -1.143, -0.742, 0.02200000000000024, -0.7329999999999999, 0.3959999999999999, 0.2560000000000002, -1.385, 0.9900000000000002, -1.662], 0.8581848852901484),
    (90, [-0.8779999999999999, -1.143, -0.742, 0.02200000000000024, -0.7329999999999999, 0.3959999999999999, 0.2560000000000002, -1.385, 0.9900000000000002, -1.662], 0.8581848852901484),
    (91, [-0.8779999999999999, -1.143, -0.742, 0.02200000000000024, -0.7329999999999999, 0.3959999999999999, 0.2560000000000002, -1.385, 0.9900000000000002, -1.662], 0.8581848852901484),
    (92, [-0.8779999999999999, -1.143, -0.742, 0.02200000000000024, -0.7329999999999999, 0.3959999999999999, 0.2560000000000002, -1.385, 0.9900000000000002, -1.662], 0.8581848852901484),
    (93, [-0.8779999999999999, -1.143, -0.742, 0.02200000000000024, -0.7329999999999999, 0.3959999999999999, 0.2560000000000002, -1.385, 0.9900000000000002, -1.662], 0.8581848852901484),
    (94, [-0.8779999999999999, -1.143, -0.742, 0.02200000000000024, -0.7329999999999999, 0.3959999999999999, 0.2560000000000002, -1.385, 0.9900000000000002, -1.662], 0.8581848852901484),
    (95, [-0.8779999999999999, -1.143, -0.742, 0.02200000000000024, -0.7329999999999999, 0.3959999999999999, 0.2560000000000002, -1.385, 0.9900000000000002, -1.662], 0.8581848852901484),
    (96, [-0.8779999999999999, -1.143, -0.742, 0.02200000000000024, -0.7329999999999999, 0.3959999999999999, 0.2560000000000002, -1.385, 0.9900000000000002, -1.662], 0.8581848852901484),
    (97, [-0.8779999999999999, -1.143, -0.742, 0.02200000000000024, -0.7329999999999999, 0.3959999999999999, 0.2560000000000002, -1.385, 0.9900000000000002, -1.662], 0.8581848852901484),
    (98, [-0.8779999999999999, -1.143, -0.742, 0.02200000000000024, -0.7329999999999999, 0.3959999999999999, 0.2560000000000002, -1.385, 0.9900000000000002, -1.662], 0.8581848852901484),
    (99, [-0.8779999999999999, -1.143, -0.742, 0.02200000000000024, -0.7329999999999999, 0.3959999999999999, 0.2560000000000002, -1.385, 0.9900000000000002, -1.662], 0.8581848852901484),
    (100, [-0.8779999999999999, -1.143, -0.742, 0.02200000000000024, -0.7329999999999999, 0.3959999999999999, 0.2560000000000002, -1.385, 0.9900000000000002, -1.662], 0.8581848852901484),
    (101, [-0.8779999999999999, -1.143, -0.742, 0.02200000000000024, -0.7329999999999999, 0.3959999999999999, 0.2560000000000002, -1.385, 0.9900000000000002, -1.662], 0.8581848852901484),
    (102, [-0.8779999999999999, -1.143, -0.742, 0.02200000000000024, -0.7329999999999999, 0.3959999999999999, 0.2560000000000002, -1.385, 0.9900000000000002, -1.662], 0.8581848852901484),
    (103, [-0.8779999999999999, -1.143, -0.742, 0.02200000000000024, -0.7329999999999999, 0.3959999999999999, 0.2560000000000002, -1.385, 0.9900000000000002, -1.662], 0.8581848852901484),
    (104, [-0.8779999999999999, -1.143, -0.742, 0.02200000000000024, -0.7329999999999999, 0.3959999999999999, 0.2560000000000002, -1.385, 0.9900000000000002, -1.662], 0.8581848852901484),
    (105, [-0.8779999999999999, -1.143, -0.742, 0.02200000000000024, -0.7329999999999999, 0.3959999999999999, 0.2560000000000002, -1.385, 0.9900000000000002, -1.662], 0.8581848852901484),
    (106, [-0.8779999999999999, -1.143, -0.742, 0.02200000000000024, -0.7329999999999999, 0.3959999999999999, 0.2560000000000002, -1.385, 0.9900000000000002, -1.662], 0.8581848852901484),
    (107, [-0.8779999999999999, -1.143, -0.742, 0.02200000000000024, -0.7329999999999999, 0.3959999999999999, 0.2560000000000002, -1.385, 0.9900000000000002, -1.662], 0.8581848852901484),
    (108, [-0.8779999999999999, -1.143, -0.742, 0.02200000000000024, -0.7329999999999999, 0.3959999999999999, 0.2560000000000002, -1.385, 0.9900000000000002, -1.662], 0.8581848852901484),
    (109, [-0.8779999999999999, -1.143, -0.742, 0.02200000000000024, -0.7329999999999999, 0.3959999999999999, 0.2560000000000002, -1.385, 0.9900000000000002, -1.662], 0.8581848852901484),
    (110, [-0.8779999999999999, -1.143, -0.742, 0.02200000000000024, -0.7329999999999999, 0.3959999999999999, 0.2560000000000002, -1.385, 0.9900000000000002, -1.662], 0.8581848852901484),
    (111, [-0.8779999999999999, -1.143, -0.742, 0.02200000000000024, -0.7329999999999999, 0.3959999999999999, 0.2560000000000002, -1.385, 0.9900000000000002, -1.662], 0.8581848852901484),
    (112, [-0.8779999999999999, -1.143, -0.742, 0.02200000000000024, -0.7329999999999999, 0.3959999999999999, 0.2560000000000002, -1.385, 0.9900000000000002, -1.662], 0.8581848852901484),
    (113, [-0.8779999999999999, -1.143, -0.742, 0.02200000000000024, -0.7329999999999999, 0.3959999999999999, 0.2560000000000002, -1.385, 0.9900000000000002, -1.662], 0.8581848852901484),
    (114, [-0.8779999999999999, -1.143, -0.742, 0.02200000000000024, -0.7329999999999999, 0.3959999999999999, 0.2560000000000002, -1.385, 0.9900000000000002, -1.662], 0.8581848852901484),
    (115, [-0.8779999999999999, -1.143, -0.742, 0.02200000000000024, -0.7329999999999999, 0.3959999999999999, 0.2560000000000002, -1.385, 0.9900000000000002, -1.662], 0.8581848852901484),
    (116, [-0.8779999999999999, -1.143, -0.742, 0.02200000000000024, -0.7329999999999999, 0.3959999999999999, 0.2560000000000002, -1.385, 0.9900000000000002, -1.662], 0.8581848852901484),
    (117, [-0.8779999999999999, -1.143, -0.742, 0.02200000000000024, -0.7329999999999999, 0.3959999999999999, 0.2560000000000002, -1.385, 0.9900000000000002, -1.662], 0.8581848852901484),
    (118, [-0.8779999999999999, -1.143, -0.742, 0.02200000000000024, -0.7329999999999999, 0.3959999999999999, 0.2560000000000002, -1.385, 0.9900000000000002, -1.662], 0.8581848852901484),
    (119, [-0.8779999999999999, -1.143, -0.742, 0.02200000000000024, -0.7329999999999999, 0.3959999999999999, 0.2560000000000002, -1.385, 0.9900000000000002, -1.662], 0.8581848852901484),
    (120, [-0.8779999999999999, -1.143, -0.742, 0.02200000000000024, -0.7329999999999999, 0.3959999999999999, 0.2560000000000002, -1.385, 0.9900000000000002, -1.662], 0.8581848852901484),
    (121, [-0.8779999999999999, -1.143, -0.742, 0.02200000000000024, -0.7329999999999999, 0.3959999999999999, 0.2560000000000002, -1.385, 0.9900000000000002, -1.662], 0.8581848852901484),
    (122, [-0.8779999999999999, -1.143, -0.742, 0.02200000000000024, -0.7329999999999999, 0.3959999999999999, 0.2560000000000002, -1.385, 0.9900000000000002, -1.662], 0.8581848852901484),
    (123, [-0.8779999999999999, -1.143, -0.742, 0.02200000000000024, -0.7329999999999999, 0.3959999999999999, 0.2560000000000002, -1.385, 0.9900000000000002, -1.662], 0.8581848852901484),
    (124, [-0.8779999999999999, -1.143, -0.742, 0.02200000000000024, -0.7329999999999999, 0.3959999999999999, 0.2560000000000002, -1.385, 0.9900000000000002, -1.662], 0.8581848852901484),
    (125, [-0.8779999999999999, -1.143, -0.742, 0.02200000000000024, -0.7329999999999999, 0.3959999999999999, 0.2560000000000002, -1.385, 0.9900000000000002, -1.662], 0.8581848852901484),
    (126, [-0.8779999999999999, -1.143, -0.742, 0.02200000000000024, -0.7329999999999999, 0.3959999999999999, 0.2560000000000002, -1.385, 0.9900000000000002, -1.662], 0.8581848852901484),
    (127, [-0.8779999999999999, -1.143, -0.742, 0.02200000000000024, -0.7329999999999999, 0.3959999999999999, 0.2560000000000002, -1.385, 0.9900000000000002, -1.662], 0.8581848852901484),
    (128, [-0.8779999999999999, -1.143, -0.742, 0.02200000000000024, -0.7329999999999999, 0.3959999999999999, 0.2560000000000002, -1.385, 0.9900000000000002, -1.662], 0.8581848852901484),
    (129, [-0.8779999999999999, -1.143, -0.742, 0.02200000000000024, -0.7329999999999999, 0.3959999999999999, 0.2560000000000002, -1.385, 0.9900000000000002, -1.662], 0.8581848852901484),
    (130, [-0.8779999999999999, -1.143, -0.742, 0.02200000000000024, -0.7329999999999999, 0.3959999999999999, 0.2560000000000002, -1.385, 0.9900000000000002, -1.662], 0.8581848852901484),
    (131, [-0.8779999999999999, -1.143, -0.742, 0.02200000000000024, -0.7329999999999999, 0.3959999999999999, 0.2560000000000002, -1.385, 0.9900000000000002, -1.662], 0.8581848852901484),
    (132, [-0.8779999999999999, -1.143, -0.742, 0.02200000000000024, -0.7329999999999999, 0.3959999999999999, 0.2560000000000002, -1.385, 0.9900000000000002, -1.662], 0.8581848852901484),
    (133, [-0.8779999999999999, -1.143, -0.742, 0.02200000000000024, -0.7329999999999999, 0.3959999999999999, 0.2560000000000002, -1.385, 0.9900000000000002, -1.662], 0.8581848852901484),
    (134, [-0.8779999999999999, -1.143, -0.742, 0.02200000000000024, -0.7329999999999999, 0.3959999999999999, 0.2560000000000002, -1.385, 0.9900000000000002, -1.662], 0.8581848852901484),
    (135, [-0.8779999999999999, -1.143, -0.742, 0.02200000000000024, -0.7329999999999999, 0.3959999999999999, 0.2560000000000002, -1.385, 0.9900000000000002, -1.662], 0.8581848852901484),
    (136, [-0.8779999999999999, -1.143, -0.742, 0.02200000000000024, -0.7329999999999999, 0.3959999999999999, 0.2560000000000002, -1.385, 0.9900000000000002, -1.662], 0.8581848852901484),
    (137, [-0.8779999999999999, -1.143, -0.742, 0.02200000000000024, -0.7329999999999999, 0.3959999999999999, 0.2560000000000002, -1.385, 0.9900000000000002, -1.662], 0.8581848852901484),
    (138, [-0.8779999999999999, -1.143, -0.742, 0.02200000000000024, -0.7329999999999999, 0.3959999999999999, 0.2560000000000002, -1.385, 0.9900000000000002, -1.662], 0.8581848852901484),
    (139, [-0.8779999999999999, -1.143, -0.742, 0.02200000000000024, -0.7329999999999999, 0.3959999999999999, 0.2560000000000002, -1.385, 0.9900000000000002, -1.662], 0.8581848852901484),
    (140, [-0.8779999999999999, -1.143, -0.742, 0.02200000000000024, -0.7329999999999999, 0.3959999999999999, 0.2560000000000002, -1.385, 0.9900000000000002, -1.662], 0.8581848852901484),
    (141, [-0.8779999999999999, -1.143, -0.742, 0.02200000000000024, -0.7329999999999999, 0.3959999999999999, 0.2560000000000002, -1.385, 0.9900000000000002, -1.662], 0.8581848852901484),
    (142, [-0.8779999999999999, -1.143, -0.742, 0.02200000000000024, -0.7329999999999999, 0.3959999999999999, 0.2560000000000002, -1.385, 0.9900000000000002, -1.662], 0.8581848852901484),
    (143, [-0.8779999999999999, -1.143, -0.742, 0.02200000000000024, -0.7329999999999999, 0.3959999999999999, 0.2560000000000002, -1.385, 0.9900000000000002, -1.662], 0.8581848852901484),
    (144, [-0.8779999999999999, -1.143, -0.742, 0.02200000000000024, -0.7329999999999999, 0.3959999999999999, 0.2560000000000002, -1.385, 0.9900000000000002, -1.662], 0.8581848852901484),
    (145, [-0.8779999999999999, -1.143, -0.742, 0.02200000000000024, -0.7329999999999999, 0.3959999999999999, 0.2560000000000002, -1.385, 0.9900000000000002, -1.662], 0.8581848852901484),
    (146, [-0.8779999999999999, -1.143, -0.742, 0.02200000000000024, -0.7329999999999999, 0.3959999999999999, 0.2560000000000002, -1.385, 0.9900000000000002, -1.662], 0.8581848852901484),
    (147, [-0.8779999999999999, -1.143, -0.742, 0.02200000000000024, -0.7329999999999999, 0.3959999999999999, 0.2560000000000002, -1.385, 0.9900000000000002, -1.662], 0.8581848852901484),
    (148, [-0.8779999999999999, -1.143, -0.742, 0.02200000000000024, -0.7329999999999999, 0.3959999999999999, 0.2560000000000002, -1.385, 0.9900000000000002, -1.662], 0.8581848852901484),
    (149, [-0.8779999999999999, -1.143, -0.742, 0.02200000000000024, -0.7329999999999999, 0.3959999999999999, 0.2560000000000002, -1.385, 0.9900000000000002, -1.662], 0.8581848852901484),
    (150, [-0.8779999999999999, -1.143, -0.742, 0.02200000000000024, -0.7329999999999999, 0.3959999999999999, 0.2560000000000002, -1.385, 0.9900000000000002, -1.662], 0.8581848852901484),
    (151, [-0.8779999999999999, -1.143, -0.742, 0.02200000000000024, -0.7329999999999999, 0.3959999999999999, 0.2560000000000002, -1.385, 0.9900000000000002, -1.662], 0.8581848852901484),
    (152, [-0.8779999999999999, -1.143, -0.742, 0.02200000000000024, -0.7329999999999999, 0.3959999999999999, 0.2560000000000002, -1.385, 0.9900000000000002, -1.662], 0.8581848852901484),
    (153, [-0.8779999999999999, -1.143, -0.742, 0.02200000000000024, -0.7329999999999999, 0.3959999999999999, 0.2560000000000002, -1.385, 0.9900000000000002, -1.662], 0.8581848852901484),
    (154, [-0.8779999999999999, -1.143, -0.742, 0.02200000000000024, -0.7329999999999999, 0.3959999999999999, 0.2560000000000002, -1.385, 0.9900000000000002, -1.662], 0.8581848852901484),
    (155, [-0.8779999999999999, -1.143, -0.742, 0.02200000000000024, -0.7329999999999999, 0.3959999999999999, 0.2560000000000002, -1.385, 0.9900000000000002, -1.662], 0.8581848852901484),
    (156, [-0.8779999999999999, -1.143, -0.742, 0.02200000000000024, -0.7329999999999999, 0.3959999999999999, 0.2560000000000002, -1.385, 0.9900000000000002, -1.662], 0.8581848852901484),
    (157, [-0.8779999999999999, -1.143, -0.742, 0.02200000000000024, -0.7329999999999999, 0.3959999999999999, 0.2560000000000002, -1.385, 0.9900000000000002, -1.662], 0.8581848852901484),
    (158, [-0.8779999999999999, -1.143, -0.742, 0.02200000000000024, -0.7329999999999999, 0.3959999999999999, 0.2560000000000002, -1.385, 0.9900000000000002, -1.662], 0.8581848852901484),
    (159, [-0.8779999999999999, -1.143, -0.742, 0.02200000000000024, -0.7329999999999999, 0.3959999999999999, 0.2560000000000002, -1.385, 0.9900000000000002, -1.662], 0.8581848852901484),
    (160, [-0.8779999999999999, -1.143, -0.742, 0.02200000000000024, -0.7329999999999999, 0.3959999999999999, 0.2560000000000002, -1.385, 0.9900000000000002, -1.662], 0.8581848852901484),
    (161, [-0.8779999999999999, -1.143, -0.742, 0.02200000000000024, -0.7329999999999999, 0.3959999999999999, 0.2560000000000002, -1.385, 0.9900000000000002, -1.662], 0.8581848852901484),
    (162, [-0.8779999999999999, -1.143, -0.742, 0.02200000000000024, -0.7329999999999999, 0.3959999999999999, 0.2560000000000002, -1.385, 0.9900000000000002, -1.662], 0.8581848852901484),
    (163, [-0.8779999999999999, -1.143, -0.742, 0.02200000000000024, -0.7329999999999999, 0.3959999999999999, 0.2560000000000002, -1.385, 0.9900000000000002, -1.662], 0.8581848852901484),
    (164, [-0.8779999999999999, -1.143, -0.742, 0.02200000000000024, -0.7329999999999999, 0.3959999999999999, 0.2560000000000002, -1.385, 0.9900000000000002, -1.662], 0.8581848852901484),
    (165, [-0.8779999999999999, -1.143, -0.742, 0.02200000000000024, -0.7329999999999999, 0.3959999999999999, 0.2560000000000002, -1.385, 0.9900000000000002, -1.662], 0.8581848852901484),
    (166, [-0.8779999999999999, -1.143, -0.742, 0.02200000000000024, -0.7329999999999999, 0.3959999999999999, 0.2560000000000002, -1.385, 0.9900000000000002, -1.662], 0.8581848852901484),
    (167, [-0.8779999999999999, -1.143, -0.742, 0.02200000000000024, -0.7329999999999999, 0.3959999999999999, 0.2560000000000002, -1.385, 0.9900000000000002, -1.662], 0.8581848852901484),
    (168, [-0.8779999999999999, -1.143, -0.742, 0.02200000000000024, -0.7329999999999999, 0.3959999999999999, 0.2560000000000002, -1.385, 0.9900000000000002, -1.662], 0.8581848852901484),
    (169, [-0.8779999999999999, -1.143, -0.742, 0.02200000000000024, -0.7329999999999999, 0.3959999999999999, 0.2560000000000002, -1.385, 0.9900000000000002, -1.662], 0.8581848852901484),
    (170, [-0.8779999999999999, -1.143, -0.742, 0.02200000000000024, -0.7329999999999999, 0.3959999999999999, 0.2560000000000002, -1.385, 0.9900000000000002, -1.662], 0.8581848852901484),
    (171, [-0.8779999999999999, -1.143, -0.742, 0.02200000000000024, -0.7329999999999999, 0.3959999999999999, 0.2560000000000002, -1.385, 0.9900000000000002, -1.662], 0.8581848852901484),
    (172, [-0.8779999999999999, -1.143, -0.742, 0.02200000000000024, -0.7329999999999999, 0.3959999999999999, 0.2560000000000002, -1.385, 0.9900000000000002, -1.662], 0.8581848852901484),
    (173, [-0.8779999999999999, -1.143, -0.742, 0.02200000000000024, -0.7329999999999999, 0.3959999999999999, 0.2560000000000002, -1.385, 0.9900000000000002, -1.662], 0.8581848852901484),
    (174, [-0.8779999999999999, -1.143, -0.742, 0.02200000000000024, -0.7329999999999999, 0.3959999999999999, 0.2560000000000002, -1.385, 0.9900000000000002, -1.662], 0.8581848852901484),
    (175, [-0.8779999999999999, -1.143, -0.742, 0.02200000000000024, -0.7329999999999999, 0.3959999999999999, 0.2560000000000002, -1.385, 0.9900000000000002, -1.662], 0.8581848852901484),
    (176, [-0.8779999999999999, -1.143, -0.742, 0.02200000000000024, -0.7329999999999999, 0.3959999999999999, 0.2560000000000002, -1.385, 0.9900000000000002, -1.662], 0.8581848852901484),
    (177, [-0.8779999999999999, -1.143, -0.742, 0.02200000000000024, -0.7329999999999999, 0.3959999999999999, 0.2560000000000002, -1.385, 0.9900000000000002, -1.662], 0.8581848852901484),
    (178, [-0.8779999999999999, -1.143, -0.742, 0.02200000000000024, -0.7329999999999999, 0.3959999999999999, 0.2560000000000002, -1.385, 0.9900000000000002, -1.662], 0.8581848852901484),
    (179, [-0.8779999999999999, -1.143, -0.742, 0.02200000000000024, -0.7329999999999999, 0.3959999999999999, 0.2560000000000002, -1.385, 0.9900000000000002, -1.662], 0.8581848852901484),
    (180, [-0.8779999999999999, -1.143, -0.742, 0.02200000000000024, -0.7329999999999999, 0.3959999999999999, 0.2560000000000002, -1.385, 0.9900000000000002, -1.662], 0.8581848852901484),
    (181, [-0.8779999999999999, -1.143, -0.742, 0.02200000000000024, -0.7329999999999999, 0.3959999999999999, 0.2560000000000002, -1.385, 0.9900000000000002, -1.662], 0.8581848852901484),
    (182, [-0.8779999999999999, -1.143, -0.742, 0.02200000000000024, -0.7329999999999999, 0.3959999999999999, 0.2560000000000002, -1.385, 0.9900000000000002, -1.662], 0.8581848852901484),
    (183, [-0.8779999999999999, -1.143, -0.742, 0.02200000000000024, -0.7329999999999999, 0.3959999999999999, 0.2560000000000002, -1.385, 0.9900000000000002, -1.662], 0.8581848852901484),
    (184, [-0.8779999999999999, -1.143, -0.742, 0.02200000000000024, -0.7329999999999999, 0.3959999999999999, 0.2560000000000002, -1.385, 0.9900000000000002, -1.662], 0.8581848852901484),
    (185, [-0.8779999999999999, -1.143, -0.742, 0.02200000000000024, -0.7329999999999999, 0.3959999999999999, 0.2560000000000002, -1.385, 0.9900000000000002, -1.662], 0.8581848852901484),
    (186, [-0.8779999999999999, -1.143, -0.742, 0.02200000000000024, -0.7329999999999999, 0.3959999999999999, 0.2560000000000002, -1.385, 0.9900000000000002, -1.662], 0.8581848852901484),
    (187, [-0.8779999999999999, -1.143, -0.742, 0.02200000000000024, -0.7329999999999999, 0.3959999999999999, 0.2560000000000002, -1.385, 0.9900000000000002, -1.662], 0.8581848852901484),
    (188, [-0.8779999999999999, -1.143, -0.742, 0.02200000000000024, -0.7329999999999999, 0.3959999999999999, 0.2560000000000002, -1.385, 0.9900000000000002, -1.662], 0.8581848852901484),
    (189, [-0.8779999999999999, -1.143, -0.742, 0.02200000000000024, -0.7329999999999999, 0.3959999999999999, 0.2560000000000002, -1.385, 0.9900000000000002, -1.662], 0.8581848852901484),
    (190, [-0.8779999999999999, -1.143, -0.742, 0.02200000000000024, -0.7329999999999999, 0.3959999999999999, 0.2560000000000002, -1.385, 0.9900000000000002, -1.662], 0.8581848852901484),
    (191, [-0.8779999999999999, -1.143, -0.742, 0.02200000000000024, -0.7329999999999999, 0.3959999999999999, 0.2560000000000002, -1.385, 0.9900000000000002, -1.662], 0.8581848852901484),
    (192, [-0.8779999999999999, -1.143, -0.742, 0.02200000000000024, -0.7329999999999999, 0.3959999999999999, 0.2560000000000002, -1.385, 0.9900000000000002, -1.662], 0.8581848852901484),
    (193, [-0.8779999999999999, -1.143, -0.742, 0.02200000000000024, -0.7329999999999999, 0.3959999999999999, 0.2560000000000002, -1.385, 0.9900000000000002, -1.662], 0.8581848852901484),
    (194, [-0.8779999999999999, -1.143, -0.742, 0.02200000000000024, -0.7329999999999999, 0.3959999999999999, 0.2560000000000002, -1.385, 0.9900000000000002, -1.662], 0.8581848852901484),
    (195, [-0.8779999999999999, -1.143, -0.742, 0.02200000000000024, -0.7329999999999999, 0.3959999999999999, 0.2560000000000002, -1.385, 0.9900000000000002, -1.662], 0.8581848852901484),
    (196, [-0.8779999999999999, -1.143, -0.742, 0.02200000000000024, -0.7329999999999999, 0.3959999999999999, 0.2560000000000002, -1.385, 0.9900000000000002, -1.662], 0.8581848852901484),
    (197, [-0.8779999999999999, -1.143, -0.742, 0.02200000000000024, -0.7329999999999999, 0.3959999999999999, 0.2560000000000002, -1.385, 0.9900000000000002, -1.662], 0.8581848852901484),
    (198, [-0.8779999999999999, -1.143, -0.742, 0.02200000000000024, -0.7329999999999999, 0.3959999999999999, 0.2560000000000002, -1.385, 0.9900000000000002, -1.662], 0.8581848852901484),
    (199, [-0.8779999999999999, -1.143, -0.742, 0.02200000000000024, -0.7329999999999999, 0.3959999999999999, 0.2560000000000002, -1.385, 0.9900000000000002, -1.662], 0.8581848852901484),
    (200, [-0.8779999999999999, -1.143, -0.742, 0.02200000000000024, -0.7329999999999999, 0.3959999999999999, 0.2560000000000002, -1.385, 0.9900000000000002, -1.662], 0.8581848852901484),
    (201, [-0.8779999999999999, -1.143, -0.742, 0.02200000000000024, -0.7329999999999999, 0.3959999999999999, 0.2560000000000002, -1.385, 0.9900000000000002, -1.662], 0.8581848852901484),
    (202, [-0.8779999999999999, -1.143, -0.742, 0.02200000000000024, -0.7329999999999999, 0.3959999999999999, 0.2560000000000002, -1.385, 0.9900000000000002, -1.662], 0.8581848852901484),
    (203, [-0.8779999999999999, -1.143, -0.742, 0.02200000000000024, -0.7329999999999999, 0.3959999999999999, 0.2560000000000002, -1.385, 0.9900000000000002, -1.662], 0.8581848852901484),
    (204, [-0.8779999999999999, -1.143, -0.742, 0.02200000000000024, -0.7329999999999999, 0.3959999999999999, 0.2560000000000002, -1.385, 0.9900000000000002, -1.662], 0.8581848852901484),
    (205, [-0.8779999999999999, -1.143, -0.742, 0.02200000000000024, -0.7329999999999999, 0.3959999999999999, 0.2560000000000002, -1.385, 0.9900000000000002, -1.662], 0.8581848852901484),
    (206, [-0.8779999999999999, -1.143, -0.742, 0.02200000000000024, -0.7329999999999999, 0.3959999999999999, 0.2560000000000002, -1.385, 0.9900000000000002, -1.662], 0.8581848852901484),
    (207, [-0.8779999999999999, -1.143, -0.742, 0.02200000000000024, -0.7329999999999999, 0.3959999999999999, 0.2560000000000002, -1.385, 0.9900000000000002, -1.662], 0.8581848852901484),
    (208, [-0.8779999999999999, -1.143, -0.742, 0.02200000000000024, -0.7329999999999999, 0.3959999999999999, 0.2560000000000002, -1.385, 0.9900000000000002, -1.662], 0.8581848852901484),
    (209, [-0.8779999999999999, -1.143, -0.742, 0.02200000000000024, -0.7329999999999999, 0.3959999999999999, 0.2560000000000002, -1.385, 0.9900000000000002, -1.662], 0.8581848852901484),
    (210, [-0.8779999999999999, -1.143, -0.742, 0.02200000000000024, -0.7329999999999999, 0.3959999999999999, 0.2560000000000002, -1.385, 0.9900000000000002, -1.662], 0.8581848852901484),
    (211, [-0.8779999999999999, -1.143, -0.742, 0.02200000000000024, -0.7329999999999999, 0.3959999999999999, 0.2560000000000002, -1.385, 0.9900000000000002, -1.662], 0.8581848852901484),
    (212, [-0.8779999999999999, -1.143, -0.742, 0.02200000000000024, -0.7329999999999999, 0.3959999999999999, 0.2560000000000002, -1.385, 0.9900000000000002, -1.662], 0.8581848852901484),
    (213, [0.8620000000000001, 1.0899999999999999, 0.9460000000000002, 0.137, 1.241, 0.5089999999999999, -1.728, 1.275, 1.282, 1.745], 0.8583130904183534),
    (214, [0.8620000000000001, 1.0899999999999999, 0.9460000000000002, 0.137, 1.241, 0.5089999999999999, -1.728, 1.275, 1.282, 1.745], 0.8583130904183534),
    (215, [0.8620000000000001, 1.0899999999999999, 0.9460000000000002, 0.137, 1.241, 0.5089999999999999, -1.728, 1.275, 1.282, 1.745], 0.8583130904183534),
    (216, [0.8620000000000001, 1.0899999999999999, 0.9460000000000002, 0.137, 1.241, 0.5089999999999999, -1.728, 1.275, 1.282, 1.745], 0.8583130904183534),
    (217, [1.004, -1.216, -1.034, -0.2489999999999999, -1.15, 0.3820000000000001, 0.948, -1.321, -1.168, -1.836], 0.8584412955465588),
    (218, [1.004, -1.216, -1.034, -0.2489999999999999, -1.15, 0.3820000000000001, 0.948, -1.321, -1.168, -1.836], 0.8584412955465588),
    (219, [1.004, -1.216, -1.034, -0.2489999999999999, -1.15, 0.3820000000000001, 0.948, -1.321, -1.168, -1.836], 0.8584412955465588),
    (220, [1.004, -1.216, -1.034, -0.2489999999999999, -1.15, 0.3820000000000001, 0.948, -1.321, -1.168, -1.836], 0.8584412955465588),
    (221, [1.004, -1.216, -1.034, -0.2489999999999999, -1.15, 0.3820000000000001, 0.948, -1.321, -1.168, -1.836], 0.8584412955465588),
    (222, [1.004, -1.216, -1.034, -0.2489999999999999, -1.15, 0.3820000000000001, 0.948, -1.321, -1.168, -1.836], 0.8584412955465588),
    (223, [1.004, -1.216, -1.034, -0.2489999999999999, -1.15, 0.3820000000000001, 0.948, -1.321, -1.168, -1.836], 0.8584412955465588),
    (224, [1.004, -1.216, -1.034, -0.2489999999999999, -1.15, 0.3820000000000001, 0.948, -1.321, -1.168, -1.836], 0.8584412955465588),
    (225, [1.004, -1.216, -1.034, -0.2489999999999999, -1.15, 0.3820000000000001, 0.948, -1.321, -1.168, -1.836], 0.8584412955465588),
    (226, [1.004, -1.216, -1.034, -0.2489999999999999, -1.15, 0.3820000000000001, 0.948, -1.321, -1.168, -1.836], 0.8584412955465588),
    (227, [1.004, -1.216, -1.034, -0.2489999999999999, -1.15, 0.3820000000000001, 0.948, -1.321, -1.168, -1.836], 0.8584412955465588),
    (228, [1.004, -1.216, -1.034, -0.2489999999999999, -1.15, 0.3820000000000001, 0.948, -1.321, -1.168, -1.836], 0.8584412955465588),
    (229, [1.004, -1.216, -1.034, -0.2489999999999999, -1.15, 0.3820000000000001, 0.948, -1.321, -1.168, -1.836], 0.8584412955465588),
    (230, [1.004, -1.216, -1.034, -0.2489999999999999, -1.15, 0.3820000000000001, 0.948, -1.321, -1.168, -1.836], 0.8584412955465588),
    (231, [1.004, -1.216, -1.034, -0.2489999999999999, -1.15, 0.3820000000000001, 0.948, -1.321, -1.168, -1.836], 0.8584412955465588),
    (232, [1.004, -1.216, -1.034, -0.2489999999999999, -1.15, 0.3820000000000001, 0.948, -1.321, -1.168, -1.836], 0.8584412955465588),
    (233, [1.004, -1.216, -1.034, -0.2489999999999999, -1.15, 0.3820000000000001, 0.948, -1.321, -1.168, -1.836], 0.8584412955465588),
    (234, [1.004, -1.216, -1.034, -0.2489999999999999, -1.15, 0.3820000000000001, 0.948, -1.321, -1.168, -1.836], 0.8584412955465588),
    (235, [-1.499, -0.738, 0.9010000000000002, -1.391, -0.792, 0.11399999999999988, 0.10199999999999987, -0.6419999999999999, 0.8759999999999999, 0.31800000000000006], 0.8676450742240215),
    (236, [-1.499, -0.738, 0.9010000000000002, -1.391, -0.792, 0.11399999999999988, 0.10199999999999987, -0.6419999999999999, 0.8759999999999999, 0.31800000000000006], 0.8676450742240215),
    (237, [-1.499, -0.738, 0.9010000000000002, -1.391, -0.792, 0.11399999999999988, 0.10199999999999987, -0.6419999999999999, 0.8759999999999999, 0.31800000000000006], 0.8676450742240215),
    (238, [-1.499, -0.738, 0.9010000000000002, -1.391, -0.792, 0.11399999999999988, 0.10199999999999987, -0.6419999999999999, 0.8759999999999999, 0.31800000000000006], 0.8676450742240215),
    (239, [-1.499, -0.738, 0.9010000000000002, -1.391, -0.792, 0.11399999999999988, 0.10199999999999987, -0.6419999999999999, 0.8759999999999999, 0.31800000000000006], 0.8676450742240215),
    (240, [-1.499, -0.738, 0.9010000000000002, -1.391, -0.792, 0.11399999999999988, 0.10199999999999987, -0.6419999999999999, 0.8759999999999999, 0.31800000000000006], 0.8676450742240215),
    (241, [-1.499, -0.738, 0.9010000000000002, -1.391, -0.792, 0.11399999999999988, 0.10199999999999987, -0.6419999999999999, 0.8759999999999999, 0.31800000000000006], 0.8676450742240215),
    (242, [-1.499, -0.738, 0.9010000000000002, -1.391, -0.792, 0.11399999999999988, 0.10199999999999987, -0.6419999999999999, 0.8759999999999999, 0.31800000000000006], 0.8676450742240215),
    (243, [-1.499, -0.738, 0.9010000000000002, -1.391, -0.792, 0.11399999999999988, 0.10199999999999987, -0.6419999999999999, 0.8759999999999999, 0.31800000000000006], 0.8676450742240215),
    (244, [-1.499, -0.738, 0.9010000000000002, -1.391, -0.792, 0.11399999999999988, 0.10199999999999987, -0.6419999999999999, 0.8759999999999999, 0.31800000000000006], 0.8676450742240215),
    (245, [-1.499, -0.738, 0.9010000000000002, -1.391, -0.792, 0.11399999999999988, 0.10199999999999987, -0.6419999999999999, 0.8759999999999999, 0.31800000000000006], 0.8676450742240215),
    (246, [-1.499, -0.738, 0.9010000000000002, -1.391, -0.792, 0.11399999999999988, 0.10199999999999987, -0.6419999999999999, 0.8759999999999999, 0.31800000000000006], 0.8676450742240215),
    (247, [-1.499, -0.738, 0.9010000000000002, -1.391, -0.792, 0.11399999999999988, 0.10199999999999987, -0.6419999999999999, 0.8759999999999999, 0.31800000000000006], 0.8676450742240215),
    (248, [-1.499, -0.738, 0.9010000000000002, -1.391, -0.792, 0.11399999999999988, 0.10199999999999987, -0.6419999999999999, 0.8759999999999999, 0.31800000000000006], 0.8676450742240215),
    (249, [-1.499, -0.738, 0.9010000000000002, -1.391, -0.792, 0.11399999999999988, 0.10199999999999987, -0.6419999999999999, 0.8759999999999999, 0.31800000000000006], 0.8676450742240215),
    (250, [-1.499, -0.738, 0.9010000000000002, -1.391, -0.792, 0.11399999999999988, 0.10199999999999987, -0.6419999999999999, 0.8759999999999999, 0.31800000000000006], 0.8676450742240215),
    (251, [-1.499, -0.738, 0.9010000000000002, -1.391, -0.792, 0.11399999999999988, 0.10199999999999987, -0.6419999999999999, 0.8759999999999999, 0.31800000000000006], 0.8676450742240215),
    (252, [-1.499, -0.738, 0.9010000000000002, -1.391, -0.792, 0.11399999999999988, 0.10199999999999987, -0.6419999999999999, 0.8759999999999999, 0.31800000000000006], 0.8676450742240215),
    (253, [-1.499, -0.738, 0.9010000000000002, -1.391, -0.792, 0.11399999999999988, 0.10199999999999987, -0.6419999999999999, 0.8759999999999999, 0.31800000000000006], 0.8676450742240215),
    (254, [-1.499, -0.738, 0.9010000000000002, -1.391, -0.792, 0.11399999999999988, 0.10199999999999987, -0.6419999999999999, 0.8759999999999999, 0.31800000000000006], 0.8676450742240215),
    (255, [-1.499, -0.738, 0.9010000000000002, -1.391, -0.792, 0.11399999999999988, 0.10199999999999987, -0.6419999999999999, 0.8759999999999999, 0.31800000000000006], 0.8676450742240215),
    (256, [-1.499, -0.738, 0.9010000000000002, -1.391, -0.792, 0.11399999999999988, 0.10199999999999987, -0.6419999999999999, 0.8759999999999999, 0.31800000000000006], 0.8676450742240215),
    (257, [-1.499, -0.738, 0.9010000000000002, -1.391, -0.792, 0.11399999999999988, 0.10199999999999987, -0.6419999999999999, 0.8759999999999999, 0.31800000000000006], 0.8676450742240215),
    (258, [-1.499, -0.738, 0.9010000000000002, -1.391, -0.792, 0.11399999999999988, 0.10199999999999987, -0.6419999999999999, 0.8759999999999999, 0.31800000000000006], 0.8676450742240215),
    (259, [-1.499, -0.738, 0.9010000000000002, -1.391, -0.792, 0.11399999999999988, 0.10199999999999987, -0.6419999999999999, 0.8759999999999999, 0.31800000000000006], 0.8676450742240215),
    (260, [-1.499, -0.738, 0.9010000000000002, -1.391, -0.792, 0.11399999999999988, 0.10199999999999987, -0.6419999999999999, 0.8759999999999999, 0.31800000000000006], 0.8676450742240215),
    (261, [-1.499, -0.738, 0.9010000000000002, -1.391, -0.792, 0.11399999999999988, 0.10199999999999987, -0.6419999999999999, 0.8759999999999999, 0.31800000000000006], 0.8676450742240215),
    (262, [-1.499, -0.738, 0.9010000000000002, -1.391, -0.792, 0.11399999999999988, 0.10199999999999987, -0.6419999999999999, 0.8759999999999999, 0.31800000000000006], 0.8676450742240215),
    (263, [-1.499, -0.738, 0.9010000000000002, -1.391, -0.792, 0.11399999999999988, 0.10199999999999987, -0.6419999999999999, 0.8759999999999999, 0.31800000000000006], 0.8676450742240215),
    (264, [-1.499, -0.738, 0.9010000000000002, -1.391, -0.792, 0.11399999999999988, 0.10199999999999987, -0.6419999999999999, 0.8759999999999999, 0.31800000000000006], 0.8676450742240215),
    (265, [-1.499, -0.738, 0.9010000000000002, -1.391, -0.792, 0.11399999999999988, 0.10199999999999987, -0.6419999999999999, 0.8759999999999999, 0.31800000000000006], 0.8676450742240215),
    (266, [-1.499, -0.738, 0.9010000000000002, -1.391, -0.792, 0.11399999999999988, 0.10199999999999987, -0.6419999999999999, 0.8759999999999999, 0.31800000000000006], 0.8676450742240215),
    (267, [-1.499, -0.738, 0.9010000000000002, -1.391, -0.792, 0.11399999999999988, 0.10199999999999987, -0.6419999999999999, 0.8759999999999999, 0.31800000000000006], 0.8676450742240215),
    (268, [-1.499, -0.738, 0.9010000000000002, -1.391, -0.792, 0.11399999999999988, 0.10199999999999987, -0.6419999999999999, 0.8759999999999999, 0.31800000000000006], 0.8676450742240215),
    (269, [-1.499, -0.738, 0.9010000000000002, -1.391, -0.792, 0.11399999999999988, 0.10199999999999987, -0.6419999999999999, 0.8759999999999999, 0.31800000000000006], 0.8676450742240215),
    (270, [-1.499, -0.738, 0.9010000000000002, -1.391, -0.792, 0.11399999999999988, 0.10199999999999987, -0.6419999999999999, 0.8759999999999999, 0.31800000000000006], 0.8676450742240215),
    (271, [-1.499, -0.738, 0.9010000000000002, -1.391, -0.792, 0.11399999999999988, 0.10199999999999987, -0.6419999999999999, 0.8759999999999999, 0.31800000000000006], 0.8676450742240215),
    (272, [-1.499, -0.738, 0.9010000000000002, -1.391, -0.792, 0.11399999999999988, 0.10199999999999987, -0.6419999999999999, 0.8759999999999999, 0.31800000000000006], 0.8676450742240215),
    (273, [-1.499, -0.738, 0.9010000000000002, -1.391, -0.792, 0.11399999999999988, 0.10199999999999987, -0.6419999999999999, 0.8759999999999999, 0.31800000000000006], 0.8676450742240215),
    (274, [-1.499, -0.738, 0.9010000000000002, -1.391, -0.792, 0.11399999999999988, 0.10199999999999987, -0.6419999999999999, 0.8759999999999999, 0.31800000000000006], 0.8676450742240215),
    (275, [-1.499, -0.738, 0.9010000000000002, -1.391, -0.792, 0.11399999999999988, 0.10199999999999987, -0.6419999999999999, 0.8759999999999999, 0.31800000000000006], 0.8676450742240215),
    (276, [-1.499, -0.738, 0.9010000000000002, -1.391, -0.792, 0.11399999999999988, 0.10199999999999987, -0.6419999999999999, 0.8759999999999999, 0.31800000000000006], 0.8676450742240215),
    (277, [-1.499, -0.738, 0.9010000000000002, -1.391, -0.792, 0.11399999999999988, 0.10199999999999987, -0.6419999999999999, 0.8759999999999999, 0.31800000000000006], 0.8676450742240215),
    (278, [-1.499, -0.738, 0.9010000000000002, -1.391, -0.792, 0.11399999999999988, 0.10199999999999987, -0.6419999999999999, 0.8759999999999999, 0.31800000000000006], 0.8676450742240215),
    (279, [-1.499, -0.738, 0.9010000000000002, -1.391, -0.792, 0.11399999999999988, 0.10199999999999987, -0.6419999999999999, 0.8759999999999999, 0.31800000000000006], 0.8676450742240215),
    (280, [-1.499, -0.738, 0.9010000000000002, -1.391, -0.792, 0.11399999999999988, 0.10199999999999987, -0.6419999999999999, 0.8759999999999999, 0.31800000000000006], 0.8676450742240215),
    (281, [-1.499, -0.738, 0.9010000000000002, -1.391, -0.792, 0.11399999999999988, 0.10199999999999987, -0.6419999999999999, 0.8759999999999999, 0.31800000000000006], 0.8676450742240215),
    (282, [-1.499, -0.738, 0.9010000000000002, -1.391, -0.792, 0.11399999999999988, 0.10199999999999987, -0.6419999999999999, 0.8759999999999999, 0.31800000000000006], 0.8676450742240215),
    (283, [-1.499, -0.738, 0.9010000000000002, -1.391, -0.792, 0.11399999999999988, 0.10199999999999987, -0.6419999999999999, 0.8759999999999999, 0.31800000000000006], 0.8676450742240215),
    (284, [-1.499, -0.738, 0.9010000000000002, -1.391, -0.792, 0.11399999999999988, 0.10199999999999987, -0.6419999999999999, 0.8759999999999999, 0.31800000000000006], 0.8676450742240215),
    (285, [-1.499, -0.738, 0.9010000000000002, -1.391, -0.792, 0.11399999999999988, 0.10199999999999987, -0.6419999999999999, 0.8759999999999999, 0.31800000000000006], 0.8676450742240215),
    (286, [-1.499, -0.738, 0.9010000000000002, -1.391, -0.792, 0.11399999999999988, 0.10199999999999987, -0.6419999999999999, 0.8759999999999999, 0.31800000000000006], 0.8676450742240215),
    (287, [-1.499, -0.738, 0.9010000000000002, -1.391, -0.792, 0.11399999999999988, 0.10199999999999987, -0.6419999999999999, 0.8759999999999999, 0.31800000000000006], 0.8676450742240215),
    (288, [-1.499, -0.738, 0.9010000000000002, -1.391, -0.792, 0.11399999999999988, 0.10199999999999987, -0.6419999999999999, 0.8759999999999999, 0.31800000000000006], 0.8676450742240215),
    (289, [-1.499, -0.738, 0.9010000000000002, -1.391, -0.792, 0.11399999999999988, 0.10199999999999987, -0.6419999999999999, 0.8759999999999999, 0.31800000000000006], 0.8676450742240215),
    (290, [-1.499, -0.738, 0.9010000000000002, -1.391, -0.792, 0.11399999999999988, 0.10199999999999987, -0.6419999999999999, 0.8759999999999999, 0.31800000000000006], 0.8676450742240215),
    (291, [-1.499, -0.738, 0.9010000000000002, -1.391, -0.792, 0.11399999999999988, 0.10199999999999987, -0.6419999999999999, 0.8759999999999999, 0.31800000000000006], 0.8676450742240215),
    (292, [-1.499, -0.738, 0.9010000000000002, -1.391, -0.792, 0.11399999999999988, 0.10199999999999987, -0.6419999999999999, 0.8759999999999999, 0.31800000000000006], 0.8676450742240215),
    (293, [-1.499, -0.738, 0.9010000000000002, -1.391, -0.792, 0.11399999999999988, 0.10199999999999987, -0.6419999999999999, 0.8759999999999999, 0.31800000000000006], 0.8676450742240215),
    (294, [-1.499, -0.738, 0.9010000000000002, -1.391, -0.792, 0.11399999999999988, 0.10199999999999987, -0.6419999999999999, 0.8759999999999999, 0.31800000000000006], 0.8676450742240215),
    (295, [-1.499, -0.738, 0.9010000000000002, -1.391, -0.792, 0.11399999999999988, 0.10199999999999987, -0.6419999999999999, 0.8759999999999999, 0.31800000000000006], 0.8676450742240215),
    (296, [-1.499, -0.738, 0.9010000000000002, -1.391, -0.792, 0.11399999999999988, 0.10199999999999987, -0.6419999999999999, 0.8759999999999999, 0.31800000000000006], 0.8676450742240215),
    (297, [-1.499, -0.738, 0.9010000000000002, -1.391, -0.792, 0.11399999999999988, 0.10199999999999987, -0.6419999999999999, 0.8759999999999999, 0.31800000000000006], 0.8676450742240215),
    (298, [-1.499, -0.738, 0.9010000000000002, -1.391, -0.792, 0.11399999999999988, 0.10199999999999987, -0.6419999999999999, 0.8759999999999999, 0.31800000000000006], 0.8676450742240215),
    (299, [-1.499, -0.738, 0.9010000000000002, -1.391, -0.792, 0.11399999999999988, 0.10199999999999987, -0.6419999999999999, 0.8759999999999999, 0.31800000000000006], 0.8676450742240215),
]

