ranges of every chromosome : (0, 1)
    selection method is: ExponentialRankingSelection
    crossover method is: UniformCrossover
    pc: The probability of crossover: 0.850000
    pe: Gene exchange probability: 0.700000
    mutation method is: FlipBitBigMutation
    pm: The probability of mutation: 0.100000
    pbm: The probability of big mutation: 0.500000
    alpha: intensive factor: 0.600000
best_fit = [
    (0, [1, 1, 1, 1, 1, 1, 1, 1, 1, 1], 0.8480499325236167),
    (1, [0.582, 0.673, 0.8260000000000001, 0.328, 0.509, 0.526, 0.687, 0.8160000000000001, 0.399, 0.308], 0.8523954116059379),
    (2, [0.582, 0.673, 0.8260000000000001, 0.328, 0.509, 0.526, 0.687, 0.8160000000000001, 0.399, 0.308], 0.8523954116059379),
    (3, [0.582, 0.673, 0.8260000000000001, 0.328, 0.509, 0.526, 0.687, 0.8160000000000001, 0.399, 0.308], 0.8523954116059379),
    (4, [0.582, 0.673, 0.8260000000000001, 0.328, 0.509, 0.526, 0.687, 0.8160000000000001, 0.399, 0.308], 0.8523954116059379),
    (5, [0.582, 0.673, 0.8260000000000001, 0.328, 0.509, 0.526, 0.687, 0.8160000000000001, 0.399, 0.308], 0.8523954116059379),
    (6, [0.582, 0.673, 0.8260000000000001, 0.328, 0.509, 0.526, 0.687, 0.8160000000000001, 0.399, 0.308], 0.8523954116059379),
    (7, [0.437, 0.562, 0.373, 0.214, 0.905, 0.41100000000000003, 0.145, 0.417, 0.296, 0.012], 0.8576585695006747),
    (8, [0.437, 0.562, 0.373, 0.214, 0.905, 0.41100000000000003, 0.145, 0.417, 0.296, 0.012], 0.8576585695006747),
    (9, [0.437, 0.562, 0.373, 0.214, 0.905, 0.41100000000000003, 0.145, 0.417, 0.296, 0.012], 0.8576585695006747),
    (10, [0.437, 0.562, 0.373, 0.214, 0.905, 0.41100000000000003, 0.145, 0.417, 0.296, 0.012], 0.8576585695006747),
    (11, [0.437, 0.562, 0.373, 0.214, 0.905, 0.41100000000000003, 0.145, 0.417, 0.296, 0.012], 0.8576585695006747),
    (12, [0.437, 0.562, 0.373, 0.214, 0.905, 0.41100000000000003, 0.145, 0.417, 0.296, 0.012], 0.8576585695006747),
    (13, [0.437, 0.562, 0.373, 0.214, 0.905, 0.41100000000000003, 0.145, 0.417, 0.296, 0.012], 0.8576585695006747),
    (14, [0.437, 0.562, 0.373, 0.214, 0.905, 0.41100000000000003, 0.145, 0.417, 0.296, 0.012], 0.8576585695006747),
    (15, [0.437, 0.562, 0.373, 0.214, 0.905, 0.41100000000000003, 0.145, 0.417, 0.296, 0.012], 0.8576585695006747),
    (16, [0.437, 0.562, 0.373, 0.214, 0.905, 0.41100000000000003, 0.145, 0.417, 0.296, 0.012], 0.8576585695006747),
    (17, [0.437, 0.562, 0.373, 0.214, 0.905, 0.41100000000000003, 0.145, 0.417, 0.296, 0.012], 0.8576585695006747),
    (18, [0.437, 0.562, 0.373, 0.214, 0.905, 0.41100000000000003, 0.145, 0.417, 0.296, 0.012], 0.8576585695006747),
    (19, [0.437, 0.562, 0.373, 0.214, 0.905, 0.41100000000000003, 0.145, 0.417, 0.296, 0.012], 0.8576585695006747),
    (20, [0.437, 0.562, 0.373, 0.214, 0.905, 0.41100000000000003, 0.145, 0.417, 0.296, 0.012], 0.8576585695006747),
    (21, [0.437, 0.562, 0.373, 0.214, 0.905, 0.41100000000000003, 0.145, 0.417, 0.296, 0.012], 0.8576585695006747),
    (22, [0.437, 0.562, 0.373, 0.214, 0.905, 0.41100000000000003, 0.145, 0.417, 0.296, 0.012], 0.8576585695006747),
    (23, [0.437, 0.562, 0.373, 0.214, 0.905, 0.41100000000000003, 0.145, 0.417, 0.296, 0.012], 0.8576585695006747),
    (24, [0.437, 0.562, 0.373, 0.214, 0.905, 0.41100000000000003, 0.145, 0.417, 0.296, 0.012], 0.8576585695006747),
    (25, [0.437, 0.562, 0.373, 0.214, 0.905, 0.41100000000000003, 0.145, 0.417, 0.296, 0.012], 0.8576585695006747),
    (26, [0.437, 0.562, 0.373, 0.214, 0.905, 0.41100000000000003, 0.145, 0.417, 0.296, 0.012], 0.8576585695006747),
    (27, [0.551, 0.867, 0.245, 0.249, 0.456, 0.023, 0.808, 0.8140000000000001, 0.24, 0.28300000000000003], 0.8577867746288799),
    (28, [0.551, 0.867, 0.245, 0.249, 0.456, 0.023, 0.808, 0.8140000000000001, 0.24, 0.28300000000000003], 0.8577867746288799),
    (29, [0.551, 0.867, 0.245, 0.249, 0.456, 0.023, 0.808, 0.8140000000000001, 0.24, 0.28300000000000003], 0.8577867746288799),
    (30, [0.551, 0.867, 0.245, 0.249, 0.456, 0.023, 0.808, 0.8140000000000001, 0.24, 0.28300000000000003], 0.8577867746288799),
    (31, [0.551, 0.867, 0.245, 0.249, 0.456, 0.023, 0.808, 0.8140000000000001, 0.24, 0.28300000000000003], 0.8577867746288799),
    (32, [0.551, 0.867, 0.245, 0.249, 0.456, 0.023, 0.808, 0.8140000000000001, 0.24, 0.28300000000000003], 0.8577867746288799),
    (33, [0.551, 0.867, 0.245, 0.249, 0.456, 0.023, 0.808, 0.8140000000000001, 0.24, 0.28300000000000003], 0.8577867746288799),
    (34, [0.551, 0.867, 0.245, 0.249, 0.456, 0.023, 0.808, 0.8140000000000001, 0.24, 0.28300000000000003], 0.8577867746288799),
    (35, [0.551, 0.867, 0.245, 0.249, 0.456, 0.023, 0.808, 0.8140000000000001, 0.24, 0.28300000000000003], 0.8577867746288799),
    (36, [0.551, 0.867, 0.245, 0.249, 0.456, 0.023, 0.808, 0.8140000000000001, 0.24, 0.28300000000000003], 0.8577867746288799),
    (37, [0.551, 0.867, 0.245, 0.249, 0.456, 0.023, 0.808, 0.8140000000000001, 0.24, 0.28300000000000003], 0.8577867746288799),
    (38, [0.551, 0.867, 0.245, 0.249, 0.456, 0.023, 0.808, 0.8140000000000001, 0.24, 0.28300000000000003], 0.8577867746288799),
    (39, [0.551, 0.867, 0.245, 0.249, 0.456, 0.023, 0.808, 0.8140000000000001, 0.24, 0.28300000000000003], 0.8577867746288799),
    (40, [0.551, 0.867, 0.245, 0.249, 0.456, 0.023, 0.808, 0.8140000000000001, 0.24, 0.28300000000000003], 0.8577867746288799),
    (41, [0.551, 0.867, 0.245, 0.249, 0.456, 0.023, 0.808, 0.8140000000000001, 0.24, 0.28300000000000003], 0.8577867746288799),
    (42, [0.551, 0.867, 0.245, 0.249, 0.456, 0.023, 0.808, 0.8140000000000001, 0.24, 0.28300000000000003], 0.8577867746288799),
    (43, [0.551, 0.867, 0.245, 0.249, 0.456, 0.023, 0.808, 0.8140000000000001, 0.24, 0.28300000000000003], 0.8577867746288799),
    (44, [0.402, 0.211, 0.309, 0.34500000000000003, 0.509, 0.40800000000000003, 0.669, 0.906, 0.836, 0.515], 0.8577935222672064),
    (45, [0.402, 0.211, 0.309, 0.34500000000000003, 0.509, 0.40800000000000003, 0.669, 0.906, 0.836, 0.515], 0.8577935222672064),
    (46, [0.402, 0.211, 0.309, 0.34500000000000003, 0.509, 0.40800000000000003, 0.669, 0.906, 0.836, 0.515], 0.8577935222672064),
    (47, [0.402, 0.211, 0.309, 0.34500000000000003, 0.509, 0.40800000000000003, 0.669, 0.906, 0.836, 0.515], 0.8577935222672064),
    (48, [0.402, 0.211, 0.309, 0.34500000000000003, 0.509, 0.40800000000000003, 0.669, 0.906, 0.836, 0.515], 0.8577935222672064),
    (49, [0.402, 0.211, 0.309, 0.34500000000000003, 0.509, 0.40800000000000003, 0.669, 0.906, 0.836, 0.515], 0.8577935222672064),
    (50, [0.402, 0.211, 0.309, 0.34500000000000003, 0.509, 0.40800000000000003, 0.669, 0.906, 0.836, 0.515], 0.8577935222672064),
    (51, [0.402, 0.211, 0.309, 0.34500000000000003, 0.509, 0.40800000000000003, 0.669, 0.906, 0.836, 0.515], 0.8577935222672064),
    (52, [0.402, 0.211, 0.309, 0.34500000000000003, 0.509, 0.40800000000000003, 0.669, 0.906, 0.836, 0.515], 0.8577935222672064),
    (53, [0.402, 0.211, 0.309, 0.34500000000000003, 0.509, 0.40800000000000003, 0.669, 0.906, 0.836, 0.515], 0.8577935222672064),
    (54, [0.402, 0.211, 0.309, 0.34500000000000003, 0.509, 0.40800000000000003, 0.669, 0.906, 0.836, 0.515], 0.8577935222672064),
    (55, [0.402, 0.211, 0.309, 0.34500000000000003, 0.509, 0.40800000000000003, 0.669, 0.906, 0.836, 0.515], 0.8577935222672064),
    (56, [0.402, 0.211, 0.309, 0.34500000000000003, 0.509, 0.40800000000000003, 0.669, 0.906, 0.836, 0.515], 0.8577935222672064),
    (57, [0.402, 0.211, 0.309, 0.34500000000000003, 0.509, 0.40800000000000003, 0.669, 0.906, 0.836, 0.515], 0.8577935222672064),
    (58, [0.402, 0.211, 0.309, 0.34500000000000003, 0.509, 0.40800000000000003, 0.669, 0.906, 0.836, 0.515], 0.8577935222672064),
    (59, [0.402, 0.211, 0.309, 0.34500000000000003, 0.509, 0.40800000000000003, 0.669, 0.906, 0.836, 0.515], 0.8577935222672064),
    (60, [0.402, 0.211, 0.309, 0.34500000000000003, 0.509, 0.40800000000000003, 0.669, 0.906, 0.836, 0.515], 0.8577935222672064),
    (61, [0.402, 0.211, 0.309, 0.34500000000000003, 0.509, 0.40800000000000003, 0.669, 0.906, 0.836, 0.515], 0.8577935222672064),
    (62, [0.402, 0.211, 0.309, 0.34500000000000003, 0.509, 0.40800000000000003, 0.669, 0.906, 0.836, 0.515], 0.8577935222672064),
    (63, [0.402, 0.211, 0.309, 0.34500000000000003, 0.509, 0.40800000000000003, 0.669, 0.906, 0.836, 0.515], 0.8577935222672064),
    (64, [0.402, 0.211, 0.309, 0.34500000000000003, 0.509, 0.40800000000000003, 0.669, 0.906, 0.836, 0.515], 0.8577935222672064),
    (65, [0.402, 0.211, 0.309, 0.34500000000000003, 0.509, 0.40800000000000003, 0.669, 0.906, 0.836, 0.515], 0.8577935222672064),
    (66, [0.402, 0.211, 0.309, 0.34500000000000003, 0.509, 0.40800000000000003, 0.669, 0.906, 0.836, 0.515], 0.8577935222672064),
    (67, [0.402, 0.211, 0.309, 0.34500000000000003, 0.509, 0.40800000000000003, 0.669, 0.906, 0.836, 0.515], 0.8577935222672064),
    (68, [0.402, 0.211, 0.309, 0.34500000000000003, 0.509, 0.40800000000000003, 0.669, 0.906, 0.836, 0.515], 0.8577935222672064),
    (69, [0.402, 0.211, 0.309, 0.34500000000000003, 0.509, 0.40800000000000003, 0.669, 0.906, 0.836, 0.515], 0.8577935222672064),
    (70, [0.402, 0.211, 0.309, 0.34500000000000003, 0.509, 0.40800000000000003, 0.669, 0.906, 0.836, 0.515], 0.8577935222672064),
    (71, [0.402, 0.211, 0.309, 0.34500000000000003, 0.509, 0.40800000000000003, 0.669, 0.906, 0.836, 0.515], 0.8577935222672064),
    (72, [0.402, 0.211, 0.309, 0.34500000000000003, 0.509, 0.40800000000000003, 0.669, 0.906, 0.836, 0.515], 0.8577935222672064),
    (73, [0.402, 0.211, 0.309, 0.34500000000000003, 0.509, 0.40800000000000003, 0.669, 0.906, 0.836, 0.515], 0.8577935222672064),
    (74, [0.402, 0.211, 0.309, 0.34500000000000003, 0.509, 0.40800000000000003, 0.669, 0.906, 0.836, 0.515], 0.8577935222672064),
    (75, [0.402, 0.211, 0.309, 0.34500000000000003, 0.509, 0.40800000000000003, 0.669, 0.906, 0.836, 0.515], 0.8577935222672064),
    (76, [0.402, 0.211, 0.309, 0.34500000000000003, 0.509, 0.40800000000000003, 0.669, 0.906, 0.836, 0.515], 0.8577935222672064),
    (77, [0.402, 0.211, 0.309, 0.34500000000000003, 0.509, 0.40800000000000003, 0.669, 0.906, 0.836, 0.515], 0.8577935222672064),
    (78, [0.402, 0.211, 0.309, 0.34500000000000003, 0.509, 0.40800000000000003, 0.669, 0.906, 0.836, 0.515], 0.8577935222672064),
    (79, [0.402, 0.211, 0.309, 0.34500000000000003, 0.509, 0.40800000000000003, 0.669, 0.906, 0.836, 0.515], 0.8577935222672064),
    (80, [0.402, 0.211, 0.309, 0.34500000000000003, 0.509, 0.40800000000000003, 0.669, 0.906, 0.836, 0.515], 0.8577935222672064),
    (81, [0.402, 0.211, 0.309, 0.34500000000000003, 0.509, 0.40800000000000003, 0.669, 0.906, 0.836, 0.515], 0.8577935222672064),
    (82, [0.402, 0.211, 0.309, 0.34500000000000003, 0.509, 0.40800000000000003, 0.669, 0.906, 0.836, 0.515], 0.8577935222672064),
    (83, [0.402, 0.211, 0.309, 0.34500000000000003, 0.509, 0.40800000000000003, 0.669, 0.906, 0.836, 0.515], 0.8577935222672064),
    (84, [0.402, 0.211, 0.309, 0.34500000000000003, 0.509, 0.40800000000000003, 0.669, 0.906, 0.836, 0.515], 0.8577935222672064),
    (85, [0.402, 0.211, 0.309, 0.34500000000000003, 0.509, 0.40800000000000003, 0.669, 0.906, 0.836, 0.515], 0.8577935222672064),
    (86, [0.402, 0.211, 0.309, 0.34500000000000003, 0.509, 0.40800000000000003, 0.669, 0.906, 0.836, 0.515], 0.8577935222672064),
    (87, [0.402, 0.211, 0.309, 0.34500000000000003, 0.509, 0.40800000000000003, 0.669, 0.906, 0.836, 0.515], 0.8577935222672064),
    (88, [0.402, 0.211, 0.309, 0.34500000000000003, 0.509, 0.40800000000000003, 0.669, 0.906, 0.836, 0.515], 0.8577935222672064),
    (89, [0.402, 0.211, 0.309, 0.34500000000000003, 0.509, 0.40800000000000003, 0.669, 0.906, 0.836, 0.515], 0.8577935222672064),
    (90, [0.402, 0.211, 0.309, 0.34500000000000003, 0.509, 0.40800000000000003, 0.669, 0.906, 0.836, 0.515], 0.8577935222672064),
    (91, [0.402, 0.211, 0.309, 0.34500000000000003, 0.509, 0.40800000000000003, 0.669, 0.906, 0.836, 0.515], 0.8577935222672064),
    (92, [0.402, 0.211, 0.309, 0.34500000000000003, 0.509, 0.40800000000000003, 0.669, 0.906, 0.836, 0.515], 0.8577935222672064),
    (93, [0.402, 0.211, 0.309, 0.34500000000000003, 0.509, 0.40800000000000003, 0.669, 0.906, 0.836, 0.515], 0.8577935222672064),
    (94, [0.402, 0.211, 0.309, 0.34500000000000003, 0.509, 0.40800000000000003, 0.669, 0.906, 0.836, 0.515], 0.8577935222672064),
    (95, [0.402, 0.211, 0.309, 0.34500000000000003, 0.509, 0.40800000000000003, 0.669, 0.906, 0.836, 0.515], 0.8577935222672064),
    (96, [0.402, 0.211, 0.309, 0.34500000000000003, 0.509, 0.40800000000000003, 0.669, 0.906, 0.836, 0.515], 0.8577935222672064),
    (97, [0.402, 0.211, 0.309, 0.34500000000000003, 0.509, 0.40800000000000003, 0.669, 0.906, 0.836, 0.515], 0.8577935222672064),
    (98, [0.402, 0.211, 0.309, 0.34500000000000003, 0.509, 0.40800000000000003, 0.669, 0.906, 0.836, 0.515], 0.8577935222672064),
    (99, [0.402, 0.211, 0.309, 0.34500000000000003, 0.509, 0.40800000000000003, 0.669, 0.906, 0.836, 0.515], 0.8577935222672064),
    (100, [0.402, 0.211, 0.309, 0.34500000000000003, 0.509, 0.40800000000000003, 0.669, 0.906, 0.836, 0.515], 0.8577935222672064),
    (101, [0.402, 0.211, 0.309, 0.34500000000000003, 0.509, 0.40800000000000003, 0.669, 0.906, 0.836, 0.515], 0.8577935222672064),
    (102, [0.402, 0.211, 0.309, 0.34500000000000003, 0.509, 0.40800000000000003, 0.669, 0.906, 0.836, 0.515], 0.8577935222672064),
    (103, [0.402, 0.211, 0.309, 0.34500000000000003, 0.509, 0.40800000000000003, 0.669, 0.906, 0.836, 0.515], 0.8577935222672064),
    (104, [0.402, 0.211, 0.309, 0.34500000000000003, 0.509, 0.40800000000000003, 0.669, 0.906, 0.836, 0.515], 0.8577935222672064),
    (105, [0.402, 0.211, 0.309, 0.34500000000000003, 0.509, 0.40800000000000003, 0.669, 0.906, 0.836, 0.515], 0.8577935222672064),
    (106, [0.402, 0.211, 0.309, 0.34500000000000003, 0.509, 0.40800000000000003, 0.669, 0.906, 0.836, 0.515], 0.8577935222672064),
    (107, [0.402, 0.211, 0.309, 0.34500000000000003, 0.509, 0.40800000000000003, 0.669, 0.906, 0.836, 0.515], 0.8577935222672064),
    (108, [0.402, 0.211, 0.309, 0.34500000000000003, 0.509, 0.40800000000000003, 0.669, 0.906, 0.836, 0.515], 0.8577935222672064),
    (109, [0.402, 0.211, 0.309, 0.34500000000000003, 0.509, 0.40800000000000003, 0.669, 0.906, 0.836, 0.515], 0.8577935222672064),
    (110, [0.402, 0.211, 0.309, 0.34500000000000003, 0.509, 0.40800000000000003, 0.669, 0.906, 0.836, 0.515], 0.8577935222672064),
    (111, [0.402, 0.211, 0.309, 0.34500000000000003, 0.509, 0.40800000000000003, 0.669, 0.906, 0.836, 0.515], 0.8577935222672064),
    (112, [0.402, 0.211, 0.309, 0.34500000000000003, 0.509, 0.40800000000000003, 0.669, 0.906, 0.836, 0.515], 0.8577935222672064),
    (113, [0.402, 0.211, 0.309, 0.34500000000000003, 0.509, 0.40800000000000003, 0.669, 0.906, 0.836, 0.515], 0.8577935222672064),
    (114, [0.402, 0.211, 0.309, 0.34500000000000003, 0.509, 0.40800000000000003, 0.669, 0.906, 0.836, 0.515], 0.8577935222672064),
    (115, [0.402, 0.211, 0.309, 0.34500000000000003, 0.509, 0.40800000000000003, 0.669, 0.906, 0.836, 0.515], 0.8577935222672064),
    (116, [0.402, 0.211, 0.309, 0.34500000000000003, 0.509, 0.40800000000000003, 0.669, 0.906, 0.836, 0.515], 0.8577935222672064),
    (117, [0.402, 0.211, 0.309, 0.34500000000000003, 0.509, 0.40800000000000003, 0.669, 0.906, 0.836, 0.515], 0.8577935222672064),
    (118, [0.402, 0.211, 0.309, 0.34500000000000003, 0.509, 0.40800000000000003, 0.669, 0.906, 0.836, 0.515], 0.8577935222672064),
    (119, [0.402, 0.211, 0.309, 0.34500000000000003, 0.509, 0.40800000000000003, 0.669, 0.906, 0.836, 0.515], 0.8577935222672064),
    (120, [0.402, 0.211, 0.309, 0.34500000000000003, 0.509, 0.40800000000000003, 0.669, 0.906, 0.836, 0.515], 0.8577935222672064),
    (121, [0.402, 0.211, 0.309, 0.34500000000000003, 0.509, 0.40800000000000003, 0.669, 0.906, 0.836, 0.515], 0.8577935222672064),
    (122, [0.402, 0.211, 0.309, 0.34500000000000003, 0.509, 0.40800000000000003, 0.669, 0.906, 0.836, 0.515], 0.8577935222672064),
    (123, [0.402, 0.211, 0.309, 0.34500000000000003, 0.509, 0.40800000000000003, 0.669, 0.906, 0.836, 0.515], 0.8577935222672064),
    (124, [0.402, 0.211, 0.309, 0.34500000000000003, 0.509, 0.40800000000000003, 0.669, 0.906, 0.836, 0.515], 0.8577935222672064),
    (125, [0.402, 0.211, 0.309, 0.34500000000000003, 0.509, 0.40800000000000003, 0.669, 0.906, 0.836, 0.515], 0.8577935222672064),
    (126, [0.402, 0.211, 0.309, 0.34500000000000003, 0.509, 0.40800000000000003, 0.669, 0.906, 0.836, 0.515], 0.8577935222672064),
    (127, [0.402, 0.211, 0.309, 0.34500000000000003, 0.509, 0.40800000000000003, 0.669, 0.906, 0.836, 0.515], 0.8577935222672064),
    (128, [0.402, 0.211, 0.309, 0.34500000000000003, 0.509, 0.40800000000000003, 0.669, 0.906, 0.836, 0.515], 0.8577935222672064),
    (129, [0.402, 0.211, 0.309, 0.34500000000000003, 0.509, 0.40800000000000003, 0.669, 0.906, 0.836, 0.515], 0.8577935222672064),
    (130, [0.402, 0.211, 0.309, 0.34500000000000003, 0.509, 0.40800000000000003, 0.669, 0.906, 0.836, 0.515], 0.8577935222672064),
    (131, [0.402, 0.211, 0.309, 0.34500000000000003, 0.509, 0.40800000000000003, 0.669, 0.906, 0.836, 0.515], 0.8577935222672064),
    (132, [0.402, 0.211, 0.309, 0.34500000000000003, 0.509, 0.40800000000000003, 0.669, 0.906, 0.836, 0.515], 0.8577935222672064),
    (133, [0.402, 0.211, 0.309, 0.34500000000000003, 0.509, 0.40800000000000003, 0.669, 0.906, 0.836, 0.515], 0.8577935222672064),
    (134, [0.402, 0.211, 0.309, 0.34500000000000003, 0.509, 0.40800000000000003, 0.669, 0.906, 0.836, 0.515], 0.8577935222672064),
    (135, [0.402, 0.211, 0.309, 0.34500000000000003, 0.509, 0.40800000000000003, 0.669, 0.906, 0.836, 0.515], 0.8577935222672064),
    (136, [0.402, 0.211, 0.309, 0.34500000000000003, 0.509, 0.40800000000000003, 0.669, 0.906, 0.836, 0.515], 0.8577935222672064),
    (137, [0.402, 0.211, 0.309, 0.34500000000000003, 0.509, 0.40800000000000003, 0.669, 0.906, 0.836, 0.515], 0.8577935222672064),
    (138, [0.402, 0.211, 0.309, 0.34500000000000003, 0.509, 0.40800000000000003, 0.669, 0.906, 0.836, 0.515], 0.8577935222672064),
    (139, [0.402, 0.211, 0.309, 0.34500000000000003, 0.509, 0.40800000000000003, 0.669, 0.906, 0.836, 0.515], 0.8577935222672064),
    (140, [0.402, 0.211, 0.309, 0.34500000000000003, 0.509, 0.40800000000000003, 0.669, 0.906, 0.836, 0.515], 0.8577935222672064),
    (141, [0.402, 0.211, 0.309, 0.34500000000000003, 0.509, 0.40800000000000003, 0.669, 0.906, 0.836, 0.515], 0.8577935222672064),
    (142, [0.402, 0.211, 0.309, 0.34500000000000003, 0.509, 0.40800000000000003, 0.669, 0.906, 0.836, 0.515], 0.8577935222672064),
    (143, [0.402, 0.211, 0.309, 0.34500000000000003, 0.509, 0.40800000000000003, 0.669, 0.906, 0.836, 0.515], 0.8577935222672064),
    (144, [0.402, 0.211, 0.309, 0.34500000000000003, 0.509, 0.40800000000000003, 0.669, 0.906, 0.836, 0.515], 0.8577935222672064),
    (145, [0.402, 0.211, 0.309, 0.34500000000000003, 0.509, 0.40800000000000003, 0.669, 0.906, 0.836, 0.515], 0.8577935222672064),
    (146, [0.402, 0.211, 0.309, 0.34500000000000003, 0.509, 0.40800000000000003, 0.669, 0.906, 0.836, 0.515], 0.8577935222672064),
    (147, [0.402, 0.211, 0.309, 0.34500000000000003, 0.509, 0.40800000000000003, 0.669, 0.906, 0.836, 0.515], 0.8577935222672064),
    (148, [0.402, 0.211, 0.309, 0.34500000000000003, 0.509, 0.40800000000000003, 0.669, 0.906, 0.836, 0.515], 0.8577935222672064),
    (149, [0.402, 0.211, 0.309, 0.34500000000000003, 0.509, 0.40800000000000003, 0.669, 0.906, 0.836, 0.515], 0.8577935222672064),
    (150, [0.402, 0.211, 0.309, 0.34500000000000003, 0.509, 0.40800000000000003, 0.669, 0.906, 0.836, 0.515], 0.8577935222672064),
    (151, [0.402, 0.211, 0.309, 0.34500000000000003, 0.509, 0.40800000000000003, 0.669, 0.906, 0.836, 0.515], 0.8577935222672064),
    (152, [0.402, 0.211, 0.309, 0.34500000000000003, 0.509, 0.40800000000000003, 0.669, 0.906, 0.836, 0.515], 0.8577935222672064),
    (153, [0.402, 0.211, 0.309, 0.34500000000000003, 0.509, 0.40800000000000003, 0.669, 0.906, 0.836, 0.515], 0.8577935222672064),
    (154, [0.402, 0.211, 0.309, 0.34500000000000003, 0.509, 0.40800000000000003, 0.669, 0.906, 0.836, 0.515], 0.8577935222672064),
    (155, [0.402, 0.211, 0.309, 0.34500000000000003, 0.509, 0.40800000000000003, 0.669, 0.906, 0.836, 0.515], 0.8577935222672064),
    (156, [0.402, 0.211, 0.309, 0.34500000000000003, 0.509, 0.40800000000000003, 0.669, 0.906, 0.836, 0.515], 0.8577935222672064),
    (157, [0.402, 0.211, 0.309, 0.34500000000000003, 0.509, 0.40800000000000003, 0.669, 0.906, 0.836, 0.515], 0.8577935222672064),
    (158, [0.402, 0.211, 0.309, 0.34500000000000003, 0.509, 0.40800000000000003, 0.669, 0.906, 0.836, 0.515], 0.8577935222672064),
    (159, [0.402, 0.211, 0.309, 0.34500000000000003, 0.509, 0.40800000000000003, 0.669, 0.906, 0.836, 0.515], 0.8577935222672064),
    (160, [0.402, 0.211, 0.309, 0.34500000000000003, 0.509, 0.40800000000000003, 0.669, 0.906, 0.836, 0.515], 0.8577935222672064),
    (161, [0.402, 0.211, 0.309, 0.34500000000000003, 0.509, 0.40800000000000003, 0.669, 0.906, 0.836, 0.515], 0.8577935222672064),
    (162, [0.402, 0.211, 0.309, 0.34500000000000003, 0.509, 0.40800000000000003, 0.669, 0.906, 0.836, 0.515], 0.8577935222672064),
    (163, [0.402, 0.211, 0.309, 0.34500000000000003, 0.509, 0.40800000000000003, 0.669, 0.906, 0.836, 0.515], 0.8577935222672064),
    (164, [0.402, 0.211, 0.309, 0.34500000000000003, 0.509, 0.40800000000000003, 0.669, 0.906, 0.836, 0.515], 0.8577935222672064),
    (165, [0.402, 0.211, 0.309, 0.34500000000000003, 0.509, 0.40800000000000003, 0.669, 0.906, 0.836, 0.515], 0.8577935222672064),
    (166, [0.402, 0.211, 0.309, 0.34500000000000003, 0.509, 0.40800000000000003, 0.669, 0.906, 0.836, 0.515], 0.8577935222672064),
    (167, [0.402, 0.211, 0.309, 0.34500000000000003, 0.509, 0.40800000000000003, 0.669, 0.906, 0.836, 0.515], 0.8577935222672064),
    (168, [0.402, 0.211, 0.309, 0.34500000000000003, 0.509, 0.40800000000000003, 0.669, 0.906, 0.836, 0.515], 0.8577935222672064),
    (169, [0.402, 0.211, 0.309, 0.34500000000000003, 0.509, 0.40800000000000003, 0.669, 0.906, 0.836, 0.515], 0.8577935222672064),
    (170, [0.402, 0.211, 0.309, 0.34500000000000003, 0.509, 0.40800000000000003, 0.669, 0.906, 0.836, 0.515], 0.8577935222672064),
    (171, [0.402, 0.211, 0.309, 0.34500000000000003, 0.509, 0.40800000000000003, 0.669, 0.906, 0.836, 0.515], 0.8577935222672064),
    (172, [0.402, 0.211, 0.309, 0.34500000000000003, 0.509, 0.40800000000000003, 0.669, 0.906, 0.836, 0.515], 0.8577935222672064),
    (173, [0.402, 0.211, 0.309, 0.34500000000000003, 0.509, 0.40800000000000003, 0.669, 0.906, 0.836, 0.515], 0.8577935222672064),
    (174, [0.402, 0.211, 0.309, 0.34500000000000003, 0.509, 0.40800000000000003, 0.669, 0.906, 0.836, 0.515], 0.8577935222672064),
    (175, [0.402, 0.211, 0.309, 0.34500000000000003, 0.509, 0.40800000000000003, 0.669, 0.906, 0.836, 0.515], 0.8577935222672064),
    (176, [0.402, 0.211, 0.309, 0.34500000000000003, 0.509, 0.40800000000000003, 0.669, 0.906, 0.836, 0.515], 0.8577935222672064),
    (177, [0.402, 0.211, 0.309, 0.34500000000000003, 0.509, 0.40800000000000003, 0.669, 0.906, 0.836, 0.515], 0.8577935222672064),
    (178, [0.402, 0.211, 0.309, 0.34500000000000003, 0.509, 0.40800000000000003, 0.669, 0.906, 0.836, 0.515], 0.8577935222672064),
    (179, [0.402, 0.211, 0.309, 0.34500000000000003, 0.509, 0.40800000000000003, 0.669, 0.906, 0.836, 0.515], 0.8577935222672064),
    (180, [0.402, 0.211, 0.309, 0.34500000000000003, 0.509, 0.40800000000000003, 0.669, 0.906, 0.836, 0.515], 0.8577935222672064),
    (181, [0.402, 0.211, 0.309, 0.34500000000000003, 0.509, 0.40800000000000003, 0.669, 0.906, 0.836, 0.515], 0.8577935222672064),
    (182, [0.402, 0.211, 0.309, 0.34500000000000003, 0.509, 0.40800000000000003, 0.669, 0.906, 0.836, 0.515], 0.8577935222672064),
    (183, [0.402, 0.211, 0.309, 0.34500000000000003, 0.509, 0.40800000000000003, 0.669, 0.906, 0.836, 0.515], 0.8577935222672064),
    (184, [0.402, 0.211, 0.309, 0.34500000000000003, 0.509, 0.40800000000000003, 0.669, 0.906, 0.836, 0.515], 0.8577935222672064),
    (185, [0.402, 0.211, 0.309, 0.34500000000000003, 0.509, 0.40800000000000003, 0.669, 0.906, 0.836, 0.515], 0.8577935222672064),
    (186, [0.402, 0.211, 0.309, 0.34500000000000003, 0.509, 0.40800000000000003, 0.669, 0.906, 0.836, 0.515], 0.8577935222672064),
    (187, [0.402, 0.211, 0.309, 0.34500000000000003, 0.509, 0.40800000000000003, 0.669, 0.906, 0.836, 0.515], 0.8577935222672064),
    (188, [0.402, 0.211, 0.309, 0.34500000000000003, 0.509, 0.40800000000000003, 0.669, 0.906, 0.836, 0.515], 0.8577935222672064),
    (189, [0.402, 0.211, 0.309, 0.34500000000000003, 0.509, 0.40800000000000003, 0.669, 0.906, 0.836, 0.515], 0.8577935222672064),
    (190, [0.402, 0.211, 0.309, 0.34500000000000003, 0.509, 0.40800000000000003, 0.669, 0.906, 0.836, 0.515], 0.8577935222672064),
    (191, [0.402, 0.211, 0.309, 0.34500000000000003, 0.509, 0.40800000000000003, 0.669, 0.906, 0.836, 0.515], 0.8577935222672064),
    (192, [0.402, 0.211, 0.309, 0.34500000000000003, 0.509, 0.40800000000000003, 0.669, 0.906, 0.836, 0.515], 0.8577935222672064),
    (193, [0.402, 0.211, 0.309, 0.34500000000000003, 0.509, 0.40800000000000003, 0.669, 0.906, 0.836, 0.515], 0.8577935222672064),
    (194, [0.402, 0.211, 0.309, 0.34500000000000003, 0.509, 0.40800000000000003, 0.669, 0.906, 0.836, 0.515], 0.8577935222672064),
    (195, [0.402, 0.211, 0.309, 0.34500000000000003, 0.509, 0.40800000000000003, 0.669, 0.906, 0.836, 0.515], 0.8577935222672064),
    (196, [0.402, 0.211, 0.309, 0.34500000000000003, 0.509, 0.40800000000000003, 0.669, 0.906, 0.836, 0.515], 0.8577935222672064),
    (197, [0.402, 0.211, 0.309, 0.34500000000000003, 0.509, 0.40800000000000003, 0.669, 0.906, 0.836, 0.515], 0.8577935222672064),
    (198, [0.402, 0.211, 0.309, 0.34500000000000003, 0.509, 0.40800000000000003, 0.669, 0.906, 0.836, 0.515], 0.8577935222672064),
    (199, [0.402, 0.211, 0.309, 0.34500000000000003, 0.509, 0.40800000000000003, 0.669, 0.906, 0.836, 0.515], 0.8577935222672064),
    (200, [0.402, 0.211, 0.309, 0.34500000000000003, 0.509, 0.40800000000000003, 0.669, 0.906, 0.836, 0.515], 0.8577935222672064),
    (201, [0.402, 0.211, 0.309, 0.34500000000000003, 0.509, 0.40800000000000003, 0.669, 0.906, 0.836, 0.515], 0.8577935222672064),
    (202, [0.402, 0.211, 0.309, 0.34500000000000003, 0.509, 0.40800000000000003, 0.669, 0.906, 0.836, 0.515], 0.8577935222672064),
    (203, [0.402, 0.211, 0.309, 0.34500000000000003, 0.509, 0.40800000000000003, 0.669, 0.906, 0.836, 0.515], 0.8577935222672064),
    (204, [0.402, 0.211, 0.309, 0.34500000000000003, 0.509, 0.40800000000000003, 0.669, 0.906, 0.836, 0.515], 0.8577935222672064),
    (205, [0.402, 0.211, 0.309, 0.34500000000000003, 0.509, 0.40800000000000003, 0.669, 0.906, 0.836, 0.515], 0.8577935222672064),
    (206, [0.402, 0.211, 0.309, 0.34500000000000003, 0.509, 0.40800000000000003, 0.669, 0.906, 0.836, 0.515], 0.8577935222672064),
    (207, [0.402, 0.211, 0.309, 0.34500000000000003, 0.509, 0.40800000000000003, 0.669, 0.906, 0.836, 0.515], 0.8577935222672064),
    (208, [0.402, 0.211, 0.309, 0.34500000000000003, 0.509, 0.40800000000000003, 0.669, 0.906, 0.836, 0.515], 0.8577935222672064),
    (209, [0.402, 0.211, 0.309, 0.34500000000000003, 0.509, 0.40800000000000003, 0.669, 0.906, 0.836, 0.515], 0.8577935222672064),
    (210, [0.402, 0.211, 0.309, 0.34500000000000003, 0.509, 0.40800000000000003, 0.669, 0.906, 0.836, 0.515], 0.8577935222672064),
    (211, [0.402, 0.211, 0.309, 0.34500000000000003, 0.509, 0.40800000000000003, 0.669, 0.906, 0.836, 0.515], 0.8577935222672064),
    (212, [0.402, 0.211, 0.309, 0.34500000000000003, 0.509, 0.40800000000000003, 0.669, 0.906, 0.836, 0.515], 0.8577935222672064),
    (213, [0.402, 0.211, 0.309, 0.34500000000000003, 0.509, 0.40800000000000003, 0.669, 0.906, 0.836, 0.515], 0.8577935222672064),
    (214, [0.402, 0.211, 0.309, 0.34500000000000003, 0.509, 0.40800000000000003, 0.669, 0.906, 0.836, 0.515], 0.8577935222672064),
    (215, [0.402, 0.211, 0.309, 0.34500000000000003, 0.509, 0.40800000000000003, 0.669, 0.906, 0.836, 0.515], 0.8577935222672064),
    (216, [0.402, 0.211, 0.309, 0.34500000000000003, 0.509, 0.40800000000000003, 0.669, 0.906, 0.836, 0.515], 0.8577935222672064),
    (217, [0.402, 0.211, 0.309, 0.34500000000000003, 0.509, 0.40800000000000003, 0.669, 0.906, 0.836, 0.515], 0.8577935222672064),
    (218, [0.402, 0.211, 0.309, 0.34500000000000003, 0.509, 0.40800000000000003, 0.669, 0.906, 0.836, 0.515], 0.8577935222672064),
    (219, [0.402, 0.211, 0.309, 0.34500000000000003, 0.509, 0.40800000000000003, 0.669, 0.906, 0.836, 0.515], 0.8577935222672064),
    (220, [0.402, 0.211, 0.309, 0.34500000000000003, 0.509, 0.40800000000000003, 0.669, 0.906, 0.836, 0.515], 0.8577935222672064),
    (221, [0.402, 0.211, 0.309, 0.34500000000000003, 0.509, 0.40800000000000003, 0.669, 0.906, 0.836, 0.515], 0.8577935222672064),
    (222, [0.402, 0.211, 0.309, 0.34500000000000003, 0.509, 0.40800000000000003, 0.669, 0.906, 0.836, 0.515], 0.8577935222672064),
    (223, [0.402, 0.211, 0.309, 0.34500000000000003, 0.509, 0.40800000000000003, 0.669, 0.906, 0.836, 0.515], 0.8577935222672064),
    (224, [0.402, 0.211, 0.309, 0.34500000000000003, 0.509, 0.40800000000000003, 0.669, 0.906, 0.836, 0.515], 0.8577935222672064),
    (225, [0.402, 0.211, 0.309, 0.34500000000000003, 0.509, 0.40800000000000003, 0.669, 0.906, 0.836, 0.515], 0.8577935222672064),
    (226, [0.402, 0.211, 0.309, 0.34500000000000003, 0.509, 0.40800000000000003, 0.669, 0.906, 0.836, 0.515], 0.8577935222672064),
    (227, [0.402, 0.211, 0.309, 0.34500000000000003, 0.509, 0.40800000000000003, 0.669, 0.906, 0.836, 0.515], 0.8577935222672064),
    (228, [0.402, 0.211, 0.309, 0.34500000000000003, 0.509, 0.40800000000000003, 0.669, 0.906, 0.836, 0.515], 0.8577935222672064),
    (229, [0.402, 0.211, 0.309, 0.34500000000000003, 0.509, 0.40800000000000003, 0.669, 0.906, 0.836, 0.515], 0.8577935222672064),
    (230, [0.402, 0.211, 0.309, 0.34500000000000003, 0.509, 0.40800000000000003, 0.669, 0.906, 0.836, 0.515], 0.8577935222672064),
    (231, [0.402, 0.211, 0.309, 0.34500000000000003, 0.509, 0.40800000000000003, 0.669, 0.906, 0.836, 0.515], 0.8577935222672064),
    (232, [0.402, 0.211, 0.309, 0.34500000000000003, 0.509, 0.40800000000000003, 0.669, 0.906, 0.836, 0.515], 0.8577935222672064),
    (233, [0.402, 0.211, 0.309, 0.34500000000000003, 0.509, 0.40800000000000003, 0.669, 0.906, 0.836, 0.515], 0.8577935222672064),
    (234, [0.402, 0.211, 0.309, 0.34500000000000003, 0.509, 0.40800000000000003, 0.669, 0.906, 0.836, 0.515], 0.8577935222672064),
    (235, [0.402, 0.211, 0.309, 0.34500000000000003, 0.509, 0.40800000000000003, 0.669, 0.906, 0.836, 0.515], 0.8577935222672064),
    (236, [0.402, 0.211, 0.309, 0.34500000000000003, 0.509, 0.40800000000000003, 0.669, 0.906, 0.836, 0.515], 0.8577935222672064),
    (237, [0.402, 0.211, 0.309, 0.34500000000000003, 0.509, 0.40800000000000003, 0.669, 0.906, 0.836, 0.515], 0.8577935222672064),
    (238, [0.402, 0.211, 0.309, 0.34500000000000003, 0.509, 0.40800000000000003, 0.669, 0.906, 0.836, 0.515], 0.8577935222672064),
    (239, [0.402, 0.211, 0.309, 0.34500000000000003, 0.509, 0.40800000000000003, 0.669, 0.906, 0.836, 0.515], 0.8577935222672064),
    (240, [0.402, 0.211, 0.309, 0.34500000000000003, 0.509, 0.40800000000000003, 0.669, 0.906, 0.836, 0.515], 0.8577935222672064),
    (241, [0.402, 0.211, 0.309, 0.34500000000000003, 0.509, 0.40800000000000003, 0.669, 0.906, 0.836, 0.515], 0.8577935222672064),
    (242, [0.402, 0.211, 0.309, 0.34500000000000003, 0.509, 0.40800000000000003, 0.669, 0.906, 0.836, 0.515], 0.8577935222672064),
    (243, [0.402, 0.211, 0.309, 0.34500000000000003, 0.509, 0.40800000000000003, 0.669, 0.906, 0.836, 0.515], 0.8577935222672064),
    (244, [0.402, 0.211, 0.309, 0.34500000000000003, 0.509, 0.40800000000000003, 0.669, 0.906, 0.836, 0.515], 0.8577935222672064),
    (245, [0.402, 0.211, 0.309, 0.34500000000000003, 0.509, 0.40800000000000003, 0.669, 0.906, 0.836, 0.515], 0.8577935222672064),
    (246, [0.402, 0.211, 0.309, 0.34500000000000003, 0.509, 0.40800000000000003, 0.669, 0.906, 0.836, 0.515], 0.8577935222672064),
    (247, [0.402, 0.211, 0.309, 0.34500000000000003, 0.509, 0.40800000000000003, 0.669, 0.906, 0.836, 0.515], 0.8577935222672064),
    (248, [0.402, 0.211, 0.309, 0.34500000000000003, 0.509, 0.40800000000000003, 0.669, 0.906, 0.836, 0.515], 0.8577935222672064),
    (249, [0.402, 0.211, 0.309, 0.34500000000000003, 0.509, 0.40800000000000003, 0.669, 0.906, 0.836, 0.515], 0.8577935222672064),
    (250, [0.402, 0.211, 0.309, 0.34500000000000003, 0.509, 0.40800000000000003, 0.669, 0.906, 0.836, 0.515], 0.8577935222672064),
    (251, [0.402, 0.211, 0.309, 0.34500000000000003, 0.509, 0.40800000000000003, 0.669, 0.906, 0.836, 0.515], 0.8577935222672064),
    (252, [0.402, 0.211, 0.309, 0.34500000000000003, 0.509, 0.40800000000000003, 0.669, 0.906, 0.836, 0.515], 0.8577935222672064),
    (253, [0.402, 0.211, 0.309, 0.34500000000000003, 0.509, 0.40800000000000003, 0.669, 0.906, 0.836, 0.515], 0.8577935222672064),
    (254, [0.402, 0.211, 0.309, 0.34500000000000003, 0.509, 0.40800000000000003, 0.669, 0.906, 0.836, 0.515], 0.8577935222672064),
    (255, [0.402, 0.211, 0.309, 0.34500000000000003, 0.509, 0.40800000000000003, 0.669, 0.906, 0.836, 0.515], 0.8577935222672064),
    (256, [0.402, 0.211, 0.309, 0.34500000000000003, 0.509, 0.40800000000000003, 0.669, 0.906, 0.836, 0.515], 0.8577935222672064),
    (257, [0.402, 0.211, 0.309, 0.34500000000000003, 0.509, 0.40800000000000003, 0.669, 0.906, 0.836, 0.515], 0.8577935222672064),
    (258, [0.402, 0.211, 0.309, 0.34500000000000003, 0.509, 0.40800000000000003, 0.669, 0.906, 0.836, 0.515], 0.8577935222672064),
    (259, [0.402, 0.211, 0.309, 0.34500000000000003, 0.509, 0.40800000000000003, 0.669, 0.906, 0.836, 0.515], 0.8577935222672064),
    (260, [0.402, 0.211, 0.309, 0.34500000000000003, 0.509, 0.40800000000000003, 0.669, 0.906, 0.836, 0.515], 0.8577935222672064),
    (261, [0.402, 0.211, 0.309, 0.34500000000000003, 0.509, 0.40800000000000003, 0.669, 0.906, 0.836, 0.515], 0.8577935222672064),
    (262, [0.402, 0.211, 0.309, 0.34500000000000003, 0.509, 0.40800000000000003, 0.669, 0.906, 0.836, 0.515], 0.8577935222672064),
    (263, [0.402, 0.211, 0.309, 0.34500000000000003, 0.509, 0.40800000000000003, 0.669, 0.906, 0.836, 0.515], 0.8577935222672064),
    (264, [0.402, 0.211, 0.309, 0.34500000000000003, 0.509, 0.40800000000000003, 0.669, 0.906, 0.836, 0.515], 0.8577935222672064),
    (265, [0.402, 0.211, 0.309, 0.34500000000000003, 0.509, 0.40800000000000003, 0.669, 0.906, 0.836, 0.515], 0.8577935222672064),
    (266, [0.402, 0.211, 0.309, 0.34500000000000003, 0.509, 0.40800000000000003, 0.669, 0.906, 0.836, 0.515], 0.8577935222672064),
    (267, [0.402, 0.211, 0.309, 0.34500000000000003, 0.509, 0.40800000000000003, 0.669, 0.906, 0.836, 0.515], 0.8577935222672064),
    (268, [0.402, 0.211, 0.309, 0.34500000000000003, 0.509, 0.40800000000000003, 0.669, 0.906, 0.836, 0.515], 0.8577935222672064),
    (269, [0.402, 0.211, 0.309, 0.34500000000000003, 0.509, 0.40800000000000003, 0.669, 0.906, 0.836, 0.515], 0.8577935222672064),
    (270, [0.402, 0.211, 0.309, 0.34500000000000003, 0.509, 0.40800000000000003, 0.669, 0.906, 0.836, 0.515], 0.8577935222672064),
    (271, [0.402, 0.211, 0.309, 0.34500000000000003, 0.509, 0.40800000000000003, 0.669, 0.906, 0.836, 0.515], 0.8577935222672064),
    (272, [0.402, 0.211, 0.309, 0.34500000000000003, 0.509, 0.40800000000000003, 0.669, 0.906, 0.836, 0.515], 0.8577935222672064),
    (273, [0.402, 0.211, 0.309, 0.34500000000000003, 0.509, 0.40800000000000003, 0.669, 0.906, 0.836, 0.515], 0.8577935222672064),
    (274, [0.402, 0.211, 0.309, 0.34500000000000003, 0.509, 0.40800000000000003, 0.669, 0.906, 0.836, 0.515], 0.8577935222672064),
    (275, [0.402, 0.211, 0.309, 0.34500000000000003, 0.509, 0.40800000000000003, 0.669, 0.906, 0.836, 0.515], 0.8577935222672064),
    (276, [0.402, 0.211, 0.309, 0.34500000000000003, 0.509, 0.40800000000000003, 0.669, 0.906, 0.836, 0.515], 0.8577935222672064),
    (277, [0.402, 0.211, 0.309, 0.34500000000000003, 0.509, 0.40800000000000003, 0.669, 0.906, 0.836, 0.515], 0.8577935222672064),
    (278, [0.402, 0.211, 0.309, 0.34500000000000003, 0.509, 0.40800000000000003, 0.669, 0.906, 0.836, 0.515], 0.8577935222672064),
    (279, [0.402, 0.211, 0.309, 0.34500000000000003, 0.509, 0.40800000000000003, 0.669, 0.906, 0.836, 0.515], 0.8577935222672064),
    (280, [0.402, 0.211, 0.309, 0.34500000000000003, 0.509, 0.40800000000000003, 0.669, 0.906, 0.836, 0.515], 0.8577935222672064),
    (281, [0.402, 0.211, 0.309, 0.34500000000000003, 0.509, 0.40800000000000003, 0.669, 0.906, 0.836, 0.515], 0.8577935222672064),
    (282, [0.402, 0.211, 0.309, 0.34500000000000003, 0.509, 0.40800000000000003, 0.669, 0.906, 0.836, 0.515], 0.8577935222672064),
    (283, [0.402, 0.211, 0.309, 0.34500000000000003, 0.509, 0.40800000000000003, 0.669, 0.906, 0.836, 0.515], 0.8577935222672064),
    (284, [0.402, 0.211, 0.309, 0.34500000000000003, 0.509, 0.40800000000000003, 0.669, 0.906, 0.836, 0.515], 0.8577935222672064),
    (285, [0.402, 0.211, 0.309, 0.34500000000000003, 0.509, 0.40800000000000003, 0.669, 0.906, 0.836, 0.515], 0.8577935222672064),
    (286, [0.402, 0.211, 0.309, 0.34500000000000003, 0.509, 0.40800000000000003, 0.669, 0.906, 0.836, 0.515], 0.8577935222672064),
    (287, [0.402, 0.211, 0.309, 0.34500000000000003, 0.509, 0.40800000000000003, 0.669, 0.906, 0.836, 0.515], 0.8577935222672064),
    (288, [0.402, 0.211, 0.309, 0.34500000000000003, 0.509, 0.40800000000000003, 0.669, 0.906, 0.836, 0.515], 0.8577935222672064),
    (289, [0.402, 0.211, 0.309, 0.34500000000000003, 0.509, 0.40800000000000003, 0.669, 0.906, 0.836, 0.515], 0.8577935222672064),
    (290, [0.402, 0.211, 0.309, 0.34500000000000003, 0.509, 0.40800000000000003, 0.669, 0.906, 0.836, 0.515], 0.8577935222672064),
    (291, [0.402, 0.211, 0.309, 0.34500000000000003, 0.509, 0.40800000000000003, 0.669, 0.906, 0.836, 0.515], 0.8577935222672064),
    (292, [0.402, 0.211, 0.309, 0.34500000000000003, 0.509, 0.40800000000000003, 0.669, 0.906, 0.836, 0.515], 0.8577935222672064),
    (293, [0.402, 0.211, 0.309, 0.34500000000000003, 0.509, 0.40800000000000003, 0.669, 0.906, 0.836, 0.515], 0.8577935222672064),
    (294, [0.402, 0.211, 0.309, 0.34500000000000003, 0.509, 0.40800000000000003, 0.669, 0.906, 0.836, 0.515], 0.8577935222672064),
    (295, [0.402, 0.211, 0.309, 0.34500000000000003, 0.509, 0.40800000000000003, 0.669, 0.906, 0.836, 0.515], 0.8577935222672064),
    (296, [0.402, 0.211, 0.309, 0.34500000000000003, 0.509, 0.40800000000000003, 0.669, 0.906, 0.836, 0.515], 0.8577935222672064),
    (297, [0.402, 0.211, 0.309, 0.34500000000000003, 0.509, 0.40800000000000003, 0.669, 0.906, 0.836, 0.515], 0.8577935222672064),
    (298, [0.402, 0.211, 0.309, 0.34500000000000003, 0.509, 0.40800000000000003, 0.669, 0.906, 0.836, 0.515], 0.8577935222672064),
    (299, [0.402, 0.211, 0.309, 0.34500000000000003, 0.509, 0.40800000000000003, 0.669, 0.906, 0.836, 0.515], 0.8577935222672064),
]

