ranges of every chromosome : (-2, 2)
    selection method is: ExponentialRankingSelection
    crossover method is: UniformCrossover
    pc: The probability of crossover: 0.700000
    pe: Gene exchange probability: 0.500000
    mutation method is: FlipBitBigMutation
    pm: The probability of mutation: 0.200000
    pbm: The probability of big mutation: 0.500000
    alpha: intensive factor: 0.750000
best_fit = [
    (0, [1, 1, 1, 1, 1, 1, 1, 1, 1, 1], 0.8480499325236167),
    (1, [1, 1, 1, 1, 1, 1, 1, 1, 1, 1], 0.8480499325236167),
    (2, [1, 1, 1, 1, 1, 1, 1, 1, 1, 1], 0.8480499325236167),
    (3, [1, 1, 1, 1, 1, 1, 1, 1, 1, 1], 0.8480499325236167),
    (4, [0.8239999999999998, 1.1280000000000001, 0.8730000000000002, -0.6679999999999999, 0.2549999999999999, 0.875, -1.6280000000000001, 0.8940000000000001, 1.221, -0.71], 0.8527867746288799),
    (5, [-1.1909999999999998, 1.222, -1.768, -1.553, 1.8250000000000002, 0.8180000000000001, 1.217, -1.069, -1.2429999999999999, -1.341], 0.8580566801619434),
    (6, [-1.1909999999999998, 1.222, -1.768, -1.553, 1.8250000000000002, 0.8180000000000001, 1.217, -1.069, -1.2429999999999999, -1.341], 0.8580566801619434),
    (7, [-1.1909999999999998, 1.222, -1.768, -1.553, 1.8250000000000002, 0.8180000000000001, 1.217, -1.069, -1.2429999999999999, -1.341], 0.8580566801619434),
    (8, [-1.1909999999999998, 1.222, -1.768, -1.553, 1.8250000000000002, 0.8180000000000001, 1.217, -1.069, -1.2429999999999999, -1.341], 0.8580566801619434),
    (9, [-1.1909999999999998, 1.222, -1.768, -1.553, 1.8250000000000002, 0.8180000000000001, 1.217, -1.069, -1.2429999999999999, -1.341], 0.8580566801619434),
    (10, [-1.1909999999999998, 1.222, -1.768, -1.553, 1.8250000000000002, 0.8180000000000001, 1.217, -1.069, -1.2429999999999999, -1.341], 0.8580566801619434),
    (11, [-1.1909999999999998, 1.222, -1.768, -1.553, 1.8250000000000002, 0.8180000000000001, 1.217, -1.069, -1.2429999999999999, -1.341], 0.8580566801619434),
    (12, [-1.1909999999999998, 1.222, -1.768, -1.553, 1.8250000000000002, 0.8180000000000001, 1.217, -1.069, -1.2429999999999999, -1.341], 0.8580566801619434),
    (13, [-1.1909999999999998, 1.222, -1.768, -1.553, 1.8250000000000002, 0.8180000000000001, 1.217, -1.069, -1.2429999999999999, -1.341], 0.8580566801619434),
    (14, [-1.1909999999999998, 1.222, -1.768, -1.553, 1.8250000000000002, 0.8180000000000001, 1.217, -1.069, -1.2429999999999999, -1.341], 0.8580566801619434),
    (15, [-1.1909999999999998, 1.222, -1.768, -1.553, 1.8250000000000002, 0.8180000000000001, 1.217, -1.069, -1.2429999999999999, -1.341], 0.8580566801619434),
    (16, [-1.1909999999999998, 1.222, -1.768, -1.553, 1.8250000000000002, 0.8180000000000001, 1.217, -1.069, -1.2429999999999999, -1.341], 0.8580566801619434),
    (17, [-1.1909999999999998, 1.222, -1.768, -1.553, 1.8250000000000002, 0.8180000000000001, 1.217, -1.069, -1.2429999999999999, -1.341], 0.8580566801619434),
    (18, [-1.1909999999999998, 1.222, -1.768, -1.553, 1.8250000000000002, 0.8180000000000001, 1.217, -1.069, -1.2429999999999999, -1.341], 0.8580566801619434),
    (19, [-1.1909999999999998, 1.222, -1.768, -1.553, 1.8250000000000002, 0.8180000000000001, 1.217, -1.069, -1.2429999999999999, -1.341], 0.8580566801619434),
    (20, [-1.1909999999999998, 1.222, -1.768, -1.553, 1.8250000000000002, 0.8180000000000001, 1.217, -1.069, -1.2429999999999999, -1.341], 0.8580566801619434),
    (21, [-1.1909999999999998, 1.222, -1.768, -1.553, 1.8250000000000002, 0.8180000000000001, 1.217, -1.069, -1.2429999999999999, -1.341], 0.8580566801619434),
    (22, [-1.1909999999999998, 1.222, -1.768, -1.553, 1.8250000000000002, 0.8180000000000001, 1.217, -1.069, -1.2429999999999999, -1.341], 0.8580566801619434),
    (23, [-1.1909999999999998, 1.222, -1.768, -1.553, 1.8250000000000002, 0.8180000000000001, 1.217, -1.069, -1.2429999999999999, -1.341], 0.8580566801619434),
    (24, [-1.1909999999999998, 1.222, -1.768, -1.553, 1.8250000000000002, 0.8180000000000001, 1.217, -1.069, -1.2429999999999999, -1.341], 0.8580566801619434),
    (25, [-1.1909999999999998, 1.222, -1.768, -1.553, 1.8250000000000002, 0.8180000000000001, 1.217, -1.069, -1.2429999999999999, -1.341], 0.8580566801619434),
    (26, [-1.1909999999999998, 1.222, -1.768, -1.553, 1.8250000000000002, 0.8180000000000001, 1.217, -1.069, -1.2429999999999999, -1.341], 0.8580566801619434),
    (27, [-1.1909999999999998, 1.222, -1.768, -1.553, 1.8250000000000002, 0.8180000000000001, 1.217, -1.069, -1.2429999999999999, -1.341], 0.8580566801619434),
    (28, [-1.1909999999999998, 1.222, -1.768, -1.553, 1.8250000000000002, 0.8180000000000001, 1.217, -1.069, -1.2429999999999999, -1.341], 0.8580566801619434),
    (29, [-1.1909999999999998, 1.222, -1.768, -1.553, 1.8250000000000002, 0.8180000000000001, 1.217, -1.069, -1.2429999999999999, -1.341], 0.8580566801619434),
    (30, [-1.1909999999999998, 1.222, -1.768, -1.553, 1.8250000000000002, 0.8180000000000001, 1.217, -1.069, -1.2429999999999999, -1.341], 0.8580566801619434),
    (31, [-1.1909999999999998, 1.222, -1.768, -1.553, 1.8250000000000002, 0.8180000000000001, 1.217, -1.069, -1.2429999999999999, -1.341], 0.8580566801619434),
    (32, [-1.1909999999999998, 1.222, -1.768, -1.553, 1.8250000000000002, 0.8180000000000001, 1.217, -1.069, -1.2429999999999999, -1.341], 0.8580566801619434),
    (33, [-1.1909999999999998, 1.222, -1.768, -1.553, 1.8250000000000002, 0.8180000000000001, 1.217, -1.069, -1.2429999999999999, -1.341], 0.8580566801619434),
    (34, [-1.1909999999999998, 1.222, -1.768, -1.553, 1.8250000000000002, 0.8180000000000001, 1.217, -1.069, -1.2429999999999999, -1.341], 0.8580566801619434),
    (35, [-1.1909999999999998, 1.222, -1.768, -1.553, 1.8250000000000002, 0.8180000000000001, 1.217, -1.069, -1.2429999999999999, -1.341], 0.8580566801619434),
    (36, [-1.1909999999999998, 1.222, -1.768, -1.553, 1.8250000000000002, 0.8180000000000001, 1.217, -1.069, -1.2429999999999999, -1.341], 0.8580566801619434),
    (37, [-1.1909999999999998, 1.222, -1.768, -1.553, 1.8250000000000002, 0.8180000000000001, 1.217, -1.069, -1.2429999999999999, -1.341], 0.8580566801619434),
    (38, [-1.1909999999999998, 1.222, -1.768, -1.553, 1.8250000000000002, 0.8180000000000001, 1.217, -1.069, -1.2429999999999999, -1.341], 0.8580566801619434),
    (39, [-1.1909999999999998, 1.222, -1.768, -1.553, 1.8250000000000002, 0.8180000000000001, 1.217, -1.069, -1.2429999999999999, -1.341], 0.8580566801619434),
    (40, [-1.1909999999999998, 1.222, -1.768, -1.553, 1.8250000000000002, 0.8180000000000001, 1.217, -1.069, -1.2429999999999999, -1.341], 0.8580566801619434),
    (41, [-1.1909999999999998, 1.222, -1.768, -1.553, 1.8250000000000002, 0.8180000000000001, 1.217, -1.069, -1.2429999999999999, -1.341], 0.8580566801619434),
    (42, [-1.1909999999999998, 1.222, -1.768, -1.553, 1.8250000000000002, 0.8180000000000001, 1.217, -1.069, -1.2429999999999999, -1.341], 0.8580566801619434),
    (43, [-1.1909999999999998, 1.222, -1.768, -1.553, 1.8250000000000002, 0.8180000000000001, 1.217, -1.069, -1.2429999999999999, -1.341], 0.8580566801619434),
    (44, [-1.1909999999999998, 1.222, -1.768, -1.553, 1.8250000000000002, 0.8180000000000001, 1.217, -1.069, -1.2429999999999999, -1.341], 0.8580566801619434),
    (45, [-1.1909999999999998, 1.222, -1.768, -1.553, 1.8250000000000002, 0.8180000000000001, 1.217, -1.069, -1.2429999999999999, -1.341], 0.8580566801619434),
    (46, [-1.1909999999999998, 1.222, -1.768, -1.553, 1.8250000000000002, 0.8180000000000001, 1.217, -1.069, -1.2429999999999999, -1.341], 0.8580566801619434),
    (47, [-1.025, -0.8799999999999999, 1.7920000000000003, -1.678, -0.44799999999999995, 0.6630000000000003, -0.44100000000000006, -1.193, 0.9210000000000003, 0.30500000000000016], 0.862914979757085),
    (48, [-1.025, -0.8799999999999999, 1.7920000000000003, -1.678, -0.44799999999999995, 0.6630000000000003, -0.44100000000000006, -1.193, 0.9210000000000003, 0.30500000000000016], 0.862914979757085),
    (49, [-1.025, -0.8799999999999999, 1.7920000000000003, -1.678, -0.44799999999999995, 0.6630000000000003, -0.44100000000000006, -1.193, 0.9210000000000003, 0.30500000000000016], 0.862914979757085),
    (50, [-1.025, -0.8799999999999999, 1.7920000000000003, -1.678, -0.44799999999999995, 0.6630000000000003, -0.44100000000000006, -1.193, 0.9210000000000003, 0.30500000000000016], 0.862914979757085),
    (51, [-1.025, -0.8799999999999999, 1.7920000000000003, -1.678, -0.44799999999999995, 0.6630000000000003, -0.44100000000000006, -1.193, 0.9210000000000003, 0.30500000000000016], 0.862914979757085),
    (52, [-1.025, -0.8799999999999999, 1.7920000000000003, -1.678, -0.44799999999999995, 0.6630000000000003, -0.44100000000000006, -1.193, 0.9210000000000003, 0.30500000000000016], 0.862914979757085),
    (53, [-1.025, -0.8799999999999999, 1.7920000000000003, -1.678, -0.44799999999999995, 0.6630000000000003, -0.44100000000000006, -1.193, 0.9210000000000003, 0.30500000000000016], 0.862914979757085),
    (54, [-1.025, -0.8799999999999999, 1.7920000000000003, -1.678, -0.44799999999999995, 0.6630000000000003, -0.44100000000000006, -1.193, 0.9210000000000003, 0.30500000000000016], 0.862914979757085),
    (55, [-1.025, -0.8799999999999999, 1.7920000000000003, -1.678, -0.44799999999999995, 0.6630000000000003, -0.44100000000000006, -1.193, 0.9210000000000003, 0.30500000000000016], 0.862914979757085),
    (56, [-1.025, -0.8799999999999999, 1.7920000000000003, -1.678, -0.44799999999999995, 0.6630000000000003, -0.44100000000000006, -1.193, 0.9210000000000003, 0.30500000000000016], 0.862914979757085),
    (57, [-1.025, -0.8799999999999999, 1.7920000000000003, -1.678, -0.44799999999999995, 0.6630000000000003, -0.44100000000000006, -1.193, 0.9210000000000003, 0.30500000000000016], 0.862914979757085),
    (58, [-1.025, -0.8799999999999999, 1.7920000000000003, -1.678, -0.44799999999999995, 0.6630000000000003, -0.44100000000000006, -1.193, 0.9210000000000003, 0.30500000000000016], 0.862914979757085),
    (59, [-1.025, -0.8799999999999999, 1.7920000000000003, -1.678, -0.44799999999999995, 0.6630000000000003, -0.44100000000000006, -1.193, 0.9210000000000003, 0.30500000000000016], 0.862914979757085),
    (60, [-1.025, -0.8799999999999999, 1.7920000000000003, -1.678, -0.44799999999999995, 0.6630000000000003, -0.44100000000000006, -1.193, 0.9210000000000003, 0.30500000000000016], 0.862914979757085),
    (61, [-1.025, -0.8799999999999999, 1.7920000000000003, -1.678, -0.44799999999999995, 0.6630000000000003, -0.44100000000000006, -1.193, 0.9210000000000003, 0.30500000000000016], 0.862914979757085),
    (62, [-1.025, -0.8799999999999999, 1.7920000000000003, -1.678, -0.44799999999999995, 0.6630000000000003, -0.44100000000000006, -1.193, 0.9210000000000003, 0.30500000000000016], 0.862914979757085),
    (63, [-1.025, -0.8799999999999999, 1.7920000000000003, -1.678, -0.44799999999999995, 0.6630000000000003, -0.44100000000000006, -1.193, 0.9210000000000003, 0.30500000000000016], 0.862914979757085),
    (64, [-1.025, -0.8799999999999999, 1.7920000000000003, -1.678, -0.44799999999999995, 0.6630000000000003, -0.44100000000000006, -1.193, 0.9210000000000003, 0.30500000000000016], 0.862914979757085),
    (65, [-1.025, -0.8799999999999999, 1.7920000000000003, -1.678, -0.44799999999999995, 0.6630000000000003, -0.44100000000000006, -1.193, 0.9210000000000003, 0.30500000000000016], 0.862914979757085),
    (66, [-1.025, -0.8799999999999999, 1.7920000000000003, -1.678, -0.44799999999999995, 0.6630000000000003, -0.44100000000000006, -1.193, 0.9210000000000003, 0.30500000000000016], 0.862914979757085),
    (67, [-1.025, -0.8799999999999999, 1.7920000000000003, -1.678, -0.44799999999999995, 0.6630000000000003, -0.44100000000000006, -1.193, 0.9210000000000003, 0.30500000000000016], 0.862914979757085),
    (68, [-1.025, -0.8799999999999999, 1.7920000000000003, -1.678, -0.44799999999999995, 0.6630000000000003, -0.44100000000000006, -1.193, 0.9210000000000003, 0.30500000000000016], 0.862914979757085),
    (69, [-1.025, -0.8799999999999999, 1.7920000000000003, -1.678, -0.44799999999999995, 0.6630000000000003, -0.44100000000000006, -1.193, 0.9210000000000003, 0.30500000000000016], 0.862914979757085),
    (70, [-1.025, -0.8799999999999999, 1.7920000000000003, -1.678, -0.44799999999999995, 0.6630000000000003, -0.44100000000000006, -1.193, 0.9210000000000003, 0.30500000000000016], 0.862914979757085),
    (71, [-1.025, -0.8799999999999999, 1.7920000000000003, -1.678, -0.44799999999999995, 0.6630000000000003, -0.44100000000000006, -1.193, 0.9210000000000003, 0.30500000000000016], 0.862914979757085),
    (72, [-1.025, -0.8799999999999999, 1.7920000000000003, -1.678, -0.44799999999999995, 0.6630000000000003, -0.44100000000000006, -1.193, 0.9210000000000003, 0.30500000000000016], 0.862914979757085),
    (73, [-1.025, -0.8799999999999999, 1.7920000000000003, -1.678, -0.44799999999999995, 0.6630000000000003, -0.44100000000000006, -1.193, 0.9210000000000003, 0.30500000000000016], 0.862914979757085),
    (74, [-1.025, -0.8799999999999999, 1.7920000000000003, -1.678, -0.44799999999999995, 0.6630000000000003, -0.44100000000000006, -1.193, 0.9210000000000003, 0.30500000000000016], 0.862914979757085),
    (75, [-1.025, -0.8799999999999999, 1.7920000000000003, -1.678, -0.44799999999999995, 0.6630000000000003, -0.44100000000000006, -1.193, 0.9210000000000003, 0.30500000000000016], 0.862914979757085),
    (76, [-1.025, -0.8799999999999999, 1.7920000000000003, -1.678, -0.44799999999999995, 0.6630000000000003, -0.44100000000000006, -1.193, 0.9210000000000003, 0.30500000000000016], 0.862914979757085),
    (77, [-1.025, -0.8799999999999999, 1.7920000000000003, -1.678, -0.44799999999999995, 0.6630000000000003, -0.44100000000000006, -1.193, 0.9210000000000003, 0.30500000000000016], 0.862914979757085),
    (78, [-1.025, -0.8799999999999999, 1.7920000000000003, -1.678, -0.44799999999999995, 0.6630000000000003, -0.44100000000000006, -1.193, 0.9210000000000003, 0.30500000000000016], 0.862914979757085),
    (79, [-1.025, -0.8799999999999999, 1.7920000000000003, -1.678, -0.44799999999999995, 0.6630000000000003, -0.44100000000000006, -1.193, 0.9210000000000003, 0.30500000000000016], 0.862914979757085),
    (80, [-1.025, -0.8799999999999999, 1.7920000000000003, -1.678, -0.44799999999999995, 0.6630000000000003, -0.44100000000000006, -1.193, 0.9210000000000003, 0.30500000000000016], 0.862914979757085),
    (81, [-1.025, -0.8799999999999999, 1.7920000000000003, -1.678, -0.44799999999999995, 0.6630000000000003, -0.44100000000000006, -1.193, 0.9210000000000003, 0.30500000000000016], 0.862914979757085),
    (82, [-1.025, -0.8799999999999999, 1.7920000000000003, -1.678, -0.44799999999999995, 0.6630000000000003, -0.44100000000000006, -1.193, 0.9210000000000003, 0.30500000000000016], 0.862914979757085),
    (83, [-1.025, -0.8799999999999999, 1.7920000000000003, -1.678, -0.44799999999999995, 0.6630000000000003, -0.44100000000000006, -1.193, 0.9210000000000003, 0.30500000000000016], 0.862914979757085),
    (84, [-1.025, -0.8799999999999999, 1.7920000000000003, -1.678, -0.44799999999999995, 0.6630000000000003, -0.44100000000000006, -1.193, 0.9210000000000003, 0.30500000000000016], 0.862914979757085),
    (85, [-1.025, -0.8799999999999999, 1.7920000000000003, -1.678, -0.44799999999999995, 0.6630000000000003, -0.44100000000000006, -1.193, 0.9210000000000003, 0.30500000000000016], 0.862914979757085),
    (86, [-1.025, -0.8799999999999999, 1.7920000000000003, -1.678, -0.44799999999999995, 0.6630000000000003, -0.44100000000000006, -1.193, 0.9210000000000003, 0.30500000000000016], 0.862914979757085),
    (87, [-1.025, -0.8799999999999999, 1.7920000000000003, -1.678, -0.44799999999999995, 0.6630000000000003, -0.44100000000000006, -1.193, 0.9210000000000003, 0.30500000000000016], 0.862914979757085),
    (88, [-1.025, -0.8799999999999999, 1.7920000000000003, -1.678, -0.44799999999999995, 0.6630000000000003, -0.44100000000000006, -1.193, 0.9210000000000003, 0.30500000000000016], 0.862914979757085),
    (89, [-1.025, -0.8799999999999999, 1.7920000000000003, -1.678, -0.44799999999999995, 0.6630000000000003, -0.44100000000000006, -1.193, 0.9210000000000003, 0.30500000000000016], 0.862914979757085),
    (90, [-1.025, -0.8799999999999999, 1.7920000000000003, -1.678, -0.44799999999999995, 0.6630000000000003, -0.44100000000000006, -1.193, 0.9210000000000003, 0.30500000000000016], 0.862914979757085),
    (91, [-1.025, -0.8799999999999999, 1.7920000000000003, -1.678, -0.44799999999999995, 0.6630000000000003, -0.44100000000000006, -1.193, 0.9210000000000003, 0.30500000000000016], 0.862914979757085),
    (92, [-1.025, -0.8799999999999999, 1.7920000000000003, -1.678, -0.44799999999999995, 0.6630000000000003, -0.44100000000000006, -1.193, 0.9210000000000003, 0.30500000000000016], 0.862914979757085),
    (93, [-1.025, -0.8799999999999999, 1.7920000000000003, -1.678, -0.44799999999999995, 0.6630000000000003, -0.44100000000000006, -1.193, 0.9210000000000003, 0.30500000000000016], 0.862914979757085),
    (94, [-1.025, -0.8799999999999999, 1.7920000000000003, -1.678, -0.44799999999999995, 0.6630000000000003, -0.44100000000000006, -1.193, 0.9210000000000003, 0.30500000000000016], 0.862914979757085),
    (95, [-1.025, -0.8799999999999999, 1.7920000000000003, -1.678, -0.44799999999999995, 0.6630000000000003, -0.44100000000000006, -1.193, 0.9210000000000003, 0.30500000000000016], 0.862914979757085),
    (96, [-1.025, -0.8799999999999999, 1.7920000000000003, -1.678, -0.44799999999999995, 0.6630000000000003, -0.44100000000000006, -1.193, 0.9210000000000003, 0.30500000000000016], 0.862914979757085),
    (97, [-1.025, -0.8799999999999999, 1.7920000000000003, -1.678, -0.44799999999999995, 0.6630000000000003, -0.44100000000000006, -1.193, 0.9210000000000003, 0.30500000000000016], 0.862914979757085),
    (98, [-1.025, -0.8799999999999999, 1.7920000000000003, -1.678, -0.44799999999999995, 0.6630000000000003, -0.44100000000000006, -1.193, 0.9210000000000003, 0.30500000000000016], 0.862914979757085),
    (99, [-1.025, -0.8799999999999999, 1.7920000000000003, -1.678, -0.44799999999999995, 0.6630000000000003, -0.44100000000000006, -1.193, 0.9210000000000003, 0.30500000000000016], 0.862914979757085),
    (100, [-1.025, -0.8799999999999999, 1.7920000000000003, -1.678, -0.44799999999999995, 0.6630000000000003, -0.44100000000000006, -1.193, 0.9210000000000003, 0.30500000000000016], 0.862914979757085),
    (101, [-1.025, -0.8799999999999999, 1.7920000000000003, -1.678, -0.44799999999999995, 0.6630000000000003, -0.44100000000000006, -1.193, 0.9210000000000003, 0.30500000000000016], 0.862914979757085),
    (102, [-1.025, -0.8799999999999999, 1.7920000000000003, -1.678, -0.44799999999999995, 0.6630000000000003, -0.44100000000000006, -1.193, 0.9210000000000003, 0.30500000000000016], 0.862914979757085),
    (103, [-1.025, -0.8799999999999999, 1.7920000000000003, -1.678, -0.44799999999999995, 0.6630000000000003, -0.44100000000000006, -1.193, 0.9210000000000003, 0.30500000000000016], 0.862914979757085),
    (104, [-1.025, -0.8799999999999999, 1.7920000000000003, -1.678, -0.44799999999999995, 0.6630000000000003, -0.44100000000000006, -1.193, 0.9210000000000003, 0.30500000000000016], 0.862914979757085),
    (105, [-1.025, -0.8799999999999999, 1.7920000000000003, -1.678, -0.44799999999999995, 0.6630000000000003, -0.44100000000000006, -1.193, 0.9210000000000003, 0.30500000000000016], 0.862914979757085),
    (106, [-1.025, -0.8799999999999999, 1.7920000000000003, -1.678, -0.44799999999999995, 0.6630000000000003, -0.44100000000000006, -1.193, 0.9210000000000003, 0.30500000000000016], 0.862914979757085),
    (107, [-1.025, -0.8799999999999999, 1.7920000000000003, -1.678, -0.44799999999999995, 0.6630000000000003, -0.44100000000000006, -1.193, 0.9210000000000003, 0.30500000000000016], 0.862914979757085),
    (108, [-1.025, -0.8799999999999999, 1.7920000000000003, -1.678, -0.44799999999999995, 0.6630000000000003, -0.44100000000000006, -1.193, 0.9210000000000003, 0.30500000000000016], 0.862914979757085),
    (109, [-1.025, -0.8799999999999999, 1.7920000000000003, -1.678, -0.44799999999999995, 0.6630000000000003, -0.44100000000000006, -1.193, 0.9210000000000003, 0.30500000000000016], 0.862914979757085),
    (110, [-1.025, -0.8799999999999999, 1.7920000000000003, -1.678, -0.44799999999999995, 0.6630000000000003, -0.44100000000000006, -1.193, 0.9210000000000003, 0.30500000000000016], 0.862914979757085),
    (111, [-1.025, -0.8799999999999999, 1.7920000000000003, -1.678, -0.44799999999999995, 0.6630000000000003, -0.44100000000000006, -1.193, 0.9210000000000003, 0.30500000000000016], 0.862914979757085),
    (112, [-1.025, -0.8799999999999999, 1.7920000000000003, -1.678, -0.44799999999999995, 0.6630000000000003, -0.44100000000000006, -1.193, 0.9210000000000003, 0.30500000000000016], 0.862914979757085),
    (113, [-1.025, -0.8799999999999999, 1.7920000000000003, -1.678, -0.44799999999999995, 0.6630000000000003, -0.44100000000000006, -1.193, 0.9210000000000003, 0.30500000000000016], 0.862914979757085),
    (114, [-1.025, -0.8799999999999999, 1.7920000000000003, -1.678, -0.44799999999999995, 0.6630000000000003, -0.44100000000000006, -1.193, 0.9210000000000003, 0.30500000000000016], 0.862914979757085),
    (115, [-1.025, -0.8799999999999999, 1.7920000000000003, -1.678, -0.44799999999999995, 0.6630000000000003, -0.44100000000000006, -1.193, 0.9210000000000003, 0.30500000000000016], 0.862914979757085),
    (116, [-1.025, -0.8799999999999999, 1.7920000000000003, -1.678, -0.44799999999999995, 0.6630000000000003, -0.44100000000000006, -1.193, 0.9210000000000003, 0.30500000000000016], 0.862914979757085),
    (117, [-1.025, -0.8799999999999999, 1.7920000000000003, -1.678, -0.44799999999999995, 0.6630000000000003, -0.44100000000000006, -1.193, 0.9210000000000003, 0.30500000000000016], 0.862914979757085),
    (118, [-1.025, -0.8799999999999999, 1.7920000000000003, -1.678, -0.44799999999999995, 0.6630000000000003, -0.44100000000000006, -1.193, 0.9210000000000003, 0.30500000000000016], 0.862914979757085),
    (119, [-1.025, -0.8799999999999999, 1.7920000000000003, -1.678, -0.44799999999999995, 0.6630000000000003, -0.44100000000000006, -1.193, 0.9210000000000003, 0.30500000000000016], 0.862914979757085),
    (120, [-1.025, -0.8799999999999999, 1.7920000000000003, -1.678, -0.44799999999999995, 0.6630000000000003, -0.44100000000000006, -1.193, 0.9210000000000003, 0.30500000000000016], 0.862914979757085),
    (121, [-1.025, -0.8799999999999999, 1.7920000000000003, -1.678, -0.44799999999999995, 0.6630000000000003, -0.44100000000000006, -1.193, 0.9210000000000003, 0.30500000000000016], 0.862914979757085),
    (122, [-1.025, -0.8799999999999999, 1.7920000000000003, -1.678, -0.44799999999999995, 0.6630000000000003, -0.44100000000000006, -1.193, 0.9210000000000003, 0.30500000000000016], 0.862914979757085),
    (123, [-1.025, -0.8799999999999999, 1.7920000000000003, -1.678, -0.44799999999999995, 0.6630000000000003, -0.44100000000000006, -1.193, 0.9210000000000003, 0.30500000000000016], 0.862914979757085),
    (124, [-1.025, -0.8799999999999999, 1.7920000000000003, -1.678, -0.44799999999999995, 0.6630000000000003, -0.44100000000000006, -1.193, 0.9210000000000003, 0.30500000000000016], 0.862914979757085),
    (125, [-1.025, -0.8799999999999999, 1.7920000000000003, -1.678, -0.44799999999999995, 0.6630000000000003, -0.44100000000000006, -1.193, 0.9210000000000003, 0.30500000000000016], 0.862914979757085),
    (126, [-1.025, -0.8799999999999999, 1.7920000000000003, -1.678, -0.44799999999999995, 0.6630000000000003, -0.44100000000000006, -1.193, 0.9210000000000003, 0.30500000000000016], 0.862914979757085),
    (127, [-1.025, -0.8799999999999999, 1.7920000000000003, -1.678, -0.44799999999999995, 0.6630000000000003, -0.44100000000000006, -1.193, 0.9210000000000003, 0.30500000000000016], 0.862914979757085),
    (128, [-1.025, -0.8799999999999999, 1.7920000000000003, -1.678, -0.44799999999999995, 0.6630000000000003, -0.44100000000000006, -1.193, 0.9210000000000003, 0.30500000000000016], 0.862914979757085),
    (129, [-1.025, -0.8799999999999999, 1.7920000000000003, -1.678, -0.44799999999999995, 0.6630000000000003, -0.44100000000000006, -1.193, 0.9210000000000003, 0.30500000000000016], 0.862914979757085),
    (130, [-1.025, -0.8799999999999999, 1.7920000000000003, -1.678, -0.44799999999999995, 0.6630000000000003, -0.44100000000000006, -1.193, 0.9210000000000003, 0.30500000000000016], 0.862914979757085),
    (131, [-0.692, 1.0779999999999998, -0.813, -0.2689999999999999, -0.714, -0.23099999999999987, -1.161, 1.4620000000000002, 0.895, -1.824], 0.8629217273954115),
    (132, [-0.692, 1.0779999999999998, -0.813, -0.2689999999999999, -0.714, -0.23099999999999987, -1.161, 1.4620000000000002, 0.895, -1.824], 0.8629217273954115),
    (133, [-0.692, 1.0779999999999998, -0.813, -0.2689999999999999, -0.714, -0.23099999999999987, -1.161, 1.4620000000000002, 0.895, -1.824], 0.8629217273954115),
    (134, [-0.692, 1.0779999999999998, -0.813, -0.2689999999999999, -0.714, -0.23099999999999987, -1.161, 1.4620000000000002, 0.895, -1.824], 0.8629217273954115),
    (135, [-0.692, 1.0779999999999998, -0.813, -0.2689999999999999, -0.714, -0.23099999999999987, -1.161, 1.4620000000000002, 0.895, -1.824], 0.8629217273954115),
    (136, [-0.692, 1.0779999999999998, -0.813, -0.2689999999999999, -0.714, -0.23099999999999987, -1.161, 1.4620000000000002, 0.895, -1.824], 0.8629217273954115),
    (137, [-0.692, 1.0779999999999998, -0.813, -0.2689999999999999, -0.714, -0.23099999999999987, -1.161, 1.4620000000000002, 0.895, -1.824], 0.8629217273954115),
    (138, [-0.692, 1.0779999999999998, -0.813, -0.2689999999999999, -0.714, -0.23099999999999987, -1.161, 1.4620000000000002, 0.895, -1.824], 0.8629217273954115),
    (139, [-0.692, 1.0779999999999998, -0.813, -0.2689999999999999, -0.714, -0.23099999999999987, -1.161, 1.4620000000000002, 0.895, -1.824], 0.8629217273954115),
    (140, [-0.692, 1.0779999999999998, -0.813, -0.2689999999999999, -0.714, -0.23099999999999987, -1.161, 1.4620000000000002, 0.895, -1.824], 0.8629217273954115),
    (141, [-0.692, 1.0779999999999998, -0.813, -0.2689999999999999, -0.714, -0.23099999999999987, -1.161, 1.4620000000000002, 0.895, -1.824], 0.8629217273954115),
    (142, [-0.692, 1.0779999999999998, -0.813, -0.2689999999999999, -0.714, -0.23099999999999987, -1.161, 1.4620000000000002, 0.895, -1.824], 0.8629217273954115),
    (143, [-0.692, 1.0779999999999998, -0.813, -0.2689999999999999, -0.714, -0.23099999999999987, -1.161, 1.4620000000000002, 0.895, -1.824], 0.8629217273954115),
    (144, [-0.692, 1.0779999999999998, -0.813, -0.2689999999999999, -0.714, -0.23099999999999987, -1.161, 1.4620000000000002, 0.895, -1.824], 0.8629217273954115),
    (145, [-0.692, 1.0779999999999998, -0.813, -0.2689999999999999, -0.714, -0.23099999999999987, -1.161, 1.4620000000000002, 0.895, -1.824], 0.8629217273954115),
    (146, [-0.692, 1.0779999999999998, -0.813, -0.2689999999999999, -0.714, -0.23099999999999987, -1.161, 1.4620000000000002, 0.895, -1.824], 0.8629217273954115),
    (147, [-0.692, 1.0779999999999998, -0.813, -0.2689999999999999, -0.714, -0.23099999999999987, -1.161, 1.4620000000000002, 0.895, -1.824], 0.8629217273954115),
    (148, [-0.692, 1.0779999999999998, -0.813, -0.2689999999999999, -0.714, -0.23099999999999987, -1.161, 1.4620000000000002, 0.895, -1.824], 0.8629217273954115),
    (149, [-0.692, 1.0779999999999998, -0.813, -0.2689999999999999, -0.714, -0.23099999999999987, -1.161, 1.4620000000000002, 0.895, -1.824], 0.8629217273954115),
    (150, [-0.692, 1.0779999999999998, -0.813, -0.2689999999999999, -0.714, -0.23099999999999987, -1.161, 1.4620000000000002, 0.895, -1.824], 0.8629217273954115),
    (151, [-0.692, 1.0779999999999998, -0.813, -0.2689999999999999, -0.714, -0.23099999999999987, -1.161, 1.4620000000000002, 0.895, -1.824], 0.8629217273954115),
    (152, [-0.692, 1.0779999999999998, -0.813, -0.2689999999999999, -0.714, -0.23099999999999987, -1.161, 1.4620000000000002, 0.895, -1.824], 0.8629217273954115),
    (153, [-0.692, 1.0779999999999998, -0.813, -0.2689999999999999, -0.714, -0.23099999999999987, -1.161, 1.4620000000000002, 0.895, -1.824], 0.8629217273954115),
    (154, [-0.692, 1.0779999999999998, -0.813, -0.2689999999999999, -0.714, -0.23099999999999987, -1.161, 1.4620000000000002, 0.895, -1.824], 0.8629217273954115),
    (155, [-0.692, 1.0779999999999998, -0.813, -0.2689999999999999, -0.714, -0.23099999999999987, -1.161, 1.4620000000000002, 0.895, -1.824], 0.8629217273954115),
    (156, [-0.692, 1.0779999999999998, -0.813, -0.2689999999999999, -0.714, -0.23099999999999987, -1.161, 1.4620000000000002, 0.895, -1.824], 0.8629217273954115),
    (157, [-0.692, 1.0779999999999998, -0.813, -0.2689999999999999, -0.714, -0.23099999999999987, -1.161, 1.4620000000000002, 0.895, -1.824], 0.8629217273954115),
    (158, [-0.692, 1.0779999999999998, -0.813, -0.2689999999999999, -0.714, -0.23099999999999987, -1.161, 1.4620000000000002, 0.895, -1.824], 0.8629217273954115),
    (159, [-0.692, 1.0779999999999998, -0.813, -0.2689999999999999, -0.714, -0.23099999999999987, -1.161, 1.4620000000000002, 0.895, -1.824], 0.8629217273954115),
    (160, [-0.692, 1.0779999999999998, -0.813, -0.2689999999999999, -0.714, -0.23099999999999987, -1.161, 1.4620000000000002, 0.895, -1.824], 0.8629217273954115),
    (161, [-0.692, 1.0779999999999998, -0.813, -0.2689999999999999, -0.714, -0.23099999999999987, -1.161, 1.4620000000000002, 0.895, -1.824], 0.8629217273954115),
    (162, [-0.692, 1.0779999999999998, -0.813, -0.2689999999999999, -0.714, -0.23099999999999987, -1.161, 1.4620000000000002, 0.895, -1.824], 0.8629217273954115),
    (163, [-0.692, 1.0779999999999998, -0.813, -0.2689999999999999, -0.714, -0.23099999999999987, -1.161, 1.4620000000000002, 0.895, -1.824], 0.8629217273954115),
    (164, [-0.692, 1.0779999999999998, -0.813, -0.2689999999999999, -0.714, -0.23099999999999987, -1.161, 1.4620000000000002, 0.895, -1.824], 0.8629217273954115),
    (165, [-0.692, 1.0779999999999998, -0.813, -0.2689999999999999, -0.714, -0.23099999999999987, -1.161, 1.4620000000000002, 0.895, -1.824], 0.8629217273954115),
    (166, [-0.692, 1.0779999999999998, -0.813, -0.2689999999999999, -0.714, -0.23099999999999987, -1.161, 1.4620000000000002, 0.895, -1.824], 0.8629217273954115),
    (167, [-0.692, 1.0779999999999998, -0.813, -0.2689999999999999, -0.714, -0.23099999999999987, -1.161, 1.4620000000000002, 0.895, -1.824], 0.8629217273954115),
    (168, [-0.692, 1.0779999999999998, -0.813, -0.2689999999999999, -0.714, -0.23099999999999987, -1.161, 1.4620000000000002, 0.895, -1.824], 0.8629217273954115),
    (169, [-0.692, 1.0779999999999998, -0.813, -0.2689999999999999, -0.714, -0.23099999999999987, -1.161, 1.4620000000000002, 0.895, -1.824], 0.8629217273954115),
    (170, [-0.692, 1.0779999999999998, -0.813, -0.2689999999999999, -0.714, -0.23099999999999987, -1.161, 1.4620000000000002, 0.895, -1.824], 0.8629217273954115),
    (171, [-0.692, 1.0779999999999998, -0.813, -0.2689999999999999, -0.714, -0.23099999999999987, -1.161, 1.4620000000000002, 0.895, -1.824], 0.8629217273954115),
    (172, [-0.692, 1.0779999999999998, -0.813, -0.2689999999999999, -0.714, -0.23099999999999987, -1.161, 1.4620000000000002, 0.895, -1.824], 0.8629217273954115),
    (173, [-0.692, 1.0779999999999998, -0.813, -0.2689999999999999, -0.714, -0.23099999999999987, -1.161, 1.4620000000000002, 0.895, -1.824], 0.8629217273954115),
    (174, [-0.692, 1.0779999999999998, -0.813, -0.2689999999999999, -0.714, -0.23099999999999987, -1.161, 1.4620000000000002, 0.895, -1.824], 0.8629217273954115),
    (175, [-0.692, 1.0779999999999998, -0.813, -0.2689999999999999, -0.714, -0.23099999999999987, -1.161, 1.4620000000000002, 0.895, -1.824], 0.8629217273954115),
    (176, [-0.692, 1.0779999999999998, -0.813, -0.2689999999999999, -0.714, -0.23099999999999987, -1.161, 1.4620000000000002, 0.895, -1.824], 0.8629217273954115),
    (177, [-0.692, 1.0779999999999998, -0.813, -0.2689999999999999, -0.714, -0.23099999999999987, -1.161, 1.4620000000000002, 0.895, -1.824], 0.8629217273954115),
    (178, [-0.692, 1.0779999999999998, -0.813, -0.2689999999999999, -0.714, -0.23099999999999987, -1.161, 1.4620000000000002, 0.895, -1.824], 0.8629217273954115),
    (179, [-0.692, 1.0779999999999998, -0.813, -0.2689999999999999, -0.714, -0.23099999999999987, -1.161, 1.4620000000000002, 0.895, -1.824], 0.8629217273954115),
    (180, [-0.692, 1.0779999999999998, -0.813, -0.2689999999999999, -0.714, -0.23099999999999987, -1.161, 1.4620000000000002, 0.895, -1.824], 0.8629217273954115),
    (181, [-0.692, 1.0779999999999998, -0.813, -0.2689999999999999, -0.714, -0.23099999999999987, -1.161, 1.4620000000000002, 0.895, -1.824], 0.8629217273954115),
    (182, [-0.692, 1.0779999999999998, -0.813, -0.2689999999999999, -0.714, -0.23099999999999987, -1.161, 1.4620000000000002, 0.895, -1.824], 0.8629217273954115),
    (183, [-0.692, 1.0779999999999998, -0.813, -0.2689999999999999, -0.714, -0.23099999999999987, -1.161, 1.4620000000000002, 0.895, -1.824], 0.8629217273954115),
    (184, [-0.692, 1.0779999999999998, -0.813, -0.2689999999999999, -0.714, -0.23099999999999987, -1.161, 1.4620000000000002, 0.895, -1.824], 0.8629217273954115),
    (185, [-0.692, 1.0779999999999998, -0.813, -0.2689999999999999, -0.714, -0.23099999999999987, -1.161, 1.4620000000000002, 0.895, -1.824], 0.8629217273954115),
    (186, [-0.692, 1.0779999999999998, -0.813, -0.2689999999999999, -0.714, -0.23099999999999987, -1.161, 1.4620000000000002, 0.895, -1.824], 0.8629217273954115),
    (187, [-0.692, 1.0779999999999998, -0.813, -0.2689999999999999, -0.714, -0.23099999999999987, -1.161, 1.4620000000000002, 0.895, -1.824], 0.8629217273954115),
    (188, [-0.692, 1.0779999999999998, -0.813, -0.2689999999999999, -0.714, -0.23099999999999987, -1.161, 1.4620000000000002, 0.895, -1.824], 0.8629217273954115),
    (189, [-0.692, 1.0779999999999998, -0.813, -0.2689999999999999, -0.714, -0.23099999999999987, -1.161, 1.4620000000000002, 0.895, -1.824], 0.8629217273954115),
    (190, [-0.692, 1.0779999999999998, -0.813, -0.2689999999999999, -0.714, -0.23099999999999987, -1.161, 1.4620000000000002, 0.895, -1.824], 0.8629217273954115),
    (191, [-0.692, 1.0779999999999998, -0.813, -0.2689999999999999, -0.714, -0.23099999999999987, -1.161, 1.4620000000000002, 0.895, -1.824], 0.8629217273954115),
    (192, [-0.692, 1.0779999999999998, -0.813, -0.2689999999999999, -0.714, -0.23099999999999987, -1.161, 1.4620000000000002, 0.895, -1.824], 0.8629217273954115),
    (193, [-0.692, 1.0779999999999998, -0.813, -0.2689999999999999, -0.714, -0.23099999999999987, -1.161, 1.4620000000000002, 0.895, -1.824], 0.8629217273954115),
    (194, [-0.692, 1.0779999999999998, -0.813, -0.2689999999999999, -0.714, -0.23099999999999987, -1.161, 1.4620000000000002, 0.895, -1.824], 0.8629217273954115),
    (195, [-0.692, 1.0779999999999998, -0.813, -0.2689999999999999, -0.714, -0.23099999999999987, -1.161, 1.4620000000000002, 0.895, -1.824], 0.8629217273954115),
    (196, [-0.692, 1.0779999999999998, -0.813, -0.2689999999999999, -0.714, -0.23099999999999987, -1.161, 1.4620000000000002, 0.895, -1.824], 0.8629217273954115),
    (197, [-0.692, 1.0779999999999998, -0.813, -0.2689999999999999, -0.714, -0.23099999999999987, -1.161, 1.4620000000000002, 0.895, -1.824], 0.8629217273954115),
    (198, [-0.692, 1.0779999999999998, -0.813, -0.2689999999999999, -0.714, -0.23099999999999987, -1.161, 1.4620000000000002, 0.895, -1.824], 0.8629217273954115),
    (199, [-0.692, 1.0779999999999998, -0.813, -0.2689999999999999, -0.714, -0.23099999999999987, -1.161, 1.4620000000000002, 0.895, -1.824], 0.8629217273954115),
    (200, [-0.692, 1.0779999999999998, -0.813, -0.2689999999999999, -0.714, -0.23099999999999987, -1.161, 1.4620000000000002, 0.895, -1.824], 0.8629217273954115),
    (201, [-0.692, 1.0779999999999998, -0.813, -0.2689999999999999, -0.714, -0.23099999999999987, -1.161, 1.4620000000000002, 0.895, -1.824], 0.8629217273954115),
    (202, [-0.692, 1.0779999999999998, -0.813, -0.2689999999999999, -0.714, -0.23099999999999987, -1.161, 1.4620000000000002, 0.895, -1.824], 0.8629217273954115),
    (203, [-0.692, 1.0779999999999998, -0.813, -0.2689999999999999, -0.714, -0.23099999999999987, -1.161, 1.4620000000000002, 0.895, -1.824], 0.8629217273954115),
    (204, [-0.692, 1.0779999999999998, -0.813, -0.2689999999999999, -0.714, -0.23099999999999987, -1.161, 1.4620000000000002, 0.895, -1.824], 0.8629217273954115),
    (205, [-0.692, 1.0779999999999998, -0.813, -0.2689999999999999, -0.714, -0.23099999999999987, -1.161, 1.4620000000000002, 0.895, -1.824], 0.8629217273954115),
    (206, [-0.692, 1.0779999999999998, -0.813, -0.2689999999999999, -0.714, -0.23099999999999987, -1.161, 1.4620000000000002, 0.895, -1.824], 0.8629217273954115),
    (207, [-0.692, 1.0779999999999998, -0.813, -0.2689999999999999, -0.714, -0.23099999999999987, -1.161, 1.4620000000000002, 0.895, -1.824], 0.8629217273954115),
    (208, [-0.692, 1.0779999999999998, -0.813, -0.2689999999999999, -0.714, -0.23099999999999987, -1.161, 1.4620000000000002, 0.895, -1.824], 0.8629217273954115),
    (209, [-0.692, 1.0779999999999998, -0.813, -0.2689999999999999, -0.714, -0.23099999999999987, -1.161, 1.4620000000000002, 0.895, -1.824], 0.8629217273954115),
    (210, [-0.692, 1.0779999999999998, -0.813, -0.2689999999999999, -0.714, -0.23099999999999987, -1.161, 1.4620000000000002, 0.895, -1.824], 0.8629217273954115),
    (211, [-0.692, 1.0779999999999998, -0.813, -0.2689999999999999, -0.714, -0.23099999999999987, -1.161, 1.4620000000000002, 0.895, -1.824], 0.8629217273954115),
    (212, [-0.692, 1.0779999999999998, -0.813, -0.2689999999999999, -0.714, -0.23099999999999987, -1.161, 1.4620000000000002, 0.895, -1.824], 0.8629217273954115),
    (213, [-0.692, 1.0779999999999998, -0.813, -0.2689999999999999, -0.714, -0.23099999999999987, -1.161, 1.4620000000000002, 0.895, -1.824], 0.8629217273954115),
    (214, [-0.692, 1.0779999999999998, -0.813, -0.2689999999999999, -0.714, -0.23099999999999987, -1.161, 1.4620000000000002, 0.895, -1.824], 0.8629217273954115),
    (215, [-0.692, 1.0779999999999998, -0.813, -0.2689999999999999, -0.714, -0.23099999999999987, -1.161, 1.4620000000000002, 0.895, -1.824], 0.8629217273954115),
    (216, [-0.692, 1.0779999999999998, -0.813, -0.2689999999999999, -0.714, -0.23099999999999987, -1.161, 1.4620000000000002, 0.895, -1.824], 0.8629217273954115),
    (217, [-0.692, 1.0779999999999998, -0.813, -0.2689999999999999, -0.714, -0.23099999999999987, -1.161, 1.4620000000000002, 0.895, -1.824], 0.8629217273954115),
    (218, [-0.692, 1.0779999999999998, -0.813, -0.2689999999999999, -0.714, -0.23099999999999987, -1.161, 1.4620000000000002, 0.895, -1.824], 0.8629217273954115),
    (219, [-0.692, 1.0779999999999998, -0.813, -0.2689999999999999, -0.714, -0.23099999999999987, -1.161, 1.4620000000000002, 0.895, -1.824], 0.8629217273954115),
    (220, [-0.8360000000000001, 1.198, -1.47, -1.407, -0.30699999999999994, 0.71, 0.0009999999999998899, 1.4260000000000002, -0.909, 1.759], 0.8630499325236167),
    (221, [-0.8360000000000001, 1.198, -1.47, -1.407, -0.30699999999999994, 0.71, 0.0009999999999998899, 1.4260000000000002, -0.909, 1.759], 0.8630499325236167),
    (222, [-0.8360000000000001, 1.198, -1.47, -1.407, -0.30699999999999994, 0.71, 0.0009999999999998899, 1.4260000000000002, -0.909, 1.759], 0.8630499325236167),
    (223, [-0.8360000000000001, 1.198, -1.47, -1.407, -0.30699999999999994, 0.71, 0.0009999999999998899, 1.4260000000000002, -0.909, 1.759], 0.8630499325236167),
    (224, [-0.8360000000000001, 1.198, -1.47, -1.407, -0.30699999999999994, 0.71, 0.0009999999999998899, 1.4260000000000002, -0.909, 1.759], 0.8630499325236167),
    (225, [-0.8360000000000001, 1.198, -1.47, -1.407, -0.30699999999999994, 0.71, 0.0009999999999998899, 1.4260000000000002, -0.909, 1.759], 0.8630499325236167),
    (226, [-0.8360000000000001, 1.198, -1.47, -1.407, -0.30699999999999994, 0.71, 0.0009999999999998899, 1.4260000000000002, -0.909, 1.759], 0.8630499325236167),
    (227, [-0.8360000000000001, 1.198, -1.47, -1.407, -0.30699999999999994, 0.71, 0.0009999999999998899, 1.4260000000000002, -0.909, 1.759], 0.8630499325236167),
    (228, [-0.8360000000000001, 1.198, -1.47, -1.407, -0.30699999999999994, 0.71, 0.0009999999999998899, 1.4260000000000002, -0.909, 1.759], 0.8630499325236167),
    (229, [-0.8360000000000001, 1.198, -1.47, -1.407, -0.30699999999999994, 0.71, 0.0009999999999998899, 1.4260000000000002, -0.909, 1.759], 0.8630499325236167),
    (230, [-0.8360000000000001, 1.198, -1.47, -1.407, -0.30699999999999994, 0.71, 0.0009999999999998899, 1.4260000000000002, -0.909, 1.759], 0.8630499325236167),
    (231, [-0.8360000000000001, 1.198, -1.47, -1.407, -0.30699999999999994, 0.71, 0.0009999999999998899, 1.4260000000000002, -0.909, 1.759], 0.8630499325236167),
    (232, [-0.8360000000000001, 1.198, -1.47, -1.407, -0.30699999999999994, 0.71, 0.0009999999999998899, 1.4260000000000002, -0.909, 1.759], 0.8630499325236167),
    (233, [-0.8360000000000001, 1.198, -1.47, -1.407, -0.30699999999999994, 0.71, 0.0009999999999998899, 1.4260000000000002, -0.909, 1.759], 0.8630499325236167),
    (234, [-0.8360000000000001, 1.198, -1.47, -1.407, -0.30699999999999994, 0.71, 0.0009999999999998899, 1.4260000000000002, -0.909, 1.759], 0.8630499325236167),
    (235, [-0.8360000000000001, 1.198, -1.47, -1.407, -0.30699999999999994, 0.71, 0.0009999999999998899, 1.4260000000000002, -0.909, 1.759], 0.8630499325236167),
    (236, [-0.8360000000000001, 1.198, -1.47, -1.407, -0.30699999999999994, 0.71, 0.0009999999999998899, 1.4260000000000002, -0.909, 1.759], 0.8630499325236167),
    (237, [-0.8360000000000001, 1.198, -1.47, -1.407, -0.30699999999999994, 0.71, 0.0009999999999998899, 1.4260000000000002, -0.909, 1.759], 0.8630499325236167),
    (238, [-0.8360000000000001, 1.198, -1.47, -1.407, -0.30699999999999994, 0.71, 0.0009999999999998899, 1.4260000000000002, -0.909, 1.759], 0.8630499325236167),
    (239, [-0.8360000000000001, 1.198, -1.47, -1.407, -0.30699999999999994, 0.71, 0.0009999999999998899, 1.4260000000000002, -0.909, 1.759], 0.8630499325236167),
    (240, [-0.8360000000000001, 1.198, -1.47, -1.407, -0.30699999999999994, 0.71, 0.0009999999999998899, 1.4260000000000002, -0.909, 1.759], 0.8630499325236167),
    (241, [-0.8360000000000001, 1.198, -1.47, -1.407, -0.30699999999999994, 0.71, 0.0009999999999998899, 1.4260000000000002, -0.909, 1.759], 0.8630499325236167),
    (242, [-0.8360000000000001, 1.198, -1.47, -1.407, -0.30699999999999994, 0.71, 0.0009999999999998899, 1.4260000000000002, -0.909, 1.759], 0.8630499325236167),
    (243, [-0.8360000000000001, 1.198, -1.47, -1.407, -0.30699999999999994, 0.71, 0.0009999999999998899, 1.4260000000000002, -0.909, 1.759], 0.8630499325236167),
    (244, [-0.8360000000000001, 1.198, -1.47, -1.407, -0.30699999999999994, 0.71, 0.0009999999999998899, 1.4260000000000002, -0.909, 1.759], 0.8630499325236167),
    (245, [-0.8360000000000001, 1.198, -1.47, -1.407, -0.30699999999999994, 0.71, 0.0009999999999998899, 1.4260000000000002, -0.909, 1.759], 0.8630499325236167),
    (246, [-0.8360000000000001, 1.198, -1.47, -1.407, -0.30699999999999994, 0.71, 0.0009999999999998899, 1.4260000000000002, -0.909, 1.759], 0.8630499325236167),
    (247, [-0.8360000000000001, 1.198, -1.47, -1.407, -0.30699999999999994, 0.71, 0.0009999999999998899, 1.4260000000000002, -0.909, 1.759], 0.8630499325236167),
    (248, [-0.8360000000000001, 1.198, -1.47, -1.407, -0.30699999999999994, 0.71, 0.0009999999999998899, 1.4260000000000002, -0.909, 1.759], 0.8630499325236167),
    (249, [-0.8360000000000001, 1.198, -1.47, -1.407, -0.30699999999999994, 0.71, 0.0009999999999998899, 1.4260000000000002, -0.909, 1.759], 0.8630499325236167),
    (250, [-0.8360000000000001, 1.198, -1.47, -1.407, -0.30699999999999994, 0.71, 0.0009999999999998899, 1.4260000000000002, -0.909, 1.759], 0.8630499325236167),
    (251, [-0.8360000000000001, 1.198, -1.47, -1.407, -0.30699999999999994, 0.71, 0.0009999999999998899, 1.4260000000000002, -0.909, 1.759], 0.8630499325236167),
    (252, [-0.8360000000000001, 1.198, -1.47, -1.407, -0.30699999999999994, 0.71, 0.0009999999999998899, 1.4260000000000002, -0.909, 1.759], 0.8630499325236167),
    (253, [-0.8360000000000001, 1.198, -1.47, -1.407, -0.30699999999999994, 0.71, 0.0009999999999998899, 1.4260000000000002, -0.909, 1.759], 0.8630499325236167),
    (254, [-0.8360000000000001, 1.198, -1.47, -1.407, -0.30699999999999994, 0.71, 0.0009999999999998899, 1.4260000000000002, -0.909, 1.759], 0.8630499325236167),
    (255, [-0.8360000000000001, 1.198, -1.47, -1.407, -0.30699999999999994, 0.71, 0.0009999999999998899, 1.4260000000000002, -0.909, 1.759], 0.8630499325236167),
    (256, [-0.752, -1.1099999999999999, 0.5960000000000001, 0.8660000000000001, 0.3900000000000001, 0.726, -0.016999999999999904, -1.024, 0.7050000000000001, 1.5630000000000002], 0.8630566801619434),
    (257, [-0.752, -1.1099999999999999, 0.5960000000000001, 0.8660000000000001, 0.3900000000000001, 0.726, -0.016999999999999904, -1.024, 0.7050000000000001, 1.5630000000000002], 0.8630566801619434),
    (258, [-0.752, -1.1099999999999999, 0.5960000000000001, 0.8660000000000001, 0.3900000000000001, 0.726, -0.016999999999999904, -1.024, 0.7050000000000001, 1.5630000000000002], 0.8630566801619434),
    (259, [-0.752, -1.1099999999999999, 0.5960000000000001, 0.8660000000000001, 0.3900000000000001, 0.726, -0.016999999999999904, -1.024, 0.7050000000000001, 1.5630000000000002], 0.8630566801619434),
    (260, [-0.752, -1.1099999999999999, 0.5960000000000001, 0.8660000000000001, 0.3900000000000001, 0.726, -0.016999999999999904, -1.024, 0.7050000000000001, 1.5630000000000002], 0.8630566801619434),
    (261, [-0.752, -1.1099999999999999, 0.5960000000000001, 0.8660000000000001, 0.3900000000000001, 0.726, -0.016999999999999904, -1.024, 0.7050000000000001, 1.5630000000000002], 0.8630566801619434),
    (262, [-0.752, -1.1099999999999999, 0.5960000000000001, 0.8660000000000001, 0.3900000000000001, 0.726, -0.016999999999999904, -1.024, 0.7050000000000001, 1.5630000000000002], 0.8630566801619434),
    (263, [-0.752, -1.1099999999999999, 0.5960000000000001, 0.8660000000000001, 0.3900000000000001, 0.726, -0.016999999999999904, -1.024, 0.7050000000000001, 1.5630000000000002], 0.8630566801619434),
    (264, [-0.752, -1.1099999999999999, 0.5960000000000001, 0.8660000000000001, 0.3900000000000001, 0.726, -0.016999999999999904, -1.024, 0.7050000000000001, 1.5630000000000002], 0.8630566801619434),
    (265, [-0.752, -1.1099999999999999, 0.5960000000000001, 0.8660000000000001, 0.3900000000000001, 0.726, -0.016999999999999904, -1.024, 0.7050000000000001, 1.5630000000000002], 0.8630566801619434),
    (266, [-0.752, -1.1099999999999999, 0.5960000000000001, 0.8660000000000001, 0.3900000000000001, 0.726, -0.016999999999999904, -1.024, 0.7050000000000001, 1.5630000000000002], 0.8630566801619434),
    (267, [-0.752, -1.1099999999999999, 0.5960000000000001, 0.8660000000000001, 0.3900000000000001, 0.726, -0.016999999999999904, -1.024, 0.7050000000000001, 1.5630000000000002], 0.8630566801619434),
    (268, [-0.752, -1.1099999999999999, 0.5960000000000001, 0.8660000000000001, 0.3900000000000001, 0.726, -0.016999999999999904, -1.024, 0.7050000000000001, 1.5630000000000002], 0.8630566801619434),
    (269, [-0.752, -1.1099999999999999, 0.5960000000000001, 0.8660000000000001, 0.3900000000000001, 0.726, -0.016999999999999904, -1.024, 0.7050000000000001, 1.5630000000000002], 0.8630566801619434),
    (270, [-0.752, -1.1099999999999999, 0.5960000000000001, 0.8660000000000001, 0.3900000000000001, 0.726, -0.016999999999999904, -1.024, 0.7050000000000001, 1.5630000000000002], 0.8630566801619434),
    (271, [-0.752, -1.1099999999999999, 0.5960000000000001, 0.8660000000000001, 0.3900000000000001, 0.726, -0.016999999999999904, -1.024, 0.7050000000000001, 1.5630000000000002], 0.8630566801619434),
    (272, [-0.752, -1.1099999999999999, 0.5960000000000001, 0.8660000000000001, 0.3900000000000001, 0.726, -0.016999999999999904, -1.024, 0.7050000000000001, 1.5630000000000002], 0.8630566801619434),
    (273, [-0.752, -1.1099999999999999, 0.5960000000000001, 0.8660000000000001, 0.3900000000000001, 0.726, -0.016999999999999904, -1.024, 0.7050000000000001, 1.5630000000000002], 0.8630566801619434),
    (274, [-0.752, -1.1099999999999999, 0.5960000000000001, 0.8660000000000001, 0.3900000000000001, 0.726, -0.016999999999999904, -1.024, 0.7050000000000001, 1.5630000000000002], 0.8630566801619434),
    (275, [-0.752, -1.1099999999999999, 0.5960000000000001, 0.8660000000000001, 0.3900000000000001, 0.726, -0.016999999999999904, -1.024, 0.7050000000000001, 1.5630000000000002], 0.8630566801619434),
    (276, [-0.752, -1.1099999999999999, 0.5960000000000001, 0.8660000000000001, 0.3900000000000001, 0.726, -0.016999999999999904, -1.024, 0.7050000000000001, 1.5630000000000002], 0.8630566801619434),
    (277, [-0.752, -1.1099999999999999, 0.5960000000000001, 0.8660000000000001, 0.3900000000000001, 0.726, -0.016999999999999904, -1.024, 0.7050000000000001, 1.5630000000000002], 0.8630566801619434),
    (278, [-0.752, -1.1099999999999999, 0.5960000000000001, 0.8660000000000001, 0.3900000000000001, 0.726, -0.016999999999999904, -1.024, 0.7050000000000001, 1.5630000000000002], 0.8630566801619434),
    (279, [-0.752, -1.1099999999999999, 0.5960000000000001, 0.8660000000000001, 0.3900000000000001, 0.726, -0.016999999999999904, -1.024, 0.7050000000000001, 1.5630000000000002], 0.8630566801619434),
    (280, [-0.752, -1.1099999999999999, 0.5960000000000001, 0.8660000000000001, 0.3900000000000001, 0.726, -0.016999999999999904, -1.024, 0.7050000000000001, 1.5630000000000002], 0.8630566801619434),
    (281, [-0.752, -1.1099999999999999, 0.5960000000000001, 0.8660000000000001, 0.3900000000000001, 0.726, -0.016999999999999904, -1.024, 0.7050000000000001, 1.5630000000000002], 0.8630566801619434),
    (282, [-0.752, -1.1099999999999999, 0.5960000000000001, 0.8660000000000001, 0.3900000000000001, 0.726, -0.016999999999999904, -1.024, 0.7050000000000001, 1.5630000000000002], 0.8630566801619434),
    (283, [-0.752, -1.1099999999999999, 0.5960000000000001, 0.8660000000000001, 0.3900000000000001, 0.726, -0.016999999999999904, -1.024, 0.7050000000000001, 1.5630000000000002], 0.8630566801619434),
    (284, [-0.752, -1.1099999999999999, 0.5960000000000001, 0.8660000000000001, 0.3900000000000001, 0.726, -0.016999999999999904, -1.024, 0.7050000000000001, 1.5630000000000002], 0.8630566801619434),
    (285, [-0.752, -1.1099999999999999, 0.5960000000000001, 0.8660000000000001, 0.3900000000000001, 0.726, -0.016999999999999904, -1.024, 0.7050000000000001, 1.5630000000000002], 0.8630566801619434),
    (286, [-0.752, -1.1099999999999999, 0.5960000000000001, 0.8660000000000001, 0.3900000000000001, 0.726, -0.016999999999999904, -1.024, 0.7050000000000001, 1.5630000000000002], 0.8630566801619434),
    (287, [-0.752, -1.1099999999999999, 0.5960000000000001, 0.8660000000000001, 0.3900000000000001, 0.726, -0.016999999999999904, -1.024, 0.7050000000000001, 1.5630000000000002], 0.8630566801619434),
    (288, [-0.752, -1.1099999999999999, 0.5960000000000001, 0.8660000000000001, 0.3900000000000001, 0.726, -0.016999999999999904, -1.024, 0.7050000000000001, 1.5630000000000002], 0.8630566801619434),
    (289, [-0.752, -1.1099999999999999, 0.5960000000000001, 0.8660000000000001, 0.3900000000000001, 0.726, -0.016999999999999904, -1.024, 0.7050000000000001, 1.5630000000000002], 0.8630566801619434),
    (290, [-0.752, -1.1099999999999999, 0.5960000000000001, 0.8660000000000001, 0.3900000000000001, 0.726, -0.016999999999999904, -1.024, 0.7050000000000001, 1.5630000000000002], 0.8630566801619434),
    (291, [-0.752, -1.1099999999999999, 0.5960000000000001, 0.8660000000000001, 0.3900000000000001, 0.726, -0.016999999999999904, -1.024, 0.7050000000000001, 1.5630000000000002], 0.8630566801619434),
    (292, [-0.752, -1.1099999999999999, 0.5960000000000001, 0.8660000000000001, 0.3900000000000001, 0.726, -0.016999999999999904, -1.024, 0.7050000000000001, 1.5630000000000002], 0.8630566801619434),
    (293, [-0.752, -1.1099999999999999, 0.5960000000000001, 0.8660000000000001, 0.3900000000000001, 0.726, -0.016999999999999904, -1.024, 0.7050000000000001, 1.5630000000000002], 0.8630566801619434),
    (294, [-0.752, -1.1099999999999999, 0.5960000000000001, 0.8660000000000001, 0.3900000000000001, 0.726, -0.016999999999999904, -1.024, 0.7050000000000001, 1.5630000000000002], 0.8630566801619434),
    (295, [-0.752, -1.1099999999999999, 0.5960000000000001, 0.8660000000000001, 0.3900000000000001, 0.726, -0.016999999999999904, -1.024, 0.7050000000000001, 1.5630000000000002], 0.8630566801619434),
    (296, [-0.752, -1.1099999999999999, 0.5960000000000001, 0.8660000000000001, 0.3900000000000001, 0.726, -0.016999999999999904, -1.024, 0.7050000000000001, 1.5630000000000002], 0.8630566801619434),
    (297, [-0.752, -1.1099999999999999, 0.5960000000000001, 0.8660000000000001, 0.3900000000000001, 0.726, -0.016999999999999904, -1.024, 0.7050000000000001, 1.5630000000000002], 0.8630566801619434),
    (298, [-0.752, -1.1099999999999999, 0.5960000000000001, 0.8660000000000001, 0.3900000000000001, 0.726, -0.016999999999999904, -1.024, 0.7050000000000001, 1.5630000000000002], 0.8630566801619434),
    (299, [-0.752, -1.1099999999999999, 0.5960000000000001, 0.8660000000000001, 0.3900000000000001, 0.726, -0.016999999999999904, -1.024, 0.7050000000000001, 1.5630000000000002], 0.8630566801619434),
]

