ranges of every chromosome : (-1, 1)
    selection method is: ExponentialRankingSelection
    crossover method is: UniformCrossover
    pc: The probability of crossover: 0.850000
    pe: Gene exchange probability: 0.700000
    mutation method is: FlipBitBigMutation
    pm: The probability of mutation: 0.100000
    pbm: The probability of big mutation: 0.500000
    alpha: intensive factor: 0.600000
best_fit = [
    (0, [0.7610000000000001, 0.667, 0.6080000000000001, -0.44999999999999996, -0.386, -0.5429999999999999, 0.714, 0.784, 0.472, 0.778], 0.8526585695006748),
    (1, [0.7610000000000001, 0.667, 0.6080000000000001, -0.44999999999999996, -0.386, -0.5429999999999999, 0.714, 0.784, 0.472, 0.778], 0.8526585695006748),
    (2, [0.7610000000000001, 0.667, 0.6080000000000001, -0.44999999999999996, -0.386, -0.5429999999999999, 0.714, 0.784, 0.472, 0.778], 0.8526585695006748),
    (3, [0.7610000000000001, 0.667, 0.6080000000000001, -0.44999999999999996, -0.386, -0.5429999999999999, 0.714, 0.784, 0.472, 0.778], 0.8526585695006748),
    (4, [0.7610000000000001, 0.667, 0.6080000000000001, -0.44999999999999996, -0.386, -0.5429999999999999, 0.714, 0.784, 0.472, 0.778], 0.8526585695006748),
    (5, [0.5940000000000001, -0.579, 0.129, -0.239, -0.19599999999999995, 0.5960000000000001, -0.272, -0.5589999999999999, 0.27500000000000013, 0.7730000000000001], 0.8577867746288799),
    (6, [0.5940000000000001, -0.579, 0.129, -0.239, -0.19599999999999995, 0.5960000000000001, -0.272, -0.5589999999999999, 0.27500000000000013, 0.7730000000000001], 0.8577867746288799),
    (7, [0.5940000000000001, -0.579, 0.129, -0.239, -0.19599999999999995, 0.5960000000000001, -0.272, -0.5589999999999999, 0.27500000000000013, 0.7730000000000001], 0.8577867746288799),
    (8, [0.5940000000000001, -0.579, 0.129, -0.239, -0.19599999999999995, 0.5960000000000001, -0.272, -0.5589999999999999, 0.27500000000000013, 0.7730000000000001], 0.8577867746288799),
    (9, [0.5940000000000001, -0.579, 0.129, -0.239, -0.19599999999999995, 0.5960000000000001, -0.272, -0.5589999999999999, 0.27500000000000013, 0.7730000000000001], 0.8577867746288799),
    (10, [0.5940000000000001, -0.579, 0.129, -0.239, -0.19599999999999995, 0.5960000000000001, -0.272, -0.5589999999999999, 0.27500000000000013, 0.7730000000000001], 0.8577867746288799),
    (11, [0.5940000000000001, -0.579, 0.129, -0.239, -0.19599999999999995, 0.5960000000000001, -0.272, -0.5589999999999999, 0.27500000000000013, 0.7730000000000001], 0.8577867746288799),
    (12, [0.5940000000000001, -0.579, 0.129, -0.239, -0.19599999999999995, 0.5960000000000001, -0.272, -0.5589999999999999, 0.27500000000000013, 0.7730000000000001], 0.8577867746288799),
    (13, [0.5940000000000001, -0.579, 0.129, -0.239, -0.19599999999999995, 0.5960000000000001, -0.272, -0.5589999999999999, 0.27500000000000013, 0.7730000000000001], 0.8577867746288799),
    (14, [0.5940000000000001, -0.579, 0.129, -0.239, -0.19599999999999995, 0.5960000000000001, -0.272, -0.5589999999999999, 0.27500000000000013, 0.7730000000000001], 0.8577867746288799),
    (15, [0.5940000000000001, -0.579, 0.129, -0.239, -0.19599999999999995, 0.5960000000000001, -0.272, -0.5589999999999999, 0.27500000000000013, 0.7730000000000001], 0.8577867746288799),
    (16, [0.5940000000000001, -0.579, 0.129, -0.239, -0.19599999999999995, 0.5960000000000001, -0.272, -0.5589999999999999, 0.27500000000000013, 0.7730000000000001], 0.8577867746288799),
    (17, [0.5940000000000001, -0.579, 0.129, -0.239, -0.19599999999999995, 0.5960000000000001, -0.272, -0.5589999999999999, 0.27500000000000013, 0.7730000000000001], 0.8577867746288799),
    (18, [0.5940000000000001, -0.579, 0.129, -0.239, -0.19599999999999995, 0.5960000000000001, -0.272, -0.5589999999999999, 0.27500000000000013, 0.7730000000000001], 0.8577867746288799),
    (19, [0.5940000000000001, -0.579, 0.129, -0.239, -0.19599999999999995, 0.5960000000000001, -0.272, -0.5589999999999999, 0.27500000000000013, 0.7730000000000001], 0.8577867746288799),
    (20, [0.5940000000000001, -0.579, 0.129, -0.239, -0.19599999999999995, 0.5960000000000001, -0.272, -0.5589999999999999, 0.27500000000000013, 0.7730000000000001], 0.8577867746288799),
    (21, [0.5940000000000001, -0.579, 0.129, -0.239, -0.19599999999999995, 0.5960000000000001, -0.272, -0.5589999999999999, 0.27500000000000013, 0.7730000000000001], 0.8577867746288799),
    (22, [0.5940000000000001, -0.579, 0.129, -0.239, -0.19599999999999995, 0.5960000000000001, -0.272, -0.5589999999999999, 0.27500000000000013, 0.7730000000000001], 0.8577867746288799),
    (23, [0.5940000000000001, -0.579, 0.129, -0.239, -0.19599999999999995, 0.5960000000000001, -0.272, -0.5589999999999999, 0.27500000000000013, 0.7730000000000001], 0.8577867746288799),
    (24, [0.5940000000000001, -0.579, 0.129, -0.239, -0.19599999999999995, 0.5960000000000001, -0.272, -0.5589999999999999, 0.27500000000000013, 0.7730000000000001], 0.8577867746288799),
    (25, [0.5940000000000001, -0.579, 0.129, -0.239, -0.19599999999999995, 0.5960000000000001, -0.272, -0.5589999999999999, 0.27500000000000013, 0.7730000000000001], 0.8577867746288799),
    (26, [0.5940000000000001, -0.579, 0.129, -0.239, -0.19599999999999995, 0.5960000000000001, -0.272, -0.5589999999999999, 0.27500000000000013, 0.7730000000000001], 0.8577867746288799),
    (27, [0.5940000000000001, -0.579, 0.129, -0.239, -0.19599999999999995, 0.5960000000000001, -0.272, -0.5589999999999999, 0.27500000000000013, 0.7730000000000001], 0.8577867746288799),
    (28, [0.5940000000000001, -0.579, 0.129, -0.239, -0.19599999999999995, 0.5960000000000001, -0.272, -0.5589999999999999, 0.27500000000000013, 0.7730000000000001], 0.8577867746288799),
    (29, [0.5940000000000001, -0.579, 0.129, -0.239, -0.19599999999999995, 0.5960000000000001, -0.272, -0.5589999999999999, 0.27500000000000013, 0.7730000000000001], 0.8577867746288799),
    (30, [0.5940000000000001, -0.579, 0.129, -0.239, -0.19599999999999995, 0.5960000000000001, -0.272, -0.5589999999999999, 0.27500000000000013, 0.7730000000000001], 0.8577867746288799),
    (31, [0.5940000000000001, -0.579, 0.129, -0.239, -0.19599999999999995, 0.5960000000000001, -0.272, -0.5589999999999999, 0.27500000000000013, 0.7730000000000001], 0.8577867746288799),
    (32, [0.472, 0.984, 0.7510000000000001, -0.491, 0.698, 0.2370000000000001, 0.806, -0.9, 0.401, 0.125], 0.8626585695006748),
    (33, [0.472, 0.984, 0.7510000000000001, -0.491, 0.698, 0.2370000000000001, 0.806, -0.9, 0.401, 0.125], 0.8626585695006748),
    (34, [0.472, 0.984, 0.7510000000000001, -0.491, 0.698, 0.2370000000000001, 0.806, -0.9, 0.401, 0.125], 0.8626585695006748),
    (35, [0.472, 0.984, 0.7510000000000001, -0.491, 0.698, 0.2370000000000001, 0.806, -0.9, 0.401, 0.125], 0.8626585695006748),
    (36, [0.472, 0.984, 0.7510000000000001, -0.491, 0.698, 0.2370000000000001, 0.806, -0.9, 0.401, 0.125], 0.8626585695006748),
    (37, [0.472, 0.984, 0.7510000000000001, -0.491, 0.698, 0.2370000000000001, 0.806, -0.9, 0.401, 0.125], 0.8626585695006748),
    (38, [0.472, 0.984, 0.7510000000000001, -0.491, 0.698, 0.2370000000000001, 0.806, -0.9, 0.401, 0.125], 0.8626585695006748),
    (39, [0.472, 0.984, 0.7510000000000001, -0.491, 0.698, 0.2370000000000001, 0.806, -0.9, 0.401, 0.125], 0.8626585695006748),
    (40, [0.472, 0.984, 0.7510000000000001, -0.491, 0.698, 0.2370000000000001, 0.806, -0.9, 0.401, 0.125], 0.8626585695006748),
    (41, [0.472, 0.984, 0.7510000000000001, -0.491, 0.698, 0.2370000000000001, 0.806, -0.9, 0.401, 0.125], 0.8626585695006748),
    (42, [0.472, 0.984, 0.7510000000000001, -0.491, 0.698, 0.2370000000000001, 0.806, -0.9, 0.401, 0.125], 0.8626585695006748),
    (43, [0.472, 0.984, 0.7510000000000001, -0.491, 0.698, 0.2370000000000001, 0.806, -0.9, 0.401, 0.125], 0.8626585695006748),
    (44, [0.472, 0.984, 0.7510000000000001, -0.491, 0.698, 0.2370000000000001, 0.806, -0.9, 0.401, 0.125], 0.8626585695006748),
    (45, [0.472, 0.984, 0.7510000000000001, -0.491, 0.698, 0.2370000000000001, 0.806, -0.9, 0.401, 0.125], 0.8626585695006748),
    (46, [0.472, 0.984, 0.7510000000000001, -0.491, 0.698, 0.2370000000000001, 0.806, -0.9, 0.401, 0.125], 0.8626585695006748),
    (47, [0.472, 0.984, 0.7510000000000001, -0.491, 0.698, 0.2370000000000001, 0.806, -0.9, 0.401, 0.125], 0.8626585695006748),
    (48, [0.472, 0.984, 0.7510000000000001, -0.491, 0.698, 0.2370000000000001, 0.806, -0.9, 0.401, 0.125], 0.8626585695006748),
    (49, [0.472, 0.984, 0.7510000000000001, -0.491, 0.698, 0.2370000000000001, 0.806, -0.9, 0.401, 0.125], 0.8626585695006748),
    (50, [0.472, 0.984, 0.7510000000000001, -0.491, 0.698, 0.2370000000000001, 0.806, -0.9, 0.401, 0.125], 0.8626585695006748),
    (51, [0.472, 0.984, 0.7510000000000001, -0.491, 0.698, 0.2370000000000001, 0.806, -0.9, 0.401, 0.125], 0.8626585695006748),
    (52, [0.472, 0.984, 0.7510000000000001, -0.491, 0.698, 0.2370000000000001, 0.806, -0.9, 0.401, 0.125], 0.8626585695006748),
    (53, [0.472, 0.984, 0.7510000000000001, -0.491, 0.698, 0.2370000000000001, 0.806, -0.9, 0.401, 0.125], 0.8626585695006748),
    (54, [0.472, 0.984, 0.7510000000000001, -0.491, 0.698, 0.2370000000000001, 0.806, -0.9, 0.401, 0.125], 0.8626585695006748),
    (55, [0.472, 0.984, 0.7510000000000001, -0.491, 0.698, 0.2370000000000001, 0.806, -0.9, 0.401, 0.125], 0.8626585695006748),
    (56, [0.472, 0.984, 0.7510000000000001, -0.491, 0.698, 0.2370000000000001, 0.806, -0.9, 0.401, 0.125], 0.8626585695006748),
    (57, [0.472, 0.984, 0.7510000000000001, -0.491, 0.698, 0.2370000000000001, 0.806, -0.9, 0.401, 0.125], 0.8626585695006748),
    (58, [0.472, 0.984, 0.7510000000000001, -0.491, 0.698, 0.2370000000000001, 0.806, -0.9, 0.401, 0.125], 0.8626585695006748),
    (59, [0.472, 0.984, 0.7510000000000001, -0.491, 0.698, 0.2370000000000001, 0.806, -0.9, 0.401, 0.125], 0.8626585695006748),
    (60, [0.472, 0.984, 0.7510000000000001, -0.491, 0.698, 0.2370000000000001, 0.806, -0.9, 0.401, 0.125], 0.8626585695006748),
    (61, [0.472, 0.984, 0.7510000000000001, -0.491, 0.698, 0.2370000000000001, 0.806, -0.9, 0.401, 0.125], 0.8626585695006748),
    (62, [0.472, 0.984, 0.7510000000000001, -0.491, 0.698, 0.2370000000000001, 0.806, -0.9, 0.401, 0.125], 0.8626585695006748),
    (63, [0.472, 0.984, 0.7510000000000001, -0.491, 0.698, 0.2370000000000001, 0.806, -0.9, 0.401, 0.125], 0.8626585695006748),
    (64, [0.472, 0.984, 0.7510000000000001, -0.491, 0.698, 0.2370000000000001, 0.806, -0.9, 0.401, 0.125], 0.8626585695006748),
    (65, [0.472, 0.984, 0.7510000000000001, -0.491, 0.698, 0.2370000000000001, 0.806, -0.9, 0.401, 0.125], 0.8626585695006748),
    (66, [0.472, 0.984, 0.7510000000000001, -0.491, 0.698, 0.2370000000000001, 0.806, -0.9, 0.401, 0.125], 0.8626585695006748),
    (67, [0.472, 0.984, 0.7510000000000001, -0.491, 0.698, 0.2370000000000001, 0.806, -0.9, 0.401, 0.125], 0.8626585695006748),
    (68, [0.472, 0.984, 0.7510000000000001, -0.491, 0.698, 0.2370000000000001, 0.806, -0.9, 0.401, 0.125], 0.8626585695006748),
    (69, [0.472, 0.984, 0.7510000000000001, -0.491, 0.698, 0.2370000000000001, 0.806, -0.9, 0.401, 0.125], 0.8626585695006748),
    (70, [0.472, 0.984, 0.7510000000000001, -0.491, 0.698, 0.2370000000000001, 0.806, -0.9, 0.401, 0.125], 0.8626585695006748),
    (71, [0.472, 0.984, 0.7510000000000001, -0.491, 0.698, 0.2370000000000001, 0.806, -0.9, 0.401, 0.125], 0.8626585695006748),
    (72, [0.472, 0.984, 0.7510000000000001, -0.491, 0.698, 0.2370000000000001, 0.806, -0.9, 0.401, 0.125], 0.8626585695006748),
    (73, [0.472, 0.984, 0.7510000000000001, -0.491, 0.698, 0.2370000000000001, 0.806, -0.9, 0.401, 0.125], 0.8626585695006748),
    (74, [0.472, 0.984, 0.7510000000000001, -0.491, 0.698, 0.2370000000000001, 0.806, -0.9, 0.401, 0.125], 0.8626585695006748),
    (75, [0.472, 0.984, 0.7510000000000001, -0.491, 0.698, 0.2370000000000001, 0.806, -0.9, 0.401, 0.125], 0.8626585695006748),
    (76, [0.472, 0.984, 0.7510000000000001, -0.491, 0.698, 0.2370000000000001, 0.806, -0.9, 0.401, 0.125], 0.8626585695006748),
    (77, [0.472, 0.984, 0.7510000000000001, -0.491, 0.698, 0.2370000000000001, 0.806, -0.9, 0.401, 0.125], 0.8626585695006748),
    (78, [0.472, 0.984, 0.7510000000000001, -0.491, 0.698, 0.2370000000000001, 0.806, -0.9, 0.401, 0.125], 0.8626585695006748),
    (79, [0.472, 0.984, 0.7510000000000001, -0.491, 0.698, 0.2370000000000001, 0.806, -0.9, 0.401, 0.125], 0.8626585695006748),
    (80, [0.472, 0.984, 0.7510000000000001, -0.491, 0.698, 0.2370000000000001, 0.806, -0.9, 0.401, 0.125], 0.8626585695006748),
    (81, [0.472, 0.984, 0.7510000000000001, -0.491, 0.698, 0.2370000000000001, 0.806, -0.9, 0.401, 0.125], 0.8626585695006748),
    (82, [0.472, 0.984, 0.7510000000000001, -0.491, 0.698, 0.2370000000000001, 0.806, -0.9, 0.401, 0.125], 0.8626585695006748),
    (83, [0.472, 0.984, 0.7510000000000001, -0.491, 0.698, 0.2370000000000001, 0.806, -0.9, 0.401, 0.125], 0.8626585695006748),
    (84, [0.472, 0.984, 0.7510000000000001, -0.491, 0.698, 0.2370000000000001, 0.806, -0.9, 0.401, 0.125], 0.8626585695006748),
    (85, [0.472, 0.984, 0.7510000000000001, -0.491, 0.698, 0.2370000000000001, 0.806, -0.9, 0.401, 0.125], 0.8626585695006748),
    (86, [0.472, 0.984, 0.7510000000000001, -0.491, 0.698, 0.2370000000000001, 0.806, -0.9, 0.401, 0.125], 0.8626585695006748),
    (87, [0.472, 0.984, 0.7510000000000001, -0.491, 0.698, 0.2370000000000001, 0.806, -0.9, 0.401, 0.125], 0.8626585695006748),
    (88, [0.472, 0.984, 0.7510000000000001, -0.491, 0.698, 0.2370000000000001, 0.806, -0.9, 0.401, 0.125], 0.8626585695006748),
    (89, [0.472, 0.984, 0.7510000000000001, -0.491, 0.698, 0.2370000000000001, 0.806, -0.9, 0.401, 0.125], 0.8626585695006748),
    (90, [0.472, 0.984, 0.7510000000000001, -0.491, 0.698, 0.2370000000000001, 0.806, -0.9, 0.401, 0.125], 0.8626585695006748),
    (91, [0.472, 0.984, 0.7510000000000001, -0.491, 0.698, 0.2370000000000001, 0.806, -0.9, 0.401, 0.125], 0.8626585695006748),
    (92, [0.472, 0.984, 0.7510000000000001, -0.491, 0.698, 0.2370000000000001, 0.806, -0.9, 0.401, 0.125], 0.8626585695006748),
    (93, [0.472, 0.984, 0.7510000000000001, -0.491, 0.698, 0.2370000000000001, 0.806, -0.9, 0.401, 0.125], 0.8626585695006748),
    (94, [0.472, 0.984, 0.7510000000000001, -0.491, 0.698, 0.2370000000000001, 0.806, -0.9, 0.401, 0.125], 0.8626585695006748),
    (95, [0.472, 0.984, 0.7510000000000001, -0.491, 0.698, 0.2370000000000001, 0.806, -0.9, 0.401, 0.125], 0.8626585695006748),
    (96, [0.472, 0.984, 0.7510000000000001, -0.491, 0.698, 0.2370000000000001, 0.806, -0.9, 0.401, 0.125], 0.8626585695006748),
    (97, [0.472, 0.984, 0.7510000000000001, -0.491, 0.698, 0.2370000000000001, 0.806, -0.9, 0.401, 0.125], 0.8626585695006748),
    (98, [0.472, 0.984, 0.7510000000000001, -0.491, 0.698, 0.2370000000000001, 0.806, -0.9, 0.401, 0.125], 0.8626585695006748),
    (99, [0.472, 0.984, 0.7510000000000001, -0.491, 0.698, 0.2370000000000001, 0.806, -0.9, 0.401, 0.125], 0.8626585695006748),
    (100, [0.472, 0.984, 0.7510000000000001, -0.491, 0.698, 0.2370000000000001, 0.806, -0.9, 0.401, 0.125], 0.8626585695006748),
    (101, [0.472, 0.984, 0.7510000000000001, -0.491, 0.698, 0.2370000000000001, 0.806, -0.9, 0.401, 0.125], 0.8626585695006748),
    (102, [0.472, 0.984, 0.7510000000000001, -0.491, 0.698, 0.2370000000000001, 0.806, -0.9, 0.401, 0.125], 0.8626585695006748),
    (103, [0.472, 0.984, 0.7510000000000001, -0.491, 0.698, 0.2370000000000001, 0.806, -0.9, 0.401, 0.125], 0.8626585695006748),
    (104, [0.472, 0.984, 0.7510000000000001, -0.491, 0.698, 0.2370000000000001, 0.806, -0.9, 0.401, 0.125], 0.8626585695006748),
    (105, [0.472, 0.984, 0.7510000000000001, -0.491, 0.698, 0.2370000000000001, 0.806, -0.9, 0.401, 0.125], 0.8626585695006748),
    (106, [0.472, 0.984, 0.7510000000000001, -0.491, 0.698, 0.2370000000000001, 0.806, -0.9, 0.401, 0.125], 0.8626585695006748),
    (107, [0.472, 0.984, 0.7510000000000001, -0.491, 0.698, 0.2370000000000001, 0.806, -0.9, 0.401, 0.125], 0.8626585695006748),
    (108, [0.472, 0.984, 0.7510000000000001, -0.491, 0.698, 0.2370000000000001, 0.806, -0.9, 0.401, 0.125], 0.8626585695006748),
    (109, [0.472, 0.984, 0.7510000000000001, -0.491, 0.698, 0.2370000000000001, 0.806, -0.9, 0.401, 0.125], 0.8626585695006748),
    (110, [0.472, 0.984, 0.7510000000000001, -0.491, 0.698, 0.2370000000000001, 0.806, -0.9, 0.401, 0.125], 0.8626585695006748),
    (111, [0.472, 0.984, 0.7510000000000001, -0.491, 0.698, 0.2370000000000001, 0.806, -0.9, 0.401, 0.125], 0.8626585695006748),
    (112, [0.472, 0.984, 0.7510000000000001, -0.491, 0.698, 0.2370000000000001, 0.806, -0.9, 0.401, 0.125], 0.8626585695006748),
    (113, [0.472, 0.984, 0.7510000000000001, -0.491, 0.698, 0.2370000000000001, 0.806, -0.9, 0.401, 0.125], 0.8626585695006748),
    (114, [0.472, 0.984, 0.7510000000000001, -0.491, 0.698, 0.2370000000000001, 0.806, -0.9, 0.401, 0.125], 0.8626585695006748),
    (115, [0.472, 0.984, 0.7510000000000001, -0.491, 0.698, 0.2370000000000001, 0.806, -0.9, 0.401, 0.125], 0.8626585695006748),
    (116, [0.472, 0.984, 0.7510000000000001, -0.491, 0.698, 0.2370000000000001, 0.806, -0.9, 0.401, 0.125], 0.8626585695006748),
    (117, [0.472, 0.984, 0.7510000000000001, -0.491, 0.698, 0.2370000000000001, 0.806, -0.9, 0.401, 0.125], 0.8626585695006748),
    (118, [0.472, 0.984, 0.7510000000000001, -0.491, 0.698, 0.2370000000000001, 0.806, -0.9, 0.401, 0.125], 0.8626585695006748),
    (119, [0.472, 0.984, 0.7510000000000001, -0.491, 0.698, 0.2370000000000001, 0.806, -0.9, 0.401, 0.125], 0.8626585695006748),
    (120, [0.472, 0.984, 0.7510000000000001, -0.491, 0.698, 0.2370000000000001, 0.806, -0.9, 0.401, 0.125], 0.8626585695006748),
    (121, [0.472, 0.984, 0.7510000000000001, -0.491, 0.698, 0.2370000000000001, 0.806, -0.9, 0.401, 0.125], 0.8626585695006748),
    (122, [0.472, 0.984, 0.7510000000000001, -0.491, 0.698, 0.2370000000000001, 0.806, -0.9, 0.401, 0.125], 0.8626585695006748),
    (123, [0.472, 0.984, 0.7510000000000001, -0.491, 0.698, 0.2370000000000001, 0.806, -0.9, 0.401, 0.125], 0.8626585695006748),
    (124, [-0.28400000000000003, -0.52, -0.247, -0.256, 0.29200000000000004, 0.20999999999999996, -0.782, -0.376, 0.30400000000000005, -0.345], 0.8627867746288798),
    (125, [-0.28400000000000003, -0.52, -0.247, -0.256, 0.29200000000000004, 0.20999999999999996, -0.782, -0.376, 0.30400000000000005, -0.345], 0.8627867746288798),
    (126, [-0.28400000000000003, -0.52, -0.247, -0.256, 0.29200000000000004, 0.20999999999999996, -0.782, -0.376, 0.30400000000000005, -0.345], 0.8627867746288798),
    (127, [-0.28400000000000003, -0.52, -0.247, -0.256, 0.29200000000000004, 0.20999999999999996, -0.782, -0.376, 0.30400000000000005, -0.345], 0.8627867746288798),
    (128, [-0.28400000000000003, -0.52, -0.247, -0.256, 0.29200000000000004, 0.20999999999999996, -0.782, -0.376, 0.30400000000000005, -0.345], 0.8627867746288798),
    (129, [-0.28400000000000003, -0.52, -0.247, -0.256, 0.29200000000000004, 0.20999999999999996, -0.782, -0.376, 0.30400000000000005, -0.345], 0.8627867746288798),
    (130, [-0.28400000000000003, -0.52, -0.247, -0.256, 0.29200000000000004, 0.20999999999999996, -0.782, -0.376, 0.30400000000000005, -0.345], 0.8627867746288798),
    (131, [-0.28400000000000003, -0.52, -0.247, -0.256, 0.29200000000000004, 0.20999999999999996, -0.782, -0.376, 0.30400000000000005, -0.345], 0.8627867746288798),
    (132, [-0.28400000000000003, -0.52, -0.247, -0.256, 0.29200000000000004, 0.20999999999999996, -0.782, -0.376, 0.30400000000000005, -0.345], 0.8627867746288798),
    (133, [-0.28400000000000003, -0.52, -0.247, -0.256, 0.29200000000000004, 0.20999999999999996, -0.782, -0.376, 0.30400000000000005, -0.345], 0.8627867746288798),
    (134, [-0.28400000000000003, -0.52, -0.247, -0.256, 0.29200000000000004, 0.20999999999999996, -0.782, -0.376, 0.30400000000000005, -0.345], 0.8627867746288798),
    (135, [-0.28400000000000003, -0.52, -0.247, -0.256, 0.29200000000000004, 0.20999999999999996, -0.782, -0.376, 0.30400000000000005, -0.345], 0.8627867746288798),
    (136, [-0.28400000000000003, -0.52, -0.247, -0.256, 0.29200000000000004, 0.20999999999999996, -0.782, -0.376, 0.30400000000000005, -0.345], 0.8627867746288798),
    (137, [-0.28400000000000003, -0.52, -0.247, -0.256, 0.29200000000000004, 0.20999999999999996, -0.782, -0.376, 0.30400000000000005, -0.345], 0.8627867746288798),
    (138, [-0.28400000000000003, -0.52, -0.247, -0.256, 0.29200000000000004, 0.20999999999999996, -0.782, -0.376, 0.30400000000000005, -0.345], 0.8627867746288798),
    (139, [-0.28400000000000003, -0.52, -0.247, -0.256, 0.29200000000000004, 0.20999999999999996, -0.782, -0.376, 0.30400000000000005, -0.345], 0.8627867746288798),
    (140, [-0.28400000000000003, -0.52, -0.247, -0.256, 0.29200000000000004, 0.20999999999999996, -0.782, -0.376, 0.30400000000000005, -0.345], 0.8627867746288798),
    (141, [-0.28400000000000003, -0.52, -0.247, -0.256, 0.29200000000000004, 0.20999999999999996, -0.782, -0.376, 0.30400000000000005, -0.345], 0.8627867746288798),
    (142, [-0.28400000000000003, -0.52, -0.247, -0.256, 0.29200000000000004, 0.20999999999999996, -0.782, -0.376, 0.30400000000000005, -0.345], 0.8627867746288798),
    (143, [-0.28400000000000003, -0.52, -0.247, -0.256, 0.29200000000000004, 0.20999999999999996, -0.782, -0.376, 0.30400000000000005, -0.345], 0.8627867746288798),
    (144, [-0.28400000000000003, -0.52, -0.247, -0.256, 0.29200000000000004, 0.20999999999999996, -0.782, -0.376, 0.30400000000000005, -0.345], 0.8627867746288798),
    (145, [-0.28400000000000003, -0.52, -0.247, -0.256, 0.29200000000000004, 0.20999999999999996, -0.782, -0.376, 0.30400000000000005, -0.345], 0.8627867746288798),
    (146, [-0.28400000000000003, -0.52, -0.247, -0.256, 0.29200000000000004, 0.20999999999999996, -0.782, -0.376, 0.30400000000000005, -0.345], 0.8627867746288798),
    (147, [-0.28400000000000003, -0.52, -0.247, -0.256, 0.29200000000000004, 0.20999999999999996, -0.782, -0.376, 0.30400000000000005, -0.345], 0.8627867746288798),
    (148, [-0.28400000000000003, -0.52, -0.247, -0.256, 0.29200000000000004, 0.20999999999999996, -0.782, -0.376, 0.30400000000000005, -0.345], 0.8627867746288798),
    (149, [-0.28400000000000003, -0.52, -0.247, -0.256, 0.29200000000000004, 0.20999999999999996, -0.782, -0.376, 0.30400000000000005, -0.345], 0.8627867746288798),
    (150, [-0.28400000000000003, -0.52, -0.247, -0.256, 0.29200000000000004, 0.20999999999999996, -0.782, -0.376, 0.30400000000000005, -0.345], 0.8627867746288798),
    (151, [-0.28400000000000003, -0.52, -0.247, -0.256, 0.29200000000000004, 0.20999999999999996, -0.782, -0.376, 0.30400000000000005, -0.345], 0.8627867746288798),
    (152, [-0.28400000000000003, -0.52, -0.247, -0.256, 0.29200000000000004, 0.20999999999999996, -0.782, -0.376, 0.30400000000000005, -0.345], 0.8627867746288798),
    (153, [-0.28400000000000003, -0.52, -0.247, -0.256, 0.29200000000000004, 0.20999999999999996, -0.782, -0.376, 0.30400000000000005, -0.345], 0.8627867746288798),
    (154, [-0.28400000000000003, -0.52, -0.247, -0.256, 0.29200000000000004, 0.20999999999999996, -0.782, -0.376, 0.30400000000000005, -0.345], 0.8627867746288798),
    (155, [-0.28400000000000003, -0.52, -0.247, -0.256, 0.29200000000000004, 0.20999999999999996, -0.782, -0.376, 0.30400000000000005, -0.345], 0.8627867746288798),
    (156, [-0.28400000000000003, -0.52, -0.247, -0.256, 0.29200000000000004, 0.20999999999999996, -0.782, -0.376, 0.30400000000000005, -0.345], 0.8627867746288798),
    (157, [-0.28400000000000003, -0.52, -0.247, -0.256, 0.29200000000000004, 0.20999999999999996, -0.782, -0.376, 0.30400000000000005, -0.345], 0.8627867746288798),
    (158, [-0.28400000000000003, -0.52, -0.247, -0.256, 0.29200000000000004, 0.20999999999999996, -0.782, -0.376, 0.30400000000000005, -0.345], 0.8627867746288798),
    (159, [-0.28400000000000003, -0.52, -0.247, -0.256, 0.29200000000000004, 0.20999999999999996, -0.782, -0.376, 0.30400000000000005, -0.345], 0.8627867746288798),
    (160, [-0.28400000000000003, -0.52, -0.247, -0.256, 0.29200000000000004, 0.20999999999999996, -0.782, -0.376, 0.30400000000000005, -0.345], 0.8627867746288798),
    (161, [-0.28400000000000003, -0.52, -0.247, -0.256, 0.29200000000000004, 0.20999999999999996, -0.782, -0.376, 0.30400000000000005, -0.345], 0.8627867746288798),
    (162, [-0.28400000000000003, -0.52, -0.247, -0.256, 0.29200000000000004, 0.20999999999999996, -0.782, -0.376, 0.30400000000000005, -0.345], 0.8627867746288798),
    (163, [-0.28400000000000003, -0.52, -0.247, -0.256, 0.29200000000000004, 0.20999999999999996, -0.782, -0.376, 0.30400000000000005, -0.345], 0.8627867746288798),
    (164, [-0.28400000000000003, -0.52, -0.247, -0.256, 0.29200000000000004, 0.20999999999999996, -0.782, -0.376, 0.30400000000000005, -0.345], 0.8627867746288798),
    (165, [-0.28400000000000003, -0.52, -0.247, -0.256, 0.29200000000000004, 0.20999999999999996, -0.782, -0.376, 0.30400000000000005, -0.345], 0.8627867746288798),
    (166, [-0.28400000000000003, -0.52, -0.247, -0.256, 0.29200000000000004, 0.20999999999999996, -0.782, -0.376, 0.30400000000000005, -0.345], 0.8627867746288798),
    (167, [-0.28400000000000003, -0.52, -0.247, -0.256, 0.29200000000000004, 0.20999999999999996, -0.782, -0.376, 0.30400000000000005, -0.345], 0.8627867746288798),
    (168, [-0.28400000000000003, -0.52, -0.247, -0.256, 0.29200000000000004, 0.20999999999999996, -0.782, -0.376, 0.30400000000000005, -0.345], 0.8627867746288798),
    (169, [-0.28400000000000003, -0.52, -0.247, -0.256, 0.29200000000000004, 0.20999999999999996, -0.782, -0.376, 0.30400000000000005, -0.345], 0.8627867746288798),
    (170, [-0.28400000000000003, -0.52, -0.247, -0.256, 0.29200000000000004, 0.20999999999999996, -0.782, -0.376, 0.30400000000000005, -0.345], 0.8627867746288798),
    (171, [-0.28400000000000003, -0.52, -0.247, -0.256, 0.29200000000000004, 0.20999999999999996, -0.782, -0.376, 0.30400000000000005, -0.345], 0.8627867746288798),
    (172, [-0.28400000000000003, -0.52, -0.247, -0.256, 0.29200000000000004, 0.20999999999999996, -0.782, -0.376, 0.30400000000000005, -0.345], 0.8627867746288798),
    (173, [-0.28400000000000003, -0.52, -0.247, -0.256, 0.29200000000000004, 0.20999999999999996, -0.782, -0.376, 0.30400000000000005, -0.345], 0.8627867746288798),
    (174, [-0.28400000000000003, -0.52, -0.247, -0.256, 0.29200000000000004, 0.20999999999999996, -0.782, -0.376, 0.30400000000000005, -0.345], 0.8627867746288798),
    (175, [-0.28400000000000003, -0.52, -0.247, -0.256, 0.29200000000000004, 0.20999999999999996, -0.782, -0.376, 0.30400000000000005, -0.345], 0.8627867746288798),
    (176, [-0.28400000000000003, -0.52, -0.247, -0.256, 0.29200000000000004, 0.20999999999999996, -0.782, -0.376, 0.30400000000000005, -0.345], 0.8627867746288798),
    (177, [-0.28400000000000003, -0.52, -0.247, -0.256, 0.29200000000000004, 0.20999999999999996, -0.782, -0.376, 0.30400000000000005, -0.345], 0.8627867746288798),
    (178, [-0.28400000000000003, -0.52, -0.247, -0.256, 0.29200000000000004, 0.20999999999999996, -0.782, -0.376, 0.30400000000000005, -0.345], 0.8627867746288798),
    (179, [-0.28400000000000003, -0.52, -0.247, -0.256, 0.29200000000000004, 0.20999999999999996, -0.782, -0.376, 0.30400000000000005, -0.345], 0.8627867746288798),
    (180, [-0.28400000000000003, -0.52, -0.247, -0.256, 0.29200000000000004, 0.20999999999999996, -0.782, -0.376, 0.30400000000000005, -0.345], 0.8627867746288798),
    (181, [-0.28400000000000003, -0.52, -0.247, -0.256, 0.29200000000000004, 0.20999999999999996, -0.782, -0.376, 0.30400000000000005, -0.345], 0.8627867746288798),
    (182, [-0.28400000000000003, -0.52, -0.247, -0.256, 0.29200000000000004, 0.20999999999999996, -0.782, -0.376, 0.30400000000000005, -0.345], 0.8627867746288798),
    (183, [-0.28400000000000003, -0.52, -0.247, -0.256, 0.29200000000000004, 0.20999999999999996, -0.782, -0.376, 0.30400000000000005, -0.345], 0.8627867746288798),
    (184, [-0.28400000000000003, -0.52, -0.247, -0.256, 0.29200000000000004, 0.20999999999999996, -0.782, -0.376, 0.30400000000000005, -0.345], 0.8627867746288798),
    (185, [0.7770000000000001, 0.29699999999999993, 0.09299999999999997, -0.351, 0.8620000000000001, -0.534, 0.7290000000000001, 0.9239999999999999, 0.9950000000000001, -0.6970000000000001], 0.8627935222672065),
    (186, [0.7770000000000001, 0.29699999999999993, 0.09299999999999997, -0.351, 0.8620000000000001, -0.534, 0.7290000000000001, 0.9239999999999999, 0.9950000000000001, -0.6970000000000001], 0.8627935222672065),
    (187, [0.7770000000000001, 0.29699999999999993, 0.09299999999999997, -0.351, 0.8620000000000001, -0.534, 0.7290000000000001, 0.9239999999999999, 0.9950000000000001, -0.6970000000000001], 0.8627935222672065),
    (188, [0.7770000000000001, 0.29699999999999993, 0.09299999999999997, -0.351, 0.8620000000000001, -0.534, 0.7290000000000001, 0.9239999999999999, 0.9950000000000001, -0.6970000000000001], 0.8627935222672065),
    (189, [0.7770000000000001, 0.29699999999999993, 0.09299999999999997, -0.351, 0.8620000000000001, -0.534, 0.7290000000000001, 0.9239999999999999, 0.9950000000000001, -0.6970000000000001], 0.8627935222672065),
    (190, [0.7770000000000001, 0.29699999999999993, 0.09299999999999997, -0.351, 0.8620000000000001, -0.534, 0.7290000000000001, 0.9239999999999999, 0.9950000000000001, -0.6970000000000001], 0.8627935222672065),
    (191, [0.7770000000000001, 0.29699999999999993, 0.09299999999999997, -0.351, 0.8620000000000001, -0.534, 0.7290000000000001, 0.9239999999999999, 0.9950000000000001, -0.6970000000000001], 0.8627935222672065),
    (192, [0.7770000000000001, 0.29699999999999993, 0.09299999999999997, -0.351, 0.8620000000000001, -0.534, 0.7290000000000001, 0.9239999999999999, 0.9950000000000001, -0.6970000000000001], 0.8627935222672065),
    (193, [0.7770000000000001, 0.29699999999999993, 0.09299999999999997, -0.351, 0.8620000000000001, -0.534, 0.7290000000000001, 0.9239999999999999, 0.9950000000000001, -0.6970000000000001], 0.8627935222672065),
    (194, [0.7770000000000001, 0.29699999999999993, 0.09299999999999997, -0.351, 0.8620000000000001, -0.534, 0.7290000000000001, 0.9239999999999999, 0.9950000000000001, -0.6970000000000001], 0.8627935222672065),
    (195, [0.7770000000000001, 0.29699999999999993, 0.09299999999999997, -0.351, 0.8620000000000001, -0.534, 0.7290000000000001, 0.9239999999999999, 0.9950000000000001, -0.6970000000000001], 0.8627935222672065),
    (196, [0.7770000000000001, 0.29699999999999993, 0.09299999999999997, -0.351, 0.8620000000000001, -0.534, 0.7290000000000001, 0.9239999999999999, 0.9950000000000001, -0.6970000000000001], 0.8627935222672065),
    (197, [0.7770000000000001, 0.29699999999999993, 0.09299999999999997, -0.351, 0.8620000000000001, -0.534, 0.7290000000000001, 0.9239999999999999, 0.9950000000000001, -0.6970000000000001], 0.8627935222672065),
    (198, [0.7770000000000001, 0.29699999999999993, 0.09299999999999997, -0.351, 0.8620000000000001, -0.534, 0.7290000000000001, 0.9239999999999999, 0.9950000000000001, -0.6970000000000001], 0.8627935222672065),
    (199, [0.7770000000000001, 0.29699999999999993, 0.09299999999999997, -0.351, 0.8620000000000001, -0.534, 0.7290000000000001, 0.9239999999999999, 0.9950000000000001, -0.6970000000000001], 0.8627935222672065),
    (200, [0.7770000000000001, 0.29699999999999993, 0.09299999999999997, -0.351, 0.8620000000000001, -0.534, 0.7290000000000001, 0.9239999999999999, 0.9950000000000001, -0.6970000000000001], 0.8627935222672065),
    (201, [0.7770000000000001, 0.29699999999999993, 0.09299999999999997, -0.351, 0.8620000000000001, -0.534, 0.7290000000000001, 0.9239999999999999, 0.9950000000000001, -0.6970000000000001], 0.8627935222672065),
    (202, [0.7770000000000001, 0.29699999999999993, 0.09299999999999997, -0.351, 0.8620000000000001, -0.534, 0.7290000000000001, 0.9239999999999999, 0.9950000000000001, -0.6970000000000001], 0.8627935222672065),
    (203, [0.7770000000000001, 0.29699999999999993, 0.09299999999999997, -0.351, 0.8620000000000001, -0.534, 0.7290000000000001, 0.9239999999999999, 0.9950000000000001, -0.6970000000000001], 0.8627935222672065),
    (204, [0.7770000000000001, 0.29699999999999993, 0.09299999999999997, -0.351, 0.8620000000000001, -0.534, 0.7290000000000001, 0.9239999999999999, 0.9950000000000001, -0.6970000000000001], 0.8627935222672065),
    (205, [0.7770000000000001, 0.29699999999999993, 0.09299999999999997, -0.351, 0.8620000000000001, -0.534, 0.7290000000000001, 0.9239999999999999, 0.9950000000000001, -0.6970000000000001], 0.8627935222672065),
    (206, [0.7770000000000001, 0.29699999999999993, 0.09299999999999997, -0.351, 0.8620000000000001, -0.534, 0.7290000000000001, 0.9239999999999999, 0.9950000000000001, -0.6970000000000001], 0.8627935222672065),
    (207, [0.7770000000000001, 0.29699999999999993, 0.09299999999999997, -0.351, 0.8620000000000001, -0.534, 0.7290000000000001, 0.9239999999999999, 0.9950000000000001, -0.6970000000000001], 0.8627935222672065),
    (208, [0.7770000000000001, 0.29699999999999993, 0.09299999999999997, -0.351, 0.8620000000000001, -0.534, 0.7290000000000001, 0.9239999999999999, 0.9950000000000001, -0.6970000000000001], 0.8627935222672065),
    (209, [0.7770000000000001, 0.29699999999999993, 0.09299999999999997, -0.351, 0.8620000000000001, -0.534, 0.7290000000000001, 0.9239999999999999, 0.9950000000000001, -0.6970000000000001], 0.8627935222672065),
    (210, [0.7770000000000001, 0.29699999999999993, 0.09299999999999997, -0.351, 0.8620000000000001, -0.534, 0.7290000000000001, 0.9239999999999999, 0.9950000000000001, -0.6970000000000001], 0.8627935222672065),
    (211, [0.7770000000000001, 0.29699999999999993, 0.09299999999999997, -0.351, 0.8620000000000001, -0.534, 0.7290000000000001, 0.9239999999999999, 0.9950000000000001, -0.6970000000000001], 0.8627935222672065),
    (212, [0.7770000000000001, 0.29699999999999993, 0.09299999999999997, -0.351, 0.8620000000000001, -0.534, 0.7290000000000001, 0.9239999999999999, 0.9950000000000001, -0.6970000000000001], 0.8627935222672065),
    (213, [0.7770000000000001, 0.29699999999999993, 0.09299999999999997, -0.351, 0.8620000000000001, -0.534, 0.7290000000000001, 0.9239999999999999, 0.9950000000000001, -0.6970000000000001], 0.8627935222672065),
    (214, [0.7770000000000001, 0.29699999999999993, 0.09299999999999997, -0.351, 0.8620000000000001, -0.534, 0.7290000000000001, 0.9239999999999999, 0.9950000000000001, -0.6970000000000001], 0.8627935222672065),
    (215, [0.7770000000000001, 0.29699999999999993, 0.09299999999999997, -0.351, 0.8620000000000001, -0.534, 0.7290000000000001, 0.9239999999999999, 0.9950000000000001, -0.6970000000000001], 0.8627935222672065),
    (216, [0.7770000000000001, 0.29699999999999993, 0.09299999999999997, -0.351, 0.8620000000000001, -0.534, 0.7290000000000001, 0.9239999999999999, 0.9950000000000001, -0.6970000000000001], 0.8627935222672065),
    (217, [0.7770000000000001, 0.29699999999999993, 0.09299999999999997, -0.351, 0.8620000000000001, -0.534, 0.7290000000000001, 0.9239999999999999, 0.9950000000000001, -0.6970000000000001], 0.8627935222672065),
    (218, [0.7770000000000001, 0.29699999999999993, 0.09299999999999997, -0.351, 0.8620000000000001, -0.534, 0.7290000000000001, 0.9239999999999999, 0.9950000000000001, -0.6970000000000001], 0.8627935222672065),
    (219, [0.7770000000000001, 0.29699999999999993, 0.09299999999999997, -0.351, 0.8620000000000001, -0.534, 0.7290000000000001, 0.9239999999999999, 0.9950000000000001, -0.6970000000000001], 0.8627935222672065),
    (220, [0.7770000000000001, 0.29699999999999993, 0.09299999999999997, -0.351, 0.8620000000000001, -0.534, 0.7290000000000001, 0.9239999999999999, 0.9950000000000001, -0.6970000000000001], 0.8627935222672065),
    (221, [0.7770000000000001, 0.29699999999999993, 0.09299999999999997, -0.351, 0.8620000000000001, -0.534, 0.7290000000000001, 0.9239999999999999, 0.9950000000000001, -0.6970000000000001], 0.8627935222672065),
    (222, [0.7770000000000001, 0.29699999999999993, 0.09299999999999997, -0.351, 0.8620000000000001, -0.534, 0.7290000000000001, 0.9239999999999999, 0.9950000000000001, -0.6970000000000001], 0.8627935222672065),
    (223, [0.7770000000000001, 0.29699999999999993, 0.09299999999999997, -0.351, 0.8620000000000001, -0.534, 0.7290000000000001, 0.9239999999999999, 0.9950000000000001, -0.6970000000000001], 0.8627935222672065),
    (224, [0.7770000000000001, 0.29699999999999993, 0.09299999999999997, -0.351, 0.8620000000000001, -0.534, 0.7290000000000001, 0.9239999999999999, 0.9950000000000001, -0.6970000000000001], 0.8627935222672065),
    (225, [0.7770000000000001, 0.29699999999999993, 0.09299999999999997, -0.351, 0.8620000000000001, -0.534, 0.7290000000000001, 0.9239999999999999, 0.9950000000000001, -0.6970000000000001], 0.8627935222672065),
    (226, [0.7770000000000001, 0.29699999999999993, 0.09299999999999997, -0.351, 0.8620000000000001, -0.534, 0.7290000000000001, 0.9239999999999999, 0.9950000000000001, -0.6970000000000001], 0.8627935222672065),
    (227, [0.7770000000000001, 0.29699999999999993, 0.09299999999999997, -0.351, 0.8620000000000001, -0.534, 0.7290000000000001, 0.9239999999999999, 0.9950000000000001, -0.6970000000000001], 0.8627935222672065),
    (228, [0.7770000000000001, 0.29699999999999993, 0.09299999999999997, -0.351, 0.8620000000000001, -0.534, 0.7290000000000001, 0.9239999999999999, 0.9950000000000001, -0.6970000000000001], 0.8627935222672065),
    (229, [0.7770000000000001, 0.29699999999999993, 0.09299999999999997, -0.351, 0.8620000000000001, -0.534, 0.7290000000000001, 0.9239999999999999, 0.9950000000000001, -0.6970000000000001], 0.8627935222672065),
    (230, [0.7770000000000001, 0.29699999999999993, 0.09299999999999997, -0.351, 0.8620000000000001, -0.534, 0.7290000000000001, 0.9239999999999999, 0.9950000000000001, -0.6970000000000001], 0.8627935222672065),
    (231, [0.7770000000000001, 0.29699999999999993, 0.09299999999999997, -0.351, 0.8620000000000001, -0.534, 0.7290000000000001, 0.9239999999999999, 0.9950000000000001, -0.6970000000000001], 0.8627935222672065),
    (232, [0.7770000000000001, 0.29699999999999993, 0.09299999999999997, -0.351, 0.8620000000000001, -0.534, 0.7290000000000001, 0.9239999999999999, 0.9950000000000001, -0.6970000000000001], 0.8627935222672065),
    (233, [0.7770000000000001, 0.29699999999999993, 0.09299999999999997, -0.351, 0.8620000000000001, -0.534, 0.7290000000000001, 0.9239999999999999, 0.9950000000000001, -0.6970000000000001], 0.8627935222672065),
    (234, [0.7770000000000001, 0.29699999999999993, 0.09299999999999997, -0.351, 0.8620000000000001, -0.534, 0.7290000000000001, 0.9239999999999999, 0.9950000000000001, -0.6970000000000001], 0.8627935222672065),
    (235, [0.7770000000000001, 0.29699999999999993, 0.09299999999999997, -0.351, 0.8620000000000001, -0.534, 0.7290000000000001, 0.9239999999999999, 0.9950000000000001, -0.6970000000000001], 0.8627935222672065),
    (236, [0.7770000000000001, 0.29699999999999993, 0.09299999999999997, -0.351, 0.8620000000000001, -0.534, 0.7290000000000001, 0.9239999999999999, 0.9950000000000001, -0.6970000000000001], 0.8627935222672065),
    (237, [0.7770000000000001, 0.29699999999999993, 0.09299999999999997, -0.351, 0.8620000000000001, -0.534, 0.7290000000000001, 0.9239999999999999, 0.9950000000000001, -0.6970000000000001], 0.8627935222672065),
    (238, [0.7770000000000001, 0.29699999999999993, 0.09299999999999997, -0.351, 0.8620000000000001, -0.534, 0.7290000000000001, 0.9239999999999999, 0.9950000000000001, -0.6970000000000001], 0.8627935222672065),
    (239, [0.7770000000000001, 0.29699999999999993, 0.09299999999999997, -0.351, 0.8620000000000001, -0.534, 0.7290000000000001, 0.9239999999999999, 0.9950000000000001, -0.6970000000000001], 0.8627935222672065),
    (240, [0.7770000000000001, 0.29699999999999993, 0.09299999999999997, -0.351, 0.8620000000000001, -0.534, 0.7290000000000001, 0.9239999999999999, 0.9950000000000001, -0.6970000000000001], 0.8627935222672065),
    (241, [0.7770000000000001, 0.29699999999999993, 0.09299999999999997, -0.351, 0.8620000000000001, -0.534, 0.7290000000000001, 0.9239999999999999, 0.9950000000000001, -0.6970000000000001], 0.8627935222672065),
    (242, [0.7770000000000001, 0.29699999999999993, 0.09299999999999997, -0.351, 0.8620000000000001, -0.534, 0.7290000000000001, 0.9239999999999999, 0.9950000000000001, -0.6970000000000001], 0.8627935222672065),
    (243, [0.7770000000000001, 0.29699999999999993, 0.09299999999999997, -0.351, 0.8620000000000001, -0.534, 0.7290000000000001, 0.9239999999999999, 0.9950000000000001, -0.6970000000000001], 0.8627935222672065),
    (244, [0.7770000000000001, 0.29699999999999993, 0.09299999999999997, -0.351, 0.8620000000000001, -0.534, 0.7290000000000001, 0.9239999999999999, 0.9950000000000001, -0.6970000000000001], 0.8627935222672065),
    (245, [0.7770000000000001, 0.29699999999999993, 0.09299999999999997, -0.351, 0.8620000000000001, -0.534, 0.7290000000000001, 0.9239999999999999, 0.9950000000000001, -0.6970000000000001], 0.8627935222672065),
    (246, [0.7770000000000001, 0.29699999999999993, 0.09299999999999997, -0.351, 0.8620000000000001, -0.534, 0.7290000000000001, 0.9239999999999999, 0.9950000000000001, -0.6970000000000001], 0.8627935222672065),
    (247, [0.7770000000000001, 0.29699999999999993, 0.09299999999999997, -0.351, 0.8620000000000001, -0.534, 0.7290000000000001, 0.9239999999999999, 0.9950000000000001, -0.6970000000000001], 0.8627935222672065),
    (248, [0.7770000000000001, 0.29699999999999993, 0.09299999999999997, -0.351, 0.8620000000000001, -0.534, 0.7290000000000001, 0.9239999999999999, 0.9950000000000001, -0.6970000000000001], 0.8627935222672065),
    (249, [0.7770000000000001, 0.29699999999999993, 0.09299999999999997, -0.351, 0.8620000000000001, -0.534, 0.7290000000000001, 0.9239999999999999, 0.9950000000000001, -0.6970000000000001], 0.8627935222672065),
    (250, [0.7770000000000001, 0.29699999999999993, 0.09299999999999997, -0.351, 0.8620000000000001, -0.534, 0.7290000000000001, 0.9239999999999999, 0.9950000000000001, -0.6970000000000001], 0.8627935222672065),
    (251, [0.7770000000000001, 0.29699999999999993, 0.09299999999999997, -0.351, 0.8620000000000001, -0.534, 0.7290000000000001, 0.9239999999999999, 0.9950000000000001, -0.6970000000000001], 0.8627935222672065),
    (252, [0.7770000000000001, 0.29699999999999993, 0.09299999999999997, -0.351, 0.8620000000000001, -0.534, 0.7290000000000001, 0.9239999999999999, 0.9950000000000001, -0.6970000000000001], 0.8627935222672065),
    (253, [0.7770000000000001, 0.29699999999999993, 0.09299999999999997, -0.351, 0.8620000000000001, -0.534, 0.7290000000000001, 0.9239999999999999, 0.9950000000000001, -0.6970000000000001], 0.8627935222672065),
    (254, [0.7770000000000001, 0.29699999999999993, 0.09299999999999997, -0.351, 0.8620000000000001, -0.534, 0.7290000000000001, 0.9239999999999999, 0.9950000000000001, -0.6970000000000001], 0.8627935222672065),
    (255, [0.7770000000000001, 0.29699999999999993, 0.09299999999999997, -0.351, 0.8620000000000001, -0.534, 0.7290000000000001, 0.9239999999999999, 0.9950000000000001, -0.6970000000000001], 0.8627935222672065),
    (256, [0.7770000000000001, 0.29699999999999993, 0.09299999999999997, -0.351, 0.8620000000000001, -0.534, 0.7290000000000001, 0.9239999999999999, 0.9950000000000001, -0.6970000000000001], 0.8627935222672065),
    (257, [0.7770000000000001, 0.29699999999999993, 0.09299999999999997, -0.351, 0.8620000000000001, -0.534, 0.7290000000000001, 0.9239999999999999, 0.9950000000000001, -0.6970000000000001], 0.8627935222672065),
    (258, [0.7770000000000001, 0.29699999999999993, 0.09299999999999997, -0.351, 0.8620000000000001, -0.534, 0.7290000000000001, 0.9239999999999999, 0.9950000000000001, -0.6970000000000001], 0.8627935222672065),
    (259, [0.7770000000000001, 0.29699999999999993, 0.09299999999999997, -0.351, 0.8620000000000001, -0.534, 0.7290000000000001, 0.9239999999999999, 0.9950000000000001, -0.6970000000000001], 0.8627935222672065),
    (260, [0.7770000000000001, 0.29699999999999993, 0.09299999999999997, -0.351, 0.8620000000000001, -0.534, 0.7290000000000001, 0.9239999999999999, 0.9950000000000001, -0.6970000000000001], 0.8627935222672065),
    (261, [0.7770000000000001, 0.29699999999999993, 0.09299999999999997, -0.351, 0.8620000000000001, -0.534, 0.7290000000000001, 0.9239999999999999, 0.9950000000000001, -0.6970000000000001], 0.8627935222672065),
    (262, [0.7770000000000001, 0.29699999999999993, 0.09299999999999997, -0.351, 0.8620000000000001, -0.534, 0.7290000000000001, 0.9239999999999999, 0.9950000000000001, -0.6970000000000001], 0.8627935222672065),
    (263, [0.7770000000000001, 0.29699999999999993, 0.09299999999999997, -0.351, 0.8620000000000001, -0.534, 0.7290000000000001, 0.9239999999999999, 0.9950000000000001, -0.6970000000000001], 0.8627935222672065),
    (264, [0.7770000000000001, 0.29699999999999993, 0.09299999999999997, -0.351, 0.8620000000000001, -0.534, 0.7290000000000001, 0.9239999999999999, 0.9950000000000001, -0.6970000000000001], 0.8627935222672065),
    (265, [0.7770000000000001, 0.29699999999999993, 0.09299999999999997, -0.351, 0.8620000000000001, -0.534, 0.7290000000000001, 0.9239999999999999, 0.9950000000000001, -0.6970000000000001], 0.8627935222672065),
    (266, [0.7770000000000001, 0.29699999999999993, 0.09299999999999997, -0.351, 0.8620000000000001, -0.534, 0.7290000000000001, 0.9239999999999999, 0.9950000000000001, -0.6970000000000001], 0.8627935222672065),
    (267, [0.7770000000000001, 0.29699999999999993, 0.09299999999999997, -0.351, 0.8620000000000001, -0.534, 0.7290000000000001, 0.9239999999999999, 0.9950000000000001, -0.6970000000000001], 0.8627935222672065),
    (268, [0.7770000000000001, 0.29699999999999993, 0.09299999999999997, -0.351, 0.8620000000000001, -0.534, 0.7290000000000001, 0.9239999999999999, 0.9950000000000001, -0.6970000000000001], 0.8627935222672065),
    (269, [0.7770000000000001, 0.29699999999999993, 0.09299999999999997, -0.351, 0.8620000000000001, -0.534, 0.7290000000000001, 0.9239999999999999, 0.9950000000000001, -0.6970000000000001], 0.8627935222672065),
    (270, [0.7770000000000001, 0.29699999999999993, 0.09299999999999997, -0.351, 0.8620000000000001, -0.534, 0.7290000000000001, 0.9239999999999999, 0.9950000000000001, -0.6970000000000001], 0.8627935222672065),
    (271, [0.7770000000000001, 0.29699999999999993, 0.09299999999999997, -0.351, 0.8620000000000001, -0.534, 0.7290000000000001, 0.9239999999999999, 0.9950000000000001, -0.6970000000000001], 0.8627935222672065),
    (272, [0.7770000000000001, 0.29699999999999993, 0.09299999999999997, -0.351, 0.8620000000000001, -0.534, 0.7290000000000001, 0.9239999999999999, 0.9950000000000001, -0.6970000000000001], 0.8627935222672065),
    (273, [0.7770000000000001, 0.29699999999999993, 0.09299999999999997, -0.351, 0.8620000000000001, -0.534, 0.7290000000000001, 0.9239999999999999, 0.9950000000000001, -0.6970000000000001], 0.8627935222672065),
    (274, [0.7770000000000001, 0.29699999999999993, 0.09299999999999997, -0.351, 0.8620000000000001, -0.534, 0.7290000000000001, 0.9239999999999999, 0.9950000000000001, -0.6970000000000001], 0.8627935222672065),
    (275, [0.7770000000000001, 0.29699999999999993, 0.09299999999999997, -0.351, 0.8620000000000001, -0.534, 0.7290000000000001, 0.9239999999999999, 0.9950000000000001, -0.6970000000000001], 0.8627935222672065),
    (276, [0.7770000000000001, 0.29699999999999993, 0.09299999999999997, -0.351, 0.8620000000000001, -0.534, 0.7290000000000001, 0.9239999999999999, 0.9950000000000001, -0.6970000000000001], 0.8627935222672065),
    (277, [0.7770000000000001, 0.29699999999999993, 0.09299999999999997, -0.351, 0.8620000000000001, -0.534, 0.7290000000000001, 0.9239999999999999, 0.9950000000000001, -0.6970000000000001], 0.8627935222672065),
    (278, [0.7770000000000001, 0.29699999999999993, 0.09299999999999997, -0.351, 0.8620000000000001, -0.534, 0.7290000000000001, 0.9239999999999999, 0.9950000000000001, -0.6970000000000001], 0.8627935222672065),
    (279, [0.7770000000000001, 0.29699999999999993, 0.09299999999999997, -0.351, 0.8620000000000001, -0.534, 0.7290000000000001, 0.9239999999999999, 0.9950000000000001, -0.6970000000000001], 0.8627935222672065),
    (280, [0.7770000000000001, 0.29699999999999993, 0.09299999999999997, -0.351, 0.8620000000000001, -0.534, 0.7290000000000001, 0.9239999999999999, 0.9950000000000001, -0.6970000000000001], 0.8627935222672065),
    (281, [0.7770000000000001, 0.29699999999999993, 0.09299999999999997, -0.351, 0.8620000000000001, -0.534, 0.7290000000000001, 0.9239999999999999, 0.9950000000000001, -0.6970000000000001], 0.8627935222672065),
    (282, [0.7770000000000001, 0.29699999999999993, 0.09299999999999997, -0.351, 0.8620000000000001, -0.534, 0.7290000000000001, 0.9239999999999999, 0.9950000000000001, -0.6970000000000001], 0.8627935222672065),
    (283, [0.7770000000000001, 0.29699999999999993, 0.09299999999999997, -0.351, 0.8620000000000001, -0.534, 0.7290000000000001, 0.9239999999999999, 0.9950000000000001, -0.6970000000000001], 0.8627935222672065),
    (284, [0.7770000000000001, 0.29699999999999993, 0.09299999999999997, -0.351, 0.8620000000000001, -0.534, 0.7290000000000001, 0.9239999999999999, 0.9950000000000001, -0.6970000000000001], 0.8627935222672065),
    (285, [0.7770000000000001, 0.29699999999999993, 0.09299999999999997, -0.351, 0.8620000000000001, -0.534, 0.7290000000000001, 0.9239999999999999, 0.9950000000000001, -0.6970000000000001], 0.8627935222672065),
    (286, [0.7770000000000001, 0.29699999999999993, 0.09299999999999997, -0.351, 0.8620000000000001, -0.534, 0.7290000000000001, 0.9239999999999999, 0.9950000000000001, -0.6970000000000001], 0.8627935222672065),
    (287, [0.7770000000000001, 0.29699999999999993, 0.09299999999999997, -0.351, 0.8620000000000001, -0.534, 0.7290000000000001, 0.9239999999999999, 0.9950000000000001, -0.6970000000000001], 0.8627935222672065),
    (288, [0.7770000000000001, 0.29699999999999993, 0.09299999999999997, -0.351, 0.8620000000000001, -0.534, 0.7290000000000001, 0.9239999999999999, 0.9950000000000001, -0.6970000000000001], 0.8627935222672065),
    (289, [0.7770000000000001, 0.29699999999999993, 0.09299999999999997, -0.351, 0.8620000000000001, -0.534, 0.7290000000000001, 0.9239999999999999, 0.9950000000000001, -0.6970000000000001], 0.8627935222672065),
    (290, [0.7770000000000001, 0.29699999999999993, 0.09299999999999997, -0.351, 0.8620000000000001, -0.534, 0.7290000000000001, 0.9239999999999999, 0.9950000000000001, -0.6970000000000001], 0.8627935222672065),
    (291, [0.7770000000000001, 0.29699999999999993, 0.09299999999999997, -0.351, 0.8620000000000001, -0.534, 0.7290000000000001, 0.9239999999999999, 0.9950000000000001, -0.6970000000000001], 0.8627935222672065),
    (292, [0.7770000000000001, 0.29699999999999993, 0.09299999999999997, -0.351, 0.8620000000000001, -0.534, 0.7290000000000001, 0.9239999999999999, 0.9950000000000001, -0.6970000000000001], 0.8627935222672065),
    (293, [0.7770000000000001, 0.29699999999999993, 0.09299999999999997, -0.351, 0.8620000000000001, -0.534, 0.7290000000000001, 0.9239999999999999, 0.9950000000000001, -0.6970000000000001], 0.8627935222672065),
    (294, [0.7770000000000001, 0.29699999999999993, 0.09299999999999997, -0.351, 0.8620000000000001, -0.534, 0.7290000000000001, 0.9239999999999999, 0.9950000000000001, -0.6970000000000001], 0.8627935222672065),
    (295, [0.7770000000000001, 0.29699999999999993, 0.09299999999999997, -0.351, 0.8620000000000001, -0.534, 0.7290000000000001, 0.9239999999999999, 0.9950000000000001, -0.6970000000000001], 0.8627935222672065),
    (296, [0.7770000000000001, 0.29699999999999993, 0.09299999999999997, -0.351, 0.8620000000000001, -0.534, 0.7290000000000001, 0.9239999999999999, 0.9950000000000001, -0.6970000000000001], 0.8627935222672065),
    (297, [0.7770000000000001, 0.29699999999999993, 0.09299999999999997, -0.351, 0.8620000000000001, -0.534, 0.7290000000000001, 0.9239999999999999, 0.9950000000000001, -0.6970000000000001], 0.8627935222672065),
    (298, [0.7770000000000001, 0.29699999999999993, 0.09299999999999997, -0.351, 0.8620000000000001, -0.534, 0.7290000000000001, 0.9239999999999999, 0.9950000000000001, -0.6970000000000001], 0.8627935222672065),
    (299, [0.7770000000000001, 0.29699999999999993, 0.09299999999999997, -0.351, 0.8620000000000001, -0.534, 0.7290000000000001, 0.9239999999999999, 0.9950000000000001, -0.6970000000000001], 0.8627935222672065),
]

