ranges of every chromosome : (-2, 2)
    selection method is: ExponentialRankingSelection
    crossover method is: UniformCrossover
    pc: The probability of crossover: 1.000000
    pe: Gene exchange probability: 0.500000
    mutation method is: FlipBitBigMutation
    pm: The probability of mutation: 0.100000
    pbm: The probability of big mutation: 0.500000
    alpha: intensive factor: 0.800000
best_fit = [
    (0, [1, 1, 1, 1, 1, 1, 1, 1, 1, 1], 0.8480499325236167),
    (1, [1.08, -1.055, -0.5880000000000001, -0.33599999999999985, 0.23499999999999988, 0.383, 1.2360000000000002, -0.728, 0.9050000000000002, -1.965], 0.8480566801619431),
    (2, [1.08, -1.055, -0.5880000000000001, -0.33599999999999985, 0.23499999999999988, 0.383, 1.2360000000000002, -0.728, 0.9050000000000002, -1.965], 0.8480566801619431),
    (3, [1.08, -1.055, -0.5880000000000001, -0.33599999999999985, 0.23499999999999988, 0.383, 1.2360000000000002, -0.728, 0.9050000000000002, -1.965], 0.8480566801619431),
    (4, [-0.8400000000000001, -1.167, -0.7809999999999999, -1.848, -1.3780000000000001, -0.79, 1.7269999999999999, 0.7829999999999999, 1.218, 1.517], 0.8529217273954115),
    (5, [-0.8400000000000001, -1.167, -0.7809999999999999, -1.848, -1.3780000000000001, -0.79, 1.7269999999999999, 0.7829999999999999, 1.218, 1.517], 0.8529217273954115),
    (6, [-0.8400000000000001, -1.167, -0.7809999999999999, -1.848, -1.3780000000000001, -0.79, 1.7269999999999999, 0.7829999999999999, 1.218, 1.517], 0.8529217273954115),
    (7, [-0.8400000000000001, -1.167, -0.7809999999999999, -1.848, -1.3780000000000001, -0.79, 1.7269999999999999, 0.7829999999999999, 1.218, 1.517], 0.8529217273954115),
    (8, [-0.8400000000000001, -1.167, -0.7809999999999999, -1.848, -1.3780000000000001, -0.79, 1.7269999999999999, 0.7829999999999999, 1.218, 1.517], 0.8529217273954115),
    (9, [-0.8400000000000001, -1.167, -0.7809999999999999, -1.848, -1.3780000000000001, -0.79, 1.7269999999999999, 0.7829999999999999, 1.218, 1.517], 0.8529217273954115),
    (10, [-0.8400000000000001, -1.167, -0.7809999999999999, -1.848, -1.3780000000000001, -0.79, 1.7269999999999999, 0.7829999999999999, 1.218, 1.517], 0.8529217273954115),
    (11, [-0.8400000000000001, -1.167, -0.7809999999999999, -1.848, -1.3780000000000001, -0.79, 1.7269999999999999, 0.7829999999999999, 1.218, 1.517], 0.8529217273954115),
    (12, [-0.8400000000000001, -1.167, -0.7809999999999999, -1.848, -1.3780000000000001, -0.79, 1.7269999999999999, 0.7829999999999999, 1.218, 1.517], 0.8529217273954115),
    (13, [-0.8400000000000001, -1.167, -0.7809999999999999, -1.848, -1.3780000000000001, -0.79, 1.7269999999999999, 0.7829999999999999, 1.218, 1.517], 0.8529217273954115),
    (14, [-0.8400000000000001, -1.167, -0.7809999999999999, -1.848, -1.3780000000000001, -0.79, 1.7269999999999999, 0.7829999999999999, 1.218, 1.517], 0.8529217273954115),
    (15, [-0.8400000000000001, -1.167, -0.7809999999999999, -1.848, -1.3780000000000001, -0.79, 1.7269999999999999, 0.7829999999999999, 1.218, 1.517], 0.8529217273954115),
    (16, [-0.8400000000000001, -1.167, -0.7809999999999999, -1.848, -1.3780000000000001, -0.79, 1.7269999999999999, 0.7829999999999999, 1.218, 1.517], 0.8529217273954115),
    (17, [-0.8400000000000001, -1.167, -0.7809999999999999, -1.848, -1.3780000000000001, -0.79, 1.7269999999999999, 0.7829999999999999, 1.218, 1.517], 0.8529217273954115),
    (18, [-0.8400000000000001, -1.167, -0.7809999999999999, -1.848, -1.3780000000000001, -0.79, 1.7269999999999999, 0.7829999999999999, 1.218, 1.517], 0.8529217273954115),
    (19, [-0.8400000000000001, -1.167, -0.7809999999999999, -1.848, -1.3780000000000001, -0.79, 1.7269999999999999, 0.7829999999999999, 1.218, 1.517], 0.8529217273954115),
    (20, [-0.8400000000000001, -1.167, -0.7809999999999999, -1.848, -1.3780000000000001, -0.79, 1.7269999999999999, 0.7829999999999999, 1.218, 1.517], 0.8529217273954115),
    (21, [-0.8400000000000001, -1.167, -0.7809999999999999, -1.848, -1.3780000000000001, -0.79, 1.7269999999999999, 0.7829999999999999, 1.218, 1.517], 0.8529217273954115),
    (22, [-0.8400000000000001, -1.167, -0.7809999999999999, -1.848, -1.3780000000000001, -0.79, 1.7269999999999999, 0.7829999999999999, 1.218, 1.517], 0.8529217273954115),
    (23, [-0.8400000000000001, -1.167, -0.7809999999999999, -1.848, -1.3780000000000001, -0.79, 1.7269999999999999, 0.7829999999999999, 1.218, 1.517], 0.8529217273954115),
    (24, [-0.8400000000000001, -1.167, -0.7809999999999999, -1.848, -1.3780000000000001, -0.79, 1.7269999999999999, 0.7829999999999999, 1.218, 1.517], 0.8529217273954115),
    (25, [-0.8400000000000001, -1.167, -0.7809999999999999, -1.848, -1.3780000000000001, -0.79, 1.7269999999999999, 0.7829999999999999, 1.218, 1.517], 0.8529217273954115),
    (26, [-0.8400000000000001, -1.167, -0.7809999999999999, -1.848, -1.3780000000000001, -0.79, 1.7269999999999999, 0.7829999999999999, 1.218, 1.517], 0.8529217273954115),
    (27, [-0.8400000000000001, -1.167, -0.7809999999999999, -1.848, -1.3780000000000001, -0.79, 1.7269999999999999, 0.7829999999999999, 1.218, 1.517], 0.8529217273954115),
    (28, [-0.8400000000000001, -1.167, -0.7809999999999999, -1.848, -1.3780000000000001, -0.79, 1.7269999999999999, 0.7829999999999999, 1.218, 1.517], 0.8529217273954115),
    (29, [-0.8400000000000001, -1.167, -0.7809999999999999, -1.848, -1.3780000000000001, -0.79, 1.7269999999999999, 0.7829999999999999, 1.218, 1.517], 0.8529217273954115),
    (30, [-0.8400000000000001, -1.167, -0.7809999999999999, -1.848, -1.3780000000000001, -0.79, 1.7269999999999999, 0.7829999999999999, 1.218, 1.517], 0.8529217273954115),
    (31, [-0.8400000000000001, -1.167, -0.7809999999999999, -1.848, -1.3780000000000001, -0.79, 1.7269999999999999, 0.7829999999999999, 1.218, 1.517], 0.8529217273954115),
    (32, [-0.8400000000000001, -1.167, -0.7809999999999999, -1.848, -1.3780000000000001, -0.79, 1.7269999999999999, 0.7829999999999999, 1.218, 1.517], 0.8529217273954115),
    (33, [-0.8400000000000001, -1.167, -0.7809999999999999, -1.848, -1.3780000000000001, -0.79, 1.7269999999999999, 0.7829999999999999, 1.218, 1.517], 0.8529217273954115),
    (34, [-0.8400000000000001, -1.167, -0.7809999999999999, -1.848, -1.3780000000000001, -0.79, 1.7269999999999999, 0.7829999999999999, 1.218, 1.517], 0.8529217273954115),
    (35, [-0.8400000000000001, -1.167, -0.7809999999999999, -1.848, -1.3780000000000001, -0.79, 1.7269999999999999, 0.7829999999999999, 1.218, 1.517], 0.8529217273954115),
    (36, [-0.8400000000000001, -1.167, -0.7809999999999999, -1.848, -1.3780000000000001, -0.79, 1.7269999999999999, 0.7829999999999999, 1.218, 1.517], 0.8529217273954115),
    (37, [-0.8400000000000001, -1.167, -0.7809999999999999, -1.848, -1.3780000000000001, -0.79, 1.7269999999999999, 0.7829999999999999, 1.218, 1.517], 0.8529217273954115),
    (38, [-0.8400000000000001, -1.167, -0.7809999999999999, -1.848, -1.3780000000000001, -0.79, 1.7269999999999999, 0.7829999999999999, 1.218, 1.517], 0.8529217273954115),
    (39, [-0.8400000000000001, -1.167, -0.7809999999999999, -1.848, -1.3780000000000001, -0.79, 1.7269999999999999, 0.7829999999999999, 1.218, 1.517], 0.8529217273954115),
    (40, [-0.8400000000000001, -1.167, -0.7809999999999999, -1.848, -1.3780000000000001, -0.79, 1.7269999999999999, 0.7829999999999999, 1.218, 1.517], 0.8529217273954115),
    (41, [-0.8400000000000001, -1.167, -0.7809999999999999, -1.848, -1.3780000000000001, -0.79, 1.7269999999999999, 0.7829999999999999, 1.218, 1.517], 0.8529217273954115),
    (42, [-0.8400000000000001, -1.167, -0.7809999999999999, -1.848, -1.3780000000000001, -0.79, 1.7269999999999999, 0.7829999999999999, 1.218, 1.517], 0.8529217273954115),
    (43, [-0.8400000000000001, -1.167, -0.7809999999999999, -1.848, -1.3780000000000001, -0.79, 1.7269999999999999, 0.7829999999999999, 1.218, 1.517], 0.8529217273954115),
    (44, [-0.8400000000000001, -1.167, -0.7809999999999999, -1.848, -1.3780000000000001, -0.79, 1.7269999999999999, 0.7829999999999999, 1.218, 1.517], 0.8529217273954115),
    (45, [-1.1709999999999998, 1.222, -0.546, -0.050000000000000044, -0.792, -0.5589999999999999, 0.7389999999999999, 0.9460000000000002, -0.4949999999999999, 0.492], 0.8579217273954116),
    (46, [-1.1709999999999998, 1.222, -0.546, -0.050000000000000044, -0.792, -0.5589999999999999, 0.7389999999999999, 0.9460000000000002, -0.4949999999999999, 0.492], 0.8579217273954116),
    (47, [-1.1709999999999998, 1.222, -0.546, -0.050000000000000044, -0.792, -0.5589999999999999, 0.7389999999999999, 0.9460000000000002, -0.4949999999999999, 0.492], 0.8579217273954116),
    (48, [-1.1709999999999998, 1.222, -0.546, -0.050000000000000044, -0.792, -0.5589999999999999, 0.7389999999999999, 0.9460000000000002, -0.4949999999999999, 0.492], 0.8579217273954116),
    (49, [-1.1709999999999998, 1.222, -0.546, -0.050000000000000044, -0.792, -0.5589999999999999, 0.7389999999999999, 0.9460000000000002, -0.4949999999999999, 0.492], 0.8579217273954116),
    (50, [-1.1709999999999998, 1.222, -0.546, -0.050000000000000044, -0.792, -0.5589999999999999, 0.7389999999999999, 0.9460000000000002, -0.4949999999999999, 0.492], 0.8579217273954116),
    (51, [-1.1709999999999998, 1.222, -0.546, -0.050000000000000044, -0.792, -0.5589999999999999, 0.7389999999999999, 0.9460000000000002, -0.4949999999999999, 0.492], 0.8579217273954116),
    (52, [-1.1709999999999998, 1.222, -0.546, -0.050000000000000044, -0.792, -0.5589999999999999, 0.7389999999999999, 0.9460000000000002, -0.4949999999999999, 0.492], 0.8579217273954116),
    (53, [-1.1709999999999998, 1.222, -0.546, -0.050000000000000044, -0.792, -0.5589999999999999, 0.7389999999999999, 0.9460000000000002, -0.4949999999999999, 0.492], 0.8579217273954116),
    (54, [-1.1709999999999998, 1.222, -0.546, -0.050000000000000044, -0.792, -0.5589999999999999, 0.7389999999999999, 0.9460000000000002, -0.4949999999999999, 0.492], 0.8579217273954116),
    (55, [-1.1709999999999998, 1.222, -0.546, -0.050000000000000044, -0.792, -0.5589999999999999, 0.7389999999999999, 0.9460000000000002, -0.4949999999999999, 0.492], 0.8579217273954116),
    (56, [-1.1709999999999998, 1.222, -0.546, -0.050000000000000044, -0.792, -0.5589999999999999, 0.7389999999999999, 0.9460000000000002, -0.4949999999999999, 0.492], 0.8579217273954116),
    (57, [-1.1709999999999998, 1.222, -0.546, -0.050000000000000044, -0.792, -0.5589999999999999, 0.7389999999999999, 0.9460000000000002, -0.4949999999999999, 0.492], 0.8579217273954116),
    (58, [-1.1709999999999998, 1.222, -0.546, -0.050000000000000044, -0.792, -0.5589999999999999, 0.7389999999999999, 0.9460000000000002, -0.4949999999999999, 0.492], 0.8579217273954116),
    (59, [-1.1709999999999998, 1.222, -0.546, -0.050000000000000044, -0.792, -0.5589999999999999, 0.7389999999999999, 0.9460000000000002, -0.4949999999999999, 0.492], 0.8579217273954116),
    (60, [-1.1709999999999998, 1.222, -0.546, -0.050000000000000044, -0.792, -0.5589999999999999, 0.7389999999999999, 0.9460000000000002, -0.4949999999999999, 0.492], 0.8579217273954116),
    (61, [-1.1709999999999998, 1.222, -0.546, -0.050000000000000044, -0.792, -0.5589999999999999, 0.7389999999999999, 0.9460000000000002, -0.4949999999999999, 0.492], 0.8579217273954116),
    (62, [-1.1709999999999998, 1.222, -0.546, -0.050000000000000044, -0.792, -0.5589999999999999, 0.7389999999999999, 0.9460000000000002, -0.4949999999999999, 0.492], 0.8579217273954116),
    (63, [-1.1709999999999998, 1.222, -0.546, -0.050000000000000044, -0.792, -0.5589999999999999, 0.7389999999999999, 0.9460000000000002, -0.4949999999999999, 0.492], 0.8579217273954116),
    (64, [-1.1709999999999998, 1.222, -0.546, -0.050000000000000044, -0.792, -0.5589999999999999, 0.7389999999999999, 0.9460000000000002, -0.4949999999999999, 0.492], 0.8579217273954116),
    (65, [-1.1709999999999998, 1.222, -0.546, -0.050000000000000044, -0.792, -0.5589999999999999, 0.7389999999999999, 0.9460000000000002, -0.4949999999999999, 0.492], 0.8579217273954116),
    (66, [-1.1709999999999998, 1.222, -0.546, -0.050000000000000044, -0.792, -0.5589999999999999, 0.7389999999999999, 0.9460000000000002, -0.4949999999999999, 0.492], 0.8579217273954116),
    (67, [-1.1709999999999998, 1.222, -0.546, -0.050000000000000044, -0.792, -0.5589999999999999, 0.7389999999999999, 0.9460000000000002, -0.4949999999999999, 0.492], 0.8579217273954116),
    (68, [-1.1709999999999998, 1.222, -0.546, -0.050000000000000044, -0.792, -0.5589999999999999, 0.7389999999999999, 0.9460000000000002, -0.4949999999999999, 0.492], 0.8579217273954116),
    (69, [-1.1709999999999998, 1.222, -0.546, -0.050000000000000044, -0.792, -0.5589999999999999, 0.7389999999999999, 0.9460000000000002, -0.4949999999999999, 0.492], 0.8579217273954116),
    (70, [-1.1709999999999998, 1.222, -0.546, -0.050000000000000044, -0.792, -0.5589999999999999, 0.7389999999999999, 0.9460000000000002, -0.4949999999999999, 0.492], 0.8579217273954116),
    (71, [-1.1709999999999998, 1.222, -0.546, -0.050000000000000044, -0.792, -0.5589999999999999, 0.7389999999999999, 0.9460000000000002, -0.4949999999999999, 0.492], 0.8579217273954116),
    (72, [-1.1709999999999998, 1.222, -0.546, -0.050000000000000044, -0.792, -0.5589999999999999, 0.7389999999999999, 0.9460000000000002, -0.4949999999999999, 0.492], 0.8579217273954116),
    (73, [-1.1709999999999998, 1.222, -0.546, -0.050000000000000044, -0.792, -0.5589999999999999, 0.7389999999999999, 0.9460000000000002, -0.4949999999999999, 0.492], 0.8579217273954116),
    (74, [-1.1709999999999998, 1.222, -0.546, -0.050000000000000044, -0.792, -0.5589999999999999, 0.7389999999999999, 0.9460000000000002, -0.4949999999999999, 0.492], 0.8579217273954116),
    (75, [-1.1709999999999998, 1.222, -0.546, -0.050000000000000044, -0.792, -0.5589999999999999, 0.7389999999999999, 0.9460000000000002, -0.4949999999999999, 0.492], 0.8579217273954116),
    (76, [-1.1709999999999998, 1.222, -0.546, -0.050000000000000044, -0.792, -0.5589999999999999, 0.7389999999999999, 0.9460000000000002, -0.4949999999999999, 0.492], 0.8579217273954116),
    (77, [-1.1709999999999998, 1.222, -0.546, -0.050000000000000044, -0.792, -0.5589999999999999, 0.7389999999999999, 0.9460000000000002, -0.4949999999999999, 0.492], 0.8579217273954116),
    (78, [-1.1709999999999998, 1.222, -0.546, -0.050000000000000044, -0.792, -0.5589999999999999, 0.7389999999999999, 0.9460000000000002, -0.4949999999999999, 0.492], 0.8579217273954116),
    (79, [-1.1709999999999998, 1.222, -0.546, -0.050000000000000044, -0.792, -0.5589999999999999, 0.7389999999999999, 0.9460000000000002, -0.4949999999999999, 0.492], 0.8579217273954116),
    (80, [-1.1709999999999998, 1.222, -0.546, -0.050000000000000044, -0.792, -0.5589999999999999, 0.7389999999999999, 0.9460000000000002, -0.4949999999999999, 0.492], 0.8579217273954116),
    (81, [-1.1709999999999998, 1.222, -0.546, -0.050000000000000044, -0.792, -0.5589999999999999, 0.7389999999999999, 0.9460000000000002, -0.4949999999999999, 0.492], 0.8579217273954116),
    (82, [-1.1709999999999998, 1.222, -0.546, -0.050000000000000044, -0.792, -0.5589999999999999, 0.7389999999999999, 0.9460000000000002, -0.4949999999999999, 0.492], 0.8579217273954116),
    (83, [-1.1709999999999998, 1.222, -0.546, -0.050000000000000044, -0.792, -0.5589999999999999, 0.7389999999999999, 0.9460000000000002, -0.4949999999999999, 0.492], 0.8579217273954116),
    (84, [-1.1709999999999998, 1.222, -0.546, -0.050000000000000044, -0.792, -0.5589999999999999, 0.7389999999999999, 0.9460000000000002, -0.4949999999999999, 0.492], 0.8579217273954116),
    (85, [-1.1709999999999998, 1.222, -0.546, -0.050000000000000044, -0.792, -0.5589999999999999, 0.7389999999999999, 0.9460000000000002, -0.4949999999999999, 0.492], 0.8579217273954116),
    (86, [-1.1709999999999998, 1.222, -0.546, -0.050000000000000044, -0.792, -0.5589999999999999, 0.7389999999999999, 0.9460000000000002, -0.4949999999999999, 0.492], 0.8579217273954116),
    (87, [-1.1709999999999998, 1.222, -0.546, -0.050000000000000044, -0.792, -0.5589999999999999, 0.7389999999999999, 0.9460000000000002, -0.4949999999999999, 0.492], 0.8579217273954116),
    (88, [-1.1709999999999998, 1.222, -0.546, -0.050000000000000044, -0.792, -0.5589999999999999, 0.7389999999999999, 0.9460000000000002, -0.4949999999999999, 0.492], 0.8579217273954116),
    (89, [-1.1709999999999998, 1.222, -0.546, -0.050000000000000044, -0.792, -0.5589999999999999, 0.7389999999999999, 0.9460000000000002, -0.4949999999999999, 0.492], 0.8579217273954116),
    (90, [-1.1709999999999998, 1.222, -0.546, -0.050000000000000044, -0.792, -0.5589999999999999, 0.7389999999999999, 0.9460000000000002, -0.4949999999999999, 0.492], 0.8579217273954116),
    (91, [-1.1709999999999998, 1.222, -0.546, -0.050000000000000044, -0.792, -0.5589999999999999, 0.7389999999999999, 0.9460000000000002, -0.4949999999999999, 0.492], 0.8579217273954116),
    (92, [-1.1709999999999998, 1.222, -0.546, -0.050000000000000044, -0.792, -0.5589999999999999, 0.7389999999999999, 0.9460000000000002, -0.4949999999999999, 0.492], 0.8579217273954116),
    (93, [-1.1709999999999998, 1.222, -0.546, -0.050000000000000044, -0.792, -0.5589999999999999, 0.7389999999999999, 0.9460000000000002, -0.4949999999999999, 0.492], 0.8579217273954116),
    (94, [-1.1709999999999998, 1.222, -0.546, -0.050000000000000044, -0.792, -0.5589999999999999, 0.7389999999999999, 0.9460000000000002, -0.4949999999999999, 0.492], 0.8579217273954116),
    (95, [-1.1709999999999998, 1.222, -0.546, -0.050000000000000044, -0.792, -0.5589999999999999, 0.7389999999999999, 0.9460000000000002, -0.4949999999999999, 0.492], 0.8579217273954116),
    (96, [-1.1709999999999998, 1.222, -0.546, -0.050000000000000044, -0.792, -0.5589999999999999, 0.7389999999999999, 0.9460000000000002, -0.4949999999999999, 0.492], 0.8579217273954116),
    (97, [-1.1709999999999998, 1.222, -0.546, -0.050000000000000044, -0.792, -0.5589999999999999, 0.7389999999999999, 0.9460000000000002, -0.4949999999999999, 0.492], 0.8579217273954116),
    (98, [-0.813, -1.228, -1.2269999999999999, 0.5830000000000002, -1.292, 0.589, -0.33899999999999997, 0.621, 0.9660000000000002, -1.9], 0.8580499325236166),
    (99, [-0.813, -1.228, -1.2269999999999999, 0.5830000000000002, -1.292, 0.589, -0.33899999999999997, 0.621, 0.9660000000000002, -1.9], 0.8580499325236166),
    (100, [-0.813, -1.228, -1.2269999999999999, 0.5830000000000002, -1.292, 0.589, -0.33899999999999997, 0.621, 0.9660000000000002, -1.9], 0.8580499325236166),
    (101, [-0.813, -1.228, -1.2269999999999999, 0.5830000000000002, -1.292, 0.589, -0.33899999999999997, 0.621, 0.9660000000000002, -1.9], 0.8580499325236166),
    (102, [-0.813, -1.228, -1.2269999999999999, 0.5830000000000002, -1.292, 0.589, -0.33899999999999997, 0.621, 0.9660000000000002, -1.9], 0.8580499325236166),
    (103, [-0.813, -1.228, -1.2269999999999999, 0.5830000000000002, -1.292, 0.589, -0.33899999999999997, 0.621, 0.9660000000000002, -1.9], 0.8580499325236166),
    (104, [-0.813, -1.228, -1.2269999999999999, 0.5830000000000002, -1.292, 0.589, -0.33899999999999997, 0.621, 0.9660000000000002, -1.9], 0.8580499325236166),
    (105, [-0.813, -1.228, -1.2269999999999999, 0.5830000000000002, -1.292, 0.589, -0.33899999999999997, 0.621, 0.9660000000000002, -1.9], 0.8580499325236166),
    (106, [-0.813, -1.228, -1.2269999999999999, 0.5830000000000002, -1.292, 0.589, -0.33899999999999997, 0.621, 0.9660000000000002, -1.9], 0.8580499325236166),
    (107, [-0.813, -1.228, -1.2269999999999999, 0.5830000000000002, -1.292, 0.589, -0.33899999999999997, 0.621, 0.9660000000000002, -1.9], 0.8580499325236166),
    (108, [-0.813, -1.228, -1.2269999999999999, 0.5830000000000002, -1.292, 0.589, -0.33899999999999997, 0.621, 0.9660000000000002, -1.9], 0.8580499325236166),
    (109, [0.7450000000000001, -1.165, 1.0779999999999998, -0.8380000000000001, 0.581, -0.401, -0.9159999999999999, 1.2080000000000002, 0.738, 1.358], 0.8580566801619434),
    (110, [0.7450000000000001, -1.165, 1.0779999999999998, -0.8380000000000001, 0.581, -0.401, -0.9159999999999999, 1.2080000000000002, 0.738, 1.358], 0.8580566801619434),
    (111, [0.7450000000000001, -1.165, 1.0779999999999998, -0.8380000000000001, 0.581, -0.401, -0.9159999999999999, 1.2080000000000002, 0.738, 1.358], 0.8580566801619434),
    (112, [0.7450000000000001, -1.165, 1.0779999999999998, -0.8380000000000001, 0.581, -0.401, -0.9159999999999999, 1.2080000000000002, 0.738, 1.358], 0.8580566801619434),
    (113, [0.7450000000000001, -1.165, 1.0779999999999998, -0.8380000000000001, 0.581, -0.401, -0.9159999999999999, 1.2080000000000002, 0.738, 1.358], 0.8580566801619434),
    (114, [0.7450000000000001, -1.165, 1.0779999999999998, -0.8380000000000001, 0.581, -0.401, -0.9159999999999999, 1.2080000000000002, 0.738, 1.358], 0.8580566801619434),
    (115, [0.7450000000000001, -1.165, 1.0779999999999998, -0.8380000000000001, 0.581, -0.401, -0.9159999999999999, 1.2080000000000002, 0.738, 1.358], 0.8580566801619434),
    (116, [0.7450000000000001, -1.165, 1.0779999999999998, -0.8380000000000001, 0.581, -0.401, -0.9159999999999999, 1.2080000000000002, 0.738, 1.358], 0.8580566801619434),
    (117, [0.7450000000000001, -1.165, 1.0779999999999998, -0.8380000000000001, 0.581, -0.401, -0.9159999999999999, 1.2080000000000002, 0.738, 1.358], 0.8580566801619434),
    (118, [0.7450000000000001, -1.165, 1.0779999999999998, -0.8380000000000001, 0.581, -0.401, -0.9159999999999999, 1.2080000000000002, 0.738, 1.358], 0.8580566801619434),
    (119, [0.7450000000000001, -1.165, 1.0779999999999998, -0.8380000000000001, 0.581, -0.401, -0.9159999999999999, 1.2080000000000002, 0.738, 1.358], 0.8580566801619434),
    (120, [0.7450000000000001, -1.165, 1.0779999999999998, -0.8380000000000001, 0.581, -0.401, -0.9159999999999999, 1.2080000000000002, 0.738, 1.358], 0.8580566801619434),
    (121, [0.7450000000000001, -1.165, 1.0779999999999998, -0.8380000000000001, 0.581, -0.401, -0.9159999999999999, 1.2080000000000002, 0.738, 1.358], 0.8580566801619434),
    (122, [0.7450000000000001, -1.165, 1.0779999999999998, -0.8380000000000001, 0.581, -0.401, -0.9159999999999999, 1.2080000000000002, 0.738, 1.358], 0.8580566801619434),
    (123, [0.7450000000000001, -1.165, 1.0779999999999998, -0.8380000000000001, 0.581, -0.401, -0.9159999999999999, 1.2080000000000002, 0.738, 1.358], 0.8580566801619434),
    (124, [0.7450000000000001, -1.165, 1.0779999999999998, -0.8380000000000001, 0.581, -0.401, -0.9159999999999999, 1.2080000000000002, 0.738, 1.358], 0.8580566801619434),
    (125, [0.7450000000000001, -1.165, 1.0779999999999998, -0.8380000000000001, 0.581, -0.401, -0.9159999999999999, 1.2080000000000002, 0.738, 1.358], 0.8580566801619434),
    (126, [0.7450000000000001, -1.165, 1.0779999999999998, -0.8380000000000001, 0.581, -0.401, -0.9159999999999999, 1.2080000000000002, 0.738, 1.358], 0.8580566801619434),
    (127, [0.7450000000000001, -1.165, 1.0779999999999998, -0.8380000000000001, 0.581, -0.401, -0.9159999999999999, 1.2080000000000002, 0.738, 1.358], 0.8580566801619434),
    (128, [0.7450000000000001, -1.165, 1.0779999999999998, -0.8380000000000001, 0.581, -0.401, -0.9159999999999999, 1.2080000000000002, 0.738, 1.358], 0.8580566801619434),
    (129, [0.7450000000000001, -1.165, 1.0779999999999998, -0.8380000000000001, 0.581, -0.401, -0.9159999999999999, 1.2080000000000002, 0.738, 1.358], 0.8580566801619434),
    (130, [0.7450000000000001, -1.165, 1.0779999999999998, -0.8380000000000001, 0.581, -0.401, -0.9159999999999999, 1.2080000000000002, 0.738, 1.358], 0.8580566801619434),
    (131, [0.7450000000000001, -1.165, 1.0779999999999998, -0.8380000000000001, 0.581, -0.401, -0.9159999999999999, 1.2080000000000002, 0.738, 1.358], 0.8580566801619434),
    (132, [0.7450000000000001, -1.165, 1.0779999999999998, -0.8380000000000001, 0.581, -0.401, -0.9159999999999999, 1.2080000000000002, 0.738, 1.358], 0.8580566801619434),
    (133, [0.7450000000000001, -1.165, 1.0779999999999998, -0.8380000000000001, 0.581, -0.401, -0.9159999999999999, 1.2080000000000002, 0.738, 1.358], 0.8580566801619434),
    (134, [0.7450000000000001, -1.165, 1.0779999999999998, -0.8380000000000001, 0.581, -0.401, -0.9159999999999999, 1.2080000000000002, 0.738, 1.358], 0.8580566801619434),
    (135, [0.7450000000000001, -1.165, 1.0779999999999998, -0.8380000000000001, 0.581, -0.401, -0.9159999999999999, 1.2080000000000002, 0.738, 1.358], 0.8580566801619434),
    (136, [0.7450000000000001, -1.165, 1.0779999999999998, -0.8380000000000001, 0.581, -0.401, -0.9159999999999999, 1.2080000000000002, 0.738, 1.358], 0.8580566801619434),
    (137, [0.7450000000000001, -1.165, 1.0779999999999998, -0.8380000000000001, 0.581, -0.401, -0.9159999999999999, 1.2080000000000002, 0.738, 1.358], 0.8580566801619434),
    (138, [0.7450000000000001, -1.165, 1.0779999999999998, -0.8380000000000001, 0.581, -0.401, -0.9159999999999999, 1.2080000000000002, 0.738, 1.358], 0.8580566801619434),
    (139, [0.7450000000000001, -1.165, 1.0779999999999998, -0.8380000000000001, 0.581, -0.401, -0.9159999999999999, 1.2080000000000002, 0.738, 1.358], 0.8580566801619434),
    (140, [0.7450000000000001, -1.165, 1.0779999999999998, -0.8380000000000001, 0.581, -0.401, -0.9159999999999999, 1.2080000000000002, 0.738, 1.358], 0.8580566801619434),
    (141, [0.7450000000000001, -1.165, 1.0779999999999998, -0.8380000000000001, 0.581, -0.401, -0.9159999999999999, 1.2080000000000002, 0.738, 1.358], 0.8580566801619434),
    (142, [0.7450000000000001, -1.165, 1.0779999999999998, -0.8380000000000001, 0.581, -0.401, -0.9159999999999999, 1.2080000000000002, 0.738, 1.358], 0.8580566801619434),
    (143, [0.7450000000000001, -1.165, 1.0779999999999998, -0.8380000000000001, 0.581, -0.401, -0.9159999999999999, 1.2080000000000002, 0.738, 1.358], 0.8580566801619434),
    (144, [0.7450000000000001, -1.165, 1.0779999999999998, -0.8380000000000001, 0.581, -0.401, -0.9159999999999999, 1.2080000000000002, 0.738, 1.358], 0.8580566801619434),
    (145, [0.7450000000000001, -1.165, 1.0779999999999998, -0.8380000000000001, 0.581, -0.401, -0.9159999999999999, 1.2080000000000002, 0.738, 1.358], 0.8580566801619434),
    (146, [0.7450000000000001, -1.165, 1.0779999999999998, -0.8380000000000001, 0.581, -0.401, -0.9159999999999999, 1.2080000000000002, 0.738, 1.358], 0.8580566801619434),
    (147, [0.7450000000000001, -1.165, 1.0779999999999998, -0.8380000000000001, 0.581, -0.401, -0.9159999999999999, 1.2080000000000002, 0.738, 1.358], 0.8580566801619434),
    (148, [0.7450000000000001, -1.165, 1.0779999999999998, -0.8380000000000001, 0.581, -0.401, -0.9159999999999999, 1.2080000000000002, 0.738, 1.358], 0.8580566801619434),
    (149, [0.7450000000000001, -1.165, 1.0779999999999998, -0.8380000000000001, 0.581, -0.401, -0.9159999999999999, 1.2080000000000002, 0.738, 1.358], 0.8580566801619434),
    (150, [0.7450000000000001, -1.165, 1.0779999999999998, -0.8380000000000001, 0.581, -0.401, -0.9159999999999999, 1.2080000000000002, 0.738, 1.358], 0.8580566801619434),
    (151, [0.7450000000000001, -1.165, 1.0779999999999998, -0.8380000000000001, 0.581, -0.401, -0.9159999999999999, 1.2080000000000002, 0.738, 1.358], 0.8580566801619434),
    (152, [0.7450000000000001, -1.165, 1.0779999999999998, -0.8380000000000001, 0.581, -0.401, -0.9159999999999999, 1.2080000000000002, 0.738, 1.358], 0.8580566801619434),
    (153, [0.7450000000000001, -1.165, 1.0779999999999998, -0.8380000000000001, 0.581, -0.401, -0.9159999999999999, 1.2080000000000002, 0.738, 1.358], 0.8580566801619434),
    (154, [0.7450000000000001, -1.165, 1.0779999999999998, -0.8380000000000001, 0.581, -0.401, -0.9159999999999999, 1.2080000000000002, 0.738, 1.358], 0.8580566801619434),
    (155, [0.7450000000000001, -1.165, 1.0779999999999998, -0.8380000000000001, 0.581, -0.401, -0.9159999999999999, 1.2080000000000002, 0.738, 1.358], 0.8580566801619434),
    (156, [0.7450000000000001, -1.165, 1.0779999999999998, -0.8380000000000001, 0.581, -0.401, -0.9159999999999999, 1.2080000000000002, 0.738, 1.358], 0.8580566801619434),
    (157, [0.7450000000000001, -1.165, 1.0779999999999998, -0.8380000000000001, 0.581, -0.401, -0.9159999999999999, 1.2080000000000002, 0.738, 1.358], 0.8580566801619434),
    (158, [0.7450000000000001, -1.165, 1.0779999999999998, -0.8380000000000001, 0.581, -0.401, -0.9159999999999999, 1.2080000000000002, 0.738, 1.358], 0.8580566801619434),
    (159, [0.7450000000000001, -1.165, 1.0779999999999998, -0.8380000000000001, 0.581, -0.401, -0.9159999999999999, 1.2080000000000002, 0.738, 1.358], 0.8580566801619434),
    (160, [0.7450000000000001, -1.165, 1.0779999999999998, -0.8380000000000001, 0.581, -0.401, -0.9159999999999999, 1.2080000000000002, 0.738, 1.358], 0.8580566801619434),
    (161, [0.7450000000000001, -1.165, 1.0779999999999998, -0.8380000000000001, 0.581, -0.401, -0.9159999999999999, 1.2080000000000002, 0.738, 1.358], 0.8580566801619434),
    (162, [0.7450000000000001, -1.165, 1.0779999999999998, -0.8380000000000001, 0.581, -0.401, -0.9159999999999999, 1.2080000000000002, 0.738, 1.358], 0.8580566801619434),
    (163, [0.7450000000000001, -1.165, 1.0779999999999998, -0.8380000000000001, 0.581, -0.401, -0.9159999999999999, 1.2080000000000002, 0.738, 1.358], 0.8580566801619434),
    (164, [0.7450000000000001, -1.165, 1.0779999999999998, -0.8380000000000001, 0.581, -0.401, -0.9159999999999999, 1.2080000000000002, 0.738, 1.358], 0.8580566801619434),
    (165, [0.7450000000000001, -1.165, 1.0779999999999998, -0.8380000000000001, 0.581, -0.401, -0.9159999999999999, 1.2080000000000002, 0.738, 1.358], 0.8580566801619434),
    (166, [0.7450000000000001, -1.165, 1.0779999999999998, -0.8380000000000001, 0.581, -0.401, -0.9159999999999999, 1.2080000000000002, 0.738, 1.358], 0.8580566801619434),
    (167, [0.7450000000000001, -1.165, 1.0779999999999998, -0.8380000000000001, 0.581, -0.401, -0.9159999999999999, 1.2080000000000002, 0.738, 1.358], 0.8580566801619434),
    (168, [0.7450000000000001, -1.165, 1.0779999999999998, -0.8380000000000001, 0.581, -0.401, -0.9159999999999999, 1.2080000000000002, 0.738, 1.358], 0.8580566801619434),
    (169, [-0.8320000000000001, -1.244, 1.532, -1.951, -0.5880000000000001, -0.11699999999999999, 0.6870000000000003, -1.387, -1.616, -1.255], 0.8581848852901484),
    (170, [-0.8320000000000001, -1.244, 1.532, -1.951, -0.5880000000000001, -0.11699999999999999, 0.6870000000000003, -1.387, -1.616, -1.255], 0.8581848852901484),
    (171, [-0.8320000000000001, -1.244, 1.532, -1.951, -0.5880000000000001, -0.11699999999999999, 0.6870000000000003, -1.387, -1.616, -1.255], 0.8581848852901484),
    (172, [-0.8320000000000001, -1.244, 1.532, -1.951, -0.5880000000000001, -0.11699999999999999, 0.6870000000000003, -1.387, -1.616, -1.255], 0.8581848852901484),
    (173, [-0.8320000000000001, -1.244, 1.532, -1.951, -0.5880000000000001, -0.11699999999999999, 0.6870000000000003, -1.387, -1.616, -1.255], 0.8581848852901484),
    (174, [-0.8320000000000001, -1.244, 1.532, -1.951, -0.5880000000000001, -0.11699999999999999, 0.6870000000000003, -1.387, -1.616, -1.255], 0.8581848852901484),
    (175, [-0.8320000000000001, -1.244, 1.532, -1.951, -0.5880000000000001, -0.11699999999999999, 0.6870000000000003, -1.387, -1.616, -1.255], 0.8581848852901484),
    (176, [-0.8320000000000001, -1.244, 1.532, -1.951, -0.5880000000000001, -0.11699999999999999, 0.6870000000000003, -1.387, -1.616, -1.255], 0.8581848852901484),
    (177, [-0.8320000000000001, -1.244, 1.532, -1.951, -0.5880000000000001, -0.11699999999999999, 0.6870000000000003, -1.387, -1.616, -1.255], 0.8581848852901484),
    (178, [-0.8320000000000001, -1.244, 1.532, -1.951, -0.5880000000000001, -0.11699999999999999, 0.6870000000000003, -1.387, -1.616, -1.255], 0.8581848852901484),
    (179, [-0.8320000000000001, -1.244, 1.532, -1.951, -0.5880000000000001, -0.11699999999999999, 0.6870000000000003, -1.387, -1.616, -1.255], 0.8581848852901484),
    (180, [-0.8320000000000001, -1.244, 1.532, -1.951, -0.5880000000000001, -0.11699999999999999, 0.6870000000000003, -1.387, -1.616, -1.255], 0.8581848852901484),
    (181, [-0.8320000000000001, -1.244, 1.532, -1.951, -0.5880000000000001, -0.11699999999999999, 0.6870000000000003, -1.387, -1.616, -1.255], 0.8581848852901484),
    (182, [-0.8320000000000001, -1.244, 1.532, -1.951, -0.5880000000000001, -0.11699999999999999, 0.6870000000000003, -1.387, -1.616, -1.255], 0.8581848852901484),
    (183, [-0.8320000000000001, -1.244, 1.532, -1.951, -0.5880000000000001, -0.11699999999999999, 0.6870000000000003, -1.387, -1.616, -1.255], 0.8581848852901484),
    (184, [-0.8320000000000001, -1.244, 1.532, -1.951, -0.5880000000000001, -0.11699999999999999, 0.6870000000000003, -1.387, -1.616, -1.255], 0.8581848852901484),
    (185, [-0.8320000000000001, -1.244, 1.532, -1.951, -0.5880000000000001, -0.11699999999999999, 0.6870000000000003, -1.387, -1.616, -1.255], 0.8581848852901484),
    (186, [-0.8320000000000001, -1.244, 1.532, -1.951, -0.5880000000000001, -0.11699999999999999, 0.6870000000000003, -1.387, -1.616, -1.255], 0.8581848852901484),
    (187, [-0.8320000000000001, -1.244, 1.532, -1.951, -0.5880000000000001, -0.11699999999999999, 0.6870000000000003, -1.387, -1.616, -1.255], 0.8581848852901484),
    (188, [-0.8320000000000001, -1.244, 1.532, -1.951, -0.5880000000000001, -0.11699999999999999, 0.6870000000000003, -1.387, -1.616, -1.255], 0.8581848852901484),
    (189, [-0.8320000000000001, -1.244, 1.532, -1.951, -0.5880000000000001, -0.11699999999999999, 0.6870000000000003, -1.387, -1.616, -1.255], 0.8581848852901484),
    (190, [-0.8320000000000001, -1.244, 1.532, -1.951, -0.5880000000000001, -0.11699999999999999, 0.6870000000000003, -1.387, -1.616, -1.255], 0.8581848852901484),
    (191, [-0.8320000000000001, -1.244, 1.532, -1.951, -0.5880000000000001, -0.11699999999999999, 0.6870000000000003, -1.387, -1.616, -1.255], 0.8581848852901484),
    (192, [-0.8320000000000001, -1.244, 1.532, -1.951, -0.5880000000000001, -0.11699999999999999, 0.6870000000000003, -1.387, -1.616, -1.255], 0.8581848852901484),
    (193, [-0.8320000000000001, -1.244, 1.532, -1.951, -0.5880000000000001, -0.11699999999999999, 0.6870000000000003, -1.387, -1.616, -1.255], 0.8581848852901484),
    (194, [-0.8320000000000001, -1.244, 1.532, -1.951, -0.5880000000000001, -0.11699999999999999, 0.6870000000000003, -1.387, -1.616, -1.255], 0.8581848852901484),
    (195, [-0.8320000000000001, -1.244, 1.532, -1.951, -0.5880000000000001, -0.11699999999999999, 0.6870000000000003, -1.387, -1.616, -1.255], 0.8581848852901484),
    (196, [-0.8320000000000001, -1.244, 1.532, -1.951, -0.5880000000000001, -0.11699999999999999, 0.6870000000000003, -1.387, -1.616, -1.255], 0.8581848852901484),
    (197, [-0.8320000000000001, -1.244, 1.532, -1.951, -0.5880000000000001, -0.11699999999999999, 0.6870000000000003, -1.387, -1.616, -1.255], 0.8581848852901484),
    (198, [-0.8320000000000001, -1.244, 1.532, -1.951, -0.5880000000000001, -0.11699999999999999, 0.6870000000000003, -1.387, -1.616, -1.255], 0.8581848852901484),
    (199, [-0.8320000000000001, -1.244, 1.532, -1.951, -0.5880000000000001, -0.11699999999999999, 0.6870000000000003, -1.387, -1.616, -1.255], 0.8581848852901484),
    (200, [-0.8320000000000001, -1.244, 1.532, -1.951, -0.5880000000000001, -0.11699999999999999, 0.6870000000000003, -1.387, -1.616, -1.255], 0.8581848852901484),
    (201, [-0.8320000000000001, -1.244, 1.532, -1.951, -0.5880000000000001, -0.11699999999999999, 0.6870000000000003, -1.387, -1.616, -1.255], 0.8581848852901484),
    (202, [-0.8320000000000001, -1.244, 1.532, -1.951, -0.5880000000000001, -0.11699999999999999, 0.6870000000000003, -1.387, -1.616, -1.255], 0.8581848852901484),
    (203, [-0.8320000000000001, -1.244, 1.532, -1.951, -0.5880000000000001, -0.11699999999999999, 0.6870000000000003, -1.387, -1.616, -1.255], 0.8581848852901484),
    (204, [-0.8320000000000001, -1.244, 1.532, -1.951, -0.5880000000000001, -0.11699999999999999, 0.6870000000000003, -1.387, -1.616, -1.255], 0.8581848852901484),
    (205, [-0.8320000000000001, -1.244, 1.532, -1.951, -0.5880000000000001, -0.11699999999999999, 0.6870000000000003, -1.387, -1.616, -1.255], 0.8581848852901484),
    (206, [-0.8320000000000001, -1.244, 1.532, -1.951, -0.5880000000000001, -0.11699999999999999, 0.6870000000000003, -1.387, -1.616, -1.255], 0.8581848852901484),
    (207, [-0.8320000000000001, -1.244, 1.532, -1.951, -0.5880000000000001, -0.11699999999999999, 0.6870000000000003, -1.387, -1.616, -1.255], 0.8581848852901484),
    (208, [-0.8320000000000001, -1.244, 1.532, -1.951, -0.5880000000000001, -0.11699999999999999, 0.6870000000000003, -1.387, -1.616, -1.255], 0.8581848852901484),
    (209, [-0.8320000000000001, -1.244, 1.532, -1.951, -0.5880000000000001, -0.11699999999999999, 0.6870000000000003, -1.387, -1.616, -1.255], 0.8581848852901484),
    (210, [-0.8320000000000001, -1.244, 1.532, -1.951, -0.5880000000000001, -0.11699999999999999, 0.6870000000000003, -1.387, -1.616, -1.255], 0.8581848852901484),
    (211, [-0.8320000000000001, -1.244, 1.532, -1.951, -0.5880000000000001, -0.11699999999999999, 0.6870000000000003, -1.387, -1.616, -1.255], 0.8581848852901484),
    (212, [-0.8320000000000001, -1.244, 1.532, -1.951, -0.5880000000000001, -0.11699999999999999, 0.6870000000000003, -1.387, -1.616, -1.255], 0.8581848852901484),
    (213, [-0.8320000000000001, -1.244, 1.532, -1.951, -0.5880000000000001, -0.11699999999999999, 0.6870000000000003, -1.387, -1.616, -1.255], 0.8581848852901484),
    (214, [-0.8320000000000001, -1.244, 1.532, -1.951, -0.5880000000000001, -0.11699999999999999, 0.6870000000000003, -1.387, -1.616, -1.255], 0.8581848852901484),
    (215, [-0.8320000000000001, -1.244, 1.532, -1.951, -0.5880000000000001, -0.11699999999999999, 0.6870000000000003, -1.387, -1.616, -1.255], 0.8581848852901484),
    (216, [-0.8320000000000001, -1.244, 1.532, -1.951, -0.5880000000000001, -0.11699999999999999, 0.6870000000000003, -1.387, -1.616, -1.255], 0.8581848852901484),
    (217, [-0.8320000000000001, -1.244, 1.532, -1.951, -0.5880000000000001, -0.11699999999999999, 0.6870000000000003, -1.387, -1.616, -1.255], 0.8581848852901484),
    (218, [-0.8320000000000001, -1.244, 1.532, -1.951, -0.5880000000000001, -0.11699999999999999, 0.6870000000000003, -1.387, -1.616, -1.255], 0.8581848852901484),
    (219, [-0.8320000000000001, -1.244, 1.532, -1.951, -0.5880000000000001, -0.11699999999999999, 0.6870000000000003, -1.387, -1.616, -1.255], 0.8581848852901484),
    (220, [-0.8320000000000001, -1.244, 1.532, -1.951, -0.5880000000000001, -0.11699999999999999, 0.6870000000000003, -1.387, -1.616, -1.255], 0.8581848852901484),
    (221, [-0.8320000000000001, -1.244, 1.532, -1.951, -0.5880000000000001, -0.11699999999999999, 0.6870000000000003, -1.387, -1.616, -1.255], 0.8581848852901484),
    (222, [-0.8320000000000001, -1.244, 1.532, -1.951, -0.5880000000000001, -0.11699999999999999, 0.6870000000000003, -1.387, -1.616, -1.255], 0.8581848852901484),
    (223, [-0.8320000000000001, -1.244, 1.532, -1.951, -0.5880000000000001, -0.11699999999999999, 0.6870000000000003, -1.387, -1.616, -1.255], 0.8581848852901484),
    (224, [-0.8320000000000001, -1.244, 1.532, -1.951, -0.5880000000000001, -0.11699999999999999, 0.6870000000000003, -1.387, -1.616, -1.255], 0.8581848852901484),
    (225, [-0.8320000000000001, -1.244, 1.532, -1.951, -0.5880000000000001, -0.11699999999999999, 0.6870000000000003, -1.387, -1.616, -1.255], 0.8581848852901484),
    (226, [-0.8320000000000001, -1.244, 1.532, -1.951, -0.5880000000000001, -0.11699999999999999, 0.6870000000000003, -1.387, -1.616, -1.255], 0.8581848852901484),
    (227, [-0.8320000000000001, -1.244, 1.532, -1.951, -0.5880000000000001, -0.11699999999999999, 0.6870000000000003, -1.387, -1.616, -1.255], 0.8581848852901484),
    (228, [-0.8320000000000001, -1.244, 1.532, -1.951, -0.5880000000000001, -0.11699999999999999, 0.6870000000000003, -1.387, -1.616, -1.255], 0.8581848852901484),
    (229, [-0.8320000000000001, -1.244, 1.532, -1.951, -0.5880000000000001, -0.11699999999999999, 0.6870000000000003, -1.387, -1.616, -1.255], 0.8581848852901484),
    (230, [-0.8320000000000001, -1.244, 1.532, -1.951, -0.5880000000000001, -0.11699999999999999, 0.6870000000000003, -1.387, -1.616, -1.255], 0.8581848852901484),
    (231, [-0.8320000000000001, -1.244, 1.532, -1.951, -0.5880000000000001, -0.11699999999999999, 0.6870000000000003, -1.387, -1.616, -1.255], 0.8581848852901484),
    (232, [-0.8320000000000001, -1.244, 1.532, -1.951, -0.5880000000000001, -0.11699999999999999, 0.6870000000000003, -1.387, -1.616, -1.255], 0.8581848852901484),
    (233, [-0.8320000000000001, -1.244, 1.532, -1.951, -0.5880000000000001, -0.11699999999999999, 0.6870000000000003, -1.387, -1.616, -1.255], 0.8581848852901484),
    (234, [-0.8320000000000001, -1.244, 1.532, -1.951, -0.5880000000000001, -0.11699999999999999, 0.6870000000000003, -1.387, -1.616, -1.255], 0.8581848852901484),
    (235, [-0.8320000000000001, -1.244, 1.532, -1.951, -0.5880000000000001, -0.11699999999999999, 0.6870000000000003, -1.387, -1.616, -1.255], 0.8581848852901484),
    (236, [-0.8320000000000001, -1.244, 1.532, -1.951, -0.5880000000000001, -0.11699999999999999, 0.6870000000000003, -1.387, -1.616, -1.255], 0.8581848852901484),
    (237, [-0.8320000000000001, -1.244, 1.532, -1.951, -0.5880000000000001, -0.11699999999999999, 0.6870000000000003, -1.387, -1.616, -1.255], 0.8581848852901484),
    (238, [-0.8320000000000001, -1.244, 1.532, -1.951, -0.5880000000000001, -0.11699999999999999, 0.6870000000000003, -1.387, -1.616, -1.255], 0.8581848852901484),
    (239, [-0.8320000000000001, -1.244, 1.532, -1.951, -0.5880000000000001, -0.11699999999999999, 0.6870000000000003, -1.387, -1.616, -1.255], 0.8581848852901484),
    (240, [-0.8320000000000001, -1.244, 1.532, -1.951, -0.5880000000000001, -0.11699999999999999, 0.6870000000000003, -1.387, -1.616, -1.255], 0.8581848852901484),
    (241, [-0.8320000000000001, -1.244, 1.532, -1.951, -0.5880000000000001, -0.11699999999999999, 0.6870000000000003, -1.387, -1.616, -1.255], 0.8581848852901484),
    (242, [-0.8320000000000001, -1.244, 1.532, -1.951, -0.5880000000000001, -0.11699999999999999, 0.6870000000000003, -1.387, -1.616, -1.255], 0.8581848852901484),
    (243, [-0.8320000000000001, -1.244, 1.532, -1.951, -0.5880000000000001, -0.11699999999999999, 0.6870000000000003, -1.387, -1.616, -1.255], 0.8581848852901484),
    (244, [-0.8320000000000001, -1.244, 1.532, -1.951, -0.5880000000000001, -0.11699999999999999, 0.6870000000000003, -1.387, -1.616, -1.255], 0.8581848852901484),
    (245, [-0.8320000000000001, -1.244, 1.532, -1.951, -0.5880000000000001, -0.11699999999999999, 0.6870000000000003, -1.387, -1.616, -1.255], 0.8581848852901484),
    (246, [-0.8320000000000001, -1.244, 1.532, -1.951, -0.5880000000000001, -0.11699999999999999, 0.6870000000000003, -1.387, -1.616, -1.255], 0.8581848852901484),
    (247, [-0.8320000000000001, -1.244, 1.532, -1.951, -0.5880000000000001, -0.11699999999999999, 0.6870000000000003, -1.387, -1.616, -1.255], 0.8581848852901484),
    (248, [-0.8320000000000001, -1.244, 1.532, -1.951, -0.5880000000000001, -0.11699999999999999, 0.6870000000000003, -1.387, -1.616, -1.255], 0.8581848852901484),
    (249, [-0.8320000000000001, -1.244, 1.532, -1.951, -0.5880000000000001, -0.11699999999999999, 0.6870000000000003, -1.387, -1.616, -1.255], 0.8581848852901484),
    (250, [-0.8320000000000001, -1.244, 1.532, -1.951, -0.5880000000000001, -0.11699999999999999, 0.6870000000000003, -1.387, -1.616, -1.255], 0.8581848852901484),
    (251, [-0.8320000000000001, -1.244, 1.532, -1.951, -0.5880000000000001, -0.11699999999999999, 0.6870000000000003, -1.387, -1.616, -1.255], 0.8581848852901484),
    (252, [-0.8320000000000001, -1.244, 1.532, -1.951, -0.5880000000000001, -0.11699999999999999, 0.6870000000000003, -1.387, -1.616, -1.255], 0.8581848852901484),
    (253, [-0.8320000000000001, -1.244, 1.532, -1.951, -0.5880000000000001, -0.11699999999999999, 0.6870000000000003, -1.387, -1.616, -1.255], 0.8581848852901484),
    (254, [-0.8320000000000001, -1.244, 1.532, -1.951, -0.5880000000000001, -0.11699999999999999, 0.6870000000000003, -1.387, -1.616, -1.255], 0.8581848852901484),
    (255, [-0.8320000000000001, -1.244, 1.532, -1.951, -0.5880000000000001, -0.11699999999999999, 0.6870000000000003, -1.387, -1.616, -1.255], 0.8581848852901484),
    (256, [-0.8320000000000001, -1.244, 1.532, -1.951, -0.5880000000000001, -0.11699999999999999, 0.6870000000000003, -1.387, -1.616, -1.255], 0.8581848852901484),
    (257, [-0.8320000000000001, -1.244, 1.532, -1.951, -0.5880000000000001, -0.11699999999999999, 0.6870000000000003, -1.387, -1.616, -1.255], 0.8581848852901484),
    (258, [-0.8320000000000001, -1.244, 1.532, -1.951, -0.5880000000000001, -0.11699999999999999, 0.6870000000000003, -1.387, -1.616, -1.255], 0.8581848852901484),
    (259, [-0.8320000000000001, -1.244, 1.532, -1.951, -0.5880000000000001, -0.11699999999999999, 0.6870000000000003, -1.387, -1.616, -1.255], 0.8581848852901484),
    (260, [-0.8320000000000001, -1.244, 1.532, -1.951, -0.5880000000000001, -0.11699999999999999, 0.6870000000000003, -1.387, -1.616, -1.255], 0.8581848852901484),
    (261, [-0.8320000000000001, -1.244, 1.532, -1.951, -0.5880000000000001, -0.11699999999999999, 0.6870000000000003, -1.387, -1.616, -1.255], 0.8581848852901484),
    (262, [-0.8320000000000001, -1.244, 1.532, -1.951, -0.5880000000000001, -0.11699999999999999, 0.6870000000000003, -1.387, -1.616, -1.255], 0.8581848852901484),
    (263, [-0.8320000000000001, -1.244, 1.532, -1.951, -0.5880000000000001, -0.11699999999999999, 0.6870000000000003, -1.387, -1.616, -1.255], 0.8581848852901484),
    (264, [0.871, 1.077, -0.8659999999999999, -0.893, -0.8220000000000001, -0.06099999999999994, 0.06800000000000006, -1.0110000000000001, -1.1440000000000001, 0.8479999999999999], 0.8631781376518219),
    (265, [0.871, 1.077, -0.8659999999999999, -0.893, -0.8220000000000001, -0.06099999999999994, 0.06800000000000006, -1.0110000000000001, -1.1440000000000001, 0.8479999999999999], 0.8631781376518219),
    (266, [0.871, 1.077, -0.8659999999999999, -0.893, -0.8220000000000001, -0.06099999999999994, 0.06800000000000006, -1.0110000000000001, -1.1440000000000001, 0.8479999999999999], 0.8631781376518219),
    (267, [0.871, 1.077, -0.8659999999999999, -0.893, -0.8220000000000001, -0.06099999999999994, 0.06800000000000006, -1.0110000000000001, -1.1440000000000001, 0.8479999999999999], 0.8631781376518219),
    (268, [0.871, 1.077, -0.8659999999999999, -0.893, -0.8220000000000001, -0.06099999999999994, 0.06800000000000006, -1.0110000000000001, -1.1440000000000001, 0.8479999999999999], 0.8631781376518219),
    (269, [0.871, 1.077, -0.8659999999999999, -0.893, -0.8220000000000001, -0.06099999999999994, 0.06800000000000006, -1.0110000000000001, -1.1440000000000001, 0.8479999999999999], 0.8631781376518219),
    (270, [0.871, 1.077, -0.8659999999999999, -0.893, -0.8220000000000001, -0.06099999999999994, 0.06800000000000006, -1.0110000000000001, -1.1440000000000001, 0.8479999999999999], 0.8631781376518219),
    (271, [0.871, 1.077, -0.8659999999999999, -0.893, -0.8220000000000001, -0.06099999999999994, 0.06800000000000006, -1.0110000000000001, -1.1440000000000001, 0.8479999999999999], 0.8631781376518219),
    (272, [0.871, 1.077, -0.8659999999999999, -0.893, -0.8220000000000001, -0.06099999999999994, 0.06800000000000006, -1.0110000000000001, -1.1440000000000001, 0.8479999999999999], 0.8631781376518219),
    (273, [0.871, 1.077, -0.8659999999999999, -0.893, -0.8220000000000001, -0.06099999999999994, 0.06800000000000006, -1.0110000000000001, -1.1440000000000001, 0.8479999999999999], 0.8631781376518219),
    (274, [0.871, 1.077, -0.8659999999999999, -0.893, -0.8220000000000001, -0.06099999999999994, 0.06800000000000006, -1.0110000000000001, -1.1440000000000001, 0.8479999999999999], 0.8631781376518219),
    (275, [0.871, 1.077, -0.8659999999999999, -0.893, -0.8220000000000001, -0.06099999999999994, 0.06800000000000006, -1.0110000000000001, -1.1440000000000001, 0.8479999999999999], 0.8631781376518219),
    (276, [0.871, 1.077, -0.8659999999999999, -0.893, -0.8220000000000001, -0.06099999999999994, 0.06800000000000006, -1.0110000000000001, -1.1440000000000001, 0.8479999999999999], 0.8631781376518219),
    (277, [0.871, 1.077, -0.8659999999999999, -0.893, -0.8220000000000001, -0.06099999999999994, 0.06800000000000006, -1.0110000000000001, -1.1440000000000001, 0.8479999999999999], 0.8631781376518219),
    (278, [0.871, 1.077, -0.8659999999999999, -0.893, -0.8220000000000001, -0.06099999999999994, 0.06800000000000006, -1.0110000000000001, -1.1440000000000001, 0.8479999999999999], 0.8631781376518219),
    (279, [0.871, 1.077, -0.8659999999999999, -0.893, -0.8220000000000001, -0.06099999999999994, 0.06800000000000006, -1.0110000000000001, -1.1440000000000001, 0.8479999999999999], 0.8631781376518219),
    (280, [0.871, 1.077, -0.8659999999999999, -0.893, -0.8220000000000001, -0.06099999999999994, 0.06800000000000006, -1.0110000000000001, -1.1440000000000001, 0.8479999999999999], 0.8631781376518219),
    (281, [0.871, 1.077, -0.8659999999999999, -0.893, -0.8220000000000001, -0.06099999999999994, 0.06800000000000006, -1.0110000000000001, -1.1440000000000001, 0.8479999999999999], 0.8631781376518219),
    (282, [0.871, 1.077, -0.8659999999999999, -0.893, -0.8220000000000001, -0.06099999999999994, 0.06800000000000006, -1.0110000000000001, -1.1440000000000001, 0.8479999999999999], 0.8631781376518219),
    (283, [0.871, 1.077, -0.8659999999999999, -0.893, -0.8220000000000001, -0.06099999999999994, 0.06800000000000006, -1.0110000000000001, -1.1440000000000001, 0.8479999999999999], 0.8631781376518219),
    (284, [0.871, 1.077, -0.8659999999999999, -0.893, -0.8220000000000001, -0.06099999999999994, 0.06800000000000006, -1.0110000000000001, -1.1440000000000001, 0.8479999999999999], 0.8631781376518219),
    (285, [0.871, 1.077, -0.8659999999999999, -0.893, -0.8220000000000001, -0.06099999999999994, 0.06800000000000006, -1.0110000000000001, -1.1440000000000001, 0.8479999999999999], 0.8631781376518219),
    (286, [0.871, 1.077, -0.8659999999999999, -0.893, -0.8220000000000001, -0.06099999999999994, 0.06800000000000006, -1.0110000000000001, -1.1440000000000001, 0.8479999999999999], 0.8631781376518219),
    (287, [0.871, 1.077, -0.8659999999999999, -0.893, -0.8220000000000001, -0.06099999999999994, 0.06800000000000006, -1.0110000000000001, -1.1440000000000001, 0.8479999999999999], 0.8631781376518219),
    (288, [0.871, 1.077, -0.8659999999999999, -0.893, -0.8220000000000001, -0.06099999999999994, 0.06800000000000006, -1.0110000000000001, -1.1440000000000001, 0.8479999999999999], 0.8631781376518219),
    (289, [0.871, 1.077, -0.8659999999999999, -0.893, -0.8220000000000001, -0.06099999999999994, 0.06800000000000006, -1.0110000000000001, -1.1440000000000001, 0.8479999999999999], 0.8631781376518219),
    (290, [0.871, 1.077, -0.8659999999999999, -0.893, -0.8220000000000001, -0.06099999999999994, 0.06800000000000006, -1.0110000000000001, -1.1440000000000001, 0.8479999999999999], 0.8631781376518219),
    (291, [0.871, 1.077, -0.8659999999999999, -0.893, -0.8220000000000001, -0.06099999999999994, 0.06800000000000006, -1.0110000000000001, -1.1440000000000001, 0.8479999999999999], 0.8631781376518219),
    (292, [0.871, 1.077, -0.8659999999999999, -0.893, -0.8220000000000001, -0.06099999999999994, 0.06800000000000006, -1.0110000000000001, -1.1440000000000001, 0.8479999999999999], 0.8631781376518219),
    (293, [0.871, 1.077, -0.8659999999999999, -0.893, -0.8220000000000001, -0.06099999999999994, 0.06800000000000006, -1.0110000000000001, -1.1440000000000001, 0.8479999999999999], 0.8631781376518219),
    (294, [0.871, 1.077, -0.8659999999999999, -0.893, -0.8220000000000001, -0.06099999999999994, 0.06800000000000006, -1.0110000000000001, -1.1440000000000001, 0.8479999999999999], 0.8631781376518219),
    (295, [0.871, 1.077, -0.8659999999999999, -0.893, -0.8220000000000001, -0.06099999999999994, 0.06800000000000006, -1.0110000000000001, -1.1440000000000001, 0.8479999999999999], 0.8631781376518219),
    (296, [0.871, 1.077, -0.8659999999999999, -0.893, -0.8220000000000001, -0.06099999999999994, 0.06800000000000006, -1.0110000000000001, -1.1440000000000001, 0.8479999999999999], 0.8631781376518219),
    (297, [0.871, 1.077, -0.8659999999999999, -0.893, -0.8220000000000001, -0.06099999999999994, 0.06800000000000006, -1.0110000000000001, -1.1440000000000001, 0.8479999999999999], 0.8631781376518219),
    (298, [0.871, 1.077, -0.8659999999999999, -0.893, -0.8220000000000001, -0.06099999999999994, 0.06800000000000006, -1.0110000000000001, -1.1440000000000001, 0.8479999999999999], 0.8631781376518219),
    (299, [0.871, 1.077, -0.8659999999999999, -0.893, -0.8220000000000001, -0.06099999999999994, 0.06800000000000006, -1.0110000000000001, -1.1440000000000001, 0.8479999999999999], 0.8631781376518219),
]

