ranges of every chromosome : (-1, 1)
    selection method is: ExponentialRankingSelection
    crossover method is: UniformCrossover
    pc: The probability of crossover: 0.700000
    pe: Gene exchange probability: 0.500000
    mutation method is: FlipBitBigMutation
    pm: The probability of mutation: 0.200000
    pbm: The probability of big mutation: 0.500000
    alpha: intensive factor: 0.750000
best_fit = [
    (0, [1, 1, 1, 1, 1, 1, 1, 1, 1, 1], 0.8480499325236167),
    (1, [0.675, 0.27900000000000014, 0.32200000000000006, -0.357, -0.776, -0.49, 0.8300000000000001, 0.885, -0.6819999999999999, -0.5800000000000001], 0.8525303643724695),
    (2, [-0.655, -0.21899999999999997, -0.764, 0.14100000000000001, -0.8200000000000001, 0.2490000000000001, 0.2330000000000001, 0.635, -0.831, 0.6000000000000001], 0.8576585695006747),
    (3, [-0.655, -0.21899999999999997, -0.764, 0.14100000000000001, -0.8200000000000001, 0.2490000000000001, 0.2330000000000001, 0.635, -0.831, 0.6000000000000001], 0.8576585695006747),
    (4, [-0.655, -0.21899999999999997, -0.764, 0.14100000000000001, -0.8200000000000001, 0.2490000000000001, 0.2330000000000001, 0.635, -0.831, 0.6000000000000001], 0.8576585695006747),
    (5, [-0.655, -0.21899999999999997, -0.764, 0.14100000000000001, -0.8200000000000001, 0.2490000000000001, 0.2330000000000001, 0.635, -0.831, 0.6000000000000001], 0.8576585695006747),
    (6, [-0.655, -0.21899999999999997, -0.764, 0.14100000000000001, -0.8200000000000001, 0.2490000000000001, 0.2330000000000001, 0.635, -0.831, 0.6000000000000001], 0.8576585695006747),
    (7, [-0.655, -0.21899999999999997, -0.764, 0.14100000000000001, -0.8200000000000001, 0.2490000000000001, 0.2330000000000001, 0.635, -0.831, 0.6000000000000001], 0.8576585695006747),
    (8, [-0.655, -0.21899999999999997, -0.764, 0.14100000000000001, -0.8200000000000001, 0.2490000000000001, 0.2330000000000001, 0.635, -0.831, 0.6000000000000001], 0.8576585695006747),
    (9, [-0.655, -0.21899999999999997, -0.764, 0.14100000000000001, -0.8200000000000001, 0.2490000000000001, 0.2330000000000001, 0.635, -0.831, 0.6000000000000001], 0.8576585695006747),
    (10, [-0.655, -0.21899999999999997, -0.764, 0.14100000000000001, -0.8200000000000001, 0.2490000000000001, 0.2330000000000001, 0.635, -0.831, 0.6000000000000001], 0.8576585695006747),
    (11, [-0.655, -0.21899999999999997, -0.764, 0.14100000000000001, -0.8200000000000001, 0.2490000000000001, 0.2330000000000001, 0.635, -0.831, 0.6000000000000001], 0.8576585695006747),
    (12, [-0.655, -0.21899999999999997, -0.764, 0.14100000000000001, -0.8200000000000001, 0.2490000000000001, 0.2330000000000001, 0.635, -0.831, 0.6000000000000001], 0.8576585695006747),
    (13, [-0.655, -0.21899999999999997, -0.764, 0.14100000000000001, -0.8200000000000001, 0.2490000000000001, 0.2330000000000001, 0.635, -0.831, 0.6000000000000001], 0.8576585695006747),
    (14, [-0.655, -0.21899999999999997, -0.764, 0.14100000000000001, -0.8200000000000001, 0.2490000000000001, 0.2330000000000001, 0.635, -0.831, 0.6000000000000001], 0.8576585695006747),
    (15, [-0.655, -0.21899999999999997, -0.764, 0.14100000000000001, -0.8200000000000001, 0.2490000000000001, 0.2330000000000001, 0.635, -0.831, 0.6000000000000001], 0.8576585695006747),
    (16, [-0.655, -0.21899999999999997, -0.764, 0.14100000000000001, -0.8200000000000001, 0.2490000000000001, 0.2330000000000001, 0.635, -0.831, 0.6000000000000001], 0.8576585695006747),
    (17, [-0.655, -0.21899999999999997, -0.764, 0.14100000000000001, -0.8200000000000001, 0.2490000000000001, 0.2330000000000001, 0.635, -0.831, 0.6000000000000001], 0.8576585695006747),
    (18, [-0.655, -0.21899999999999997, -0.764, 0.14100000000000001, -0.8200000000000001, 0.2490000000000001, 0.2330000000000001, 0.635, -0.831, 0.6000000000000001], 0.8576585695006747),
    (19, [-0.655, -0.21899999999999997, -0.764, 0.14100000000000001, -0.8200000000000001, 0.2490000000000001, 0.2330000000000001, 0.635, -0.831, 0.6000000000000001], 0.8576585695006747),
    (20, [-0.655, -0.21899999999999997, -0.764, 0.14100000000000001, -0.8200000000000001, 0.2490000000000001, 0.2330000000000001, 0.635, -0.831, 0.6000000000000001], 0.8576585695006747),
    (21, [-0.655, -0.21899999999999997, -0.764, 0.14100000000000001, -0.8200000000000001, 0.2490000000000001, 0.2330000000000001, 0.635, -0.831, 0.6000000000000001], 0.8576585695006747),
    (22, [-0.655, -0.21899999999999997, -0.764, 0.14100000000000001, -0.8200000000000001, 0.2490000000000001, 0.2330000000000001, 0.635, -0.831, 0.6000000000000001], 0.8576585695006747),
    (23, [-0.655, -0.21899999999999997, -0.764, 0.14100000000000001, -0.8200000000000001, 0.2490000000000001, 0.2330000000000001, 0.635, -0.831, 0.6000000000000001], 0.8576585695006747),
    (24, [0.69, -0.688, -0.21799999999999997, 0.3720000000000001, -0.30099999999999993, -0.371, -0.941, -0.874, 0.33499999999999996, 0.6280000000000001], 0.8577867746288799),
    (25, [0.69, -0.688, -0.21799999999999997, 0.3720000000000001, -0.30099999999999993, -0.371, -0.941, -0.874, 0.33499999999999996, 0.6280000000000001], 0.8577867746288799),
    (26, [0.69, -0.688, -0.21799999999999997, 0.3720000000000001, -0.30099999999999993, -0.371, -0.941, -0.874, 0.33499999999999996, 0.6280000000000001], 0.8577867746288799),
    (27, [0.69, -0.688, -0.21799999999999997, 0.3720000000000001, -0.30099999999999993, -0.371, -0.941, -0.874, 0.33499999999999996, 0.6280000000000001], 0.8577867746288799),
    (28, [0.69, -0.688, -0.21799999999999997, 0.3720000000000001, -0.30099999999999993, -0.371, -0.941, -0.874, 0.33499999999999996, 0.6280000000000001], 0.8577867746288799),
    (29, [0.69, -0.688, -0.21799999999999997, 0.3720000000000001, -0.30099999999999993, -0.371, -0.941, -0.874, 0.33499999999999996, 0.6280000000000001], 0.8577867746288799),
    (30, [0.69, -0.688, -0.21799999999999997, 0.3720000000000001, -0.30099999999999993, -0.371, -0.941, -0.874, 0.33499999999999996, 0.6280000000000001], 0.8577867746288799),
    (31, [0.69, -0.688, -0.21799999999999997, 0.3720000000000001, -0.30099999999999993, -0.371, -0.941, -0.874, 0.33499999999999996, 0.6280000000000001], 0.8577867746288799),
    (32, [0.69, -0.688, -0.21799999999999997, 0.3720000000000001, -0.30099999999999993, -0.371, -0.941, -0.874, 0.33499999999999996, 0.6280000000000001], 0.8577867746288799),
    (33, [0.69, -0.688, -0.21799999999999997, 0.3720000000000001, -0.30099999999999993, -0.371, -0.941, -0.874, 0.33499999999999996, 0.6280000000000001], 0.8577867746288799),
    (34, [0.69, -0.688, -0.21799999999999997, 0.3720000000000001, -0.30099999999999993, -0.371, -0.941, -0.874, 0.33499999999999996, 0.6280000000000001], 0.8577867746288799),
    (35, [0.69, -0.688, -0.21799999999999997, 0.3720000000000001, -0.30099999999999993, -0.371, -0.941, -0.874, 0.33499999999999996, 0.6280000000000001], 0.8577867746288799),
    (36, [0.69, -0.688, -0.21799999999999997, 0.3720000000000001, -0.30099999999999993, -0.371, -0.941, -0.874, 0.33499999999999996, 0.6280000000000001], 0.8577867746288799),
    (37, [0.69, -0.688, -0.21799999999999997, 0.3720000000000001, -0.30099999999999993, -0.371, -0.941, -0.874, 0.33499999999999996, 0.6280000000000001], 0.8577867746288799),
    (38, [0.69, -0.688, -0.21799999999999997, 0.3720000000000001, -0.30099999999999993, -0.371, -0.941, -0.874, 0.33499999999999996, 0.6280000000000001], 0.8577867746288799),
    (39, [0.69, -0.688, -0.21799999999999997, 0.3720000000000001, -0.30099999999999993, -0.371, -0.941, -0.874, 0.33499999999999996, 0.6280000000000001], 0.8577867746288799),
    (40, [0.69, -0.688, -0.21799999999999997, 0.3720000000000001, -0.30099999999999993, -0.371, -0.941, -0.874, 0.33499999999999996, 0.6280000000000001], 0.8577867746288799),
    (41, [0.69, -0.688, -0.21799999999999997, 0.3720000000000001, -0.30099999999999993, -0.371, -0.941, -0.874, 0.33499999999999996, 0.6280000000000001], 0.8577867746288799),
    (42, [0.69, -0.688, -0.21799999999999997, 0.3720000000000001, -0.30099999999999993, -0.371, -0.941, -0.874, 0.33499999999999996, 0.6280000000000001], 0.8577867746288799),
    (43, [0.69, -0.688, -0.21799999999999997, 0.3720000000000001, -0.30099999999999993, -0.371, -0.941, -0.874, 0.33499999999999996, 0.6280000000000001], 0.8577867746288799),
    (44, [0.69, -0.688, -0.21799999999999997, 0.3720000000000001, -0.30099999999999993, -0.371, -0.941, -0.874, 0.33499999999999996, 0.6280000000000001], 0.8577867746288799),
    (45, [0.69, -0.688, -0.21799999999999997, 0.3720000000000001, -0.30099999999999993, -0.371, -0.941, -0.874, 0.33499999999999996, 0.6280000000000001], 0.8577867746288799),
    (46, [0.69, -0.688, -0.21799999999999997, 0.3720000000000001, -0.30099999999999993, -0.371, -0.941, -0.874, 0.33499999999999996, 0.6280000000000001], 0.8577867746288799),
    (47, [0.69, -0.688, -0.21799999999999997, 0.3720000000000001, -0.30099999999999993, -0.371, -0.941, -0.874, 0.33499999999999996, 0.6280000000000001], 0.8577867746288799),
    (48, [0.69, -0.688, -0.21799999999999997, 0.3720000000000001, -0.30099999999999993, -0.371, -0.941, -0.874, 0.33499999999999996, 0.6280000000000001], 0.8577867746288799),
    (49, [0.69, -0.688, -0.21799999999999997, 0.3720000000000001, -0.30099999999999993, -0.371, -0.941, -0.874, 0.33499999999999996, 0.6280000000000001], 0.8577867746288799),
    (50, [0.69, -0.688, -0.21799999999999997, 0.3720000000000001, -0.30099999999999993, -0.371, -0.941, -0.874, 0.33499999999999996, 0.6280000000000001], 0.8577867746288799),
    (51, [0.69, -0.688, -0.21799999999999997, 0.3720000000000001, -0.30099999999999993, -0.371, -0.941, -0.874, 0.33499999999999996, 0.6280000000000001], 0.8577867746288799),
    (52, [0.69, -0.688, -0.21799999999999997, 0.3720000000000001, -0.30099999999999993, -0.371, -0.941, -0.874, 0.33499999999999996, 0.6280000000000001], 0.8577867746288799),
    (53, [0.69, -0.688, -0.21799999999999997, 0.3720000000000001, -0.30099999999999993, -0.371, -0.941, -0.874, 0.33499999999999996, 0.6280000000000001], 0.8577867746288799),
    (54, [0.69, -0.688, -0.21799999999999997, 0.3720000000000001, -0.30099999999999993, -0.371, -0.941, -0.874, 0.33499999999999996, 0.6280000000000001], 0.8577867746288799),
    (55, [0.69, -0.688, -0.21799999999999997, 0.3720000000000001, -0.30099999999999993, -0.371, -0.941, -0.874, 0.33499999999999996, 0.6280000000000001], 0.8577867746288799),
    (56, [0.69, -0.688, -0.21799999999999997, 0.3720000000000001, -0.30099999999999993, -0.371, -0.941, -0.874, 0.33499999999999996, 0.6280000000000001], 0.8577867746288799),
    (57, [0.69, -0.688, -0.21799999999999997, 0.3720000000000001, -0.30099999999999993, -0.371, -0.941, -0.874, 0.33499999999999996, 0.6280000000000001], 0.8577867746288799),
    (58, [0.69, -0.688, -0.21799999999999997, 0.3720000000000001, -0.30099999999999993, -0.371, -0.941, -0.874, 0.33499999999999996, 0.6280000000000001], 0.8577867746288799),
    (59, [0.69, -0.688, -0.21799999999999997, 0.3720000000000001, -0.30099999999999993, -0.371, -0.941, -0.874, 0.33499999999999996, 0.6280000000000001], 0.8577867746288799),
    (60, [0.69, -0.688, -0.21799999999999997, 0.3720000000000001, -0.30099999999999993, -0.371, -0.941, -0.874, 0.33499999999999996, 0.6280000000000001], 0.8577867746288799),
    (61, [0.69, -0.688, -0.21799999999999997, 0.3720000000000001, -0.30099999999999993, -0.371, -0.941, -0.874, 0.33499999999999996, 0.6280000000000001], 0.8577867746288799),
    (62, [0.69, -0.688, -0.21799999999999997, 0.3720000000000001, -0.30099999999999993, -0.371, -0.941, -0.874, 0.33499999999999996, 0.6280000000000001], 0.8577867746288799),
    (63, [0.69, -0.688, -0.21799999999999997, 0.3720000000000001, -0.30099999999999993, -0.371, -0.941, -0.874, 0.33499999999999996, 0.6280000000000001], 0.8577867746288799),
    (64, [0.69, -0.688, -0.21799999999999997, 0.3720000000000001, -0.30099999999999993, -0.371, -0.941, -0.874, 0.33499999999999996, 0.6280000000000001], 0.8577867746288799),
    (65, [0.69, -0.688, -0.21799999999999997, 0.3720000000000001, -0.30099999999999993, -0.371, -0.941, -0.874, 0.33499999999999996, 0.6280000000000001], 0.8577867746288799),
    (66, [0.69, -0.688, -0.21799999999999997, 0.3720000000000001, -0.30099999999999993, -0.371, -0.941, -0.874, 0.33499999999999996, 0.6280000000000001], 0.8577867746288799),
    (67, [0.69, -0.688, -0.21799999999999997, 0.3720000000000001, -0.30099999999999993, -0.371, -0.941, -0.874, 0.33499999999999996, 0.6280000000000001], 0.8577867746288799),
    (68, [0.69, -0.688, -0.21799999999999997, 0.3720000000000001, -0.30099999999999993, -0.371, -0.941, -0.874, 0.33499999999999996, 0.6280000000000001], 0.8577867746288799),
    (69, [0.69, -0.688, -0.21799999999999997, 0.3720000000000001, -0.30099999999999993, -0.371, -0.941, -0.874, 0.33499999999999996, 0.6280000000000001], 0.8577867746288799),
    (70, [0.69, -0.688, -0.21799999999999997, 0.3720000000000001, -0.30099999999999993, -0.371, -0.941, -0.874, 0.33499999999999996, 0.6280000000000001], 0.8577867746288799),
    (71, [0.69, -0.688, -0.21799999999999997, 0.3720000000000001, -0.30099999999999993, -0.371, -0.941, -0.874, 0.33499999999999996, 0.6280000000000001], 0.8577867746288799),
    (72, [0.69, -0.688, -0.21799999999999997, 0.3720000000000001, -0.30099999999999993, -0.371, -0.941, -0.874, 0.33499999999999996, 0.6280000000000001], 0.8577867746288799),
    (73, [0.69, -0.688, -0.21799999999999997, 0.3720000000000001, -0.30099999999999993, -0.371, -0.941, -0.874, 0.33499999999999996, 0.6280000000000001], 0.8577867746288799),
    (74, [0.69, -0.688, -0.21799999999999997, 0.3720000000000001, -0.30099999999999993, -0.371, -0.941, -0.874, 0.33499999999999996, 0.6280000000000001], 0.8577867746288799),
    (75, [0.69, -0.688, -0.21799999999999997, 0.3720000000000001, -0.30099999999999993, -0.371, -0.941, -0.874, 0.33499999999999996, 0.6280000000000001], 0.8577867746288799),
    (76, [0.69, -0.688, -0.21799999999999997, 0.3720000000000001, -0.30099999999999993, -0.371, -0.941, -0.874, 0.33499999999999996, 0.6280000000000001], 0.8577867746288799),
    (77, [0.69, -0.688, -0.21799999999999997, 0.3720000000000001, -0.30099999999999993, -0.371, -0.941, -0.874, 0.33499999999999996, 0.6280000000000001], 0.8577867746288799),
    (78, [0.69, -0.688, -0.21799999999999997, 0.3720000000000001, -0.30099999999999993, -0.371, -0.941, -0.874, 0.33499999999999996, 0.6280000000000001], 0.8577867746288799),
    (79, [0.69, -0.688, -0.21799999999999997, 0.3720000000000001, -0.30099999999999993, -0.371, -0.941, -0.874, 0.33499999999999996, 0.6280000000000001], 0.8577867746288799),
    (80, [0.69, -0.688, -0.21799999999999997, 0.3720000000000001, -0.30099999999999993, -0.371, -0.941, -0.874, 0.33499999999999996, 0.6280000000000001], 0.8577867746288799),
    (81, [0.69, -0.688, -0.21799999999999997, 0.3720000000000001, -0.30099999999999993, -0.371, -0.941, -0.874, 0.33499999999999996, 0.6280000000000001], 0.8577867746288799),
    (82, [0.69, -0.688, -0.21799999999999997, 0.3720000000000001, -0.30099999999999993, -0.371, -0.941, -0.874, 0.33499999999999996, 0.6280000000000001], 0.8577867746288799),
    (83, [0.69, -0.688, -0.21799999999999997, 0.3720000000000001, -0.30099999999999993, -0.371, -0.941, -0.874, 0.33499999999999996, 0.6280000000000001], 0.8577867746288799),
    (84, [0.69, -0.688, -0.21799999999999997, 0.3720000000000001, -0.30099999999999993, -0.371, -0.941, -0.874, 0.33499999999999996, 0.6280000000000001], 0.8577867746288799),
    (85, [0.69, -0.688, -0.21799999999999997, 0.3720000000000001, -0.30099999999999993, -0.371, -0.941, -0.874, 0.33499999999999996, 0.6280000000000001], 0.8577867746288799),
    (86, [0.69, -0.688, -0.21799999999999997, 0.3720000000000001, -0.30099999999999993, -0.371, -0.941, -0.874, 0.33499999999999996, 0.6280000000000001], 0.8577867746288799),
    (87, [0.69, -0.688, -0.21799999999999997, 0.3720000000000001, -0.30099999999999993, -0.371, -0.941, -0.874, 0.33499999999999996, 0.6280000000000001], 0.8577867746288799),
    (88, [0.69, -0.688, -0.21799999999999997, 0.3720000000000001, -0.30099999999999993, -0.371, -0.941, -0.874, 0.33499999999999996, 0.6280000000000001], 0.8577867746288799),
    (89, [0.69, -0.688, -0.21799999999999997, 0.3720000000000001, -0.30099999999999993, -0.371, -0.941, -0.874, 0.33499999999999996, 0.6280000000000001], 0.8577867746288799),
    (90, [0.69, -0.688, -0.21799999999999997, 0.3720000000000001, -0.30099999999999993, -0.371, -0.941, -0.874, 0.33499999999999996, 0.6280000000000001], 0.8577867746288799),
    (91, [0.69, -0.688, -0.21799999999999997, 0.3720000000000001, -0.30099999999999993, -0.371, -0.941, -0.874, 0.33499999999999996, 0.6280000000000001], 0.8577867746288799),
    (92, [0.69, -0.688, -0.21799999999999997, 0.3720000000000001, -0.30099999999999993, -0.371, -0.941, -0.874, 0.33499999999999996, 0.6280000000000001], 0.8577867746288799),
    (93, [0.69, -0.688, -0.21799999999999997, 0.3720000000000001, -0.30099999999999993, -0.371, -0.941, -0.874, 0.33499999999999996, 0.6280000000000001], 0.8577867746288799),
    (94, [0.69, -0.688, -0.21799999999999997, 0.3720000000000001, -0.30099999999999993, -0.371, -0.941, -0.874, 0.33499999999999996, 0.6280000000000001], 0.8577867746288799),
    (95, [0.69, -0.688, -0.21799999999999997, 0.3720000000000001, -0.30099999999999993, -0.371, -0.941, -0.874, 0.33499999999999996, 0.6280000000000001], 0.8577867746288799),
    (96, [0.69, -0.688, -0.21799999999999997, 0.3720000000000001, -0.30099999999999993, -0.371, -0.941, -0.874, 0.33499999999999996, 0.6280000000000001], 0.8577867746288799),
    (97, [0.69, -0.688, -0.21799999999999997, 0.3720000000000001, -0.30099999999999993, -0.371, -0.941, -0.874, 0.33499999999999996, 0.6280000000000001], 0.8577867746288799),
    (98, [0.69, -0.688, -0.21799999999999997, 0.3720000000000001, -0.30099999999999993, -0.371, -0.941, -0.874, 0.33499999999999996, 0.6280000000000001], 0.8577867746288799),
    (99, [0.69, -0.688, -0.21799999999999997, 0.3720000000000001, -0.30099999999999993, -0.371, -0.941, -0.874, 0.33499999999999996, 0.6280000000000001], 0.8577867746288799),
    (100, [0.69, -0.688, -0.21799999999999997, 0.3720000000000001, -0.30099999999999993, -0.371, -0.941, -0.874, 0.33499999999999996, 0.6280000000000001], 0.8577867746288799),
    (101, [0.69, -0.688, -0.21799999999999997, 0.3720000000000001, -0.30099999999999993, -0.371, -0.941, -0.874, 0.33499999999999996, 0.6280000000000001], 0.8577867746288799),
    (102, [0.69, -0.688, -0.21799999999999997, 0.3720000000000001, -0.30099999999999993, -0.371, -0.941, -0.874, 0.33499999999999996, 0.6280000000000001], 0.8577867746288799),
    (103, [0.69, -0.688, -0.21799999999999997, 0.3720000000000001, -0.30099999999999993, -0.371, -0.941, -0.874, 0.33499999999999996, 0.6280000000000001], 0.8577867746288799),
    (104, [0.69, -0.688, -0.21799999999999997, 0.3720000000000001, -0.30099999999999993, -0.371, -0.941, -0.874, 0.33499999999999996, 0.6280000000000001], 0.8577867746288799),
    (105, [0.69, -0.688, -0.21799999999999997, 0.3720000000000001, -0.30099999999999993, -0.371, -0.941, -0.874, 0.33499999999999996, 0.6280000000000001], 0.8577867746288799),
    (106, [0.69, -0.688, -0.21799999999999997, 0.3720000000000001, -0.30099999999999993, -0.371, -0.941, -0.874, 0.33499999999999996, 0.6280000000000001], 0.8577867746288799),
    (107, [0.69, -0.688, -0.21799999999999997, 0.3720000000000001, -0.30099999999999993, -0.371, -0.941, -0.874, 0.33499999999999996, 0.6280000000000001], 0.8577867746288799),
    (108, [0.69, -0.688, -0.21799999999999997, 0.3720000000000001, -0.30099999999999993, -0.371, -0.941, -0.874, 0.33499999999999996, 0.6280000000000001], 0.8577867746288799),
    (109, [0.69, -0.688, -0.21799999999999997, 0.3720000000000001, -0.30099999999999993, -0.371, -0.941, -0.874, 0.33499999999999996, 0.6280000000000001], 0.8577867746288799),
    (110, [0.69, -0.688, -0.21799999999999997, 0.3720000000000001, -0.30099999999999993, -0.371, -0.941, -0.874, 0.33499999999999996, 0.6280000000000001], 0.8577867746288799),
    (111, [0.69, -0.688, -0.21799999999999997, 0.3720000000000001, -0.30099999999999993, -0.371, -0.941, -0.874, 0.33499999999999996, 0.6280000000000001], 0.8577867746288799),
    (112, [0.69, -0.688, -0.21799999999999997, 0.3720000000000001, -0.30099999999999993, -0.371, -0.941, -0.874, 0.33499999999999996, 0.6280000000000001], 0.8577867746288799),
    (113, [0.69, -0.688, -0.21799999999999997, 0.3720000000000001, -0.30099999999999993, -0.371, -0.941, -0.874, 0.33499999999999996, 0.6280000000000001], 0.8577867746288799),
    (114, [0.69, -0.688, -0.21799999999999997, 0.3720000000000001, -0.30099999999999993, -0.371, -0.941, -0.874, 0.33499999999999996, 0.6280000000000001], 0.8577867746288799),
    (115, [0.69, -0.688, -0.21799999999999997, 0.3720000000000001, -0.30099999999999993, -0.371, -0.941, -0.874, 0.33499999999999996, 0.6280000000000001], 0.8577867746288799),
    (116, [0.69, -0.688, -0.21799999999999997, 0.3720000000000001, -0.30099999999999993, -0.371, -0.941, -0.874, 0.33499999999999996, 0.6280000000000001], 0.8577867746288799),
    (117, [0.69, -0.688, -0.21799999999999997, 0.3720000000000001, -0.30099999999999993, -0.371, -0.941, -0.874, 0.33499999999999996, 0.6280000000000001], 0.8577867746288799),
    (118, [0.69, -0.688, -0.21799999999999997, 0.3720000000000001, -0.30099999999999993, -0.371, -0.941, -0.874, 0.33499999999999996, 0.6280000000000001], 0.8577867746288799),
    (119, [0.69, -0.688, -0.21799999999999997, 0.3720000000000001, -0.30099999999999993, -0.371, -0.941, -0.874, 0.33499999999999996, 0.6280000000000001], 0.8577867746288799),
    (120, [0.69, -0.688, -0.21799999999999997, 0.3720000000000001, -0.30099999999999993, -0.371, -0.941, -0.874, 0.33499999999999996, 0.6280000000000001], 0.8577867746288799),
    (121, [0.69, -0.688, -0.21799999999999997, 0.3720000000000001, -0.30099999999999993, -0.371, -0.941, -0.874, 0.33499999999999996, 0.6280000000000001], 0.8577867746288799),
    (122, [0.69, -0.688, -0.21799999999999997, 0.3720000000000001, -0.30099999999999993, -0.371, -0.941, -0.874, 0.33499999999999996, 0.6280000000000001], 0.8577867746288799),
    (123, [0.69, -0.688, -0.21799999999999997, 0.3720000000000001, -0.30099999999999993, -0.371, -0.941, -0.874, 0.33499999999999996, 0.6280000000000001], 0.8577867746288799),
    (124, [0.69, -0.688, -0.21799999999999997, 0.3720000000000001, -0.30099999999999993, -0.371, -0.941, -0.874, 0.33499999999999996, 0.6280000000000001], 0.8577867746288799),
    (125, [0.69, -0.688, -0.21799999999999997, 0.3720000000000001, -0.30099999999999993, -0.371, -0.941, -0.874, 0.33499999999999996, 0.6280000000000001], 0.8577867746288799),
    (126, [0.69, -0.688, -0.21799999999999997, 0.3720000000000001, -0.30099999999999993, -0.371, -0.941, -0.874, 0.33499999999999996, 0.6280000000000001], 0.8577867746288799),
    (127, [0.69, -0.688, -0.21799999999999997, 0.3720000000000001, -0.30099999999999993, -0.371, -0.941, -0.874, 0.33499999999999996, 0.6280000000000001], 0.8577867746288799),
    (128, [0.69, -0.688, -0.21799999999999997, 0.3720000000000001, -0.30099999999999993, -0.371, -0.941, -0.874, 0.33499999999999996, 0.6280000000000001], 0.8577867746288799),
    (129, [0.69, -0.688, -0.21799999999999997, 0.3720000000000001, -0.30099999999999993, -0.371, -0.941, -0.874, 0.33499999999999996, 0.6280000000000001], 0.8577867746288799),
    (130, [0.69, -0.688, -0.21799999999999997, 0.3720000000000001, -0.30099999999999993, -0.371, -0.941, -0.874, 0.33499999999999996, 0.6280000000000001], 0.8577867746288799),
    (131, [0.69, -0.688, -0.21799999999999997, 0.3720000000000001, -0.30099999999999993, -0.371, -0.941, -0.874, 0.33499999999999996, 0.6280000000000001], 0.8577867746288799),
    (132, [0.69, -0.688, -0.21799999999999997, 0.3720000000000001, -0.30099999999999993, -0.371, -0.941, -0.874, 0.33499999999999996, 0.6280000000000001], 0.8577867746288799),
    (133, [0.69, -0.688, -0.21799999999999997, 0.3720000000000001, -0.30099999999999993, -0.371, -0.941, -0.874, 0.33499999999999996, 0.6280000000000001], 0.8577867746288799),
    (134, [0.69, -0.688, -0.21799999999999997, 0.3720000000000001, -0.30099999999999993, -0.371, -0.941, -0.874, 0.33499999999999996, 0.6280000000000001], 0.8577867746288799),
    (135, [0.69, -0.688, -0.21799999999999997, 0.3720000000000001, -0.30099999999999993, -0.371, -0.941, -0.874, 0.33499999999999996, 0.6280000000000001], 0.8577867746288799),
    (136, [0.69, -0.688, -0.21799999999999997, 0.3720000000000001, -0.30099999999999993, -0.371, -0.941, -0.874, 0.33499999999999996, 0.6280000000000001], 0.8577867746288799),
    (137, [0.69, -0.688, -0.21799999999999997, 0.3720000000000001, -0.30099999999999993, -0.371, -0.941, -0.874, 0.33499999999999996, 0.6280000000000001], 0.8577867746288799),
    (138, [0.69, -0.688, -0.21799999999999997, 0.3720000000000001, -0.30099999999999993, -0.371, -0.941, -0.874, 0.33499999999999996, 0.6280000000000001], 0.8577867746288799),
    (139, [0.69, -0.688, -0.21799999999999997, 0.3720000000000001, -0.30099999999999993, -0.371, -0.941, -0.874, 0.33499999999999996, 0.6280000000000001], 0.8577867746288799),
    (140, [0.69, -0.688, -0.21799999999999997, 0.3720000000000001, -0.30099999999999993, -0.371, -0.941, -0.874, 0.33499999999999996, 0.6280000000000001], 0.8577867746288799),
    (141, [0.69, -0.688, -0.21799999999999997, 0.3720000000000001, -0.30099999999999993, -0.371, -0.941, -0.874, 0.33499999999999996, 0.6280000000000001], 0.8577867746288799),
    (142, [0.69, -0.688, -0.21799999999999997, 0.3720000000000001, -0.30099999999999993, -0.371, -0.941, -0.874, 0.33499999999999996, 0.6280000000000001], 0.8577867746288799),
    (143, [0.69, -0.688, -0.21799999999999997, 0.3720000000000001, -0.30099999999999993, -0.371, -0.941, -0.874, 0.33499999999999996, 0.6280000000000001], 0.8577867746288799),
    (144, [0.69, -0.688, -0.21799999999999997, 0.3720000000000001, -0.30099999999999993, -0.371, -0.941, -0.874, 0.33499999999999996, 0.6280000000000001], 0.8577867746288799),
    (145, [0.69, -0.688, -0.21799999999999997, 0.3720000000000001, -0.30099999999999993, -0.371, -0.941, -0.874, 0.33499999999999996, 0.6280000000000001], 0.8577867746288799),
    (146, [0.69, -0.688, -0.21799999999999997, 0.3720000000000001, -0.30099999999999993, -0.371, -0.941, -0.874, 0.33499999999999996, 0.6280000000000001], 0.8577867746288799),
    (147, [0.69, -0.688, -0.21799999999999997, 0.3720000000000001, -0.30099999999999993, -0.371, -0.941, -0.874, 0.33499999999999996, 0.6280000000000001], 0.8577867746288799),
    (148, [0.69, -0.688, -0.21799999999999997, 0.3720000000000001, -0.30099999999999993, -0.371, -0.941, -0.874, 0.33499999999999996, 0.6280000000000001], 0.8577867746288799),
    (149, [0.69, -0.688, -0.21799999999999997, 0.3720000000000001, -0.30099999999999993, -0.371, -0.941, -0.874, 0.33499999999999996, 0.6280000000000001], 0.8577867746288799),
    (150, [0.69, -0.688, -0.21799999999999997, 0.3720000000000001, -0.30099999999999993, -0.371, -0.941, -0.874, 0.33499999999999996, 0.6280000000000001], 0.8577867746288799),
    (151, [0.69, -0.688, -0.21799999999999997, 0.3720000000000001, -0.30099999999999993, -0.371, -0.941, -0.874, 0.33499999999999996, 0.6280000000000001], 0.8577867746288799),
    (152, [0.69, -0.688, -0.21799999999999997, 0.3720000000000001, -0.30099999999999993, -0.371, -0.941, -0.874, 0.33499999999999996, 0.6280000000000001], 0.8577867746288799),
    (153, [0.69, -0.688, -0.21799999999999997, 0.3720000000000001, -0.30099999999999993, -0.371, -0.941, -0.874, 0.33499999999999996, 0.6280000000000001], 0.8577867746288799),
    (154, [0.69, -0.688, -0.21799999999999997, 0.3720000000000001, -0.30099999999999993, -0.371, -0.941, -0.874, 0.33499999999999996, 0.6280000000000001], 0.8577867746288799),
    (155, [0.69, -0.688, -0.21799999999999997, 0.3720000000000001, -0.30099999999999993, -0.371, -0.941, -0.874, 0.33499999999999996, 0.6280000000000001], 0.8577867746288799),
    (156, [0.69, -0.688, -0.21799999999999997, 0.3720000000000001, -0.30099999999999993, -0.371, -0.941, -0.874, 0.33499999999999996, 0.6280000000000001], 0.8577867746288799),
    (157, [0.69, -0.688, -0.21799999999999997, 0.3720000000000001, -0.30099999999999993, -0.371, -0.941, -0.874, 0.33499999999999996, 0.6280000000000001], 0.8577867746288799),
    (158, [0.69, -0.688, -0.21799999999999997, 0.3720000000000001, -0.30099999999999993, -0.371, -0.941, -0.874, 0.33499999999999996, 0.6280000000000001], 0.8577867746288799),
    (159, [0.69, -0.688, -0.21799999999999997, 0.3720000000000001, -0.30099999999999993, -0.371, -0.941, -0.874, 0.33499999999999996, 0.6280000000000001], 0.8577867746288799),
    (160, [0.69, -0.688, -0.21799999999999997, 0.3720000000000001, -0.30099999999999993, -0.371, -0.941, -0.874, 0.33499999999999996, 0.6280000000000001], 0.8577867746288799),
    (161, [0.69, -0.688, -0.21799999999999997, 0.3720000000000001, -0.30099999999999993, -0.371, -0.941, -0.874, 0.33499999999999996, 0.6280000000000001], 0.8577867746288799),
    (162, [0.69, -0.688, -0.21799999999999997, 0.3720000000000001, -0.30099999999999993, -0.371, -0.941, -0.874, 0.33499999999999996, 0.6280000000000001], 0.8577867746288799),
    (163, [0.69, -0.688, -0.21799999999999997, 0.3720000000000001, -0.30099999999999993, -0.371, -0.941, -0.874, 0.33499999999999996, 0.6280000000000001], 0.8577867746288799),
    (164, [0.69, -0.688, -0.21799999999999997, 0.3720000000000001, -0.30099999999999993, -0.371, -0.941, -0.874, 0.33499999999999996, 0.6280000000000001], 0.8577867746288799),
    (165, [0.69, -0.688, -0.21799999999999997, 0.3720000000000001, -0.30099999999999993, -0.371, -0.941, -0.874, 0.33499999999999996, 0.6280000000000001], 0.8577867746288799),
    (166, [0.69, -0.688, -0.21799999999999997, 0.3720000000000001, -0.30099999999999993, -0.371, -0.941, -0.874, 0.33499999999999996, 0.6280000000000001], 0.8577867746288799),
    (167, [0.69, -0.688, -0.21799999999999997, 0.3720000000000001, -0.30099999999999993, -0.371, -0.941, -0.874, 0.33499999999999996, 0.6280000000000001], 0.8577867746288799),
    (168, [0.69, -0.688, -0.21799999999999997, 0.3720000000000001, -0.30099999999999993, -0.371, -0.941, -0.874, 0.33499999999999996, 0.6280000000000001], 0.8577867746288799),
    (169, [0.69, -0.688, -0.21799999999999997, 0.3720000000000001, -0.30099999999999993, -0.371, -0.941, -0.874, 0.33499999999999996, 0.6280000000000001], 0.8577867746288799),
    (170, [0.69, -0.688, -0.21799999999999997, 0.3720000000000001, -0.30099999999999993, -0.371, -0.941, -0.874, 0.33499999999999996, 0.6280000000000001], 0.8577867746288799),
    (171, [0.69, -0.688, -0.21799999999999997, 0.3720000000000001, -0.30099999999999993, -0.371, -0.941, -0.874, 0.33499999999999996, 0.6280000000000001], 0.8577867746288799),
    (172, [0.69, -0.688, -0.21799999999999997, 0.3720000000000001, -0.30099999999999993, -0.371, -0.941, -0.874, 0.33499999999999996, 0.6280000000000001], 0.8577867746288799),
    (173, [0.69, -0.688, -0.21799999999999997, 0.3720000000000001, -0.30099999999999993, -0.371, -0.941, -0.874, 0.33499999999999996, 0.6280000000000001], 0.8577867746288799),
    (174, [0.69, -0.688, -0.21799999999999997, 0.3720000000000001, -0.30099999999999993, -0.371, -0.941, -0.874, 0.33499999999999996, 0.6280000000000001], 0.8577867746288799),
    (175, [0.69, -0.688, -0.21799999999999997, 0.3720000000000001, -0.30099999999999993, -0.371, -0.941, -0.874, 0.33499999999999996, 0.6280000000000001], 0.8577867746288799),
    (176, [0.69, -0.688, -0.21799999999999997, 0.3720000000000001, -0.30099999999999993, -0.371, -0.941, -0.874, 0.33499999999999996, 0.6280000000000001], 0.8577867746288799),
    (177, [0.69, -0.688, -0.21799999999999997, 0.3720000000000001, -0.30099999999999993, -0.371, -0.941, -0.874, 0.33499999999999996, 0.6280000000000001], 0.8577867746288799),
    (178, [0.69, -0.688, -0.21799999999999997, 0.3720000000000001, -0.30099999999999993, -0.371, -0.941, -0.874, 0.33499999999999996, 0.6280000000000001], 0.8577867746288799),
    (179, [0.69, -0.688, -0.21799999999999997, 0.3720000000000001, -0.30099999999999993, -0.371, -0.941, -0.874, 0.33499999999999996, 0.6280000000000001], 0.8577867746288799),
    (180, [0.69, -0.688, -0.21799999999999997, 0.3720000000000001, -0.30099999999999993, -0.371, -0.941, -0.874, 0.33499999999999996, 0.6280000000000001], 0.8577867746288799),
    (181, [0.69, -0.688, -0.21799999999999997, 0.3720000000000001, -0.30099999999999993, -0.371, -0.941, -0.874, 0.33499999999999996, 0.6280000000000001], 0.8577867746288799),
    (182, [0.69, -0.688, -0.21799999999999997, 0.3720000000000001, -0.30099999999999993, -0.371, -0.941, -0.874, 0.33499999999999996, 0.6280000000000001], 0.8577867746288799),
    (183, [0.69, -0.688, -0.21799999999999997, 0.3720000000000001, -0.30099999999999993, -0.371, -0.941, -0.874, 0.33499999999999996, 0.6280000000000001], 0.8577867746288799),
    (184, [0.69, -0.688, -0.21799999999999997, 0.3720000000000001, -0.30099999999999993, -0.371, -0.941, -0.874, 0.33499999999999996, 0.6280000000000001], 0.8577867746288799),
    (185, [0.69, -0.688, -0.21799999999999997, 0.3720000000000001, -0.30099999999999993, -0.371, -0.941, -0.874, 0.33499999999999996, 0.6280000000000001], 0.8577867746288799),
    (186, [0.69, -0.688, -0.21799999999999997, 0.3720000000000001, -0.30099999999999993, -0.371, -0.941, -0.874, 0.33499999999999996, 0.6280000000000001], 0.8577867746288799),
    (187, [0.69, -0.688, -0.21799999999999997, 0.3720000000000001, -0.30099999999999993, -0.371, -0.941, -0.874, 0.33499999999999996, 0.6280000000000001], 0.8577867746288799),
    (188, [0.69, -0.688, -0.21799999999999997, 0.3720000000000001, -0.30099999999999993, -0.371, -0.941, -0.874, 0.33499999999999996, 0.6280000000000001], 0.8577867746288799),
    (189, [0.69, -0.688, -0.21799999999999997, 0.3720000000000001, -0.30099999999999993, -0.371, -0.941, -0.874, 0.33499999999999996, 0.6280000000000001], 0.8577867746288799),
    (190, [0.69, -0.688, -0.21799999999999997, 0.3720000000000001, -0.30099999999999993, -0.371, -0.941, -0.874, 0.33499999999999996, 0.6280000000000001], 0.8577867746288799),
    (191, [0.69, -0.688, -0.21799999999999997, 0.3720000000000001, -0.30099999999999993, -0.371, -0.941, -0.874, 0.33499999999999996, 0.6280000000000001], 0.8577867746288799),
    (192, [0.69, -0.688, -0.21799999999999997, 0.3720000000000001, -0.30099999999999993, -0.371, -0.941, -0.874, 0.33499999999999996, 0.6280000000000001], 0.8577867746288799),
    (193, [0.69, -0.688, -0.21799999999999997, 0.3720000000000001, -0.30099999999999993, -0.371, -0.941, -0.874, 0.33499999999999996, 0.6280000000000001], 0.8577867746288799),
    (194, [0.69, -0.688, -0.21799999999999997, 0.3720000000000001, -0.30099999999999993, -0.371, -0.941, -0.874, 0.33499999999999996, 0.6280000000000001], 0.8577867746288799),
    (195, [0.69, -0.688, -0.21799999999999997, 0.3720000000000001, -0.30099999999999993, -0.371, -0.941, -0.874, 0.33499999999999996, 0.6280000000000001], 0.8577867746288799),
    (196, [0.69, -0.688, -0.21799999999999997, 0.3720000000000001, -0.30099999999999993, -0.371, -0.941, -0.874, 0.33499999999999996, 0.6280000000000001], 0.8577867746288799),
    (197, [0.69, -0.688, -0.21799999999999997, 0.3720000000000001, -0.30099999999999993, -0.371, -0.941, -0.874, 0.33499999999999996, 0.6280000000000001], 0.8577867746288799),
    (198, [0.69, -0.688, -0.21799999999999997, 0.3720000000000001, -0.30099999999999993, -0.371, -0.941, -0.874, 0.33499999999999996, 0.6280000000000001], 0.8577867746288799),
    (199, [0.69, -0.688, -0.21799999999999997, 0.3720000000000001, -0.30099999999999993, -0.371, -0.941, -0.874, 0.33499999999999996, 0.6280000000000001], 0.8577867746288799),
    (200, [0.69, -0.688, -0.21799999999999997, 0.3720000000000001, -0.30099999999999993, -0.371, -0.941, -0.874, 0.33499999999999996, 0.6280000000000001], 0.8577867746288799),
    (201, [0.69, -0.688, -0.21799999999999997, 0.3720000000000001, -0.30099999999999993, -0.371, -0.941, -0.874, 0.33499999999999996, 0.6280000000000001], 0.8577867746288799),
    (202, [0.69, -0.688, -0.21799999999999997, 0.3720000000000001, -0.30099999999999993, -0.371, -0.941, -0.874, 0.33499999999999996, 0.6280000000000001], 0.8577867746288799),
    (203, [0.69, -0.688, -0.21799999999999997, 0.3720000000000001, -0.30099999999999993, -0.371, -0.941, -0.874, 0.33499999999999996, 0.6280000000000001], 0.8577867746288799),
    (204, [0.69, -0.688, -0.21799999999999997, 0.3720000000000001, -0.30099999999999993, -0.371, -0.941, -0.874, 0.33499999999999996, 0.6280000000000001], 0.8577867746288799),
    (205, [0.69, -0.688, -0.21799999999999997, 0.3720000000000001, -0.30099999999999993, -0.371, -0.941, -0.874, 0.33499999999999996, 0.6280000000000001], 0.8577867746288799),
    (206, [0.69, -0.688, -0.21799999999999997, 0.3720000000000001, -0.30099999999999993, -0.371, -0.941, -0.874, 0.33499999999999996, 0.6280000000000001], 0.8577867746288799),
    (207, [0.264, -0.15100000000000002, 0.27, 0.22199999999999998, 0.734, 0.20100000000000007, -0.344, 0.55, -0.736, 0.81], 0.8579217273954116),
    (208, [0.264, -0.15100000000000002, 0.27, 0.22199999999999998, 0.734, 0.20100000000000007, -0.344, 0.55, -0.736, 0.81], 0.8579217273954116),
    (209, [0.264, -0.15100000000000002, 0.27, 0.22199999999999998, 0.734, 0.20100000000000007, -0.344, 0.55, -0.736, 0.81], 0.8579217273954116),
    (210, [0.264, -0.15100000000000002, 0.27, 0.22199999999999998, 0.734, 0.20100000000000007, -0.344, 0.55, -0.736, 0.81], 0.8579217273954116),
    (211, [0.264, -0.15100000000000002, 0.27, 0.22199999999999998, 0.734, 0.20100000000000007, -0.344, 0.55, -0.736, 0.81], 0.8579217273954116),
    (212, [0.264, -0.15100000000000002, 0.27, 0.22199999999999998, 0.734, 0.20100000000000007, -0.344, 0.55, -0.736, 0.81], 0.8579217273954116),
    (213, [0.264, -0.15100000000000002, 0.27, 0.22199999999999998, 0.734, 0.20100000000000007, -0.344, 0.55, -0.736, 0.81], 0.8579217273954116),
    (214, [0.264, -0.15100000000000002, 0.27, 0.22199999999999998, 0.734, 0.20100000000000007, -0.344, 0.55, -0.736, 0.81], 0.8579217273954116),
    (215, [0.264, -0.15100000000000002, 0.27, 0.22199999999999998, 0.734, 0.20100000000000007, -0.344, 0.55, -0.736, 0.81], 0.8579217273954116),
    (216, [0.264, -0.15100000000000002, 0.27, 0.22199999999999998, 0.734, 0.20100000000000007, -0.344, 0.55, -0.736, 0.81], 0.8579217273954116),
    (217, [0.264, -0.15100000000000002, 0.27, 0.22199999999999998, 0.734, 0.20100000000000007, -0.344, 0.55, -0.736, 0.81], 0.8579217273954116),
    (218, [0.264, -0.15100000000000002, 0.27, 0.22199999999999998, 0.734, 0.20100000000000007, -0.344, 0.55, -0.736, 0.81], 0.8579217273954116),
    (219, [0.264, -0.15100000000000002, 0.27, 0.22199999999999998, 0.734, 0.20100000000000007, -0.344, 0.55, -0.736, 0.81], 0.8579217273954116),
    (220, [0.264, -0.15100000000000002, 0.27, 0.22199999999999998, 0.734, 0.20100000000000007, -0.344, 0.55, -0.736, 0.81], 0.8579217273954116),
    (221, [0.264, -0.15100000000000002, 0.27, 0.22199999999999998, 0.734, 0.20100000000000007, -0.344, 0.55, -0.736, 0.81], 0.8579217273954116),
    (222, [0.264, -0.15100000000000002, 0.27, 0.22199999999999998, 0.734, 0.20100000000000007, -0.344, 0.55, -0.736, 0.81], 0.8579217273954116),
    (223, [0.264, -0.15100000000000002, 0.27, 0.22199999999999998, 0.734, 0.20100000000000007, -0.344, 0.55, -0.736, 0.81], 0.8579217273954116),
    (224, [0.264, -0.15100000000000002, 0.27, 0.22199999999999998, 0.734, 0.20100000000000007, -0.344, 0.55, -0.736, 0.81], 0.8579217273954116),
    (225, [0.264, -0.15100000000000002, 0.27, 0.22199999999999998, 0.734, 0.20100000000000007, -0.344, 0.55, -0.736, 0.81], 0.8579217273954116),
    (226, [0.264, -0.15100000000000002, 0.27, 0.22199999999999998, 0.734, 0.20100000000000007, -0.344, 0.55, -0.736, 0.81], 0.8579217273954116),
    (227, [0.264, -0.15100000000000002, 0.27, 0.22199999999999998, 0.734, 0.20100000000000007, -0.344, 0.55, -0.736, 0.81], 0.8579217273954116),
    (228, [0.264, -0.15100000000000002, 0.27, 0.22199999999999998, 0.734, 0.20100000000000007, -0.344, 0.55, -0.736, 0.81], 0.8579217273954116),
    (229, [0.264, -0.15100000000000002, 0.27, 0.22199999999999998, 0.734, 0.20100000000000007, -0.344, 0.55, -0.736, 0.81], 0.8579217273954116),
    (230, [0.264, -0.15100000000000002, 0.27, 0.22199999999999998, 0.734, 0.20100000000000007, -0.344, 0.55, -0.736, 0.81], 0.8579217273954116),
    (231, [0.264, -0.15100000000000002, 0.27, 0.22199999999999998, 0.734, 0.20100000000000007, -0.344, 0.55, -0.736, 0.81], 0.8579217273954116),
    (232, [0.264, -0.15100000000000002, 0.27, 0.22199999999999998, 0.734, 0.20100000000000007, -0.344, 0.55, -0.736, 0.81], 0.8579217273954116),
    (233, [0.264, -0.15100000000000002, 0.27, 0.22199999999999998, 0.734, 0.20100000000000007, -0.344, 0.55, -0.736, 0.81], 0.8579217273954116),
    (234, [0.264, -0.15100000000000002, 0.27, 0.22199999999999998, 0.734, 0.20100000000000007, -0.344, 0.55, -0.736, 0.81], 0.8579217273954116),
    (235, [0.264, -0.15100000000000002, 0.27, 0.22199999999999998, 0.734, 0.20100000000000007, -0.344, 0.55, -0.736, 0.81], 0.8579217273954116),
    (236, [0.264, -0.15100000000000002, 0.27, 0.22199999999999998, 0.734, 0.20100000000000007, -0.344, 0.55, -0.736, 0.81], 0.8579217273954116),
    (237, [0.264, -0.15100000000000002, 0.27, 0.22199999999999998, 0.734, 0.20100000000000007, -0.344, 0.55, -0.736, 0.81], 0.8579217273954116),
    (238, [0.264, -0.15100000000000002, 0.27, 0.22199999999999998, 0.734, 0.20100000000000007, -0.344, 0.55, -0.736, 0.81], 0.8579217273954116),
    (239, [0.264, -0.15100000000000002, 0.27, 0.22199999999999998, 0.734, 0.20100000000000007, -0.344, 0.55, -0.736, 0.81], 0.8579217273954116),
    (240, [0.264, -0.15100000000000002, 0.27, 0.22199999999999998, 0.734, 0.20100000000000007, -0.344, 0.55, -0.736, 0.81], 0.8579217273954116),
    (241, [0.264, -0.15100000000000002, 0.27, 0.22199999999999998, 0.734, 0.20100000000000007, -0.344, 0.55, -0.736, 0.81], 0.8579217273954116),
    (242, [0.264, -0.15100000000000002, 0.27, 0.22199999999999998, 0.734, 0.20100000000000007, -0.344, 0.55, -0.736, 0.81], 0.8579217273954116),
    (243, [0.264, -0.15100000000000002, 0.27, 0.22199999999999998, 0.734, 0.20100000000000007, -0.344, 0.55, -0.736, 0.81], 0.8579217273954116),
    (244, [0.264, -0.15100000000000002, 0.27, 0.22199999999999998, 0.734, 0.20100000000000007, -0.344, 0.55, -0.736, 0.81], 0.8579217273954116),
    (245, [0.264, -0.15100000000000002, 0.27, 0.22199999999999998, 0.734, 0.20100000000000007, -0.344, 0.55, -0.736, 0.81], 0.8579217273954116),
    (246, [0.264, -0.15100000000000002, 0.27, 0.22199999999999998, 0.734, 0.20100000000000007, -0.344, 0.55, -0.736, 0.81], 0.8579217273954116),
    (247, [0.264, -0.15100000000000002, 0.27, 0.22199999999999998, 0.734, 0.20100000000000007, -0.344, 0.55, -0.736, 0.81], 0.8579217273954116),
    (248, [0.264, -0.15100000000000002, 0.27, 0.22199999999999998, 0.734, 0.20100000000000007, -0.344, 0.55, -0.736, 0.81], 0.8579217273954116),
    (249, [0.264, -0.15100000000000002, 0.27, 0.22199999999999998, 0.734, 0.20100000000000007, -0.344, 0.55, -0.736, 0.81], 0.8579217273954116),
    (250, [0.264, -0.15100000000000002, 0.27, 0.22199999999999998, 0.734, 0.20100000000000007, -0.344, 0.55, -0.736, 0.81], 0.8579217273954116),
    (251, [0.264, -0.15100000000000002, 0.27, 0.22199999999999998, 0.734, 0.20100000000000007, -0.344, 0.55, -0.736, 0.81], 0.8579217273954116),
    (252, [0.264, -0.15100000000000002, 0.27, 0.22199999999999998, 0.734, 0.20100000000000007, -0.344, 0.55, -0.736, 0.81], 0.8579217273954116),
    (253, [0.264, -0.15100000000000002, 0.27, 0.22199999999999998, 0.734, 0.20100000000000007, -0.344, 0.55, -0.736, 0.81], 0.8579217273954116),
    (254, [0.264, -0.15100000000000002, 0.27, 0.22199999999999998, 0.734, 0.20100000000000007, -0.344, 0.55, -0.736, 0.81], 0.8579217273954116),
    (255, [0.264, -0.15100000000000002, 0.27, 0.22199999999999998, 0.734, 0.20100000000000007, -0.344, 0.55, -0.736, 0.81], 0.8579217273954116),
    (256, [0.264, -0.15100000000000002, 0.27, 0.22199999999999998, 0.734, 0.20100000000000007, -0.344, 0.55, -0.736, 0.81], 0.8579217273954116),
    (257, [0.264, -0.15100000000000002, 0.27, 0.22199999999999998, 0.734, 0.20100000000000007, -0.344, 0.55, -0.736, 0.81], 0.8579217273954116),
    (258, [0.264, -0.15100000000000002, 0.27, 0.22199999999999998, 0.734, 0.20100000000000007, -0.344, 0.55, -0.736, 0.81], 0.8579217273954116),
    (259, [0.264, -0.15100000000000002, 0.27, 0.22199999999999998, 0.734, 0.20100000000000007, -0.344, 0.55, -0.736, 0.81], 0.8579217273954116),
    (260, [0.264, -0.15100000000000002, 0.27, 0.22199999999999998, 0.734, 0.20100000000000007, -0.344, 0.55, -0.736, 0.81], 0.8579217273954116),
    (261, [0.264, -0.15100000000000002, 0.27, 0.22199999999999998, 0.734, 0.20100000000000007, -0.344, 0.55, -0.736, 0.81], 0.8579217273954116),
    (262, [0.264, -0.15100000000000002, 0.27, 0.22199999999999998, 0.734, 0.20100000000000007, -0.344, 0.55, -0.736, 0.81], 0.8579217273954116),
    (263, [0.264, -0.15100000000000002, 0.27, 0.22199999999999998, 0.734, 0.20100000000000007, -0.344, 0.55, -0.736, 0.81], 0.8579217273954116),
    (264, [0.264, -0.15100000000000002, 0.27, 0.22199999999999998, 0.734, 0.20100000000000007, -0.344, 0.55, -0.736, 0.81], 0.8579217273954116),
    (265, [0.264, -0.15100000000000002, 0.27, 0.22199999999999998, 0.734, 0.20100000000000007, -0.344, 0.55, -0.736, 0.81], 0.8579217273954116),
    (266, [0.264, -0.15100000000000002, 0.27, 0.22199999999999998, 0.734, 0.20100000000000007, -0.344, 0.55, -0.736, 0.81], 0.8579217273954116),
    (267, [0.264, -0.15100000000000002, 0.27, 0.22199999999999998, 0.734, 0.20100000000000007, -0.344, 0.55, -0.736, 0.81], 0.8579217273954116),
    (268, [0.264, -0.15100000000000002, 0.27, 0.22199999999999998, 0.734, 0.20100000000000007, -0.344, 0.55, -0.736, 0.81], 0.8579217273954116),
    (269, [0.264, -0.15100000000000002, 0.27, 0.22199999999999998, 0.734, 0.20100000000000007, -0.344, 0.55, -0.736, 0.81], 0.8579217273954116),
    (270, [0.264, -0.15100000000000002, 0.27, 0.22199999999999998, 0.734, 0.20100000000000007, -0.344, 0.55, -0.736, 0.81], 0.8579217273954116),
    (271, [0.264, -0.15100000000000002, 0.27, 0.22199999999999998, 0.734, 0.20100000000000007, -0.344, 0.55, -0.736, 0.81], 0.8579217273954116),
    (272, [0.264, -0.15100000000000002, 0.27, 0.22199999999999998, 0.734, 0.20100000000000007, -0.344, 0.55, -0.736, 0.81], 0.8579217273954116),
    (273, [0.264, -0.15100000000000002, 0.27, 0.22199999999999998, 0.734, 0.20100000000000007, -0.344, 0.55, -0.736, 0.81], 0.8579217273954116),
    (274, [0.264, -0.15100000000000002, 0.27, 0.22199999999999998, 0.734, 0.20100000000000007, -0.344, 0.55, -0.736, 0.81], 0.8579217273954116),
    (275, [0.264, -0.15100000000000002, 0.27, 0.22199999999999998, 0.734, 0.20100000000000007, -0.344, 0.55, -0.736, 0.81], 0.8579217273954116),
    (276, [0.264, -0.15100000000000002, 0.27, 0.22199999999999998, 0.734, 0.20100000000000007, -0.344, 0.55, -0.736, 0.81], 0.8579217273954116),
    (277, [0.264, -0.15100000000000002, 0.27, 0.22199999999999998, 0.734, 0.20100000000000007, -0.344, 0.55, -0.736, 0.81], 0.8579217273954116),
    (278, [0.264, -0.15100000000000002, 0.27, 0.22199999999999998, 0.734, 0.20100000000000007, -0.344, 0.55, -0.736, 0.81], 0.8579217273954116),
    (279, [0.264, -0.15100000000000002, 0.27, 0.22199999999999998, 0.734, 0.20100000000000007, -0.344, 0.55, -0.736, 0.81], 0.8579217273954116),
    (280, [0.264, -0.15100000000000002, 0.27, 0.22199999999999998, 0.734, 0.20100000000000007, -0.344, 0.55, -0.736, 0.81], 0.8579217273954116),
    (281, [0.264, -0.15100000000000002, 0.27, 0.22199999999999998, 0.734, 0.20100000000000007, -0.344, 0.55, -0.736, 0.81], 0.8579217273954116),
    (282, [0.264, -0.15100000000000002, 0.27, 0.22199999999999998, 0.734, 0.20100000000000007, -0.344, 0.55, -0.736, 0.81], 0.8579217273954116),
    (283, [0.264, -0.15100000000000002, 0.27, 0.22199999999999998, 0.734, 0.20100000000000007, -0.344, 0.55, -0.736, 0.81], 0.8579217273954116),
    (284, [0.264, -0.15100000000000002, 0.27, 0.22199999999999998, 0.734, 0.20100000000000007, -0.344, 0.55, -0.736, 0.81], 0.8579217273954116),
    (285, [0.264, -0.15100000000000002, 0.27, 0.22199999999999998, 0.734, 0.20100000000000007, -0.344, 0.55, -0.736, 0.81], 0.8579217273954116),
    (286, [0.264, -0.15100000000000002, 0.27, 0.22199999999999998, 0.734, 0.20100000000000007, -0.344, 0.55, -0.736, 0.81], 0.8579217273954116),
    (287, [0.264, -0.15100000000000002, 0.27, 0.22199999999999998, 0.734, 0.20100000000000007, -0.344, 0.55, -0.736, 0.81], 0.8579217273954116),
    (288, [0.264, -0.15100000000000002, 0.27, 0.22199999999999998, 0.734, 0.20100000000000007, -0.344, 0.55, -0.736, 0.81], 0.8579217273954116),
    (289, [0.264, -0.15100000000000002, 0.27, 0.22199999999999998, 0.734, 0.20100000000000007, -0.344, 0.55, -0.736, 0.81], 0.8579217273954116),
    (290, [0.264, -0.15100000000000002, 0.27, 0.22199999999999998, 0.734, 0.20100000000000007, -0.344, 0.55, -0.736, 0.81], 0.8579217273954116),
    (291, [0.264, -0.15100000000000002, 0.27, 0.22199999999999998, 0.734, 0.20100000000000007, -0.344, 0.55, -0.736, 0.81], 0.8579217273954116),
    (292, [0.264, -0.15100000000000002, 0.27, 0.22199999999999998, 0.734, 0.20100000000000007, -0.344, 0.55, -0.736, 0.81], 0.8579217273954116),
    (293, [0.264, -0.15100000000000002, 0.27, 0.22199999999999998, 0.734, 0.20100000000000007, -0.344, 0.55, -0.736, 0.81], 0.8579217273954116),
    (294, [0.264, -0.15100000000000002, 0.27, 0.22199999999999998, 0.734, 0.20100000000000007, -0.344, 0.55, -0.736, 0.81], 0.8579217273954116),
    (295, [0.264, -0.15100000000000002, 0.27, 0.22199999999999998, 0.734, 0.20100000000000007, -0.344, 0.55, -0.736, 0.81], 0.8579217273954116),
    (296, [0.264, -0.15100000000000002, 0.27, 0.22199999999999998, 0.734, 0.20100000000000007, -0.344, 0.55, -0.736, 0.81], 0.8579217273954116),
    (297, [0.264, -0.15100000000000002, 0.27, 0.22199999999999998, 0.734, 0.20100000000000007, -0.344, 0.55, -0.736, 0.81], 0.8579217273954116),
    (298, [0.264, -0.15100000000000002, 0.27, 0.22199999999999998, 0.734, 0.20100000000000007, -0.344, 0.55, -0.736, 0.81], 0.8579217273954116),
    (299, [0.264, -0.15100000000000002, 0.27, 0.22199999999999998, 0.734, 0.20100000000000007, -0.344, 0.55, -0.736, 0.81], 0.8579217273954116),
]

