ranges of every chromosome : (-2, 2)
    selection method is: ExponentialRankingSelection
    crossover method is: UniformCrossover
    pc: The probability of crossover: 0.850000
    pe: Gene exchange probability: 0.500000
    mutation method is: FlipBitBigMutation
    pm: The probability of mutation: 0.200000
    pbm: The probability of big mutation: 0.500000
    alpha: intensive factor: 0.750000
best_fit = [
    (0, [1, 1, 1, 1, 1, 1, 1, 1, 1, 1], 0.8480499325236167),
    (1, [1, 1, 1, 1, 1, 1, 1, 1, 1, 1], 0.8480499325236167),
    (2, [1, 1, 1, 1, 1, 1, 1, 1, 1, 1], 0.8480499325236167),
    (3, [1, 1, 1, 1, 1, 1, 1, 1, 1, 1], 0.8480499325236167),
    (4, [1, 1, 1, 1, 1, 1, 1, 1, 1, 1], 0.8480499325236167),
    (5, [-0.357, 1.0470000000000002, 0.02200000000000024, -0.768, -0.41500000000000004, 0.4660000000000002, -0.18300000000000005, -1.129, 1.5140000000000002, 1.3810000000000002], 0.8629284750337382),
    (6, [-0.357, 1.0470000000000002, 0.02200000000000024, -0.768, -0.41500000000000004, 0.4660000000000002, -0.18300000000000005, -1.129, 1.5140000000000002, 1.3810000000000002], 0.8629284750337382),
    (7, [-0.357, 1.0470000000000002, 0.02200000000000024, -0.768, -0.41500000000000004, 0.4660000000000002, -0.18300000000000005, -1.129, 1.5140000000000002, 1.3810000000000002], 0.8629284750337382),
    (8, [-0.357, 1.0470000000000002, 0.02200000000000024, -0.768, -0.41500000000000004, 0.4660000000000002, -0.18300000000000005, -1.129, 1.5140000000000002, 1.3810000000000002], 0.8629284750337382),
    (9, [-0.357, 1.0470000000000002, 0.02200000000000024, -0.768, -0.41500000000000004, 0.4660000000000002, -0.18300000000000005, -1.129, 1.5140000000000002, 1.3810000000000002], 0.8629284750337382),
    (10, [-0.357, 1.0470000000000002, 0.02200000000000024, -0.768, -0.41500000000000004, 0.4660000000000002, -0.18300000000000005, -1.129, 1.5140000000000002, 1.3810000000000002], 0.8629284750337382),
    (11, [-0.357, 1.0470000000000002, 0.02200000000000024, -0.768, -0.41500000000000004, 0.4660000000000002, -0.18300000000000005, -1.129, 1.5140000000000002, 1.3810000000000002], 0.8629284750337382),
    (12, [-0.357, 1.0470000000000002, 0.02200000000000024, -0.768, -0.41500000000000004, 0.4660000000000002, -0.18300000000000005, -1.129, 1.5140000000000002, 1.3810000000000002], 0.8629284750337382),
    (13, [-0.357, 1.0470000000000002, 0.02200000000000024, -0.768, -0.41500000000000004, 0.4660000000000002, -0.18300000000000005, -1.129, 1.5140000000000002, 1.3810000000000002], 0.8629284750337382),
    (14, [-0.357, 1.0470000000000002, 0.02200000000000024, -0.768, -0.41500000000000004, 0.4660000000000002, -0.18300000000000005, -1.129, 1.5140000000000002, 1.3810000000000002], 0.8629284750337382),
    (15, [-0.357, 1.0470000000000002, 0.02200000000000024, -0.768, -0.41500000000000004, 0.4660000000000002, -0.18300000000000005, -1.129, 1.5140000000000002, 1.3810000000000002], 0.8629284750337382),
    (16, [-0.357, 1.0470000000000002, 0.02200000000000024, -0.768, -0.41500000000000004, 0.4660000000000002, -0.18300000000000005, -1.129, 1.5140000000000002, 1.3810000000000002], 0.8629284750337382),
    (17, [-0.357, 1.0470000000000002, 0.02200000000000024, -0.768, -0.41500000000000004, 0.4660000000000002, -0.18300000000000005, -1.129, 1.5140000000000002, 1.3810000000000002], 0.8629284750337382),
    (18, [-0.357, 1.0470000000000002, 0.02200000000000024, -0.768, -0.41500000000000004, 0.4660000000000002, -0.18300000000000005, -1.129, 1.5140000000000002, 1.3810000000000002], 0.8629284750337382),
    (19, [-0.357, 1.0470000000000002, 0.02200000000000024, -0.768, -0.41500000000000004, 0.4660000000000002, -0.18300000000000005, -1.129, 1.5140000000000002, 1.3810000000000002], 0.8629284750337382),
    (20, [-0.357, 1.0470000000000002, 0.02200000000000024, -0.768, -0.41500000000000004, 0.4660000000000002, -0.18300000000000005, -1.129, 1.5140000000000002, 1.3810000000000002], 0.8629284750337382),
    (21, [-0.357, 1.0470000000000002, 0.02200000000000024, -0.768, -0.41500000000000004, 0.4660000000000002, -0.18300000000000005, -1.129, 1.5140000000000002, 1.3810000000000002], 0.8629284750337382),
    (22, [-0.357, 1.0470000000000002, 0.02200000000000024, -0.768, -0.41500000000000004, 0.4660000000000002, -0.18300000000000005, -1.129, 1.5140000000000002, 1.3810000000000002], 0.8629284750337382),
    (23, [-0.357, 1.0470000000000002, 0.02200000000000024, -0.768, -0.41500000000000004, 0.4660000000000002, -0.18300000000000005, -1.129, 1.5140000000000002, 1.3810000000000002], 0.8629284750337382),
    (24, [-0.357, 1.0470000000000002, 0.02200000000000024, -0.768, -0.41500000000000004, 0.4660000000000002, -0.18300000000000005, -1.129, 1.5140000000000002, 1.3810000000000002], 0.8629284750337382),
    (25, [-0.357, 1.0470000000000002, 0.02200000000000024, -0.768, -0.41500000000000004, 0.4660000000000002, -0.18300000000000005, -1.129, 1.5140000000000002, 1.3810000000000002], 0.8629284750337382),
    (26, [-0.357, 1.0470000000000002, 0.02200000000000024, -0.768, -0.41500000000000004, 0.4660000000000002, -0.18300000000000005, -1.129, 1.5140000000000002, 1.3810000000000002], 0.8629284750337382),
    (27, [-0.357, 1.0470000000000002, 0.02200000000000024, -0.768, -0.41500000000000004, 0.4660000000000002, -0.18300000000000005, -1.129, 1.5140000000000002, 1.3810000000000002], 0.8629284750337382),
    (28, [-0.357, 1.0470000000000002, 0.02200000000000024, -0.768, -0.41500000000000004, 0.4660000000000002, -0.18300000000000005, -1.129, 1.5140000000000002, 1.3810000000000002], 0.8629284750337382),
    (29, [-0.357, 1.0470000000000002, 0.02200000000000024, -0.768, -0.41500000000000004, 0.4660000000000002, -0.18300000000000005, -1.129, 1.5140000000000002, 1.3810000000000002], 0.8629284750337382),
    (30, [-0.357, 1.0470000000000002, 0.02200000000000024, -0.768, -0.41500000000000004, 0.4660000000000002, -0.18300000000000005, -1.129, 1.5140000000000002, 1.3810000000000002], 0.8629284750337382),
    (31, [-0.357, 1.0470000000000002, 0.02200000000000024, -0.768, -0.41500000000000004, 0.4660000000000002, -0.18300000000000005, -1.129, 1.5140000000000002, 1.3810000000000002], 0.8629284750337382),
    (32, [-0.357, 1.0470000000000002, 0.02200000000000024, -0.768, -0.41500000000000004, 0.4660000000000002, -0.18300000000000005, -1.129, 1.5140000000000002, 1.3810000000000002], 0.8629284750337382),
    (33, [-0.357, 1.0470000000000002, 0.02200000000000024, -0.768, -0.41500000000000004, 0.4660000000000002, -0.18300000000000005, -1.129, 1.5140000000000002, 1.3810000000000002], 0.8629284750337382),
    (34, [-0.357, 1.0470000000000002, 0.02200000000000024, -0.768, -0.41500000000000004, 0.4660000000000002, -0.18300000000000005, -1.129, 1.5140000000000002, 1.3810000000000002], 0.8629284750337382),
    (35, [-0.357, 1.0470000000000002, 0.02200000000000024, -0.768, -0.41500000000000004, 0.4660000000000002, -0.18300000000000005, -1.129, 1.5140000000000002, 1.3810000000000002], 0.8629284750337382),
    (36, [-0.357, 1.0470000000000002, 0.02200000000000024, -0.768, -0.41500000000000004, 0.4660000000000002, -0.18300000000000005, -1.129, 1.5140000000000002, 1.3810000000000002], 0.8629284750337382),
    (37, [-0.357, 1.0470000000000002, 0.02200000000000024, -0.768, -0.41500000000000004, 0.4660000000000002, -0.18300000000000005, -1.129, 1.5140000000000002, 1.3810000000000002], 0.8629284750337382),
    (38, [-0.357, 1.0470000000000002, 0.02200000000000024, -0.768, -0.41500000000000004, 0.4660000000000002, -0.18300000000000005, -1.129, 1.5140000000000002, 1.3810000000000002], 0.8629284750337382),
    (39, [-0.357, 1.0470000000000002, 0.02200000000000024, -0.768, -0.41500000000000004, 0.4660000000000002, -0.18300000000000005, -1.129, 1.5140000000000002, 1.3810000000000002], 0.8629284750337382),
    (40, [-0.357, 1.0470000000000002, 0.02200000000000024, -0.768, -0.41500000000000004, 0.4660000000000002, -0.18300000000000005, -1.129, 1.5140000000000002, 1.3810000000000002], 0.8629284750337382),
    (41, [-0.357, 1.0470000000000002, 0.02200000000000024, -0.768, -0.41500000000000004, 0.4660000000000002, -0.18300000000000005, -1.129, 1.5140000000000002, 1.3810000000000002], 0.8629284750337382),
    (42, [-0.357, 1.0470000000000002, 0.02200000000000024, -0.768, -0.41500000000000004, 0.4660000000000002, -0.18300000000000005, -1.129, 1.5140000000000002, 1.3810000000000002], 0.8629284750337382),
    (43, [-0.357, 1.0470000000000002, 0.02200000000000024, -0.768, -0.41500000000000004, 0.4660000000000002, -0.18300000000000005, -1.129, 1.5140000000000002, 1.3810000000000002], 0.8629284750337382),
    (44, [-0.357, 1.0470000000000002, 0.02200000000000024, -0.768, -0.41500000000000004, 0.4660000000000002, -0.18300000000000005, -1.129, 1.5140000000000002, 1.3810000000000002], 0.8629284750337382),
    (45, [-0.357, 1.0470000000000002, 0.02200000000000024, -0.768, -0.41500000000000004, 0.4660000000000002, -0.18300000000000005, -1.129, 1.5140000000000002, 1.3810000000000002], 0.8629284750337382),
    (46, [-0.357, 1.0470000000000002, 0.02200000000000024, -0.768, -0.41500000000000004, 0.4660000000000002, -0.18300000000000005, -1.129, 1.5140000000000002, 1.3810000000000002], 0.8629284750337382),
    (47, [-0.357, 1.0470000000000002, 0.02200000000000024, -0.768, -0.41500000000000004, 0.4660000000000002, -0.18300000000000005, -1.129, 1.5140000000000002, 1.3810000000000002], 0.8629284750337382),
    (48, [-0.357, 1.0470000000000002, 0.02200000000000024, -0.768, -0.41500000000000004, 0.4660000000000002, -0.18300000000000005, -1.129, 1.5140000000000002, 1.3810000000000002], 0.8629284750337382),
    (49, [-0.357, 1.0470000000000002, 0.02200000000000024, -0.768, -0.41500000000000004, 0.4660000000000002, -0.18300000000000005, -1.129, 1.5140000000000002, 1.3810000000000002], 0.8629284750337382),
    (50, [-0.357, 1.0470000000000002, 0.02200000000000024, -0.768, -0.41500000000000004, 0.4660000000000002, -0.18300000000000005, -1.129, 1.5140000000000002, 1.3810000000000002], 0.8629284750337382),
    (51, [-0.357, 1.0470000000000002, 0.02200000000000024, -0.768, -0.41500000000000004, 0.4660000000000002, -0.18300000000000005, -1.129, 1.5140000000000002, 1.3810000000000002], 0.8629284750337382),
    (52, [-0.357, 1.0470000000000002, 0.02200000000000024, -0.768, -0.41500000000000004, 0.4660000000000002, -0.18300000000000005, -1.129, 1.5140000000000002, 1.3810000000000002], 0.8629284750337382),
    (53, [-0.357, 1.0470000000000002, 0.02200000000000024, -0.768, -0.41500000000000004, 0.4660000000000002, -0.18300000000000005, -1.129, 1.5140000000000002, 1.3810000000000002], 0.8629284750337382),
    (54, [-0.357, 1.0470000000000002, 0.02200000000000024, -0.768, -0.41500000000000004, 0.4660000000000002, -0.18300000000000005, -1.129, 1.5140000000000002, 1.3810000000000002], 0.8629284750337382),
    (55, [-0.357, 1.0470000000000002, 0.02200000000000024, -0.768, -0.41500000000000004, 0.4660000000000002, -0.18300000000000005, -1.129, 1.5140000000000002, 1.3810000000000002], 0.8629284750337382),
    (56, [-0.357, 1.0470000000000002, 0.02200000000000024, -0.768, -0.41500000000000004, 0.4660000000000002, -0.18300000000000005, -1.129, 1.5140000000000002, 1.3810000000000002], 0.8629284750337382),
    (57, [-0.357, 1.0470000000000002, 0.02200000000000024, -0.768, -0.41500000000000004, 0.4660000000000002, -0.18300000000000005, -1.129, 1.5140000000000002, 1.3810000000000002], 0.8629284750337382),
    (58, [-0.357, 1.0470000000000002, 0.02200000000000024, -0.768, -0.41500000000000004, 0.4660000000000002, -0.18300000000000005, -1.129, 1.5140000000000002, 1.3810000000000002], 0.8629284750337382),
    (59, [-0.357, 1.0470000000000002, 0.02200000000000024, -0.768, -0.41500000000000004, 0.4660000000000002, -0.18300000000000005, -1.129, 1.5140000000000002, 1.3810000000000002], 0.8629284750337382),
    (60, [-0.357, 1.0470000000000002, 0.02200000000000024, -0.768, -0.41500000000000004, 0.4660000000000002, -0.18300000000000005, -1.129, 1.5140000000000002, 1.3810000000000002], 0.8629284750337382),
    (61, [-0.357, 1.0470000000000002, 0.02200000000000024, -0.768, -0.41500000000000004, 0.4660000000000002, -0.18300000000000005, -1.129, 1.5140000000000002, 1.3810000000000002], 0.8629284750337382),
    (62, [-0.357, 1.0470000000000002, 0.02200000000000024, -0.768, -0.41500000000000004, 0.4660000000000002, -0.18300000000000005, -1.129, 1.5140000000000002, 1.3810000000000002], 0.8629284750337382),
    (63, [-0.357, 1.0470000000000002, 0.02200000000000024, -0.768, -0.41500000000000004, 0.4660000000000002, -0.18300000000000005, -1.129, 1.5140000000000002, 1.3810000000000002], 0.8629284750337382),
    (64, [-0.357, 1.0470000000000002, 0.02200000000000024, -0.768, -0.41500000000000004, 0.4660000000000002, -0.18300000000000005, -1.129, 1.5140000000000002, 1.3810000000000002], 0.8629284750337382),
    (65, [-0.357, 1.0470000000000002, 0.02200000000000024, -0.768, -0.41500000000000004, 0.4660000000000002, -0.18300000000000005, -1.129, 1.5140000000000002, 1.3810000000000002], 0.8629284750337382),
    (66, [-0.357, 1.0470000000000002, 0.02200000000000024, -0.768, -0.41500000000000004, 0.4660000000000002, -0.18300000000000005, -1.129, 1.5140000000000002, 1.3810000000000002], 0.8629284750337382),
    (67, [-0.357, 1.0470000000000002, 0.02200000000000024, -0.768, -0.41500000000000004, 0.4660000000000002, -0.18300000000000005, -1.129, 1.5140000000000002, 1.3810000000000002], 0.8629284750337382),
    (68, [-0.357, 1.0470000000000002, 0.02200000000000024, -0.768, -0.41500000000000004, 0.4660000000000002, -0.18300000000000005, -1.129, 1.5140000000000002, 1.3810000000000002], 0.8629284750337382),
    (69, [-0.357, 1.0470000000000002, 0.02200000000000024, -0.768, -0.41500000000000004, 0.4660000000000002, -0.18300000000000005, -1.129, 1.5140000000000002, 1.3810000000000002], 0.8629284750337382),
    (70, [-0.357, 1.0470000000000002, 0.02200000000000024, -0.768, -0.41500000000000004, 0.4660000000000002, -0.18300000000000005, -1.129, 1.5140000000000002, 1.3810000000000002], 0.8629284750337382),
    (71, [-0.357, 1.0470000000000002, 0.02200000000000024, -0.768, -0.41500000000000004, 0.4660000000000002, -0.18300000000000005, -1.129, 1.5140000000000002, 1.3810000000000002], 0.8629284750337382),
    (72, [-0.357, 1.0470000000000002, 0.02200000000000024, -0.768, -0.41500000000000004, 0.4660000000000002, -0.18300000000000005, -1.129, 1.5140000000000002, 1.3810000000000002], 0.8629284750337382),
    (73, [-0.357, 1.0470000000000002, 0.02200000000000024, -0.768, -0.41500000000000004, 0.4660000000000002, -0.18300000000000005, -1.129, 1.5140000000000002, 1.3810000000000002], 0.8629284750337382),
    (74, [-0.357, 1.0470000000000002, 0.02200000000000024, -0.768, -0.41500000000000004, 0.4660000000000002, -0.18300000000000005, -1.129, 1.5140000000000002, 1.3810000000000002], 0.8629284750337382),
    (75, [-0.357, 1.0470000000000002, 0.02200000000000024, -0.768, -0.41500000000000004, 0.4660000000000002, -0.18300000000000005, -1.129, 1.5140000000000002, 1.3810000000000002], 0.8629284750337382),
    (76, [-0.357, 1.0470000000000002, 0.02200000000000024, -0.768, -0.41500000000000004, 0.4660000000000002, -0.18300000000000005, -1.129, 1.5140000000000002, 1.3810000000000002], 0.8629284750337382),
    (77, [-0.357, 1.0470000000000002, 0.02200000000000024, -0.768, -0.41500000000000004, 0.4660000000000002, -0.18300000000000005, -1.129, 1.5140000000000002, 1.3810000000000002], 0.8629284750337382),
    (78, [-0.357, 1.0470000000000002, 0.02200000000000024, -0.768, -0.41500000000000004, 0.4660000000000002, -0.18300000000000005, -1.129, 1.5140000000000002, 1.3810000000000002], 0.8629284750337382),
    (79, [-0.357, 1.0470000000000002, 0.02200000000000024, -0.768, -0.41500000000000004, 0.4660000000000002, -0.18300000000000005, -1.129, 1.5140000000000002, 1.3810000000000002], 0.8629284750337382),
    (80, [-0.357, 1.0470000000000002, 0.02200000000000024, -0.768, -0.41500000000000004, 0.4660000000000002, -0.18300000000000005, -1.129, 1.5140000000000002, 1.3810000000000002], 0.8629284750337382),
    (81, [-0.357, 1.0470000000000002, 0.02200000000000024, -0.768, -0.41500000000000004, 0.4660000000000002, -0.18300000000000005, -1.129, 1.5140000000000002, 1.3810000000000002], 0.8629284750337382),
    (82, [-0.357, 1.0470000000000002, 0.02200000000000024, -0.768, -0.41500000000000004, 0.4660000000000002, -0.18300000000000005, -1.129, 1.5140000000000002, 1.3810000000000002], 0.8629284750337382),
    (83, [-0.357, 1.0470000000000002, 0.02200000000000024, -0.768, -0.41500000000000004, 0.4660000000000002, -0.18300000000000005, -1.129, 1.5140000000000002, 1.3810000000000002], 0.8629284750337382),
    (84, [-0.357, 1.0470000000000002, 0.02200000000000024, -0.768, -0.41500000000000004, 0.4660000000000002, -0.18300000000000005, -1.129, 1.5140000000000002, 1.3810000000000002], 0.8629284750337382),
    (85, [-0.357, 1.0470000000000002, 0.02200000000000024, -0.768, -0.41500000000000004, 0.4660000000000002, -0.18300000000000005, -1.129, 1.5140000000000002, 1.3810000000000002], 0.8629284750337382),
    (86, [-0.357, 1.0470000000000002, 0.02200000000000024, -0.768, -0.41500000000000004, 0.4660000000000002, -0.18300000000000005, -1.129, 1.5140000000000002, 1.3810000000000002], 0.8629284750337382),
    (87, [-0.357, 1.0470000000000002, 0.02200000000000024, -0.768, -0.41500000000000004, 0.4660000000000002, -0.18300000000000005, -1.129, 1.5140000000000002, 1.3810000000000002], 0.8629284750337382),
    (88, [-0.357, 1.0470000000000002, 0.02200000000000024, -0.768, -0.41500000000000004, 0.4660000000000002, -0.18300000000000005, -1.129, 1.5140000000000002, 1.3810000000000002], 0.8629284750337382),
    (89, [-0.357, 1.0470000000000002, 0.02200000000000024, -0.768, -0.41500000000000004, 0.4660000000000002, -0.18300000000000005, -1.129, 1.5140000000000002, 1.3810000000000002], 0.8629284750337382),
    (90, [-0.357, 1.0470000000000002, 0.02200000000000024, -0.768, -0.41500000000000004, 0.4660000000000002, -0.18300000000000005, -1.129, 1.5140000000000002, 1.3810000000000002], 0.8629284750337382),
    (91, [-0.357, 1.0470000000000002, 0.02200000000000024, -0.768, -0.41500000000000004, 0.4660000000000002, -0.18300000000000005, -1.129, 1.5140000000000002, 1.3810000000000002], 0.8629284750337382),
    (92, [-0.357, 1.0470000000000002, 0.02200000000000024, -0.768, -0.41500000000000004, 0.4660000000000002, -0.18300000000000005, -1.129, 1.5140000000000002, 1.3810000000000002], 0.8629284750337382),
    (93, [-0.357, 1.0470000000000002, 0.02200000000000024, -0.768, -0.41500000000000004, 0.4660000000000002, -0.18300000000000005, -1.129, 1.5140000000000002, 1.3810000000000002], 0.8629284750337382),
    (94, [-0.357, 1.0470000000000002, 0.02200000000000024, -0.768, -0.41500000000000004, 0.4660000000000002, -0.18300000000000005, -1.129, 1.5140000000000002, 1.3810000000000002], 0.8629284750337382),
    (95, [-0.357, 1.0470000000000002, 0.02200000000000024, -0.768, -0.41500000000000004, 0.4660000000000002, -0.18300000000000005, -1.129, 1.5140000000000002, 1.3810000000000002], 0.8629284750337382),
    (96, [-0.357, 1.0470000000000002, 0.02200000000000024, -0.768, -0.41500000000000004, 0.4660000000000002, -0.18300000000000005, -1.129, 1.5140000000000002, 1.3810000000000002], 0.8629284750337382),
    (97, [-0.357, 1.0470000000000002, 0.02200000000000024, -0.768, -0.41500000000000004, 0.4660000000000002, -0.18300000000000005, -1.129, 1.5140000000000002, 1.3810000000000002], 0.8629284750337382),
    (98, [-0.357, 1.0470000000000002, 0.02200000000000024, -0.768, -0.41500000000000004, 0.4660000000000002, -0.18300000000000005, -1.129, 1.5140000000000002, 1.3810000000000002], 0.8629284750337382),
    (99, [-0.357, 1.0470000000000002, 0.02200000000000024, -0.768, -0.41500000000000004, 0.4660000000000002, -0.18300000000000005, -1.129, 1.5140000000000002, 1.3810000000000002], 0.8629284750337382),
    (100, [-0.357, 1.0470000000000002, 0.02200000000000024, -0.768, -0.41500000000000004, 0.4660000000000002, -0.18300000000000005, -1.129, 1.5140000000000002, 1.3810000000000002], 0.8629284750337382),
    (101, [-0.357, 1.0470000000000002, 0.02200000000000024, -0.768, -0.41500000000000004, 0.4660000000000002, -0.18300000000000005, -1.129, 1.5140000000000002, 1.3810000000000002], 0.8629284750337382),
    (102, [-0.357, 1.0470000000000002, 0.02200000000000024, -0.768, -0.41500000000000004, 0.4660000000000002, -0.18300000000000005, -1.129, 1.5140000000000002, 1.3810000000000002], 0.8629284750337382),
    (103, [-0.357, 1.0470000000000002, 0.02200000000000024, -0.768, -0.41500000000000004, 0.4660000000000002, -0.18300000000000005, -1.129, 1.5140000000000002, 1.3810000000000002], 0.8629284750337382),
    (104, [-0.357, 1.0470000000000002, 0.02200000000000024, -0.768, -0.41500000000000004, 0.4660000000000002, -0.18300000000000005, -1.129, 1.5140000000000002, 1.3810000000000002], 0.8629284750337382),
    (105, [-0.357, 1.0470000000000002, 0.02200000000000024, -0.768, -0.41500000000000004, 0.4660000000000002, -0.18300000000000005, -1.129, 1.5140000000000002, 1.3810000000000002], 0.8629284750337382),
    (106, [-0.357, 1.0470000000000002, 0.02200000000000024, -0.768, -0.41500000000000004, 0.4660000000000002, -0.18300000000000005, -1.129, 1.5140000000000002, 1.3810000000000002], 0.8629284750337382),
    (107, [-0.357, 1.0470000000000002, 0.02200000000000024, -0.768, -0.41500000000000004, 0.4660000000000002, -0.18300000000000005, -1.129, 1.5140000000000002, 1.3810000000000002], 0.8629284750337382),
    (108, [-0.357, 1.0470000000000002, 0.02200000000000024, -0.768, -0.41500000000000004, 0.4660000000000002, -0.18300000000000005, -1.129, 1.5140000000000002, 1.3810000000000002], 0.8629284750337382),
    (109, [-0.357, 1.0470000000000002, 0.02200000000000024, -0.768, -0.41500000000000004, 0.4660000000000002, -0.18300000000000005, -1.129, 1.5140000000000002, 1.3810000000000002], 0.8629284750337382),
    (110, [-0.357, 1.0470000000000002, 0.02200000000000024, -0.768, -0.41500000000000004, 0.4660000000000002, -0.18300000000000005, -1.129, 1.5140000000000002, 1.3810000000000002], 0.8629284750337382),
    (111, [-0.357, 1.0470000000000002, 0.02200000000000024, -0.768, -0.41500000000000004, 0.4660000000000002, -0.18300000000000005, -1.129, 1.5140000000000002, 1.3810000000000002], 0.8629284750337382),
    (112, [-0.357, 1.0470000000000002, 0.02200000000000024, -0.768, -0.41500000000000004, 0.4660000000000002, -0.18300000000000005, -1.129, 1.5140000000000002, 1.3810000000000002], 0.8629284750337382),
    (113, [-0.357, 1.0470000000000002, 0.02200000000000024, -0.768, -0.41500000000000004, 0.4660000000000002, -0.18300000000000005, -1.129, 1.5140000000000002, 1.3810000000000002], 0.8629284750337382),
    (114, [-0.357, 1.0470000000000002, 0.02200000000000024, -0.768, -0.41500000000000004, 0.4660000000000002, -0.18300000000000005, -1.129, 1.5140000000000002, 1.3810000000000002], 0.8629284750337382),
    (115, [-0.357, 1.0470000000000002, 0.02200000000000024, -0.768, -0.41500000000000004, 0.4660000000000002, -0.18300000000000005, -1.129, 1.5140000000000002, 1.3810000000000002], 0.8629284750337382),
    (116, [-0.357, 1.0470000000000002, 0.02200000000000024, -0.768, -0.41500000000000004, 0.4660000000000002, -0.18300000000000005, -1.129, 1.5140000000000002, 1.3810000000000002], 0.8629284750337382),
    (117, [-0.357, 1.0470000000000002, 0.02200000000000024, -0.768, -0.41500000000000004, 0.4660000000000002, -0.18300000000000005, -1.129, 1.5140000000000002, 1.3810000000000002], 0.8629284750337382),
    (118, [-0.357, 1.0470000000000002, 0.02200000000000024, -0.768, -0.41500000000000004, 0.4660000000000002, -0.18300000000000005, -1.129, 1.5140000000000002, 1.3810000000000002], 0.8629284750337382),
    (119, [-0.357, 1.0470000000000002, 0.02200000000000024, -0.768, -0.41500000000000004, 0.4660000000000002, -0.18300000000000005, -1.129, 1.5140000000000002, 1.3810000000000002], 0.8629284750337382),
    (120, [-0.357, 1.0470000000000002, 0.02200000000000024, -0.768, -0.41500000000000004, 0.4660000000000002, -0.18300000000000005, -1.129, 1.5140000000000002, 1.3810000000000002], 0.8629284750337382),
    (121, [-0.357, 1.0470000000000002, 0.02200000000000024, -0.768, -0.41500000000000004, 0.4660000000000002, -0.18300000000000005, -1.129, 1.5140000000000002, 1.3810000000000002], 0.8629284750337382),
    (122, [1.0190000000000001, 1.145, -0.944, 0.2789999999999999, 0.6579999999999999, -0.09999999999999987, -0.5939999999999999, 0.863, 0.8250000000000002, -1.825], 0.8633130904183535),
    (123, [1.0190000000000001, 1.145, -0.944, 0.2789999999999999, 0.6579999999999999, -0.09999999999999987, -0.5939999999999999, 0.863, 0.8250000000000002, -1.825], 0.8633130904183535),
    (124, [1.0190000000000001, 1.145, -0.944, 0.2789999999999999, 0.6579999999999999, -0.09999999999999987, -0.5939999999999999, 0.863, 0.8250000000000002, -1.825], 0.8633130904183535),
    (125, [1.0190000000000001, 1.145, -0.944, 0.2789999999999999, 0.6579999999999999, -0.09999999999999987, -0.5939999999999999, 0.863, 0.8250000000000002, -1.825], 0.8633130904183535),
    (126, [1.0190000000000001, 1.145, -0.944, 0.2789999999999999, 0.6579999999999999, -0.09999999999999987, -0.5939999999999999, 0.863, 0.8250000000000002, -1.825], 0.8633130904183535),
    (127, [1.0190000000000001, 1.145, -0.944, 0.2789999999999999, 0.6579999999999999, -0.09999999999999987, -0.5939999999999999, 0.863, 0.8250000000000002, -1.825], 0.8633130904183535),
    (128, [1.0190000000000001, 1.145, -0.944, 0.2789999999999999, 0.6579999999999999, -0.09999999999999987, -0.5939999999999999, 0.863, 0.8250000000000002, -1.825], 0.8633130904183535),
    (129, [1.0190000000000001, 1.145, -0.944, 0.2789999999999999, 0.6579999999999999, -0.09999999999999987, -0.5939999999999999, 0.863, 0.8250000000000002, -1.825], 0.8633130904183535),
    (130, [1.0190000000000001, 1.145, -0.944, 0.2789999999999999, 0.6579999999999999, -0.09999999999999987, -0.5939999999999999, 0.863, 0.8250000000000002, -1.825], 0.8633130904183535),
    (131, [1.0190000000000001, 1.145, -0.944, 0.2789999999999999, 0.6579999999999999, -0.09999999999999987, -0.5939999999999999, 0.863, 0.8250000000000002, -1.825], 0.8633130904183535),
    (132, [1.0190000000000001, 1.145, -0.944, 0.2789999999999999, 0.6579999999999999, -0.09999999999999987, -0.5939999999999999, 0.863, 0.8250000000000002, -1.825], 0.8633130904183535),
    (133, [1.0190000000000001, 1.145, -0.944, 0.2789999999999999, 0.6579999999999999, -0.09999999999999987, -0.5939999999999999, 0.863, 0.8250000000000002, -1.825], 0.8633130904183535),
    (134, [1.0190000000000001, 1.145, -0.944, 0.2789999999999999, 0.6579999999999999, -0.09999999999999987, -0.5939999999999999, 0.863, 0.8250000000000002, -1.825], 0.8633130904183535),
    (135, [1.0190000000000001, 1.145, -0.944, 0.2789999999999999, 0.6579999999999999, -0.09999999999999987, -0.5939999999999999, 0.863, 0.8250000000000002, -1.825], 0.8633130904183535),
    (136, [1.0190000000000001, 1.145, -0.944, 0.2789999999999999, 0.6579999999999999, -0.09999999999999987, -0.5939999999999999, 0.863, 0.8250000000000002, -1.825], 0.8633130904183535),
    (137, [1.0190000000000001, 1.145, -0.944, 0.2789999999999999, 0.6579999999999999, -0.09999999999999987, -0.5939999999999999, 0.863, 0.8250000000000002, -1.825], 0.8633130904183535),
    (138, [1.0190000000000001, 1.145, -0.944, 0.2789999999999999, 0.6579999999999999, -0.09999999999999987, -0.5939999999999999, 0.863, 0.8250000000000002, -1.825], 0.8633130904183535),
    (139, [1.0190000000000001, 1.145, -0.944, 0.2789999999999999, 0.6579999999999999, -0.09999999999999987, -0.5939999999999999, 0.863, 0.8250000000000002, -1.825], 0.8633130904183535),
    (140, [1.0190000000000001, 1.145, -0.944, 0.2789999999999999, 0.6579999999999999, -0.09999999999999987, -0.5939999999999999, 0.863, 0.8250000000000002, -1.825], 0.8633130904183535),
    (141, [1.0190000000000001, 1.145, -0.944, 0.2789999999999999, 0.6579999999999999, -0.09999999999999987, -0.5939999999999999, 0.863, 0.8250000000000002, -1.825], 0.8633130904183535),
    (142, [1.0190000000000001, 1.145, -0.944, 0.2789999999999999, 0.6579999999999999, -0.09999999999999987, -0.5939999999999999, 0.863, 0.8250000000000002, -1.825], 0.8633130904183535),
    (143, [1.0190000000000001, 1.145, -0.944, 0.2789999999999999, 0.6579999999999999, -0.09999999999999987, -0.5939999999999999, 0.863, 0.8250000000000002, -1.825], 0.8633130904183535),
    (144, [1.0190000000000001, 1.145, -0.944, 0.2789999999999999, 0.6579999999999999, -0.09999999999999987, -0.5939999999999999, 0.863, 0.8250000000000002, -1.825], 0.8633130904183535),
    (145, [1.0190000000000001, 1.145, -0.944, 0.2789999999999999, 0.6579999999999999, -0.09999999999999987, -0.5939999999999999, 0.863, 0.8250000000000002, -1.825], 0.8633130904183535),
    (146, [1.0190000000000001, 1.145, -0.944, 0.2789999999999999, 0.6579999999999999, -0.09999999999999987, -0.5939999999999999, 0.863, 0.8250000000000002, -1.825], 0.8633130904183535),
    (147, [1.0190000000000001, 1.145, -0.944, 0.2789999999999999, 0.6579999999999999, -0.09999999999999987, -0.5939999999999999, 0.863, 0.8250000000000002, -1.825], 0.8633130904183535),
    (148, [1.0190000000000001, 1.145, -0.944, 0.2789999999999999, 0.6579999999999999, -0.09999999999999987, -0.5939999999999999, 0.863, 0.8250000000000002, -1.825], 0.8633130904183535),
    (149, [1.0190000000000001, 1.145, -0.944, 0.2789999999999999, 0.6579999999999999, -0.09999999999999987, -0.5939999999999999, 0.863, 0.8250000000000002, -1.825], 0.8633130904183535),
    (150, [1.0190000000000001, 1.145, -0.944, 0.2789999999999999, 0.6579999999999999, -0.09999999999999987, -0.5939999999999999, 0.863, 0.8250000000000002, -1.825], 0.8633130904183535),
    (151, [1.0190000000000001, 1.145, -0.944, 0.2789999999999999, 0.6579999999999999, -0.09999999999999987, -0.5939999999999999, 0.863, 0.8250000000000002, -1.825], 0.8633130904183535),
    (152, [1.0190000000000001, 1.145, -0.944, 0.2789999999999999, 0.6579999999999999, -0.09999999999999987, -0.5939999999999999, 0.863, 0.8250000000000002, -1.825], 0.8633130904183535),
    (153, [1.0190000000000001, 1.145, -0.944, 0.2789999999999999, 0.6579999999999999, -0.09999999999999987, -0.5939999999999999, 0.863, 0.8250000000000002, -1.825], 0.8633130904183535),
    (154, [1.0190000000000001, 1.145, -0.944, 0.2789999999999999, 0.6579999999999999, -0.09999999999999987, -0.5939999999999999, 0.863, 0.8250000000000002, -1.825], 0.8633130904183535),
    (155, [1.0190000000000001, 1.145, -0.944, 0.2789999999999999, 0.6579999999999999, -0.09999999999999987, -0.5939999999999999, 0.863, 0.8250000000000002, -1.825], 0.8633130904183535),
    (156, [1.0190000000000001, 1.145, -0.944, 0.2789999999999999, 0.6579999999999999, -0.09999999999999987, -0.5939999999999999, 0.863, 0.8250000000000002, -1.825], 0.8633130904183535),
    (157, [1.0190000000000001, 1.145, -0.944, 0.2789999999999999, 0.6579999999999999, -0.09999999999999987, -0.5939999999999999, 0.863, 0.8250000000000002, -1.825], 0.8633130904183535),
    (158, [1.0190000000000001, 1.145, -0.944, 0.2789999999999999, 0.6579999999999999, -0.09999999999999987, -0.5939999999999999, 0.863, 0.8250000000000002, -1.825], 0.8633130904183535),
    (159, [1.0190000000000001, 1.145, -0.944, 0.2789999999999999, 0.6579999999999999, -0.09999999999999987, -0.5939999999999999, 0.863, 0.8250000000000002, -1.825], 0.8633130904183535),
    (160, [1.0190000000000001, 1.145, -0.944, 0.2789999999999999, 0.6579999999999999, -0.09999999999999987, -0.5939999999999999, 0.863, 0.8250000000000002, -1.825], 0.8633130904183535),
    (161, [1.0190000000000001, 1.145, -0.944, 0.2789999999999999, 0.6579999999999999, -0.09999999999999987, -0.5939999999999999, 0.863, 0.8250000000000002, -1.825], 0.8633130904183535),
    (162, [1.0190000000000001, 1.145, -0.944, 0.2789999999999999, 0.6579999999999999, -0.09999999999999987, -0.5939999999999999, 0.863, 0.8250000000000002, -1.825], 0.8633130904183535),
    (163, [1.0190000000000001, 1.145, -0.944, 0.2789999999999999, 0.6579999999999999, -0.09999999999999987, -0.5939999999999999, 0.863, 0.8250000000000002, -1.825], 0.8633130904183535),
    (164, [1.0190000000000001, 1.145, -0.944, 0.2789999999999999, 0.6579999999999999, -0.09999999999999987, -0.5939999999999999, 0.863, 0.8250000000000002, -1.825], 0.8633130904183535),
    (165, [1.0190000000000001, 1.145, -0.944, 0.2789999999999999, 0.6579999999999999, -0.09999999999999987, -0.5939999999999999, 0.863, 0.8250000000000002, -1.825], 0.8633130904183535),
    (166, [1.0190000000000001, 1.145, -0.944, 0.2789999999999999, 0.6579999999999999, -0.09999999999999987, -0.5939999999999999, 0.863, 0.8250000000000002, -1.825], 0.8633130904183535),
    (167, [1.0190000000000001, 1.145, -0.944, 0.2789999999999999, 0.6579999999999999, -0.09999999999999987, -0.5939999999999999, 0.863, 0.8250000000000002, -1.825], 0.8633130904183535),
    (168, [1.0190000000000001, 1.145, -0.944, 0.2789999999999999, 0.6579999999999999, -0.09999999999999987, -0.5939999999999999, 0.863, 0.8250000000000002, -1.825], 0.8633130904183535),
    (169, [1.0190000000000001, 1.145, -0.944, 0.2789999999999999, 0.6579999999999999, -0.09999999999999987, -0.5939999999999999, 0.863, 0.8250000000000002, -1.825], 0.8633130904183535),
    (170, [1.0190000000000001, 1.145, -0.944, 0.2789999999999999, 0.6579999999999999, -0.09999999999999987, -0.5939999999999999, 0.863, 0.8250000000000002, -1.825], 0.8633130904183535),
    (171, [1.0190000000000001, 1.145, -0.944, 0.2789999999999999, 0.6579999999999999, -0.09999999999999987, -0.5939999999999999, 0.863, 0.8250000000000002, -1.825], 0.8633130904183535),
    (172, [1.0190000000000001, 1.145, -0.944, 0.2789999999999999, 0.6579999999999999, -0.09999999999999987, -0.5939999999999999, 0.863, 0.8250000000000002, -1.825], 0.8633130904183535),
    (173, [1.0190000000000001, 1.145, -0.944, 0.2789999999999999, 0.6579999999999999, -0.09999999999999987, -0.5939999999999999, 0.863, 0.8250000000000002, -1.825], 0.8633130904183535),
    (174, [1.0190000000000001, 1.145, -0.944, 0.2789999999999999, 0.6579999999999999, -0.09999999999999987, -0.5939999999999999, 0.863, 0.8250000000000002, -1.825], 0.8633130904183535),
    (175, [1.0190000000000001, 1.145, -0.944, 0.2789999999999999, 0.6579999999999999, -0.09999999999999987, -0.5939999999999999, 0.863, 0.8250000000000002, -1.825], 0.8633130904183535),
    (176, [1.0190000000000001, 1.145, -0.944, 0.2789999999999999, 0.6579999999999999, -0.09999999999999987, -0.5939999999999999, 0.863, 0.8250000000000002, -1.825], 0.8633130904183535),
    (177, [1.0190000000000001, 1.145, -0.944, 0.2789999999999999, 0.6579999999999999, -0.09999999999999987, -0.5939999999999999, 0.863, 0.8250000000000002, -1.825], 0.8633130904183535),
    (178, [1.0190000000000001, 1.145, -0.944, 0.2789999999999999, 0.6579999999999999, -0.09999999999999987, -0.5939999999999999, 0.863, 0.8250000000000002, -1.825], 0.8633130904183535),
    (179, [1.0190000000000001, 1.145, -0.944, 0.2789999999999999, 0.6579999999999999, -0.09999999999999987, -0.5939999999999999, 0.863, 0.8250000000000002, -1.825], 0.8633130904183535),
    (180, [1.0190000000000001, 1.145, -0.944, 0.2789999999999999, 0.6579999999999999, -0.09999999999999987, -0.5939999999999999, 0.863, 0.8250000000000002, -1.825], 0.8633130904183535),
    (181, [1.0190000000000001, 1.145, -0.944, 0.2789999999999999, 0.6579999999999999, -0.09999999999999987, -0.5939999999999999, 0.863, 0.8250000000000002, -1.825], 0.8633130904183535),
    (182, [1.0190000000000001, 1.145, -0.944, 0.2789999999999999, 0.6579999999999999, -0.09999999999999987, -0.5939999999999999, 0.863, 0.8250000000000002, -1.825], 0.8633130904183535),
    (183, [1.0190000000000001, 1.145, -0.944, 0.2789999999999999, 0.6579999999999999, -0.09999999999999987, -0.5939999999999999, 0.863, 0.8250000000000002, -1.825], 0.8633130904183535),
    (184, [1.0190000000000001, 1.145, -0.944, 0.2789999999999999, 0.6579999999999999, -0.09999999999999987, -0.5939999999999999, 0.863, 0.8250000000000002, -1.825], 0.8633130904183535),
    (185, [1.0190000000000001, 1.145, -0.944, 0.2789999999999999, 0.6579999999999999, -0.09999999999999987, -0.5939999999999999, 0.863, 0.8250000000000002, -1.825], 0.8633130904183535),
    (186, [1.0190000000000001, 1.145, -0.944, 0.2789999999999999, 0.6579999999999999, -0.09999999999999987, -0.5939999999999999, 0.863, 0.8250000000000002, -1.825], 0.8633130904183535),
    (187, [1.0190000000000001, 1.145, -0.944, 0.2789999999999999, 0.6579999999999999, -0.09999999999999987, -0.5939999999999999, 0.863, 0.8250000000000002, -1.825], 0.8633130904183535),
    (188, [1.0190000000000001, 1.145, -0.944, 0.2789999999999999, 0.6579999999999999, -0.09999999999999987, -0.5939999999999999, 0.863, 0.8250000000000002, -1.825], 0.8633130904183535),
    (189, [1.0190000000000001, 1.145, -0.944, 0.2789999999999999, 0.6579999999999999, -0.09999999999999987, -0.5939999999999999, 0.863, 0.8250000000000002, -1.825], 0.8633130904183535),
    (190, [1.0190000000000001, 1.145, -0.944, 0.2789999999999999, 0.6579999999999999, -0.09999999999999987, -0.5939999999999999, 0.863, 0.8250000000000002, -1.825], 0.8633130904183535),
    (191, [1.0190000000000001, 1.145, -0.944, 0.2789999999999999, 0.6579999999999999, -0.09999999999999987, -0.5939999999999999, 0.863, 0.8250000000000002, -1.825], 0.8633130904183535),
    (192, [1.0190000000000001, 1.145, -0.944, 0.2789999999999999, 0.6579999999999999, -0.09999999999999987, -0.5939999999999999, 0.863, 0.8250000000000002, -1.825], 0.8633130904183535),
    (193, [1.0190000000000001, 1.145, -0.944, 0.2789999999999999, 0.6579999999999999, -0.09999999999999987, -0.5939999999999999, 0.863, 0.8250000000000002, -1.825], 0.8633130904183535),
    (194, [1.0190000000000001, 1.145, -0.944, 0.2789999999999999, 0.6579999999999999, -0.09999999999999987, -0.5939999999999999, 0.863, 0.8250000000000002, -1.825], 0.8633130904183535),
    (195, [1.0190000000000001, 1.145, -0.944, 0.2789999999999999, 0.6579999999999999, -0.09999999999999987, -0.5939999999999999, 0.863, 0.8250000000000002, -1.825], 0.8633130904183535),
    (196, [1.0190000000000001, 1.145, -0.944, 0.2789999999999999, 0.6579999999999999, -0.09999999999999987, -0.5939999999999999, 0.863, 0.8250000000000002, -1.825], 0.8633130904183535),
    (197, [1.0190000000000001, 1.145, -0.944, 0.2789999999999999, 0.6579999999999999, -0.09999999999999987, -0.5939999999999999, 0.863, 0.8250000000000002, -1.825], 0.8633130904183535),
    (198, [1.0190000000000001, 1.145, -0.944, 0.2789999999999999, 0.6579999999999999, -0.09999999999999987, -0.5939999999999999, 0.863, 0.8250000000000002, -1.825], 0.8633130904183535),
    (199, [1.0190000000000001, 1.145, -0.944, 0.2789999999999999, 0.6579999999999999, -0.09999999999999987, -0.5939999999999999, 0.863, 0.8250000000000002, -1.825], 0.8633130904183535),
    (200, [1.0190000000000001, 1.145, -0.944, 0.2789999999999999, 0.6579999999999999, -0.09999999999999987, -0.5939999999999999, 0.863, 0.8250000000000002, -1.825], 0.8633130904183535),
    (201, [1.0190000000000001, 1.145, -0.944, 0.2789999999999999, 0.6579999999999999, -0.09999999999999987, -0.5939999999999999, 0.863, 0.8250000000000002, -1.825], 0.8633130904183535),
    (202, [1.0190000000000001, 1.145, -0.944, 0.2789999999999999, 0.6579999999999999, -0.09999999999999987, -0.5939999999999999, 0.863, 0.8250000000000002, -1.825], 0.8633130904183535),
    (203, [1.0190000000000001, 1.145, -0.944, 0.2789999999999999, 0.6579999999999999, -0.09999999999999987, -0.5939999999999999, 0.863, 0.8250000000000002, -1.825], 0.8633130904183535),
    (204, [1.0190000000000001, 1.145, -0.944, 0.2789999999999999, 0.6579999999999999, -0.09999999999999987, -0.5939999999999999, 0.863, 0.8250000000000002, -1.825], 0.8633130904183535),
    (205, [1.0190000000000001, 1.145, -0.944, 0.2789999999999999, 0.6579999999999999, -0.09999999999999987, -0.5939999999999999, 0.863, 0.8250000000000002, -1.825], 0.8633130904183535),
    (206, [1.0190000000000001, 1.145, -0.944, 0.2789999999999999, 0.6579999999999999, -0.09999999999999987, -0.5939999999999999, 0.863, 0.8250000000000002, -1.825], 0.8633130904183535),
    (207, [1.0190000000000001, 1.145, -0.944, 0.2789999999999999, 0.6579999999999999, -0.09999999999999987, -0.5939999999999999, 0.863, 0.8250000000000002, -1.825], 0.8633130904183535),
    (208, [1.0190000000000001, 1.145, -0.944, 0.2789999999999999, 0.6579999999999999, -0.09999999999999987, -0.5939999999999999, 0.863, 0.8250000000000002, -1.825], 0.8633130904183535),
    (209, [1.0190000000000001, 1.145, -0.944, 0.2789999999999999, 0.6579999999999999, -0.09999999999999987, -0.5939999999999999, 0.863, 0.8250000000000002, -1.825], 0.8633130904183535),
    (210, [1.0190000000000001, 1.145, -0.944, 0.2789999999999999, 0.6579999999999999, -0.09999999999999987, -0.5939999999999999, 0.863, 0.8250000000000002, -1.825], 0.8633130904183535),
    (211, [1.0190000000000001, 1.145, -0.944, 0.2789999999999999, 0.6579999999999999, -0.09999999999999987, -0.5939999999999999, 0.863, 0.8250000000000002, -1.825], 0.8633130904183535),
    (212, [1.0190000000000001, 1.145, -0.944, 0.2789999999999999, 0.6579999999999999, -0.09999999999999987, -0.5939999999999999, 0.863, 0.8250000000000002, -1.825], 0.8633130904183535),
    (213, [1.0190000000000001, 1.145, -0.944, 0.2789999999999999, 0.6579999999999999, -0.09999999999999987, -0.5939999999999999, 0.863, 0.8250000000000002, -1.825], 0.8633130904183535),
    (214, [1.0190000000000001, 1.145, -0.944, 0.2789999999999999, 0.6579999999999999, -0.09999999999999987, -0.5939999999999999, 0.863, 0.8250000000000002, -1.825], 0.8633130904183535),
    (215, [1.0190000000000001, 1.145, -0.944, 0.2789999999999999, 0.6579999999999999, -0.09999999999999987, -0.5939999999999999, 0.863, 0.8250000000000002, -1.825], 0.8633130904183535),
    (216, [1.0190000000000001, 1.145, -0.944, 0.2789999999999999, 0.6579999999999999, -0.09999999999999987, -0.5939999999999999, 0.863, 0.8250000000000002, -1.825], 0.8633130904183535),
    (217, [1.0190000000000001, 1.145, -0.944, 0.2789999999999999, 0.6579999999999999, -0.09999999999999987, -0.5939999999999999, 0.863, 0.8250000000000002, -1.825], 0.8633130904183535),
    (218, [1.0190000000000001, 1.145, -0.944, 0.2789999999999999, 0.6579999999999999, -0.09999999999999987, -0.5939999999999999, 0.863, 0.8250000000000002, -1.825], 0.8633130904183535),
    (219, [1.0190000000000001, 1.145, -0.944, 0.2789999999999999, 0.6579999999999999, -0.09999999999999987, -0.5939999999999999, 0.863, 0.8250000000000002, -1.825], 0.8633130904183535),
    (220, [1.0190000000000001, 1.145, -0.944, 0.2789999999999999, 0.6579999999999999, -0.09999999999999987, -0.5939999999999999, 0.863, 0.8250000000000002, -1.825], 0.8633130904183535),
    (221, [1.0190000000000001, 1.145, -0.944, 0.2789999999999999, 0.6579999999999999, -0.09999999999999987, -0.5939999999999999, 0.863, 0.8250000000000002, -1.825], 0.8633130904183535),
    (222, [1.0190000000000001, 1.145, -0.944, 0.2789999999999999, 0.6579999999999999, -0.09999999999999987, -0.5939999999999999, 0.863, 0.8250000000000002, -1.825], 0.8633130904183535),
    (223, [1.0190000000000001, 1.145, -0.944, 0.2789999999999999, 0.6579999999999999, -0.09999999999999987, -0.5939999999999999, 0.863, 0.8250000000000002, -1.825], 0.8633130904183535),
    (224, [1.0190000000000001, 1.145, -0.944, 0.2789999999999999, 0.6579999999999999, -0.09999999999999987, -0.5939999999999999, 0.863, 0.8250000000000002, -1.825], 0.8633130904183535),
    (225, [1.0190000000000001, 1.145, -0.944, 0.2789999999999999, 0.6579999999999999, -0.09999999999999987, -0.5939999999999999, 0.863, 0.8250000000000002, -1.825], 0.8633130904183535),
    (226, [1.0190000000000001, 1.145, -0.944, 0.2789999999999999, 0.6579999999999999, -0.09999999999999987, -0.5939999999999999, 0.863, 0.8250000000000002, -1.825], 0.8633130904183535),
    (227, [1.0190000000000001, 1.145, -0.944, 0.2789999999999999, 0.6579999999999999, -0.09999999999999987, -0.5939999999999999, 0.863, 0.8250000000000002, -1.825], 0.8633130904183535),
    (228, [1.0190000000000001, 1.145, -0.944, 0.2789999999999999, 0.6579999999999999, -0.09999999999999987, -0.5939999999999999, 0.863, 0.8250000000000002, -1.825], 0.8633130904183535),
    (229, [1.0190000000000001, 1.145, -0.944, 0.2789999999999999, 0.6579999999999999, -0.09999999999999987, -0.5939999999999999, 0.863, 0.8250000000000002, -1.825], 0.8633130904183535),
    (230, [1.0190000000000001, 1.145, -0.944, 0.2789999999999999, 0.6579999999999999, -0.09999999999999987, -0.5939999999999999, 0.863, 0.8250000000000002, -1.825], 0.8633130904183535),
    (231, [1.0190000000000001, 1.145, -0.944, 0.2789999999999999, 0.6579999999999999, -0.09999999999999987, -0.5939999999999999, 0.863, 0.8250000000000002, -1.825], 0.8633130904183535),
    (232, [1.0190000000000001, 1.145, -0.944, 0.2789999999999999, 0.6579999999999999, -0.09999999999999987, -0.5939999999999999, 0.863, 0.8250000000000002, -1.825], 0.8633130904183535),
    (233, [1.0190000000000001, 1.145, -0.944, 0.2789999999999999, 0.6579999999999999, -0.09999999999999987, -0.5939999999999999, 0.863, 0.8250000000000002, -1.825], 0.8633130904183535),
    (234, [1.0190000000000001, 1.145, -0.944, 0.2789999999999999, 0.6579999999999999, -0.09999999999999987, -0.5939999999999999, 0.863, 0.8250000000000002, -1.825], 0.8633130904183535),
    (235, [1.0190000000000001, 1.145, -0.944, 0.2789999999999999, 0.6579999999999999, -0.09999999999999987, -0.5939999999999999, 0.863, 0.8250000000000002, -1.825], 0.8633130904183535),
    (236, [1.0190000000000001, 1.145, -0.944, 0.2789999999999999, 0.6579999999999999, -0.09999999999999987, -0.5939999999999999, 0.863, 0.8250000000000002, -1.825], 0.8633130904183535),
    (237, [1.0190000000000001, 1.145, -0.944, 0.2789999999999999, 0.6579999999999999, -0.09999999999999987, -0.5939999999999999, 0.863, 0.8250000000000002, -1.825], 0.8633130904183535),
    (238, [1.0190000000000001, 1.145, -0.944, 0.2789999999999999, 0.6579999999999999, -0.09999999999999987, -0.5939999999999999, 0.863, 0.8250000000000002, -1.825], 0.8633130904183535),
    (239, [1.0190000000000001, 1.145, -0.944, 0.2789999999999999, 0.6579999999999999, -0.09999999999999987, -0.5939999999999999, 0.863, 0.8250000000000002, -1.825], 0.8633130904183535),
    (240, [1.0190000000000001, 1.145, -0.944, 0.2789999999999999, 0.6579999999999999, -0.09999999999999987, -0.5939999999999999, 0.863, 0.8250000000000002, -1.825], 0.8633130904183535),
    (241, [1.0190000000000001, 1.145, -0.944, 0.2789999999999999, 0.6579999999999999, -0.09999999999999987, -0.5939999999999999, 0.863, 0.8250000000000002, -1.825], 0.8633130904183535),
    (242, [1.0190000000000001, 1.145, -0.944, 0.2789999999999999, 0.6579999999999999, -0.09999999999999987, -0.5939999999999999, 0.863, 0.8250000000000002, -1.825], 0.8633130904183535),
    (243, [1.0190000000000001, 1.145, -0.944, 0.2789999999999999, 0.6579999999999999, -0.09999999999999987, -0.5939999999999999, 0.863, 0.8250000000000002, -1.825], 0.8633130904183535),
    (244, [1.0190000000000001, 1.145, -0.944, 0.2789999999999999, 0.6579999999999999, -0.09999999999999987, -0.5939999999999999, 0.863, 0.8250000000000002, -1.825], 0.8633130904183535),
    (245, [1.0190000000000001, 1.145, -0.944, 0.2789999999999999, 0.6579999999999999, -0.09999999999999987, -0.5939999999999999, 0.863, 0.8250000000000002, -1.825], 0.8633130904183535),
    (246, [1.0190000000000001, 1.145, -0.944, 0.2789999999999999, 0.6579999999999999, -0.09999999999999987, -0.5939999999999999, 0.863, 0.8250000000000002, -1.825], 0.8633130904183535),
    (247, [1.0190000000000001, 1.145, -0.944, 0.2789999999999999, 0.6579999999999999, -0.09999999999999987, -0.5939999999999999, 0.863, 0.8250000000000002, -1.825], 0.8633130904183535),
    (248, [1.0190000000000001, 1.145, -0.944, 0.2789999999999999, 0.6579999999999999, -0.09999999999999987, -0.5939999999999999, 0.863, 0.8250000000000002, -1.825], 0.8633130904183535),
    (249, [1.0190000000000001, 1.145, -0.944, 0.2789999999999999, 0.6579999999999999, -0.09999999999999987, -0.5939999999999999, 0.863, 0.8250000000000002, -1.825], 0.8633130904183535),
    (250, [1.0190000000000001, 1.145, -0.944, 0.2789999999999999, 0.6579999999999999, -0.09999999999999987, -0.5939999999999999, 0.863, 0.8250000000000002, -1.825], 0.8633130904183535),
    (251, [1.0190000000000001, 1.145, -0.944, 0.2789999999999999, 0.6579999999999999, -0.09999999999999987, -0.5939999999999999, 0.863, 0.8250000000000002, -1.825], 0.8633130904183535),
    (252, [1.0190000000000001, 1.145, -0.944, 0.2789999999999999, 0.6579999999999999, -0.09999999999999987, -0.5939999999999999, 0.863, 0.8250000000000002, -1.825], 0.8633130904183535),
    (253, [1.0190000000000001, 1.145, -0.944, 0.2789999999999999, 0.6579999999999999, -0.09999999999999987, -0.5939999999999999, 0.863, 0.8250000000000002, -1.825], 0.8633130904183535),
    (254, [1.0190000000000001, 1.145, -0.944, 0.2789999999999999, 0.6579999999999999, -0.09999999999999987, -0.5939999999999999, 0.863, 0.8250000000000002, -1.825], 0.8633130904183535),
    (255, [1.0190000000000001, 1.145, -0.944, 0.2789999999999999, 0.6579999999999999, -0.09999999999999987, -0.5939999999999999, 0.863, 0.8250000000000002, -1.825], 0.8633130904183535),
    (256, [1.0190000000000001, 1.145, -0.944, 0.2789999999999999, 0.6579999999999999, -0.09999999999999987, -0.5939999999999999, 0.863, 0.8250000000000002, -1.825], 0.8633130904183535),
    (257, [1.0190000000000001, 1.145, -0.944, 0.2789999999999999, 0.6579999999999999, -0.09999999999999987, -0.5939999999999999, 0.863, 0.8250000000000002, -1.825], 0.8633130904183535),
    (258, [1.0190000000000001, 1.145, -0.944, 0.2789999999999999, 0.6579999999999999, -0.09999999999999987, -0.5939999999999999, 0.863, 0.8250000000000002, -1.825], 0.8633130904183535),
    (259, [1.0190000000000001, 1.145, -0.944, 0.2789999999999999, 0.6579999999999999, -0.09999999999999987, -0.5939999999999999, 0.863, 0.8250000000000002, -1.825], 0.8633130904183535),
    (260, [1.0190000000000001, 1.145, -0.944, 0.2789999999999999, 0.6579999999999999, -0.09999999999999987, -0.5939999999999999, 0.863, 0.8250000000000002, -1.825], 0.8633130904183535),
    (261, [1.0190000000000001, 1.145, -0.944, 0.2789999999999999, 0.6579999999999999, -0.09999999999999987, -0.5939999999999999, 0.863, 0.8250000000000002, -1.825], 0.8633130904183535),
    (262, [1.0190000000000001, 1.145, -0.944, 0.2789999999999999, 0.6579999999999999, -0.09999999999999987, -0.5939999999999999, 0.863, 0.8250000000000002, -1.825], 0.8633130904183535),
    (263, [1.0190000000000001, 1.145, -0.944, 0.2789999999999999, 0.6579999999999999, -0.09999999999999987, -0.5939999999999999, 0.863, 0.8250000000000002, -1.825], 0.8633130904183535),
    (264, [1.0190000000000001, 1.145, -0.944, 0.2789999999999999, 0.6579999999999999, -0.09999999999999987, -0.5939999999999999, 0.863, 0.8250000000000002, -1.825], 0.8633130904183535),
    (265, [1.0190000000000001, 1.145, -0.944, 0.2789999999999999, 0.6579999999999999, -0.09999999999999987, -0.5939999999999999, 0.863, 0.8250000000000002, -1.825], 0.8633130904183535),
    (266, [1.0190000000000001, 1.145, -0.944, 0.2789999999999999, 0.6579999999999999, -0.09999999999999987, -0.5939999999999999, 0.863, 0.8250000000000002, -1.825], 0.8633130904183535),
    (267, [1.0190000000000001, 1.145, -0.944, 0.2789999999999999, 0.6579999999999999, -0.09999999999999987, -0.5939999999999999, 0.863, 0.8250000000000002, -1.825], 0.8633130904183535),
    (268, [1.0190000000000001, 1.145, -0.944, 0.2789999999999999, 0.6579999999999999, -0.09999999999999987, -0.5939999999999999, 0.863, 0.8250000000000002, -1.825], 0.8633130904183535),
    (269, [1.0190000000000001, 1.145, -0.944, 0.2789999999999999, 0.6579999999999999, -0.09999999999999987, -0.5939999999999999, 0.863, 0.8250000000000002, -1.825], 0.8633130904183535),
    (270, [1.0190000000000001, 1.145, -0.944, 0.2789999999999999, 0.6579999999999999, -0.09999999999999987, -0.5939999999999999, 0.863, 0.8250000000000002, -1.825], 0.8633130904183535),
    (271, [1.0190000000000001, 1.145, -0.944, 0.2789999999999999, 0.6579999999999999, -0.09999999999999987, -0.5939999999999999, 0.863, 0.8250000000000002, -1.825], 0.8633130904183535),
    (272, [1.0190000000000001, 1.145, -0.944, 0.2789999999999999, 0.6579999999999999, -0.09999999999999987, -0.5939999999999999, 0.863, 0.8250000000000002, -1.825], 0.8633130904183535),
    (273, [1.0190000000000001, 1.145, -0.944, 0.2789999999999999, 0.6579999999999999, -0.09999999999999987, -0.5939999999999999, 0.863, 0.8250000000000002, -1.825], 0.8633130904183535),
    (274, [1.0190000000000001, 1.145, -0.944, 0.2789999999999999, 0.6579999999999999, -0.09999999999999987, -0.5939999999999999, 0.863, 0.8250000000000002, -1.825], 0.8633130904183535),
    (275, [1.0190000000000001, 1.145, -0.944, 0.2789999999999999, 0.6579999999999999, -0.09999999999999987, -0.5939999999999999, 0.863, 0.8250000000000002, -1.825], 0.8633130904183535),
    (276, [1.0190000000000001, 1.145, -0.944, 0.2789999999999999, 0.6579999999999999, -0.09999999999999987, -0.5939999999999999, 0.863, 0.8250000000000002, -1.825], 0.8633130904183535),
    (277, [1.0190000000000001, 1.145, -0.944, 0.2789999999999999, 0.6579999999999999, -0.09999999999999987, -0.5939999999999999, 0.863, 0.8250000000000002, -1.825], 0.8633130904183535),
    (278, [1.0190000000000001, 1.145, -0.944, 0.2789999999999999, 0.6579999999999999, -0.09999999999999987, -0.5939999999999999, 0.863, 0.8250000000000002, -1.825], 0.8633130904183535),
    (279, [1.0190000000000001, 1.145, -0.944, 0.2789999999999999, 0.6579999999999999, -0.09999999999999987, -0.5939999999999999, 0.863, 0.8250000000000002, -1.825], 0.8633130904183535),
    (280, [1.0190000000000001, 1.145, -0.944, 0.2789999999999999, 0.6579999999999999, -0.09999999999999987, -0.5939999999999999, 0.863, 0.8250000000000002, -1.825], 0.8633130904183535),
    (281, [1.0190000000000001, 1.145, -0.944, 0.2789999999999999, 0.6579999999999999, -0.09999999999999987, -0.5939999999999999, 0.863, 0.8250000000000002, -1.825], 0.8633130904183535),
    (282, [1.0190000000000001, 1.145, -0.944, 0.2789999999999999, 0.6579999999999999, -0.09999999999999987, -0.5939999999999999, 0.863, 0.8250000000000002, -1.825], 0.8633130904183535),
    (283, [1.0190000000000001, 1.145, -0.944, 0.2789999999999999, 0.6579999999999999, -0.09999999999999987, -0.5939999999999999, 0.863, 0.8250000000000002, -1.825], 0.8633130904183535),
    (284, [1.0190000000000001, 1.145, -0.944, 0.2789999999999999, 0.6579999999999999, -0.09999999999999987, -0.5939999999999999, 0.863, 0.8250000000000002, -1.825], 0.8633130904183535),
    (285, [1.0190000000000001, 1.145, -0.944, 0.2789999999999999, 0.6579999999999999, -0.09999999999999987, -0.5939999999999999, 0.863, 0.8250000000000002, -1.825], 0.8633130904183535),
    (286, [1.0190000000000001, 1.145, -0.944, 0.2789999999999999, 0.6579999999999999, -0.09999999999999987, -0.5939999999999999, 0.863, 0.8250000000000002, -1.825], 0.8633130904183535),
    (287, [1.0190000000000001, 1.145, -0.944, 0.2789999999999999, 0.6579999999999999, -0.09999999999999987, -0.5939999999999999, 0.863, 0.8250000000000002, -1.825], 0.8633130904183535),
    (288, [1.0190000000000001, 1.145, -0.944, 0.2789999999999999, 0.6579999999999999, -0.09999999999999987, -0.5939999999999999, 0.863, 0.8250000000000002, -1.825], 0.8633130904183535),
    (289, [1.0190000000000001, 1.145, -0.944, 0.2789999999999999, 0.6579999999999999, -0.09999999999999987, -0.5939999999999999, 0.863, 0.8250000000000002, -1.825], 0.8633130904183535),
    (290, [1.0190000000000001, 1.145, -0.944, 0.2789999999999999, 0.6579999999999999, -0.09999999999999987, -0.5939999999999999, 0.863, 0.8250000000000002, -1.825], 0.8633130904183535),
    (291, [1.0190000000000001, 1.145, -0.944, 0.2789999999999999, 0.6579999999999999, -0.09999999999999987, -0.5939999999999999, 0.863, 0.8250000000000002, -1.825], 0.8633130904183535),
    (292, [1.0190000000000001, 1.145, -0.944, 0.2789999999999999, 0.6579999999999999, -0.09999999999999987, -0.5939999999999999, 0.863, 0.8250000000000002, -1.825], 0.8633130904183535),
    (293, [1.0190000000000001, 1.145, -0.944, 0.2789999999999999, 0.6579999999999999, -0.09999999999999987, -0.5939999999999999, 0.863, 0.8250000000000002, -1.825], 0.8633130904183535),
    (294, [1.0190000000000001, 1.145, -0.944, 0.2789999999999999, 0.6579999999999999, -0.09999999999999987, -0.5939999999999999, 0.863, 0.8250000000000002, -1.825], 0.8633130904183535),
    (295, [1.0190000000000001, 1.145, -0.944, 0.2789999999999999, 0.6579999999999999, -0.09999999999999987, -0.5939999999999999, 0.863, 0.8250000000000002, -1.825], 0.8633130904183535),
    (296, [1.0190000000000001, 1.145, -0.944, 0.2789999999999999, 0.6579999999999999, -0.09999999999999987, -0.5939999999999999, 0.863, 0.8250000000000002, -1.825], 0.8633130904183535),
    (297, [1.0190000000000001, 1.145, -0.944, 0.2789999999999999, 0.6579999999999999, -0.09999999999999987, -0.5939999999999999, 0.863, 0.8250000000000002, -1.825], 0.8633130904183535),
    (298, [1.0190000000000001, 1.145, -0.944, 0.2789999999999999, 0.6579999999999999, -0.09999999999999987, -0.5939999999999999, 0.863, 0.8250000000000002, -1.825], 0.8633130904183535),
    (299, [1.0190000000000001, 1.145, -0.944, 0.2789999999999999, 0.6579999999999999, -0.09999999999999987, -0.5939999999999999, 0.863, 0.8250000000000002, -1.825], 0.8633130904183535),
]

