ranges of every chromosome : (-2, 2)
    selection method is: TournamentSelection
    crossover method is: UniformCrossover
    pc: The probability of crossover: 0.850000
    pe: Gene exchange probability: 0.500000
    mutation method is: FlipBitBigMutation
    pm: The probability of mutation: 0.100000
    pbm: The probability of big mutation: 0.500000
    alpha: intensive factor: 0.800000
best_fit = [
    (0, [-0.8859999999999999, 1.1870000000000003, -0.5860000000000001, -0.139, -0.679, -0.9550000000000001, -1.089, 1.048, 0.5990000000000002, -0.403], 0.8527867746288799),
    (1, [0.7920000000000003, 1.0979999999999999, -0.5700000000000001, -0.7070000000000001, 1.5420000000000003, -1.079, 1.593, -0.2749999999999999, 1.613, 0.17700000000000005], 0.862914979757085),
    (2, [0.7920000000000003, 1.0979999999999999, -0.5700000000000001, -0.7070000000000001, 1.5420000000000003, -1.079, 1.593, -0.2749999999999999, 1.613, 0.17700000000000005], 0.862914979757085),
    (3, [0.9889999999999999, 1.13, -1.2309999999999999, 1.415, -0.601, 0.907, -1.309, -1.435, 0.879, 0.5830000000000002], 0.8631781376518219),
    (4, [0.9889999999999999, 1.13, -1.2309999999999999, 1.415, -0.601, 0.907, -1.309, -1.435, 0.879, 0.5830000000000002], 0.8631781376518219),
    (5, [0.9889999999999999, 1.13, -1.2309999999999999, 1.415, -0.601, 0.907, -1.309, -1.435, 0.879, 0.5830000000000002], 0.8631781376518219),
    (6, [0.9889999999999999, 1.13, -1.2309999999999999, 1.415, -0.601, 0.907, -1.309, -1.435, 0.879, 0.5830000000000002], 0.8631781376518219),
    (7, [0.9889999999999999, 1.13, -1.2309999999999999, 1.415, -0.601, 0.907, -1.309, -1.435, 0.879, 0.5830000000000002], 0.8631781376518219),
    (8, [0.9889999999999999, 1.13, -1.2309999999999999, 1.415, -0.601, 0.907, -1.309, -1.435, 0.879, 0.5830000000000002], 0.8631781376518219),
    (9, [0.9889999999999999, 1.13, -1.2309999999999999, 1.415, -0.601, 0.907, -1.309, -1.435, 0.879, 0.5830000000000002], 0.8631781376518219),
    (10, [0.9889999999999999, 1.13, -1.2309999999999999, 1.415, -0.601, 0.907, -1.309, -1.435, 0.879, 0.5830000000000002], 0.8631781376518219),
    (11, [0.9889999999999999, 1.13, -1.2309999999999999, 1.415, -0.601, 0.907, -1.309, -1.435, 0.879, 0.5830000000000002], 0.8631781376518219),
    (12, [0.9889999999999999, 1.13, -1.2309999999999999, 1.415, -0.601, 0.907, -1.309, -1.435, 0.879, 0.5830000000000002], 0.8631781376518219),
    (13, [0.9889999999999999, 1.13, -1.2309999999999999, 1.415, -0.601, 0.907, -1.309, -1.435, 0.879, 0.5830000000000002], 0.8631781376518219),
    (14, [0.9889999999999999, 1.13, -1.2309999999999999, 1.415, -0.601, 0.907, -1.309, -1.435, 0.879, 0.5830000000000002], 0.8631781376518219),
    (15, [0.9889999999999999, 1.13, -1.2309999999999999, 1.415, -0.601, 0.907, -1.309, -1.435, 0.879, 0.5830000000000002], 0.8631781376518219),
    (16, [0.9889999999999999, 1.13, -1.2309999999999999, 1.415, -0.601, 0.907, -1.309, -1.435, 0.879, 0.5830000000000002], 0.8631781376518219),
    (17, [0.9889999999999999, 1.13, -1.2309999999999999, 1.415, -0.601, 0.907, -1.309, -1.435, 0.879, 0.5830000000000002], 0.8631781376518219),
    (18, [0.9889999999999999, 1.13, -1.2309999999999999, 1.415, -0.601, 0.907, -1.309, -1.435, 0.879, 0.5830000000000002], 0.8631781376518219),
    (19, [0.9889999999999999, 1.13, -1.2309999999999999, 1.415, -0.601, 0.907, -1.309, -1.435, 0.879, 0.5830000000000002], 0.8631781376518219),
    (20, [0.9889999999999999, 1.13, -1.2309999999999999, 1.415, -0.601, 0.907, -1.309, -1.435, 0.879, 0.5830000000000002], 0.8631781376518219),
    (21, [0.9889999999999999, 1.13, -1.2309999999999999, 1.415, -0.601, 0.907, -1.309, -1.435, 0.879, 0.5830000000000002], 0.8631781376518219),
    (22, [0.9889999999999999, 1.13, -1.2309999999999999, 1.415, -0.601, 0.907, -1.309, -1.435, 0.879, 0.5830000000000002], 0.8631781376518219),
    (23, [0.9889999999999999, 1.13, -1.2309999999999999, 1.415, -0.601, 0.907, -1.309, -1.435, 0.879, 0.5830000000000002], 0.8631781376518219),
    (24, [0.7829999999999999, 1.097, 0.6230000000000002, -0.704, 0.4910000000000001, -0.8320000000000001, -0.7349999999999999, -0.9730000000000001, -1.229, -1.459], 0.873178137651822),
    (25, [0.7829999999999999, 1.097, 0.6230000000000002, -0.704, 0.4910000000000001, -0.8320000000000001, -0.7349999999999999, -0.9730000000000001, -1.229, -1.459], 0.873178137651822),
    (26, [0.7829999999999999, 1.097, 0.6230000000000002, -0.704, 0.4910000000000001, -0.8320000000000001, -0.7349999999999999, -0.9730000000000001, -1.229, -1.459], 0.873178137651822),
    (27, [0.7829999999999999, 1.097, 0.6230000000000002, -0.704, 0.4910000000000001, -0.8320000000000001, -0.7349999999999999, -0.9730000000000001, -1.229, -1.459], 0.873178137651822),
    (28, [0.7829999999999999, 1.097, 0.6230000000000002, -0.704, 0.4910000000000001, -0.8320000000000001, -0.7349999999999999, -0.9730000000000001, -1.229, -1.459], 0.873178137651822),
    (29, [0.7829999999999999, 1.097, 0.6230000000000002, -0.704, 0.4910000000000001, -0.8320000000000001, -0.7349999999999999, -0.9730000000000001, -1.229, -1.459], 0.873178137651822),
    (30, [0.7829999999999999, 1.097, 0.6230000000000002, -0.704, 0.4910000000000001, -0.8320000000000001, -0.7349999999999999, -0.9730000000000001, -1.229, -1.459], 0.873178137651822),
    (31, [0.7829999999999999, 1.097, 0.6230000000000002, -0.704, 0.4910000000000001, -0.8320000000000001, -0.7349999999999999, -0.9730000000000001, -1.229, -1.459], 0.873178137651822),
    (32, [0.7829999999999999, 1.097, 0.6230000000000002, -0.704, 0.4910000000000001, -0.8320000000000001, -0.7349999999999999, -0.9730000000000001, -1.229, -1.459], 0.873178137651822),
    (33, [0.7829999999999999, 1.097, 0.6230000000000002, -0.704, 0.4910000000000001, -0.8320000000000001, -0.7349999999999999, -0.9730000000000001, -1.229, -1.459], 0.873178137651822),
    (34, [0.7829999999999999, 1.097, 0.6230000000000002, -0.704, 0.4910000000000001, -0.8320000000000001, -0.7349999999999999, -0.9730000000000001, -1.229, -1.459], 0.873178137651822),
    (35, [0.7829999999999999, 1.097, 0.6230000000000002, -0.704, 0.4910000000000001, -0.8320000000000001, -0.7349999999999999, -0.9730000000000001, -1.229, -1.459], 0.873178137651822),
    (36, [0.7829999999999999, 1.097, 0.6230000000000002, -0.704, 0.4910000000000001, -0.8320000000000001, -0.7349999999999999, -0.9730000000000001, -1.229, -1.459], 0.873178137651822),
    (37, [0.7829999999999999, 1.097, 0.6230000000000002, -0.704, 0.4910000000000001, -0.8320000000000001, -0.7349999999999999, -0.9730000000000001, -1.229, -1.459], 0.873178137651822),
    (38, [0.7829999999999999, 1.097, 0.6230000000000002, -0.704, 0.4910000000000001, -0.8320000000000001, -0.7349999999999999, -0.9730000000000001, -1.229, -1.459], 0.873178137651822),
    (39, [0.7829999999999999, 1.097, 0.6230000000000002, -0.704, 0.4910000000000001, -0.8320000000000001, -0.7349999999999999, -0.9730000000000001, -1.229, -1.459], 0.873178137651822),
    (40, [0.7829999999999999, 1.097, 0.6230000000000002, -0.704, 0.4910000000000001, -0.8320000000000001, -0.7349999999999999, -0.9730000000000001, -1.229, -1.459], 0.873178137651822),
    (41, [0.7829999999999999, 1.097, 0.6230000000000002, -0.704, 0.4910000000000001, -0.8320000000000001, -0.7349999999999999, -0.9730000000000001, -1.229, -1.459], 0.873178137651822),
    (42, [0.7829999999999999, 1.097, 0.6230000000000002, -0.704, 0.4910000000000001, -0.8320000000000001, -0.7349999999999999, -0.9730000000000001, -1.229, -1.459], 0.873178137651822),
    (43, [0.7829999999999999, 1.097, 0.6230000000000002, -0.704, 0.4910000000000001, -0.8320000000000001, -0.7349999999999999, -0.9730000000000001, -1.229, -1.459], 0.873178137651822),
    (44, [0.7829999999999999, 1.097, 0.6230000000000002, -0.704, 0.4910000000000001, -0.8320000000000001, -0.7349999999999999, -0.9730000000000001, -1.229, -1.459], 0.873178137651822),
    (45, [0.7829999999999999, 1.097, 0.6230000000000002, -0.704, 0.4910000000000001, -0.8320000000000001, -0.7349999999999999, -0.9730000000000001, -1.229, -1.459], 0.873178137651822),
    (46, [0.7829999999999999, 1.097, 0.6230000000000002, -0.704, 0.4910000000000001, -0.8320000000000001, -0.7349999999999999, -0.9730000000000001, -1.229, -1.459], 0.873178137651822),
    (47, [0.7829999999999999, 1.097, 0.6230000000000002, -0.704, 0.4910000000000001, -0.8320000000000001, -0.7349999999999999, -0.9730000000000001, -1.229, -1.459], 0.873178137651822),
    (48, [0.7829999999999999, 1.097, 0.6230000000000002, -0.704, 0.4910000000000001, -0.8320000000000001, -0.7349999999999999, -0.9730000000000001, -1.229, -1.459], 0.873178137651822),
    (49, [0.7829999999999999, 1.097, 0.6230000000000002, -0.704, 0.4910000000000001, -0.8320000000000001, -0.7349999999999999, -0.9730000000000001, -1.229, -1.459], 0.873178137651822),
    (50, [0.7829999999999999, 1.097, 0.6230000000000002, -0.704, 0.4910000000000001, -0.8320000000000001, -0.7349999999999999, -0.9730000000000001, -1.229, -1.459], 0.873178137651822),
    (51, [0.7829999999999999, 1.097, 0.6230000000000002, -0.704, 0.4910000000000001, -0.8320000000000001, -0.7349999999999999, -0.9730000000000001, -1.229, -1.459], 0.873178137651822),
    (52, [0.7829999999999999, 1.097, 0.6230000000000002, -0.704, 0.4910000000000001, -0.8320000000000001, -0.7349999999999999, -0.9730000000000001, -1.229, -1.459], 0.873178137651822),
    (53, [0.7829999999999999, 1.097, 0.6230000000000002, -0.704, 0.4910000000000001, -0.8320000000000001, -0.7349999999999999, -0.9730000000000001, -1.229, -1.459], 0.873178137651822),
    (54, [0.7829999999999999, 1.097, 0.6230000000000002, -0.704, 0.4910000000000001, -0.8320000000000001, -0.7349999999999999, -0.9730000000000001, -1.229, -1.459], 0.873178137651822),
]

