ranges of every chromosome : (-1, 1)
    selection method is: TournamentSelection
    crossover method is: UniformCrossover
    pc: The probability of crossover: 0.700000
    pe: Gene exchange probability: 0.500000
    mutation method is: FlipBitBigMutation
    pm: The probability of mutation: 0.300000
    pbm: The probability of big mutation: 0.700000
    alpha: intensive factor: 0.600000
best_fit = [
    (0, [0.647, 0.266, -0.10599999999999998, 0.383, 0.9990000000000001, 0.31600000000000006, 0.8740000000000001, 0.764, 0.9630000000000001, -0.237], 0.8627935222672065),
    (1, [0.647, 0.266, -0.10599999999999998, 0.383, 0.9990000000000001, 0.31600000000000006, 0.8740000000000001, 0.764, 0.9630000000000001, -0.237], 0.8627935222672065),
    (2, [0.647, 0.266, -0.10599999999999998, 0.383, 0.9990000000000001, 0.31600000000000006, 0.8740000000000001, 0.764, 0.9630000000000001, -0.237], 0.8627935222672065),
    (3, [0.647, 0.266, -0.10599999999999998, 0.383, 0.9990000000000001, 0.31600000000000006, 0.8740000000000001, 0.764, 0.9630000000000001, -0.237], 0.8627935222672065),
    (4, [0.647, 0.266, -0.10599999999999998, 0.383, 0.9990000000000001, 0.31600000000000006, 0.8740000000000001, 0.764, 0.9630000000000001, -0.237], 0.8627935222672065),
    (5, [0.647, 0.266, -0.10599999999999998, 0.383, 0.9990000000000001, 0.31600000000000006, 0.8740000000000001, 0.764, 0.9630000000000001, -0.237], 0.8627935222672065),
    (6, [0.647, 0.266, -0.10599999999999998, 0.383, 0.9990000000000001, 0.31600000000000006, 0.8740000000000001, 0.764, 0.9630000000000001, -0.237], 0.8627935222672065),
    (7, [0.647, 0.266, -0.10599999999999998, 0.383, 0.9990000000000001, 0.31600000000000006, 0.8740000000000001, 0.764, 0.9630000000000001, -0.237], 0.8627935222672065),
    (8, [0.647, 0.266, -0.10599999999999998, 0.383, 0.9990000000000001, 0.31600000000000006, 0.8740000000000001, 0.764, 0.9630000000000001, -0.237], 0.8627935222672065),
    (9, [0.647, 0.266, -0.10599999999999998, 0.383, 0.9990000000000001, 0.31600000000000006, 0.8740000000000001, 0.764, 0.9630000000000001, -0.237], 0.8627935222672065),
    (10, [0.647, 0.266, -0.10599999999999998, 0.383, 0.9990000000000001, 0.31600000000000006, 0.8740000000000001, 0.764, 0.9630000000000001, -0.237], 0.8627935222672065),
    (11, [0.647, 0.266, -0.10599999999999998, 0.383, 0.9990000000000001, 0.31600000000000006, 0.8740000000000001, 0.764, 0.9630000000000001, -0.237], 0.8627935222672065),
    (12, [0.647, 0.266, -0.10599999999999998, 0.383, 0.9990000000000001, 0.31600000000000006, 0.8740000000000001, 0.764, 0.9630000000000001, -0.237], 0.8627935222672065),
    (13, [0.647, 0.266, -0.10599999999999998, 0.383, 0.9990000000000001, 0.31600000000000006, 0.8740000000000001, 0.764, 0.9630000000000001, -0.237], 0.8627935222672065),
    (14, [0.647, 0.266, -0.10599999999999998, 0.383, 0.9990000000000001, 0.31600000000000006, 0.8740000000000001, 0.764, 0.9630000000000001, -0.237], 0.8627935222672065),
    (15, [0.647, 0.266, -0.10599999999999998, 0.383, 0.9990000000000001, 0.31600000000000006, 0.8740000000000001, 0.764, 0.9630000000000001, -0.237], 0.8627935222672065),
    (16, [0.647, 0.266, -0.10599999999999998, 0.383, 0.9990000000000001, 0.31600000000000006, 0.8740000000000001, 0.764, 0.9630000000000001, -0.237], 0.8627935222672065),
    (17, [0.647, 0.266, -0.10599999999999998, 0.383, 0.9990000000000001, 0.31600000000000006, 0.8740000000000001, 0.764, 0.9630000000000001, -0.237], 0.8627935222672065),
    (18, [0.647, 0.266, -0.10599999999999998, 0.383, 0.9990000000000001, 0.31600000000000006, 0.8740000000000001, 0.764, 0.9630000000000001, -0.237], 0.8627935222672065),
    (19, [0.647, 0.266, -0.10599999999999998, 0.383, 0.9990000000000001, 0.31600000000000006, 0.8740000000000001, 0.764, 0.9630000000000001, -0.237], 0.8627935222672065),
    (20, [0.647, 0.266, -0.10599999999999998, 0.383, 0.9990000000000001, 0.31600000000000006, 0.8740000000000001, 0.764, 0.9630000000000001, -0.237], 0.8627935222672065),
    (21, [0.647, 0.266, -0.10599999999999998, 0.383, 0.9990000000000001, 0.31600000000000006, 0.8740000000000001, 0.764, 0.9630000000000001, -0.237], 0.8627935222672065),
    (22, [0.647, 0.266, -0.10599999999999998, 0.383, 0.9990000000000001, 0.31600000000000006, 0.8740000000000001, 0.764, 0.9630000000000001, -0.237], 0.8627935222672065),
    (23, [0.647, 0.266, -0.10599999999999998, 0.383, 0.9990000000000001, 0.31600000000000006, 0.8740000000000001, 0.764, 0.9630000000000001, -0.237], 0.8627935222672065),
    (24, [0.647, 0.266, -0.10599999999999998, 0.383, 0.9990000000000001, 0.31600000000000006, 0.8740000000000001, 0.764, 0.9630000000000001, -0.237], 0.8627935222672065),
    (25, [0.647, 0.266, -0.10599999999999998, 0.383, 0.9990000000000001, 0.31600000000000006, 0.8740000000000001, 0.764, 0.9630000000000001, -0.237], 0.8627935222672065),
    (26, [0.647, 0.266, -0.10599999999999998, 0.383, 0.9990000000000001, 0.31600000000000006, 0.8740000000000001, 0.764, 0.9630000000000001, -0.237], 0.8627935222672065),
    (27, [0.647, 0.266, -0.10599999999999998, 0.383, 0.9990000000000001, 0.31600000000000006, 0.8740000000000001, 0.764, 0.9630000000000001, -0.237], 0.8627935222672065),
    (28, [0.647, 0.266, -0.10599999999999998, 0.383, 0.9990000000000001, 0.31600000000000006, 0.8740000000000001, 0.764, 0.9630000000000001, -0.237], 0.8627935222672065),
    (29, [0.647, 0.266, -0.10599999999999998, 0.383, 0.9990000000000001, 0.31600000000000006, 0.8740000000000001, 0.764, 0.9630000000000001, -0.237], 0.8627935222672065),
    (30, [0.647, 0.266, -0.10599999999999998, 0.383, 0.9990000000000001, 0.31600000000000006, 0.8740000000000001, 0.764, 0.9630000000000001, -0.237], 0.8627935222672065),
    (31, [0.647, 0.266, -0.10599999999999998, 0.383, 0.9990000000000001, 0.31600000000000006, 0.8740000000000001, 0.764, 0.9630000000000001, -0.237], 0.8627935222672065),
    (32, [0.647, 0.266, -0.10599999999999998, 0.383, 0.9990000000000001, 0.31600000000000006, 0.8740000000000001, 0.764, 0.9630000000000001, -0.237], 0.8627935222672065),
    (33, [0.647, 0.266, -0.10599999999999998, 0.383, 0.9990000000000001, 0.31600000000000006, 0.8740000000000001, 0.764, 0.9630000000000001, -0.237], 0.8627935222672065),
    (34, [0.647, 0.266, -0.10599999999999998, 0.383, 0.9990000000000001, 0.31600000000000006, 0.8740000000000001, 0.764, 0.9630000000000001, -0.237], 0.8627935222672065),
    (35, [0.647, 0.266, -0.10599999999999998, 0.383, 0.9990000000000001, 0.31600000000000006, 0.8740000000000001, 0.764, 0.9630000000000001, -0.237], 0.8627935222672065),
    (36, [0.647, 0.266, -0.10599999999999998, 0.383, 0.9990000000000001, 0.31600000000000006, 0.8740000000000001, 0.764, 0.9630000000000001, -0.237], 0.8627935222672065),
    (37, [0.647, 0.266, -0.10599999999999998, 0.383, 0.9990000000000001, 0.31600000000000006, 0.8740000000000001, 0.764, 0.9630000000000001, -0.237], 0.8627935222672065),
    (38, [0.647, 0.266, -0.10599999999999998, 0.383, 0.9990000000000001, 0.31600000000000006, 0.8740000000000001, 0.764, 0.9630000000000001, -0.237], 0.8627935222672065),
    (39, [0.647, 0.266, -0.10599999999999998, 0.383, 0.9990000000000001, 0.31600000000000006, 0.8740000000000001, 0.764, 0.9630000000000001, -0.237], 0.8627935222672065),
    (40, [0.647, 0.266, -0.10599999999999998, 0.383, 0.9990000000000001, 0.31600000000000006, 0.8740000000000001, 0.764, 0.9630000000000001, -0.237], 0.8627935222672065),
    (41, [0.647, 0.266, -0.10599999999999998, 0.383, 0.9990000000000001, 0.31600000000000006, 0.8740000000000001, 0.764, 0.9630000000000001, -0.237], 0.8627935222672065),
    (42, [0.647, 0.266, -0.10599999999999998, 0.383, 0.9990000000000001, 0.31600000000000006, 0.8740000000000001, 0.764, 0.9630000000000001, -0.237], 0.8627935222672065),
    (43, [0.647, 0.266, -0.10599999999999998, 0.383, 0.9990000000000001, 0.31600000000000006, 0.8740000000000001, 0.764, 0.9630000000000001, -0.237], 0.8627935222672065),
    (44, [0.647, 0.266, -0.10599999999999998, 0.383, 0.9990000000000001, 0.31600000000000006, 0.8740000000000001, 0.764, 0.9630000000000001, -0.237], 0.8627935222672065),
    (45, [0.647, 0.266, -0.10599999999999998, 0.383, 0.9990000000000001, 0.31600000000000006, 0.8740000000000001, 0.764, 0.9630000000000001, -0.237], 0.8627935222672065),
    (46, [0.647, 0.266, -0.10599999999999998, 0.383, 0.9990000000000001, 0.31600000000000006, 0.8740000000000001, 0.764, 0.9630000000000001, -0.237], 0.8627935222672065),
    (47, [0.647, 0.266, -0.10599999999999998, 0.383, 0.9990000000000001, 0.31600000000000006, 0.8740000000000001, 0.764, 0.9630000000000001, -0.237], 0.8627935222672065),
    (48, [0.647, 0.266, -0.10599999999999998, 0.383, 0.9990000000000001, 0.31600000000000006, 0.8740000000000001, 0.764, 0.9630000000000001, -0.237], 0.8627935222672065),
    (49, [0.647, 0.266, -0.10599999999999998, 0.383, 0.9990000000000001, 0.31600000000000006, 0.8740000000000001, 0.764, 0.9630000000000001, -0.237], 0.8627935222672065),
    (50, [0.647, 0.266, -0.10599999999999998, 0.383, 0.9990000000000001, 0.31600000000000006, 0.8740000000000001, 0.764, 0.9630000000000001, -0.237], 0.8627935222672065),
    (51, [0.647, 0.266, -0.10599999999999998, 0.383, 0.9990000000000001, 0.31600000000000006, 0.8740000000000001, 0.764, 0.9630000000000001, -0.237], 0.8627935222672065),
    (52, [0.647, 0.266, -0.10599999999999998, 0.383, 0.9990000000000001, 0.31600000000000006, 0.8740000000000001, 0.764, 0.9630000000000001, -0.237], 0.8627935222672065),
    (53, [0.647, 0.266, -0.10599999999999998, 0.383, 0.9990000000000001, 0.31600000000000006, 0.8740000000000001, 0.764, 0.9630000000000001, -0.237], 0.8627935222672065),
    (54, [0.647, 0.266, -0.10599999999999998, 0.383, 0.9990000000000001, 0.31600000000000006, 0.8740000000000001, 0.764, 0.9630000000000001, -0.237], 0.8627935222672065),
]

