ranges of every chromosome : (-1, 1)
    selection method is: TournamentSelection
    crossover method is: UniformCrossover
    pc: The probability of crossover: 0.850000
    pe: Gene exchange probability: 0.700000
    mutation method is: FlipBitBigMutation
    pm: The probability of mutation: 0.300000
    pbm: The probability of big mutation: 0.700000
    alpha: intensive factor: 0.600000
best_fit = [
    (0, [-0.955, 0.13000000000000012, -0.06499999999999995, 0.2350000000000001, -0.17399999999999993, 0.2809999999999999, 0.20100000000000007, 0.9990000000000001, -0.625, 0.9180000000000001], 0.8529217273954115),
    (1, [0.774, -0.25, 0.6739999999999999, 0.389, -0.867, 0.6970000000000001, -0.43299999999999994, -0.963, 0.728, -0.34299999999999997], 0.8577935222672064),
    (2, [0.774, -0.25, 0.6739999999999999, 0.389, -0.867, 0.6970000000000001, -0.43299999999999994, -0.963, 0.728, -0.34299999999999997], 0.8577935222672064),
    (3, [0.774, -0.25, 0.6739999999999999, 0.389, -0.867, 0.6970000000000001, -0.43299999999999994, -0.963, 0.728, -0.34299999999999997], 0.8577935222672064),
    (4, [0.774, -0.25, 0.6739999999999999, 0.389, -0.867, 0.6970000000000001, -0.43299999999999994, -0.963, 0.728, -0.34299999999999997], 0.8577935222672064),
    (5, [0.774, -0.25, 0.6739999999999999, 0.389, -0.867, 0.6970000000000001, -0.43299999999999994, -0.963, 0.728, -0.34299999999999997], 0.8577935222672064),
    (6, [0.774, -0.25, 0.6739999999999999, 0.389, -0.867, 0.6970000000000001, -0.43299999999999994, -0.963, 0.728, -0.34299999999999997], 0.8577935222672064),
    (7, [0.774, -0.25, 0.6739999999999999, 0.389, -0.867, 0.6970000000000001, -0.43299999999999994, -0.963, 0.728, -0.34299999999999997], 0.8577935222672064),
    (8, [0.774, -0.25, 0.6739999999999999, 0.389, -0.867, 0.6970000000000001, -0.43299999999999994, -0.963, 0.728, -0.34299999999999997], 0.8577935222672064),
    (9, [0.774, -0.25, 0.6739999999999999, 0.389, -0.867, 0.6970000000000001, -0.43299999999999994, -0.963, 0.728, -0.34299999999999997], 0.8577935222672064),
    (10, [0.774, -0.25, 0.6739999999999999, 0.389, -0.867, 0.6970000000000001, -0.43299999999999994, -0.963, 0.728, -0.34299999999999997], 0.8577935222672064),
    (11, [0.774, -0.25, 0.6739999999999999, 0.389, -0.867, 0.6970000000000001, -0.43299999999999994, -0.963, 0.728, -0.34299999999999997], 0.8577935222672064),
    (12, [0.774, -0.25, 0.6739999999999999, 0.389, -0.867, 0.6970000000000001, -0.43299999999999994, -0.963, 0.728, -0.34299999999999997], 0.8577935222672064),
    (13, [0.774, -0.25, 0.6739999999999999, 0.389, -0.867, 0.6970000000000001, -0.43299999999999994, -0.963, 0.728, -0.34299999999999997], 0.8577935222672064),
    (14, [0.774, -0.25, 0.6739999999999999, 0.389, -0.867, 0.6970000000000001, -0.43299999999999994, -0.963, 0.728, -0.34299999999999997], 0.8577935222672064),
    (15, [0.774, -0.25, 0.6739999999999999, 0.389, -0.867, 0.6970000000000001, -0.43299999999999994, -0.963, 0.728, -0.34299999999999997], 0.8577935222672064),
    (16, [0.774, -0.25, 0.6739999999999999, 0.389, -0.867, 0.6970000000000001, -0.43299999999999994, -0.963, 0.728, -0.34299999999999997], 0.8577935222672064),
    (17, [0.774, -0.25, 0.6739999999999999, 0.389, -0.867, 0.6970000000000001, -0.43299999999999994, -0.963, 0.728, -0.34299999999999997], 0.8577935222672064),
    (18, [0.774, -0.25, 0.6739999999999999, 0.389, -0.867, 0.6970000000000001, -0.43299999999999994, -0.963, 0.728, -0.34299999999999997], 0.8577935222672064),
    (19, [0.774, -0.25, 0.6739999999999999, 0.389, -0.867, 0.6970000000000001, -0.43299999999999994, -0.963, 0.728, -0.34299999999999997], 0.8577935222672064),
    (20, [0.45999999999999996, 0.5130000000000001, 0.3520000000000001, -0.04399999999999993, 0.609, 0.16100000000000003, 0.958, 0.883, 0.30800000000000005, 0.2430000000000001], 0.8626585695006748),
    (21, [0.45999999999999996, 0.5130000000000001, 0.3520000000000001, -0.04399999999999993, 0.609, 0.16100000000000003, 0.958, 0.883, 0.30800000000000005, 0.2430000000000001], 0.8626585695006748),
    (22, [0.45999999999999996, 0.5130000000000001, 0.3520000000000001, -0.04399999999999993, 0.609, 0.16100000000000003, 0.958, 0.883, 0.30800000000000005, 0.2430000000000001], 0.8626585695006748),
    (23, [0.45999999999999996, 0.5130000000000001, 0.3520000000000001, -0.04399999999999993, 0.609, 0.16100000000000003, 0.958, 0.883, 0.30800000000000005, 0.2430000000000001], 0.8626585695006748),
    (24, [0.45999999999999996, 0.5130000000000001, 0.3520000000000001, -0.04399999999999993, 0.609, 0.16100000000000003, 0.958, 0.883, 0.30800000000000005, 0.2430000000000001], 0.8626585695006748),
    (25, [0.45999999999999996, 0.5130000000000001, 0.3520000000000001, -0.04399999999999993, 0.609, 0.16100000000000003, 0.958, 0.883, 0.30800000000000005, 0.2430000000000001], 0.8626585695006748),
    (26, [0.45999999999999996, 0.5130000000000001, 0.3520000000000001, -0.04399999999999993, 0.609, 0.16100000000000003, 0.958, 0.883, 0.30800000000000005, 0.2430000000000001], 0.8626585695006748),
    (27, [0.45999999999999996, 0.5130000000000001, 0.3520000000000001, -0.04399999999999993, 0.609, 0.16100000000000003, 0.958, 0.883, 0.30800000000000005, 0.2430000000000001], 0.8626585695006748),
    (28, [0.45999999999999996, 0.5130000000000001, 0.3520000000000001, -0.04399999999999993, 0.609, 0.16100000000000003, 0.958, 0.883, 0.30800000000000005, 0.2430000000000001], 0.8626585695006748),
    (29, [0.45999999999999996, 0.5130000000000001, 0.3520000000000001, -0.04399999999999993, 0.609, 0.16100000000000003, 0.958, 0.883, 0.30800000000000005, 0.2430000000000001], 0.8626585695006748),
    (30, [0.45999999999999996, 0.5130000000000001, 0.3520000000000001, -0.04399999999999993, 0.609, 0.16100000000000003, 0.958, 0.883, 0.30800000000000005, 0.2430000000000001], 0.8626585695006748),
    (31, [0.45999999999999996, 0.5130000000000001, 0.3520000000000001, -0.04399999999999993, 0.609, 0.16100000000000003, 0.958, 0.883, 0.30800000000000005, 0.2430000000000001], 0.8626585695006748),
    (32, [0.45999999999999996, 0.5130000000000001, 0.3520000000000001, -0.04399999999999993, 0.609, 0.16100000000000003, 0.958, 0.883, 0.30800000000000005, 0.2430000000000001], 0.8626585695006748),
    (33, [0.45999999999999996, 0.5130000000000001, 0.3520000000000001, -0.04399999999999993, 0.609, 0.16100000000000003, 0.958, 0.883, 0.30800000000000005, 0.2430000000000001], 0.8626585695006748),
    (34, [-0.42699999999999994, 0.22100000000000009, -0.983, 0.20399999999999996, 0.97, -0.579, 0.9870000000000001, -0.7989999999999999, -0.94, -0.891], 0.8629217273954115),
    (35, [-0.42699999999999994, 0.22100000000000009, -0.983, 0.20399999999999996, 0.97, -0.579, 0.9870000000000001, -0.7989999999999999, -0.94, -0.891], 0.8629217273954115),
    (36, [-0.42699999999999994, 0.22100000000000009, -0.983, 0.20399999999999996, 0.97, -0.579, 0.9870000000000001, -0.7989999999999999, -0.94, -0.891], 0.8629217273954115),
    (37, [-0.42699999999999994, 0.22100000000000009, -0.983, 0.20399999999999996, 0.97, -0.579, 0.9870000000000001, -0.7989999999999999, -0.94, -0.891], 0.8629217273954115),
    (38, [-0.42699999999999994, 0.22100000000000009, -0.983, 0.20399999999999996, 0.97, -0.579, 0.9870000000000001, -0.7989999999999999, -0.94, -0.891], 0.8629217273954115),
    (39, [-0.42699999999999994, 0.22100000000000009, -0.983, 0.20399999999999996, 0.97, -0.579, 0.9870000000000001, -0.7989999999999999, -0.94, -0.891], 0.8629217273954115),
    (40, [-0.42699999999999994, 0.22100000000000009, -0.983, 0.20399999999999996, 0.97, -0.579, 0.9870000000000001, -0.7989999999999999, -0.94, -0.891], 0.8629217273954115),
    (41, [-0.42699999999999994, 0.22100000000000009, -0.983, 0.20399999999999996, 0.97, -0.579, 0.9870000000000001, -0.7989999999999999, -0.94, -0.891], 0.8629217273954115),
    (42, [-0.42699999999999994, 0.22100000000000009, -0.983, 0.20399999999999996, 0.97, -0.579, 0.9870000000000001, -0.7989999999999999, -0.94, -0.891], 0.8629217273954115),
    (43, [-0.42699999999999994, 0.22100000000000009, -0.983, 0.20399999999999996, 0.97, -0.579, 0.9870000000000001, -0.7989999999999999, -0.94, -0.891], 0.8629217273954115),
    (44, [-0.42699999999999994, 0.22100000000000009, -0.983, 0.20399999999999996, 0.97, -0.579, 0.9870000000000001, -0.7989999999999999, -0.94, -0.891], 0.8629217273954115),
    (45, [-0.42699999999999994, 0.22100000000000009, -0.983, 0.20399999999999996, 0.97, -0.579, 0.9870000000000001, -0.7989999999999999, -0.94, -0.891], 0.8629217273954115),
    (46, [-0.42699999999999994, 0.22100000000000009, -0.983, 0.20399999999999996, 0.97, -0.579, 0.9870000000000001, -0.7989999999999999, -0.94, -0.891], 0.8629217273954115),
    (47, [-0.42699999999999994, 0.22100000000000009, -0.983, 0.20399999999999996, 0.97, -0.579, 0.9870000000000001, -0.7989999999999999, -0.94, -0.891], 0.8629217273954115),
    (48, [-0.42699999999999994, 0.22100000000000009, -0.983, 0.20399999999999996, 0.97, -0.579, 0.9870000000000001, -0.7989999999999999, -0.94, -0.891], 0.8629217273954115),
    (49, [-0.42699999999999994, 0.22100000000000009, -0.983, 0.20399999999999996, 0.97, -0.579, 0.9870000000000001, -0.7989999999999999, -0.94, -0.891], 0.8629217273954115),
    (50, [-0.42699999999999994, 0.22100000000000009, -0.983, 0.20399999999999996, 0.97, -0.579, 0.9870000000000001, -0.7989999999999999, -0.94, -0.891], 0.8629217273954115),
    (51, [-0.42699999999999994, 0.22100000000000009, -0.983, 0.20399999999999996, 0.97, -0.579, 0.9870000000000001, -0.7989999999999999, -0.94, -0.891], 0.8629217273954115),
    (52, [-0.42699999999999994, 0.22100000000000009, -0.983, 0.20399999999999996, 0.97, -0.579, 0.9870000000000001, -0.7989999999999999, -0.94, -0.891], 0.8629217273954115),
    (53, [-0.42699999999999994, 0.22100000000000009, -0.983, 0.20399999999999996, 0.97, -0.579, 0.9870000000000001, -0.7989999999999999, -0.94, -0.891], 0.8629217273954115),
    (54, [-0.42699999999999994, 0.22100000000000009, -0.983, 0.20399999999999996, 0.97, -0.579, 0.9870000000000001, -0.7989999999999999, -0.94, -0.891], 0.8629217273954115),
]

