ranges of every chromosome : (-2, 2)
    selection method is: TournamentSelection
    crossover method is: UniformCrossover
    pc: The probability of crossover: 0.850000
    pe: Gene exchange probability: 0.500000
    mutation method is: FlipBitBigMutation
    pm: The probability of mutation: 0.300000
    pbm: The probability of big mutation: 0.700000
    alpha: intensive factor: 0.600000
best_fit = [
    (0, [0.766, 1.181, 1.5140000000000002, -1.137, -0.827, 1.7960000000000003, 0.5630000000000002, 1.081, -0.9929999999999999, 0.4039999999999999], 0.8631848852901485),
    (1, [0.766, 1.181, 1.5140000000000002, -1.137, -0.827, 1.7960000000000003, 0.5630000000000002, 1.081, -0.9929999999999999, 0.4039999999999999], 0.8631848852901485),
    (2, [0.9199999999999999, 1.162, 1.137, -1.8719999999999999, 1.116, -0.02400000000000002, -1.157, -1.817, 0.3420000000000001, -0.03400000000000003], 0.8634412955465589),
    (3, [0.9199999999999999, 1.162, 1.137, -1.8719999999999999, 1.116, -0.02400000000000002, -1.157, -1.817, 0.3420000000000001, -0.03400000000000003], 0.8634412955465589),
    (4, [0.9199999999999999, 1.162, 1.137, -1.8719999999999999, 1.116, -0.02400000000000002, -1.157, -1.817, 0.3420000000000001, -0.03400000000000003], 0.8634412955465589),
    (5, [1.044, -0.6619999999999999, -1.627, -0.020999999999999908, 0.43299999999999983, -0.1259999999999999, -0.625, 1.081, 0.9969999999999999, 1.5420000000000003], 0.8679217273954116),
    (6, [1.044, -0.6619999999999999, -1.627, -0.020999999999999908, 0.43299999999999983, -0.1259999999999999, -0.625, 1.081, 0.9969999999999999, 1.5420000000000003], 0.8679217273954116),
    (7, [1.044, -0.6619999999999999, -1.627, -0.020999999999999908, 0.43299999999999983, -0.1259999999999999, -0.625, 1.081, 0.9969999999999999, 1.5420000000000003], 0.8679217273954116),
    (8, [1.044, -0.6619999999999999, -1.627, -0.020999999999999908, 0.43299999999999983, -0.1259999999999999, -0.625, 1.081, 0.9969999999999999, 1.5420000000000003], 0.8679217273954116),
    (9, [1.044, -0.6619999999999999, -1.627, -0.020999999999999908, 0.43299999999999983, -0.1259999999999999, -0.625, 1.081, 0.9969999999999999, 1.5420000000000003], 0.8679217273954116),
    (10, [1.044, -0.6619999999999999, -1.627, -0.020999999999999908, 0.43299999999999983, -0.1259999999999999, -0.625, 1.081, 0.9969999999999999, 1.5420000000000003], 0.8679217273954116),
    (11, [1.044, -0.6619999999999999, -1.627, -0.020999999999999908, 0.43299999999999983, -0.1259999999999999, -0.625, 1.081, 0.9969999999999999, 1.5420000000000003], 0.8679217273954116),
    (12, [1.044, -0.6619999999999999, -1.627, -0.020999999999999908, 0.43299999999999983, -0.1259999999999999, -0.625, 1.081, 0.9969999999999999, 1.5420000000000003], 0.8679217273954116),
    (13, [1.044, -0.6619999999999999, -1.627, -0.020999999999999908, 0.43299999999999983, -0.1259999999999999, -0.625, 1.081, 0.9969999999999999, 1.5420000000000003], 0.8679217273954116),
    (14, [1.044, -0.6619999999999999, -1.627, -0.020999999999999908, 0.43299999999999983, -0.1259999999999999, -0.625, 1.081, 0.9969999999999999, 1.5420000000000003], 0.8679217273954116),
    (15, [1.044, -0.6619999999999999, -1.627, -0.020999999999999908, 0.43299999999999983, -0.1259999999999999, -0.625, 1.081, 0.9969999999999999, 1.5420000000000003], 0.8679217273954116),
    (16, [1.044, -0.6619999999999999, -1.627, -0.020999999999999908, 0.43299999999999983, -0.1259999999999999, -0.625, 1.081, 0.9969999999999999, 1.5420000000000003], 0.8679217273954116),
    (17, [1.044, -0.6619999999999999, -1.627, -0.020999999999999908, 0.43299999999999983, -0.1259999999999999, -0.625, 1.081, 0.9969999999999999, 1.5420000000000003], 0.8679217273954116),
    (18, [1.044, -0.6619999999999999, -1.627, -0.020999999999999908, 0.43299999999999983, -0.1259999999999999, -0.625, 1.081, 0.9969999999999999, 1.5420000000000003], 0.8679217273954116),
    (19, [1.044, -0.6619999999999999, -1.627, -0.020999999999999908, 0.43299999999999983, -0.1259999999999999, -0.625, 1.081, 0.9969999999999999, 1.5420000000000003], 0.8679217273954116),
    (20, [1.044, -0.6619999999999999, -1.627, -0.020999999999999908, 0.43299999999999983, -0.1259999999999999, -0.625, 1.081, 0.9969999999999999, 1.5420000000000003], 0.8679217273954116),
    (21, [1.044, -0.6619999999999999, -1.627, -0.020999999999999908, 0.43299999999999983, -0.1259999999999999, -0.625, 1.081, 0.9969999999999999, 1.5420000000000003], 0.8679217273954116),
    (22, [1.044, -0.6619999999999999, -1.627, -0.020999999999999908, 0.43299999999999983, -0.1259999999999999, -0.625, 1.081, 0.9969999999999999, 1.5420000000000003], 0.8679217273954116),
    (23, [1.044, -0.6619999999999999, -1.627, -0.020999999999999908, 0.43299999999999983, -0.1259999999999999, -0.625, 1.081, 0.9969999999999999, 1.5420000000000003], 0.8679217273954116),
    (24, [1.044, -0.6619999999999999, -1.627, -0.020999999999999908, 0.43299999999999983, -0.1259999999999999, -0.625, 1.081, 0.9969999999999999, 1.5420000000000003], 0.8679217273954116),
    (25, [1.044, -0.6619999999999999, -1.627, -0.020999999999999908, 0.43299999999999983, -0.1259999999999999, -0.625, 1.081, 0.9969999999999999, 1.5420000000000003], 0.8679217273954116),
    (26, [1.044, -0.6619999999999999, -1.627, -0.020999999999999908, 0.43299999999999983, -0.1259999999999999, -0.625, 1.081, 0.9969999999999999, 1.5420000000000003], 0.8679217273954116),
    (27, [1.044, -0.6619999999999999, -1.627, -0.020999999999999908, 0.43299999999999983, -0.1259999999999999, -0.625, 1.081, 0.9969999999999999, 1.5420000000000003], 0.8679217273954116),
    (28, [1.044, -0.6619999999999999, -1.627, -0.020999999999999908, 0.43299999999999983, -0.1259999999999999, -0.625, 1.081, 0.9969999999999999, 1.5420000000000003], 0.8679217273954116),
    (29, [1.044, -0.6619999999999999, -1.627, -0.020999999999999908, 0.43299999999999983, -0.1259999999999999, -0.625, 1.081, 0.9969999999999999, 1.5420000000000003], 0.8679217273954116),
    (30, [1.044, -0.6619999999999999, -1.627, -0.020999999999999908, 0.43299999999999983, -0.1259999999999999, -0.625, 1.081, 0.9969999999999999, 1.5420000000000003], 0.8679217273954116),
    (31, [1.044, -0.6619999999999999, -1.627, -0.020999999999999908, 0.43299999999999983, -0.1259999999999999, -0.625, 1.081, 0.9969999999999999, 1.5420000000000003], 0.8679217273954116),
    (32, [1.044, -0.6619999999999999, -1.627, -0.020999999999999908, 0.43299999999999983, -0.1259999999999999, -0.625, 1.081, 0.9969999999999999, 1.5420000000000003], 0.8679217273954116),
    (33, [1.044, -0.6619999999999999, -1.627, -0.020999999999999908, 0.43299999999999983, -0.1259999999999999, -0.625, 1.081, 0.9969999999999999, 1.5420000000000003], 0.8679217273954116),
    (34, [1.044, -0.6619999999999999, -1.627, -0.020999999999999908, 0.43299999999999983, -0.1259999999999999, -0.625, 1.081, 0.9969999999999999, 1.5420000000000003], 0.8679217273954116),
    (35, [1.044, -0.6619999999999999, -1.627, -0.020999999999999908, 0.43299999999999983, -0.1259999999999999, -0.625, 1.081, 0.9969999999999999, 1.5420000000000003], 0.8679217273954116),
    (36, [1.044, -0.6619999999999999, -1.627, -0.020999999999999908, 0.43299999999999983, -0.1259999999999999, -0.625, 1.081, 0.9969999999999999, 1.5420000000000003], 0.8679217273954116),
    (37, [1.044, -0.6619999999999999, -1.627, -0.020999999999999908, 0.43299999999999983, -0.1259999999999999, -0.625, 1.081, 0.9969999999999999, 1.5420000000000003], 0.8679217273954116),
    (38, [1.044, -0.6619999999999999, -1.627, -0.020999999999999908, 0.43299999999999983, -0.1259999999999999, -0.625, 1.081, 0.9969999999999999, 1.5420000000000003], 0.8679217273954116),
    (39, [1.044, -0.6619999999999999, -1.627, -0.020999999999999908, 0.43299999999999983, -0.1259999999999999, -0.625, 1.081, 0.9969999999999999, 1.5420000000000003], 0.8679217273954116),
    (40, [1.044, -0.6619999999999999, -1.627, -0.020999999999999908, 0.43299999999999983, -0.1259999999999999, -0.625, 1.081, 0.9969999999999999, 1.5420000000000003], 0.8679217273954116),
    (41, [0.5190000000000001, 0.9510000000000001, 1.0700000000000003, -1.873, 1.165, 0.556, -1.72, 1.3780000000000001, 1.177, 1.866], 0.8683130904183536),
    (42, [0.5190000000000001, 0.9510000000000001, 1.0700000000000003, -1.873, 1.165, 0.556, -1.72, 1.3780000000000001, 1.177, 1.866], 0.8683130904183536),
    (43, [0.5190000000000001, 0.9510000000000001, 1.0700000000000003, -1.873, 1.165, 0.556, -1.72, 1.3780000000000001, 1.177, 1.866], 0.8683130904183536),
    (44, [0.5190000000000001, 0.9510000000000001, 1.0700000000000003, -1.873, 1.165, 0.556, -1.72, 1.3780000000000001, 1.177, 1.866], 0.8683130904183536),
    (45, [0.5190000000000001, 0.9510000000000001, 1.0700000000000003, -1.873, 1.165, 0.556, -1.72, 1.3780000000000001, 1.177, 1.866], 0.8683130904183536),
    (46, [0.5190000000000001, 0.9510000000000001, 1.0700000000000003, -1.873, 1.165, 0.556, -1.72, 1.3780000000000001, 1.177, 1.866], 0.8683130904183536),
    (47, [0.5190000000000001, 0.9510000000000001, 1.0700000000000003, -1.873, 1.165, 0.556, -1.72, 1.3780000000000001, 1.177, 1.866], 0.8683130904183536),
    (48, [0.5190000000000001, 0.9510000000000001, 1.0700000000000003, -1.873, 1.165, 0.556, -1.72, 1.3780000000000001, 1.177, 1.866], 0.8683130904183536),
    (49, [0.5190000000000001, 0.9510000000000001, 1.0700000000000003, -1.873, 1.165, 0.556, -1.72, 1.3780000000000001, 1.177, 1.866], 0.8683130904183536),
    (50, [0.5190000000000001, 0.9510000000000001, 1.0700000000000003, -1.873, 1.165, 0.556, -1.72, 1.3780000000000001, 1.177, 1.866], 0.8683130904183536),
    (51, [0.5190000000000001, 0.9510000000000001, 1.0700000000000003, -1.873, 1.165, 0.556, -1.72, 1.3780000000000001, 1.177, 1.866], 0.8683130904183536),
    (52, [0.5190000000000001, 0.9510000000000001, 1.0700000000000003, -1.873, 1.165, 0.556, -1.72, 1.3780000000000001, 1.177, 1.866], 0.8683130904183536),
    (53, [0.5190000000000001, 0.9510000000000001, 1.0700000000000003, -1.873, 1.165, 0.556, -1.72, 1.3780000000000001, 1.177, 1.866], 0.8683130904183536),
    (54, [0.5190000000000001, 0.9510000000000001, 1.0700000000000003, -1.873, 1.165, 0.556, -1.72, 1.3780000000000001, 1.177, 1.866], 0.8683130904183536),
]

