ranges of every chromosome : (0, 1)
    selection method is: RouletteWheelSelection
    crossover method is: UniformCrossover
    pc: The probability of crossover: 0.850000
    pe: Gene exchange probability: 0.500000
    mutation method is: FlipBitBigMutation
    pm: The probability of mutation: 0.200000
    pbm: The probability of big mutation: 0.500000
    alpha: intensive factor: 0.750000
best_fit = [
    (0, [0.677, 0.233, 0.669, 0.338, 0.9520000000000001, 0.724, 0.166, 0.893, 0.535, 0.20500000000000002], 0.8579217273954116),
    (1, [0.677, 0.233, 0.669, 0.338, 0.9520000000000001, 0.724, 0.166, 0.893, 0.535, 0.20500000000000002], 0.8579217273954116),
    (2, [0.677, 0.233, 0.669, 0.338, 0.9520000000000001, 0.724, 0.166, 0.893, 0.535, 0.20500000000000002], 0.8579217273954116),
    (3, [0.677, 0.233, 0.669, 0.338, 0.9520000000000001, 0.724, 0.166, 0.893, 0.535, 0.20500000000000002], 0.8579217273954116),
    (4, [0.677, 0.233, 0.669, 0.338, 0.9520000000000001, 0.724, 0.166, 0.893, 0.535, 0.20500000000000002], 0.8579217273954116),
    (5, [0.677, 0.233, 0.669, 0.338, 0.9520000000000001, 0.724, 0.166, 0.893, 0.535, 0.20500000000000002], 0.8579217273954116),
    (6, [0.677, 0.233, 0.669, 0.338, 0.9520000000000001, 0.724, 0.166, 0.893, 0.535, 0.20500000000000002], 0.8579217273954116),
    (7, [0.677, 0.233, 0.669, 0.338, 0.9520000000000001, 0.724, 0.166, 0.893, 0.535, 0.20500000000000002], 0.8579217273954116),
    (8, [0.677, 0.233, 0.669, 0.338, 0.9520000000000001, 0.724, 0.166, 0.893, 0.535, 0.20500000000000002], 0.8579217273954116),
    (9, [0.677, 0.233, 0.669, 0.338, 0.9520000000000001, 0.724, 0.166, 0.893, 0.535, 0.20500000000000002], 0.8579217273954116),
    (10, [0.677, 0.233, 0.669, 0.338, 0.9520000000000001, 0.724, 0.166, 0.893, 0.535, 0.20500000000000002], 0.8579217273954116),
    (11, [0.41600000000000004, 0.861, 0.315, 0.183, 0.016, 0.54, 0.895, 0.789, 0.341, 0.34800000000000003], 0.862523616734143),
    (12, [0.41600000000000004, 0.861, 0.315, 0.183, 0.016, 0.54, 0.895, 0.789, 0.341, 0.34800000000000003], 0.862523616734143),
    (13, [0.41600000000000004, 0.861, 0.315, 0.183, 0.016, 0.54, 0.895, 0.789, 0.341, 0.34800000000000003], 0.862523616734143),
    (14, [0.41600000000000004, 0.861, 0.315, 0.183, 0.016, 0.54, 0.895, 0.789, 0.341, 0.34800000000000003], 0.862523616734143),
    (15, [0.41600000000000004, 0.861, 0.315, 0.183, 0.016, 0.54, 0.895, 0.789, 0.341, 0.34800000000000003], 0.862523616734143),
    (16, [0.41600000000000004, 0.861, 0.315, 0.183, 0.016, 0.54, 0.895, 0.789, 0.341, 0.34800000000000003], 0.862523616734143),
    (17, [0.41600000000000004, 0.861, 0.315, 0.183, 0.016, 0.54, 0.895, 0.789, 0.341, 0.34800000000000003], 0.862523616734143),
    (18, [0.41600000000000004, 0.861, 0.315, 0.183, 0.016, 0.54, 0.895, 0.789, 0.341, 0.34800000000000003], 0.862523616734143),
    (19, [0.41600000000000004, 0.861, 0.315, 0.183, 0.016, 0.54, 0.895, 0.789, 0.341, 0.34800000000000003], 0.862523616734143),
    (20, [0.41600000000000004, 0.861, 0.315, 0.183, 0.016, 0.54, 0.895, 0.789, 0.341, 0.34800000000000003], 0.862523616734143),
    (21, [0.41600000000000004, 0.861, 0.315, 0.183, 0.016, 0.54, 0.895, 0.789, 0.341, 0.34800000000000003], 0.862523616734143),
    (22, [0.41600000000000004, 0.861, 0.315, 0.183, 0.016, 0.54, 0.895, 0.789, 0.341, 0.34800000000000003], 0.862523616734143),
    (23, [0.41600000000000004, 0.861, 0.315, 0.183, 0.016, 0.54, 0.895, 0.789, 0.341, 0.34800000000000003], 0.862523616734143),
    (24, [0.41600000000000004, 0.861, 0.315, 0.183, 0.016, 0.54, 0.895, 0.789, 0.341, 0.34800000000000003], 0.862523616734143),
    (25, [0.41600000000000004, 0.861, 0.315, 0.183, 0.016, 0.54, 0.895, 0.789, 0.341, 0.34800000000000003], 0.862523616734143),
    (26, [0.41600000000000004, 0.861, 0.315, 0.183, 0.016, 0.54, 0.895, 0.789, 0.341, 0.34800000000000003], 0.862523616734143),
    (27, [0.41600000000000004, 0.861, 0.315, 0.183, 0.016, 0.54, 0.895, 0.789, 0.341, 0.34800000000000003], 0.862523616734143),
    (28, [0.41600000000000004, 0.861, 0.315, 0.183, 0.016, 0.54, 0.895, 0.789, 0.341, 0.34800000000000003], 0.862523616734143),
    (29, [0.41600000000000004, 0.861, 0.315, 0.183, 0.016, 0.54, 0.895, 0.789, 0.341, 0.34800000000000003], 0.862523616734143),
    (30, [0.41600000000000004, 0.861, 0.315, 0.183, 0.016, 0.54, 0.895, 0.789, 0.341, 0.34800000000000003], 0.862523616734143),
    (31, [0.41600000000000004, 0.861, 0.315, 0.183, 0.016, 0.54, 0.895, 0.789, 0.341, 0.34800000000000003], 0.862523616734143),
    (32, [0.41600000000000004, 0.861, 0.315, 0.183, 0.016, 0.54, 0.895, 0.789, 0.341, 0.34800000000000003], 0.862523616734143),
    (33, [0.41600000000000004, 0.861, 0.315, 0.183, 0.016, 0.54, 0.895, 0.789, 0.341, 0.34800000000000003], 0.862523616734143),
    (34, [0.41600000000000004, 0.861, 0.315, 0.183, 0.016, 0.54, 0.895, 0.789, 0.341, 0.34800000000000003], 0.862523616734143),
    (35, [0.41600000000000004, 0.861, 0.315, 0.183, 0.016, 0.54, 0.895, 0.789, 0.341, 0.34800000000000003], 0.862523616734143),
    (36, [0.41600000000000004, 0.861, 0.315, 0.183, 0.016, 0.54, 0.895, 0.789, 0.341, 0.34800000000000003], 0.862523616734143),
    (37, [0.41600000000000004, 0.861, 0.315, 0.183, 0.016, 0.54, 0.895, 0.789, 0.341, 0.34800000000000003], 0.862523616734143),
    (38, [0.41600000000000004, 0.861, 0.315, 0.183, 0.016, 0.54, 0.895, 0.789, 0.341, 0.34800000000000003], 0.862523616734143),
    (39, [0.41600000000000004, 0.861, 0.315, 0.183, 0.016, 0.54, 0.895, 0.789, 0.341, 0.34800000000000003], 0.862523616734143),
    (40, [0.41600000000000004, 0.861, 0.315, 0.183, 0.016, 0.54, 0.895, 0.789, 0.341, 0.34800000000000003], 0.862523616734143),
    (41, [0.41600000000000004, 0.861, 0.315, 0.183, 0.016, 0.54, 0.895, 0.789, 0.341, 0.34800000000000003], 0.862523616734143),
    (42, [0.41600000000000004, 0.861, 0.315, 0.183, 0.016, 0.54, 0.895, 0.789, 0.341, 0.34800000000000003], 0.862523616734143),
    (43, [0.505, 0.503, 0.309, 0.074, 0.432, 0.548, 0.981, 0.921, 0.279, 0.431], 0.8627867746288798),
    (44, [0.505, 0.503, 0.309, 0.074, 0.432, 0.548, 0.981, 0.921, 0.279, 0.431], 0.8627867746288798),
    (45, [0.505, 0.503, 0.309, 0.074, 0.432, 0.548, 0.981, 0.921, 0.279, 0.431], 0.8627867746288798),
    (46, [0.505, 0.503, 0.309, 0.074, 0.432, 0.548, 0.981, 0.921, 0.279, 0.431], 0.8627867746288798),
    (47, [0.505, 0.503, 0.309, 0.074, 0.432, 0.548, 0.981, 0.921, 0.279, 0.431], 0.8627867746288798),
    (48, [0.505, 0.503, 0.309, 0.074, 0.432, 0.548, 0.981, 0.921, 0.279, 0.431], 0.8627867746288798),
    (49, [0.505, 0.503, 0.309, 0.074, 0.432, 0.548, 0.981, 0.921, 0.279, 0.431], 0.8627867746288798),
    (50, [0.505, 0.503, 0.309, 0.074, 0.432, 0.548, 0.981, 0.921, 0.279, 0.431], 0.8627867746288798),
    (51, [0.505, 0.503, 0.309, 0.074, 0.432, 0.548, 0.981, 0.921, 0.279, 0.431], 0.8627867746288798),
    (52, [0.505, 0.503, 0.309, 0.074, 0.432, 0.548, 0.981, 0.921, 0.279, 0.431], 0.8627867746288798),
    (53, [0.505, 0.503, 0.309, 0.074, 0.432, 0.548, 0.981, 0.921, 0.279, 0.431], 0.8627867746288798),
    (54, [0.505, 0.503, 0.309, 0.074, 0.432, 0.548, 0.981, 0.921, 0.279, 0.431], 0.8627867746288798),
]

