ranges of every chromosome : (-2, 2)
    selection method is: RouletteWheelSelection
    crossover method is: UniformCrossover
    pc: The probability of crossover: 1.000000
    pe: Gene exchange probability: 0.500000
    mutation method is: FlipBitBigMutation
    pm: The probability of mutation: 0.300000
    pbm: The probability of big mutation: 0.700000
    alpha: intensive factor: 0.600000
best_fit = [
    (0, [0.9010000000000002, 1.0779999999999998, 0.8080000000000003, -0.45300000000000007, 0.6230000000000002, 0.4700000000000002, -1.186, 1.392, -0.5369999999999999, 1.6750000000000003], 0.8580499325236166),
    (1, [0.9010000000000002, 1.0779999999999998, 0.8080000000000003, -0.45300000000000007, 0.6230000000000002, 0.4700000000000002, -1.186, 1.392, -0.5369999999999999, 1.6750000000000003], 0.8580499325236166),
    (2, [0.9010000000000002, 1.0779999999999998, 0.8080000000000003, -0.45300000000000007, 0.6230000000000002, 0.4700000000000002, -1.186, 1.392, -0.5369999999999999, 1.6750000000000003], 0.8580499325236166),
    (3, [-1.059, -1.037, -1.161, -1.789, -0.5169999999999999, -0.681, 1.3210000000000002, -1.242, 0.9969999999999999, 1.7349999999999999], 0.8634412955465587),
    (4, [-1.059, -1.037, -1.161, -1.789, -0.5169999999999999, -0.681, 1.3210000000000002, -1.242, 0.9969999999999999, 1.7349999999999999], 0.8634412955465587),
    (5, [-1.059, -1.037, -1.161, -1.789, -0.5169999999999999, -0.681, 1.3210000000000002, -1.242, 0.9969999999999999, 1.7349999999999999], 0.8634412955465587),
    (6, [-1.059, -1.037, -1.161, -1.789, -0.5169999999999999, -0.681, 1.3210000000000002, -1.242, 0.9969999999999999, 1.7349999999999999], 0.8634412955465587),
    (7, [-1.059, -1.037, -1.161, -1.789, -0.5169999999999999, -0.681, 1.3210000000000002, -1.242, 0.9969999999999999, 1.7349999999999999], 0.8634412955465587),
    (8, [-1.059, -1.037, -1.161, -1.789, -0.5169999999999999, -0.681, 1.3210000000000002, -1.242, 0.9969999999999999, 1.7349999999999999], 0.8634412955465587),
    (9, [-1.059, -1.037, -1.161, -1.789, -0.5169999999999999, -0.681, 1.3210000000000002, -1.242, 0.9969999999999999, 1.7349999999999999], 0.8634412955465587),
    (10, [-1.059, -1.037, -1.161, -1.789, -0.5169999999999999, -0.681, 1.3210000000000002, -1.242, 0.9969999999999999, 1.7349999999999999], 0.8634412955465587),
    (11, [-1.059, -1.037, -1.161, -1.789, -0.5169999999999999, -0.681, 1.3210000000000002, -1.242, 0.9969999999999999, 1.7349999999999999], 0.8634412955465587),
    (12, [-1.059, -1.037, -1.161, -1.789, -0.5169999999999999, -0.681, 1.3210000000000002, -1.242, 0.9969999999999999, 1.7349999999999999], 0.8634412955465587),
    (13, [-1.059, -1.037, -1.161, -1.789, -0.5169999999999999, -0.681, 1.3210000000000002, -1.242, 0.9969999999999999, 1.7349999999999999], 0.8634412955465587),
    (14, [-1.059, -1.037, -1.161, -1.789, -0.5169999999999999, -0.681, 1.3210000000000002, -1.242, 0.9969999999999999, 1.7349999999999999], 0.8634412955465587),
    (15, [-1.059, -1.037, -1.161, -1.789, -0.5169999999999999, -0.681, 1.3210000000000002, -1.242, 0.9969999999999999, 1.7349999999999999], 0.8634412955465587),
    (16, [-1.059, -1.037, -1.161, -1.789, -0.5169999999999999, -0.681, 1.3210000000000002, -1.242, 0.9969999999999999, 1.7349999999999999], 0.8634412955465587),
    (17, [-1.059, -1.037, -1.161, -1.789, -0.5169999999999999, -0.681, 1.3210000000000002, -1.242, 0.9969999999999999, 1.7349999999999999], 0.8634412955465587),
    (18, [-1.059, -1.037, -1.161, -1.789, -0.5169999999999999, -0.681, 1.3210000000000002, -1.242, 0.9969999999999999, 1.7349999999999999], 0.8634412955465587),
    (19, [-1.059, -1.037, -1.161, -1.789, -0.5169999999999999, -0.681, 1.3210000000000002, -1.242, 0.9969999999999999, 1.7349999999999999], 0.8634412955465587),
    (20, [-1.059, -1.037, -1.161, -1.789, -0.5169999999999999, -0.681, 1.3210000000000002, -1.242, 0.9969999999999999, 1.7349999999999999], 0.8634412955465587),
    (21, [-1.059, -1.037, -1.161, -1.789, -0.5169999999999999, -0.681, 1.3210000000000002, -1.242, 0.9969999999999999, 1.7349999999999999], 0.8634412955465587),
    (22, [-1.059, -1.037, -1.161, -1.789, -0.5169999999999999, -0.681, 1.3210000000000002, -1.242, 0.9969999999999999, 1.7349999999999999], 0.8634412955465587),
    (23, [-1.059, -1.037, -1.161, -1.789, -0.5169999999999999, -0.681, 1.3210000000000002, -1.242, 0.9969999999999999, 1.7349999999999999], 0.8634412955465587),
    (24, [-1.059, -1.037, -1.161, -1.789, -0.5169999999999999, -0.681, 1.3210000000000002, -1.242, 0.9969999999999999, 1.7349999999999999], 0.8634412955465587),
    (25, [-1.059, -1.037, -1.161, -1.789, -0.5169999999999999, -0.681, 1.3210000000000002, -1.242, 0.9969999999999999, 1.7349999999999999], 0.8634412955465587),
    (26, [-1.059, -1.037, -1.161, -1.789, -0.5169999999999999, -0.681, 1.3210000000000002, -1.242, 0.9969999999999999, 1.7349999999999999], 0.8634412955465587),
    (27, [-1.059, -1.037, -1.161, -1.789, -0.5169999999999999, -0.681, 1.3210000000000002, -1.242, 0.9969999999999999, 1.7349999999999999], 0.8634412955465587),
    (28, [-1.059, -1.037, -1.161, -1.789, -0.5169999999999999, -0.681, 1.3210000000000002, -1.242, 0.9969999999999999, 1.7349999999999999], 0.8634412955465587),
    (29, [-1.059, -1.037, -1.161, -1.789, -0.5169999999999999, -0.681, 1.3210000000000002, -1.242, 0.9969999999999999, 1.7349999999999999], 0.8634412955465587),
    (30, [-1.059, -1.037, -1.161, -1.789, -0.5169999999999999, -0.681, 1.3210000000000002, -1.242, 0.9969999999999999, 1.7349999999999999], 0.8634412955465587),
    (31, [-1.059, -1.037, -1.161, -1.789, -0.5169999999999999, -0.681, 1.3210000000000002, -1.242, 0.9969999999999999, 1.7349999999999999], 0.8634412955465587),
    (32, [-1.059, -1.037, -1.161, -1.789, -0.5169999999999999, -0.681, 1.3210000000000002, -1.242, 0.9969999999999999, 1.7349999999999999], 0.8634412955465587),
    (33, [-1.059, -1.037, -1.161, -1.789, -0.5169999999999999, -0.681, 1.3210000000000002, -1.242, 0.9969999999999999, 1.7349999999999999], 0.8634412955465587),
    (34, [-1.059, -1.037, -1.161, -1.789, -0.5169999999999999, -0.681, 1.3210000000000002, -1.242, 0.9969999999999999, 1.7349999999999999], 0.8634412955465587),
    (35, [-1.059, -1.037, -1.161, -1.789, -0.5169999999999999, -0.681, 1.3210000000000002, -1.242, 0.9969999999999999, 1.7349999999999999], 0.8634412955465587),
    (36, [-1.059, -1.037, -1.161, -1.789, -0.5169999999999999, -0.681, 1.3210000000000002, -1.242, 0.9969999999999999, 1.7349999999999999], 0.8634412955465587),
    (37, [-1.059, -1.037, -1.161, -1.789, -0.5169999999999999, -0.681, 1.3210000000000002, -1.242, 0.9969999999999999, 1.7349999999999999], 0.8634412955465587),
    (38, [-1.059, -1.037, -1.161, -1.789, -0.5169999999999999, -0.681, 1.3210000000000002, -1.242, 0.9969999999999999, 1.7349999999999999], 0.8634412955465587),
    (39, [-1.059, -1.037, -1.161, -1.789, -0.5169999999999999, -0.681, 1.3210000000000002, -1.242, 0.9969999999999999, 1.7349999999999999], 0.8634412955465587),
    (40, [-1.059, -1.037, -1.161, -1.789, -0.5169999999999999, -0.681, 1.3210000000000002, -1.242, 0.9969999999999999, 1.7349999999999999], 0.8634412955465587),
    (41, [-1.059, -1.037, -1.161, -1.789, -0.5169999999999999, -0.681, 1.3210000000000002, -1.242, 0.9969999999999999, 1.7349999999999999], 0.8634412955465587),
    (42, [-1.059, -1.037, -1.161, -1.789, -0.5169999999999999, -0.681, 1.3210000000000002, -1.242, 0.9969999999999999, 1.7349999999999999], 0.8634412955465587),
    (43, [-1.059, -1.037, -1.161, -1.789, -0.5169999999999999, -0.681, 1.3210000000000002, -1.242, 0.9969999999999999, 1.7349999999999999], 0.8634412955465587),
    (44, [-1.059, -1.037, -1.161, -1.789, -0.5169999999999999, -0.681, 1.3210000000000002, -1.242, 0.9969999999999999, 1.7349999999999999], 0.8634412955465587),
    (45, [-1.059, -1.037, -1.161, -1.789, -0.5169999999999999, -0.681, 1.3210000000000002, -1.242, 0.9969999999999999, 1.7349999999999999], 0.8634412955465587),
    (46, [-1.059, -1.037, -1.161, -1.789, -0.5169999999999999, -0.681, 1.3210000000000002, -1.242, 0.9969999999999999, 1.7349999999999999], 0.8634412955465587),
    (47, [-1.059, -1.037, -1.161, -1.789, -0.5169999999999999, -0.681, 1.3210000000000002, -1.242, 0.9969999999999999, 1.7349999999999999], 0.8634412955465587),
    (48, [-1.059, -1.037, -1.161, -1.789, -0.5169999999999999, -0.681, 1.3210000000000002, -1.242, 0.9969999999999999, 1.7349999999999999], 0.8634412955465587),
    (49, [-1.059, -1.037, -1.161, -1.789, -0.5169999999999999, -0.681, 1.3210000000000002, -1.242, 0.9969999999999999, 1.7349999999999999], 0.8634412955465587),
    (50, [-1.059, -1.037, -1.161, -1.789, -0.5169999999999999, -0.681, 1.3210000000000002, -1.242, 0.9969999999999999, 1.7349999999999999], 0.8634412955465587),
    (51, [-1.059, -1.037, -1.161, -1.789, -0.5169999999999999, -0.681, 1.3210000000000002, -1.242, 0.9969999999999999, 1.7349999999999999], 0.8634412955465587),
    (52, [-1.059, -1.037, -1.161, -1.789, -0.5169999999999999, -0.681, 1.3210000000000002, -1.242, 0.9969999999999999, 1.7349999999999999], 0.8634412955465587),
    (53, [-1.059, -1.037, -1.161, -1.789, -0.5169999999999999, -0.681, 1.3210000000000002, -1.242, 0.9969999999999999, 1.7349999999999999], 0.8634412955465587),
    (54, [-1.059, -1.037, -1.161, -1.789, -0.5169999999999999, -0.681, 1.3210000000000002, -1.242, 0.9969999999999999, 1.7349999999999999], 0.8634412955465587),
]

