ranges of every chromosome : (-1, 1)
    selection method is: TournamentSelection
    crossover method is: UniformCrossover
    pc: The probability of crossover: 0.700000
    pe: Gene exchange probability: 0.500000
    mutation method is: FlipBitBigMutation
    pm: The probability of mutation: 0.200000
    pbm: The probability of big mutation: 0.500000
    alpha: intensive factor: 0.750000
best_fit = [
    (0, [0.365, 0.27300000000000013, -0.748, -0.379, -0.74, -0.649, -0.10099999999999998, -0.767, 0.7910000000000001, 0.19100000000000006], 0.8577935222672064),
    (1, [0.365, 0.27300000000000013, -0.748, -0.379, -0.74, -0.649, -0.10099999999999998, -0.767, 0.7910000000000001, 0.19100000000000006], 0.8577935222672064),
    (2, [0.365, 0.27300000000000013, -0.748, -0.379, -0.74, -0.649, -0.10099999999999998, -0.767, 0.7910000000000001, 0.19100000000000006], 0.8577935222672064),
    (3, [0.365, 0.27300000000000013, -0.748, -0.379, -0.74, -0.649, -0.10099999999999998, -0.767, 0.7910000000000001, 0.19100000000000006], 0.8577935222672064),
    (4, [0.365, 0.27300000000000013, -0.748, -0.379, -0.74, -0.649, -0.10099999999999998, -0.767, 0.7910000000000001, 0.19100000000000006], 0.8577935222672064),
    (5, [0.365, 0.27300000000000013, -0.748, -0.379, -0.74, -0.649, -0.10099999999999998, -0.767, 0.7910000000000001, 0.19100000000000006], 0.8577935222672064),
    (6, [0.7090000000000001, -0.357, 0.16999999999999993, -0.20199999999999996, -0.8220000000000001, 0.3920000000000001, -0.06799999999999995, -0.692, 0.4690000000000001, -0.07299999999999995], 0.8626585695006748),
    (7, [0.7090000000000001, -0.357, 0.16999999999999993, -0.20199999999999996, -0.8220000000000001, 0.3920000000000001, -0.06799999999999995, -0.692, 0.4690000000000001, -0.07299999999999995], 0.8626585695006748),
    (8, [0.7090000000000001, -0.357, 0.16999999999999993, -0.20199999999999996, -0.8220000000000001, 0.3920000000000001, -0.06799999999999995, -0.692, 0.4690000000000001, -0.07299999999999995], 0.8626585695006748),
    (9, [0.7090000000000001, -0.357, 0.16999999999999993, -0.20199999999999996, -0.8220000000000001, 0.3920000000000001, -0.06799999999999995, -0.692, 0.4690000000000001, -0.07299999999999995], 0.8626585695006748),
    (10, [0.7090000000000001, -0.357, 0.16999999999999993, -0.20199999999999996, -0.8220000000000001, 0.3920000000000001, -0.06799999999999995, -0.692, 0.4690000000000001, -0.07299999999999995], 0.8626585695006748),
    (11, [0.7090000000000001, -0.357, 0.16999999999999993, -0.20199999999999996, -0.8220000000000001, 0.3920000000000001, -0.06799999999999995, -0.692, 0.4690000000000001, -0.07299999999999995], 0.8626585695006748),
    (12, [0.7090000000000001, -0.357, 0.16999999999999993, -0.20199999999999996, -0.8220000000000001, 0.3920000000000001, -0.06799999999999995, -0.692, 0.4690000000000001, -0.07299999999999995], 0.8626585695006748),
    (13, [0.7090000000000001, -0.357, 0.16999999999999993, -0.20199999999999996, -0.8220000000000001, 0.3920000000000001, -0.06799999999999995, -0.692, 0.4690000000000001, -0.07299999999999995], 0.8626585695006748),
    (14, [0.7090000000000001, -0.357, 0.16999999999999993, -0.20199999999999996, -0.8220000000000001, 0.3920000000000001, -0.06799999999999995, -0.692, 0.4690000000000001, -0.07299999999999995], 0.8626585695006748),
    (15, [0.7090000000000001, -0.357, 0.16999999999999993, -0.20199999999999996, -0.8220000000000001, 0.3920000000000001, -0.06799999999999995, -0.692, 0.4690000000000001, -0.07299999999999995], 0.8626585695006748),
    (16, [0.7090000000000001, -0.357, 0.16999999999999993, -0.20199999999999996, -0.8220000000000001, 0.3920000000000001, -0.06799999999999995, -0.692, 0.4690000000000001, -0.07299999999999995], 0.8626585695006748),
    (17, [0.7090000000000001, -0.357, 0.16999999999999993, -0.20199999999999996, -0.8220000000000001, 0.3920000000000001, -0.06799999999999995, -0.692, 0.4690000000000001, -0.07299999999999995], 0.8626585695006748),
    (18, [0.7090000000000001, -0.357, 0.16999999999999993, -0.20199999999999996, -0.8220000000000001, 0.3920000000000001, -0.06799999999999995, -0.692, 0.4690000000000001, -0.07299999999999995], 0.8626585695006748),
    (19, [0.7090000000000001, -0.357, 0.16999999999999993, -0.20199999999999996, -0.8220000000000001, 0.3920000000000001, -0.06799999999999995, -0.692, 0.4690000000000001, -0.07299999999999995], 0.8626585695006748),
    (20, [0.7090000000000001, -0.357, 0.16999999999999993, -0.20199999999999996, -0.8220000000000001, 0.3920000000000001, -0.06799999999999995, -0.692, 0.4690000000000001, -0.07299999999999995], 0.8626585695006748),
    (21, [0.7090000000000001, -0.357, 0.16999999999999993, -0.20199999999999996, -0.8220000000000001, 0.3920000000000001, -0.06799999999999995, -0.692, 0.4690000000000001, -0.07299999999999995], 0.8626585695006748),
    (22, [0.7090000000000001, -0.357, 0.16999999999999993, -0.20199999999999996, -0.8220000000000001, 0.3920000000000001, -0.06799999999999995, -0.692, 0.4690000000000001, -0.07299999999999995], 0.8626585695006748),
    (23, [0.7090000000000001, -0.357, 0.16999999999999993, -0.20199999999999996, -0.8220000000000001, 0.3920000000000001, -0.06799999999999995, -0.692, 0.4690000000000001, -0.07299999999999995], 0.8626585695006748),
    (24, [0.7090000000000001, -0.357, 0.16999999999999993, -0.20199999999999996, -0.8220000000000001, 0.3920000000000001, -0.06799999999999995, -0.692, 0.4690000000000001, -0.07299999999999995], 0.8626585695006748),
    (25, [0.7090000000000001, -0.357, 0.16999999999999993, -0.20199999999999996, -0.8220000000000001, 0.3920000000000001, -0.06799999999999995, -0.692, 0.4690000000000001, -0.07299999999999995], 0.8626585695006748),
    (26, [0.7090000000000001, -0.357, 0.16999999999999993, -0.20199999999999996, -0.8220000000000001, 0.3920000000000001, -0.06799999999999995, -0.692, 0.4690000000000001, -0.07299999999999995], 0.8626585695006748),
    (27, [0.7090000000000001, -0.357, 0.16999999999999993, -0.20199999999999996, -0.8220000000000001, 0.3920000000000001, -0.06799999999999995, -0.692, 0.4690000000000001, -0.07299999999999995], 0.8626585695006748),
    (28, [0.7090000000000001, -0.357, 0.16999999999999993, -0.20199999999999996, -0.8220000000000001, 0.3920000000000001, -0.06799999999999995, -0.692, 0.4690000000000001, -0.07299999999999995], 0.8626585695006748),
    (29, [0.7090000000000001, -0.357, 0.16999999999999993, -0.20199999999999996, -0.8220000000000001, 0.3920000000000001, -0.06799999999999995, -0.692, 0.4690000000000001, -0.07299999999999995], 0.8626585695006748),
    (30, [0.7090000000000001, -0.357, 0.16999999999999993, -0.20199999999999996, -0.8220000000000001, 0.3920000000000001, -0.06799999999999995, -0.692, 0.4690000000000001, -0.07299999999999995], 0.8626585695006748),
    (31, [0.7090000000000001, -0.357, 0.16999999999999993, -0.20199999999999996, -0.8220000000000001, 0.3920000000000001, -0.06799999999999995, -0.692, 0.4690000000000001, -0.07299999999999995], 0.8626585695006748),
    (32, [0.7090000000000001, -0.357, 0.16999999999999993, -0.20199999999999996, -0.8220000000000001, 0.3920000000000001, -0.06799999999999995, -0.692, 0.4690000000000001, -0.07299999999999995], 0.8626585695006748),
    (33, [0.7090000000000001, -0.357, 0.16999999999999993, -0.20199999999999996, -0.8220000000000001, 0.3920000000000001, -0.06799999999999995, -0.692, 0.4690000000000001, -0.07299999999999995], 0.8626585695006748),
    (34, [0.7090000000000001, -0.357, 0.16999999999999993, -0.20199999999999996, -0.8220000000000001, 0.3920000000000001, -0.06799999999999995, -0.692, 0.4690000000000001, -0.07299999999999995], 0.8626585695006748),
    (35, [0.7090000000000001, -0.357, 0.16999999999999993, -0.20199999999999996, -0.8220000000000001, 0.3920000000000001, -0.06799999999999995, -0.692, 0.4690000000000001, -0.07299999999999995], 0.8626585695006748),
    (36, [0.7090000000000001, -0.357, 0.16999999999999993, -0.20199999999999996, -0.8220000000000001, 0.3920000000000001, -0.06799999999999995, -0.692, 0.4690000000000001, -0.07299999999999995], 0.8626585695006748),
    (37, [0.7090000000000001, -0.357, 0.16999999999999993, -0.20199999999999996, -0.8220000000000001, 0.3920000000000001, -0.06799999999999995, -0.692, 0.4690000000000001, -0.07299999999999995], 0.8626585695006748),
    (38, [0.7090000000000001, -0.357, 0.16999999999999993, -0.20199999999999996, -0.8220000000000001, 0.3920000000000001, -0.06799999999999995, -0.692, 0.4690000000000001, -0.07299999999999995], 0.8626585695006748),
    (39, [0.7090000000000001, -0.357, 0.16999999999999993, -0.20199999999999996, -0.8220000000000001, 0.3920000000000001, -0.06799999999999995, -0.692, 0.4690000000000001, -0.07299999999999995], 0.8626585695006748),
    (40, [0.7090000000000001, -0.357, 0.16999999999999993, -0.20199999999999996, -0.8220000000000001, 0.3920000000000001, -0.06799999999999995, -0.692, 0.4690000000000001, -0.07299999999999995], 0.8626585695006748),
    (41, [0.7090000000000001, -0.357, 0.16999999999999993, -0.20199999999999996, -0.8220000000000001, 0.3920000000000001, -0.06799999999999995, -0.692, 0.4690000000000001, -0.07299999999999995], 0.8626585695006748),
    (42, [0.7090000000000001, -0.357, 0.16999999999999993, -0.20199999999999996, -0.8220000000000001, 0.3920000000000001, -0.06799999999999995, -0.692, 0.4690000000000001, -0.07299999999999995], 0.8626585695006748),
    (43, [0.7090000000000001, -0.357, 0.16999999999999993, -0.20199999999999996, -0.8220000000000001, 0.3920000000000001, -0.06799999999999995, -0.692, 0.4690000000000001, -0.07299999999999995], 0.8626585695006748),
    (44, [0.7090000000000001, -0.357, 0.16999999999999993, -0.20199999999999996, -0.8220000000000001, 0.3920000000000001, -0.06799999999999995, -0.692, 0.4690000000000001, -0.07299999999999995], 0.8626585695006748),
    (45, [0.7090000000000001, -0.357, 0.16999999999999993, -0.20199999999999996, -0.8220000000000001, 0.3920000000000001, -0.06799999999999995, -0.692, 0.4690000000000001, -0.07299999999999995], 0.8626585695006748),
    (46, [0.7090000000000001, -0.357, 0.16999999999999993, -0.20199999999999996, -0.8220000000000001, 0.3920000000000001, -0.06799999999999995, -0.692, 0.4690000000000001, -0.07299999999999995], 0.8626585695006748),
    (47, [0.7090000000000001, -0.357, 0.16999999999999993, -0.20199999999999996, -0.8220000000000001, 0.3920000000000001, -0.06799999999999995, -0.692, 0.4690000000000001, -0.07299999999999995], 0.8626585695006748),
    (48, [0.7090000000000001, -0.357, 0.16999999999999993, -0.20199999999999996, -0.8220000000000001, 0.3920000000000001, -0.06799999999999995, -0.692, 0.4690000000000001, -0.07299999999999995], 0.8626585695006748),
    (49, [0.7090000000000001, -0.357, 0.16999999999999993, -0.20199999999999996, -0.8220000000000001, 0.3920000000000001, -0.06799999999999995, -0.692, 0.4690000000000001, -0.07299999999999995], 0.8626585695006748),
    (50, [0.7090000000000001, -0.357, 0.16999999999999993, -0.20199999999999996, -0.8220000000000001, 0.3920000000000001, -0.06799999999999995, -0.692, 0.4690000000000001, -0.07299999999999995], 0.8626585695006748),
    (51, [0.7090000000000001, -0.357, 0.16999999999999993, -0.20199999999999996, -0.8220000000000001, 0.3920000000000001, -0.06799999999999995, -0.692, 0.4690000000000001, -0.07299999999999995], 0.8626585695006748),
    (52, [0.7090000000000001, -0.357, 0.16999999999999993, -0.20199999999999996, -0.8220000000000001, 0.3920000000000001, -0.06799999999999995, -0.692, 0.4690000000000001, -0.07299999999999995], 0.8626585695006748),
    (53, [0.7090000000000001, -0.357, 0.16999999999999993, -0.20199999999999996, -0.8220000000000001, 0.3920000000000001, -0.06799999999999995, -0.692, 0.4690000000000001, -0.07299999999999995], 0.8626585695006748),
    (54, [0.7090000000000001, -0.357, 0.16999999999999993, -0.20199999999999996, -0.8220000000000001, 0.3920000000000001, -0.06799999999999995, -0.692, 0.4690000000000001, -0.07299999999999995], 0.8626585695006748),
]

