ranges of every chromosome : (0, 1)
    selection method is: RouletteWheelSelection
    crossover method is: UniformCrossover
    pc: The probability of crossover: 0.700000
    pe: Gene exchange probability: 0.500000
    mutation method is: FlipBitBigMutation
    pm: The probability of mutation: 0.200000
    pbm: The probability of big mutation: 0.500000
    alpha: intensive factor: 0.750000
best_fit = [
    (0, [0.92, 0.23700000000000002, 0.374, 0.152, 0.808, 0.4, 0.5730000000000001, 0.788, 0.687, 0.927], 0.8527935222672065),
    (1, [0.723, 0.8220000000000001, 0.294, 0.272, 0.528, 0.36, 0.927, 0.991, 0.323, 0.705], 0.8577867746288799),
    (2, [0.723, 0.8220000000000001, 0.294, 0.272, 0.528, 0.36, 0.927, 0.991, 0.323, 0.705], 0.8577867746288799),
    (3, [0.713, 0.257, 0.787, 0.4, 0.872, 0.5680000000000001, 0.798, 0.98, 0.715, 0.498], 0.8577935222672064),
    (4, [0.713, 0.257, 0.787, 0.4, 0.872, 0.5680000000000001, 0.798, 0.98, 0.715, 0.498], 0.8577935222672064),
    (5, [0.713, 0.257, 0.787, 0.4, 0.872, 0.5680000000000001, 0.798, 0.98, 0.715, 0.498], 0.8577935222672064),
    (6, [0.713, 0.257, 0.787, 0.4, 0.872, 0.5680000000000001, 0.798, 0.98, 0.715, 0.498], 0.8577935222672064),
    (7, [0.98, 0.891, 0.666, 0.362, 0.293, 0.44, 0.758, 0.9530000000000001, 0.433, 0.404], 0.8579217273954116),
    (8, [0.98, 0.891, 0.666, 0.362, 0.293, 0.44, 0.758, 0.9530000000000001, 0.433, 0.404], 0.8579217273954116),
    (9, [0.522, 0.328, 0.855, 0.14300000000000002, 0.488, 0.577, 0.749, 0.905, 0.375, 0.17500000000000002], 0.8627867746288798),
    (10, [0.522, 0.328, 0.855, 0.14300000000000002, 0.488, 0.577, 0.749, 0.905, 0.375, 0.17500000000000002], 0.8627867746288798),
    (11, [0.522, 0.328, 0.855, 0.14300000000000002, 0.488, 0.577, 0.749, 0.905, 0.375, 0.17500000000000002], 0.8627867746288798),
    (12, [0.522, 0.328, 0.855, 0.14300000000000002, 0.488, 0.577, 0.749, 0.905, 0.375, 0.17500000000000002], 0.8627867746288798),
    (13, [0.522, 0.328, 0.855, 0.14300000000000002, 0.488, 0.577, 0.749, 0.905, 0.375, 0.17500000000000002], 0.8627867746288798),
    (14, [0.522, 0.328, 0.855, 0.14300000000000002, 0.488, 0.577, 0.749, 0.905, 0.375, 0.17500000000000002], 0.8627867746288798),
    (15, [0.522, 0.328, 0.855, 0.14300000000000002, 0.488, 0.577, 0.749, 0.905, 0.375, 0.17500000000000002], 0.8627867746288798),
    (16, [0.522, 0.328, 0.855, 0.14300000000000002, 0.488, 0.577, 0.749, 0.905, 0.375, 0.17500000000000002], 0.8627867746288798),
    (17, [0.522, 0.328, 0.855, 0.14300000000000002, 0.488, 0.577, 0.749, 0.905, 0.375, 0.17500000000000002], 0.8627867746288798),
    (18, [0.522, 0.328, 0.855, 0.14300000000000002, 0.488, 0.577, 0.749, 0.905, 0.375, 0.17500000000000002], 0.8627867746288798),
    (19, [0.522, 0.328, 0.855, 0.14300000000000002, 0.488, 0.577, 0.749, 0.905, 0.375, 0.17500000000000002], 0.8627867746288798),
    (20, [0.522, 0.328, 0.855, 0.14300000000000002, 0.488, 0.577, 0.749, 0.905, 0.375, 0.17500000000000002], 0.8627867746288798),
    (21, [0.618, 0.721, 0.255, 0.23600000000000002, 0.322, 0.546, 0.871, 0.397, 0.328, 0.442], 0.8677867746288799),
    (22, [0.618, 0.721, 0.255, 0.23600000000000002, 0.322, 0.546, 0.871, 0.397, 0.328, 0.442], 0.8677867746288799),
    (23, [0.618, 0.721, 0.255, 0.23600000000000002, 0.322, 0.546, 0.871, 0.397, 0.328, 0.442], 0.8677867746288799),
    (24, [0.618, 0.721, 0.255, 0.23600000000000002, 0.322, 0.546, 0.871, 0.397, 0.328, 0.442], 0.8677867746288799),
    (25, [0.618, 0.721, 0.255, 0.23600000000000002, 0.322, 0.546, 0.871, 0.397, 0.328, 0.442], 0.8677867746288799),
    (26, [0.618, 0.721, 0.255, 0.23600000000000002, 0.322, 0.546, 0.871, 0.397, 0.328, 0.442], 0.8677867746288799),
    (27, [0.618, 0.721, 0.255, 0.23600000000000002, 0.322, 0.546, 0.871, 0.397, 0.328, 0.442], 0.8677867746288799),
    (28, [0.618, 0.721, 0.255, 0.23600000000000002, 0.322, 0.546, 0.871, 0.397, 0.328, 0.442], 0.8677867746288799),
    (29, [0.618, 0.721, 0.255, 0.23600000000000002, 0.322, 0.546, 0.871, 0.397, 0.328, 0.442], 0.8677867746288799),
    (30, [0.618, 0.721, 0.255, 0.23600000000000002, 0.322, 0.546, 0.871, 0.397, 0.328, 0.442], 0.8677867746288799),
    (31, [0.618, 0.721, 0.255, 0.23600000000000002, 0.322, 0.546, 0.871, 0.397, 0.328, 0.442], 0.8677867746288799),
    (32, [0.618, 0.721, 0.255, 0.23600000000000002, 0.322, 0.546, 0.871, 0.397, 0.328, 0.442], 0.8677867746288799),
    (33, [0.618, 0.721, 0.255, 0.23600000000000002, 0.322, 0.546, 0.871, 0.397, 0.328, 0.442], 0.8677867746288799),
    (34, [0.618, 0.721, 0.255, 0.23600000000000002, 0.322, 0.546, 0.871, 0.397, 0.328, 0.442], 0.8677867746288799),
    (35, [0.618, 0.721, 0.255, 0.23600000000000002, 0.322, 0.546, 0.871, 0.397, 0.328, 0.442], 0.8677867746288799),
    (36, [0.618, 0.721, 0.255, 0.23600000000000002, 0.322, 0.546, 0.871, 0.397, 0.328, 0.442], 0.8677867746288799),
    (37, [0.618, 0.721, 0.255, 0.23600000000000002, 0.322, 0.546, 0.871, 0.397, 0.328, 0.442], 0.8677867746288799),
    (38, [0.618, 0.721, 0.255, 0.23600000000000002, 0.322, 0.546, 0.871, 0.397, 0.328, 0.442], 0.8677867746288799),
    (39, [0.618, 0.721, 0.255, 0.23600000000000002, 0.322, 0.546, 0.871, 0.397, 0.328, 0.442], 0.8677867746288799),
    (40, [0.618, 0.721, 0.255, 0.23600000000000002, 0.322, 0.546, 0.871, 0.397, 0.328, 0.442], 0.8677867746288799),
    (41, [0.618, 0.721, 0.255, 0.23600000000000002, 0.322, 0.546, 0.871, 0.397, 0.328, 0.442], 0.8677867746288799),
    (42, [0.618, 0.721, 0.255, 0.23600000000000002, 0.322, 0.546, 0.871, 0.397, 0.328, 0.442], 0.8677867746288799),
    (43, [0.618, 0.721, 0.255, 0.23600000000000002, 0.322, 0.546, 0.871, 0.397, 0.328, 0.442], 0.8677867746288799),
    (44, [0.618, 0.721, 0.255, 0.23600000000000002, 0.322, 0.546, 0.871, 0.397, 0.328, 0.442], 0.8677867746288799),
    (45, [0.618, 0.721, 0.255, 0.23600000000000002, 0.322, 0.546, 0.871, 0.397, 0.328, 0.442], 0.8677867746288799),
    (46, [0.618, 0.721, 0.255, 0.23600000000000002, 0.322, 0.546, 0.871, 0.397, 0.328, 0.442], 0.8677867746288799),
    (47, [0.618, 0.721, 0.255, 0.23600000000000002, 0.322, 0.546, 0.871, 0.397, 0.328, 0.442], 0.8677867746288799),
    (48, [0.618, 0.721, 0.255, 0.23600000000000002, 0.322, 0.546, 0.871, 0.397, 0.328, 0.442], 0.8677867746288799),
    (49, [0.618, 0.721, 0.255, 0.23600000000000002, 0.322, 0.546, 0.871, 0.397, 0.328, 0.442], 0.8677867746288799),
    (50, [0.618, 0.721, 0.255, 0.23600000000000002, 0.322, 0.546, 0.871, 0.397, 0.328, 0.442], 0.8677867746288799),
    (51, [0.618, 0.721, 0.255, 0.23600000000000002, 0.322, 0.546, 0.871, 0.397, 0.328, 0.442], 0.8677867746288799),
    (52, [0.618, 0.721, 0.255, 0.23600000000000002, 0.322, 0.546, 0.871, 0.397, 0.328, 0.442], 0.8677867746288799),
    (53, [0.618, 0.721, 0.255, 0.23600000000000002, 0.322, 0.546, 0.871, 0.397, 0.328, 0.442], 0.8677867746288799),
    (54, [0.618, 0.721, 0.255, 0.23600000000000002, 0.322, 0.546, 0.871, 0.397, 0.328, 0.442], 0.8677867746288799),
]

