ranges of every chromosome : (-2, 2)
    selection method is: RouletteWheelSelection
    crossover method is: UniformCrossover
    pc: The probability of crossover: 0.850000
    pe: Gene exchange probability: 0.500000
    mutation method is: FlipBitBigMutation
    pm: The probability of mutation: 0.300000
    pbm: The probability of big mutation: 0.700000
    alpha: intensive factor: 0.600000
best_fit = [
    (0, [0.6499999999999999, 0.30600000000000005, -1.184, 0.19600000000000017, 1.205, -0.3320000000000001, 0.3460000000000001, -1.0, -0.5920000000000001, 0.4990000000000001], 0.8576585695006747),
    (1, [0.6499999999999999, 0.30600000000000005, -1.184, 0.19600000000000017, 1.205, -0.3320000000000001, 0.3460000000000001, -1.0, -0.5920000000000001, 0.4990000000000001], 0.8576585695006747),
    (2, [0.6499999999999999, 0.30600000000000005, -1.184, 0.19600000000000017, 1.205, -0.3320000000000001, 0.3460000000000001, -1.0, -0.5920000000000001, 0.4990000000000001], 0.8576585695006747),
    (3, [0.6499999999999999, 0.30600000000000005, -1.184, 0.19600000000000017, 1.205, -0.3320000000000001, 0.3460000000000001, -1.0, -0.5920000000000001, 0.4990000000000001], 0.8576585695006747),
    (4, [0.6499999999999999, 0.30600000000000005, -1.184, 0.19600000000000017, 1.205, -0.3320000000000001, 0.3460000000000001, -1.0, -0.5920000000000001, 0.4990000000000001], 0.8576585695006747),
    (5, [1.4620000000000002, -0.6159999999999999, 0.532, -1.059, -1.4809999999999999, -0.42500000000000004, -0.31099999999999994, -1.205, 1.1150000000000002, -1.541], 0.8577800269905534),
    (6, [1.4620000000000002, -0.6159999999999999, 0.532, -1.059, -1.4809999999999999, -0.42500000000000004, -0.31099999999999994, -1.205, 1.1150000000000002, -1.541], 0.8577800269905534),
    (7, [1.4620000000000002, -0.6159999999999999, 0.532, -1.059, -1.4809999999999999, -0.42500000000000004, -0.31099999999999994, -1.205, 1.1150000000000002, -1.541], 0.8577800269905534),
    (8, [0.5640000000000001, 1.1520000000000001, -0.788, 0.8570000000000002, 0.7570000000000001, 1.4420000000000002, -0.813, 1.3050000000000002, 1.681, 0.476], 0.8631848852901485),
    (9, [0.5640000000000001, 1.1520000000000001, -0.788, 0.8570000000000002, 0.7570000000000001, 1.4420000000000002, -0.813, 1.3050000000000002, 1.681, 0.476], 0.8631848852901485),
    (10, [0.5640000000000001, 1.1520000000000001, -0.788, 0.8570000000000002, 0.7570000000000001, 1.4420000000000002, -0.813, 1.3050000000000002, 1.681, 0.476], 0.8631848852901485),
    (11, [0.5640000000000001, 1.1520000000000001, -0.788, 0.8570000000000002, 0.7570000000000001, 1.4420000000000002, -0.813, 1.3050000000000002, 1.681, 0.476], 0.8631848852901485),
    (12, [0.5640000000000001, 1.1520000000000001, -0.788, 0.8570000000000002, 0.7570000000000001, 1.4420000000000002, -0.813, 1.3050000000000002, 1.681, 0.476], 0.8631848852901485),
    (13, [0.5640000000000001, 1.1520000000000001, -0.788, 0.8570000000000002, 0.7570000000000001, 1.4420000000000002, -0.813, 1.3050000000000002, 1.681, 0.476], 0.8631848852901485),
    (14, [0.5640000000000001, 1.1520000000000001, -0.788, 0.8570000000000002, 0.7570000000000001, 1.4420000000000002, -0.813, 1.3050000000000002, 1.681, 0.476], 0.8631848852901485),
    (15, [0.5640000000000001, 1.1520000000000001, -0.788, 0.8570000000000002, 0.7570000000000001, 1.4420000000000002, -0.813, 1.3050000000000002, 1.681, 0.476], 0.8631848852901485),
    (16, [0.5640000000000001, 1.1520000000000001, -0.788, 0.8570000000000002, 0.7570000000000001, 1.4420000000000002, -0.813, 1.3050000000000002, 1.681, 0.476], 0.8631848852901485),
    (17, [0.5640000000000001, 1.1520000000000001, -0.788, 0.8570000000000002, 0.7570000000000001, 1.4420000000000002, -0.813, 1.3050000000000002, 1.681, 0.476], 0.8631848852901485),
    (18, [0.5640000000000001, 1.1520000000000001, -0.788, 0.8570000000000002, 0.7570000000000001, 1.4420000000000002, -0.813, 1.3050000000000002, 1.681, 0.476], 0.8631848852901485),
    (19, [0.5640000000000001, 1.1520000000000001, -0.788, 0.8570000000000002, 0.7570000000000001, 1.4420000000000002, -0.813, 1.3050000000000002, 1.681, 0.476], 0.8631848852901485),
    (20, [0.5640000000000001, 1.1520000000000001, -0.788, 0.8570000000000002, 0.7570000000000001, 1.4420000000000002, -0.813, 1.3050000000000002, 1.681, 0.476], 0.8631848852901485),
    (21, [0.5640000000000001, 1.1520000000000001, -0.788, 0.8570000000000002, 0.7570000000000001, 1.4420000000000002, -0.813, 1.3050000000000002, 1.681, 0.476], 0.8631848852901485),
    (22, [0.5640000000000001, 1.1520000000000001, -0.788, 0.8570000000000002, 0.7570000000000001, 1.4420000000000002, -0.813, 1.3050000000000002, 1.681, 0.476], 0.8631848852901485),
    (23, [0.5640000000000001, 1.1520000000000001, -0.788, 0.8570000000000002, 0.7570000000000001, 1.4420000000000002, -0.813, 1.3050000000000002, 1.681, 0.476], 0.8631848852901485),
    (24, [0.5640000000000001, 1.1520000000000001, -0.788, 0.8570000000000002, 0.7570000000000001, 1.4420000000000002, -0.813, 1.3050000000000002, 1.681, 0.476], 0.8631848852901485),
    (25, [0.5640000000000001, 1.1520000000000001, -0.788, 0.8570000000000002, 0.7570000000000001, 1.4420000000000002, -0.813, 1.3050000000000002, 1.681, 0.476], 0.8631848852901485),
    (26, [0.5640000000000001, 1.1520000000000001, -0.788, 0.8570000000000002, 0.7570000000000001, 1.4420000000000002, -0.813, 1.3050000000000002, 1.681, 0.476], 0.8631848852901485),
    (27, [0.5640000000000001, 1.1520000000000001, -0.788, 0.8570000000000002, 0.7570000000000001, 1.4420000000000002, -0.813, 1.3050000000000002, 1.681, 0.476], 0.8631848852901485),
    (28, [0.5640000000000001, 1.1520000000000001, -0.788, 0.8570000000000002, 0.7570000000000001, 1.4420000000000002, -0.813, 1.3050000000000002, 1.681, 0.476], 0.8631848852901485),
    (29, [0.5640000000000001, 1.1520000000000001, -0.788, 0.8570000000000002, 0.7570000000000001, 1.4420000000000002, -0.813, 1.3050000000000002, 1.681, 0.476], 0.8631848852901485),
    (30, [0.5640000000000001, 1.1520000000000001, -0.788, 0.8570000000000002, 0.7570000000000001, 1.4420000000000002, -0.813, 1.3050000000000002, 1.681, 0.476], 0.8631848852901485),
    (31, [0.5640000000000001, 1.1520000000000001, -0.788, 0.8570000000000002, 0.7570000000000001, 1.4420000000000002, -0.813, 1.3050000000000002, 1.681, 0.476], 0.8631848852901485),
    (32, [0.5640000000000001, 1.1520000000000001, -0.788, 0.8570000000000002, 0.7570000000000001, 1.4420000000000002, -0.813, 1.3050000000000002, 1.681, 0.476], 0.8631848852901485),
    (33, [0.5640000000000001, 1.1520000000000001, -0.788, 0.8570000000000002, 0.7570000000000001, 1.4420000000000002, -0.813, 1.3050000000000002, 1.681, 0.476], 0.8631848852901485),
    (34, [0.5640000000000001, 1.1520000000000001, -0.788, 0.8570000000000002, 0.7570000000000001, 1.4420000000000002, -0.813, 1.3050000000000002, 1.681, 0.476], 0.8631848852901485),
    (35, [0.5640000000000001, 1.1520000000000001, -0.788, 0.8570000000000002, 0.7570000000000001, 1.4420000000000002, -0.813, 1.3050000000000002, 1.681, 0.476], 0.8631848852901485),
    (36, [0.5640000000000001, 1.1520000000000001, -0.788, 0.8570000000000002, 0.7570000000000001, 1.4420000000000002, -0.813, 1.3050000000000002, 1.681, 0.476], 0.8631848852901485),
    (37, [0.5640000000000001, 1.1520000000000001, -0.788, 0.8570000000000002, 0.7570000000000001, 1.4420000000000002, -0.813, 1.3050000000000002, 1.681, 0.476], 0.8631848852901485),
    (38, [0.5640000000000001, 1.1520000000000001, -0.788, 0.8570000000000002, 0.7570000000000001, 1.4420000000000002, -0.813, 1.3050000000000002, 1.681, 0.476], 0.8631848852901485),
    (39, [0.5640000000000001, 1.1520000000000001, -0.788, 0.8570000000000002, 0.7570000000000001, 1.4420000000000002, -0.813, 1.3050000000000002, 1.681, 0.476], 0.8631848852901485),
    (40, [0.5640000000000001, 1.1520000000000001, -0.788, 0.8570000000000002, 0.7570000000000001, 1.4420000000000002, -0.813, 1.3050000000000002, 1.681, 0.476], 0.8631848852901485),
    (41, [0.5640000000000001, 1.1520000000000001, -0.788, 0.8570000000000002, 0.7570000000000001, 1.4420000000000002, -0.813, 1.3050000000000002, 1.681, 0.476], 0.8631848852901485),
    (42, [0.5640000000000001, 1.1520000000000001, -0.788, 0.8570000000000002, 0.7570000000000001, 1.4420000000000002, -0.813, 1.3050000000000002, 1.681, 0.476], 0.8631848852901485),
    (43, [0.5640000000000001, 1.1520000000000001, -0.788, 0.8570000000000002, 0.7570000000000001, 1.4420000000000002, -0.813, 1.3050000000000002, 1.681, 0.476], 0.8631848852901485),
    (44, [0.5640000000000001, 1.1520000000000001, -0.788, 0.8570000000000002, 0.7570000000000001, 1.4420000000000002, -0.813, 1.3050000000000002, 1.681, 0.476], 0.8631848852901485),
    (45, [0.5640000000000001, 1.1520000000000001, -0.788, 0.8570000000000002, 0.7570000000000001, 1.4420000000000002, -0.813, 1.3050000000000002, 1.681, 0.476], 0.8631848852901485),
    (46, [0.5640000000000001, 1.1520000000000001, -0.788, 0.8570000000000002, 0.7570000000000001, 1.4420000000000002, -0.813, 1.3050000000000002, 1.681, 0.476], 0.8631848852901485),
    (47, [0.5640000000000001, 1.1520000000000001, -0.788, 0.8570000000000002, 0.7570000000000001, 1.4420000000000002, -0.813, 1.3050000000000002, 1.681, 0.476], 0.8631848852901485),
    (48, [-1.037, 1.068, 1.201, 1.8770000000000002, -0.538, 0.9830000000000001, 0.9950000000000001, -1.2229999999999999, 1.033, -1.1749999999999998], 0.8634412955465587),
    (49, [-1.037, 1.068, 1.201, 1.8770000000000002, -0.538, 0.9830000000000001, 0.9950000000000001, -1.2229999999999999, 1.033, -1.1749999999999998], 0.8634412955465587),
    (50, [-1.037, 1.068, 1.201, 1.8770000000000002, -0.538, 0.9830000000000001, 0.9950000000000001, -1.2229999999999999, 1.033, -1.1749999999999998], 0.8634412955465587),
    (51, [-1.037, 1.068, 1.201, 1.8770000000000002, -0.538, 0.9830000000000001, 0.9950000000000001, -1.2229999999999999, 1.033, -1.1749999999999998], 0.8634412955465587),
    (52, [-1.037, 1.068, 1.201, 1.8770000000000002, -0.538, 0.9830000000000001, 0.9950000000000001, -1.2229999999999999, 1.033, -1.1749999999999998], 0.8634412955465587),
    (53, [-1.037, 1.068, 1.201, 1.8770000000000002, -0.538, 0.9830000000000001, 0.9950000000000001, -1.2229999999999999, 1.033, -1.1749999999999998], 0.8634412955465587),
    (54, [-1.037, 1.068, 1.201, 1.8770000000000002, -0.538, 0.9830000000000001, 0.9950000000000001, -1.2229999999999999, 1.033, -1.1749999999999998], 0.8634412955465587),
]

