ranges of every chromosome : (0, 1)
    selection method is: LinearRankingSelection
    crossover method is: UniformCrossover
    pc: The probability of crossover: 0.850000
    pe: Gene exchange probability: 0.700000
    mutation method is: FlipBitBigMutation
    pm: The probability of mutation: 0.300000
    pbm: The probability of big mutation: 0.700000
    alpha: intensive factor: 0.600000
best_fit = [
    (0, [0.398, 0.227, 0.244, 0.455, 0.587, 0.269, 0.033, 0.999, 0.677, 0.215], 0.8527935222672065),
    (1, [0.971, 0.659, 0.427, 0.937, 0.233, 0.798, 0.212, 0.748, 0.846, 0.084], 0.8529217273954115),
    (2, [0.971, 0.659, 0.427, 0.937, 0.233, 0.798, 0.212, 0.748, 0.846, 0.084], 0.8529217273954115),
    (3, [0.277, 0.20500000000000002, 0.47300000000000003, 0.335, 0.9420000000000001, 0.405, 0.511, 0.8270000000000001, 0.8160000000000001, 0.316], 0.8576585695006747),
    (4, [0.854, 0.635, 0.23600000000000002, 0.20700000000000002, 0.515, 0.362, 0.581, 0.47200000000000003, 0.277, 0.222], 0.8577867746288799),
    (5, [0.854, 0.635, 0.23600000000000002, 0.20700000000000002, 0.515, 0.362, 0.581, 0.47200000000000003, 0.277, 0.222], 0.8577867746288799),
    (6, [0.854, 0.635, 0.23600000000000002, 0.20700000000000002, 0.515, 0.362, 0.581, 0.47200000000000003, 0.277, 0.222], 0.8577867746288799),
    (7, [0.684, 0.28600000000000003, 0.913, 0.518, 0.536, 0.6920000000000001, 0.105, 0.88, 0.906, 0.47300000000000003], 0.8577935222672064),
    (8, [0.684, 0.28600000000000003, 0.913, 0.518, 0.536, 0.6920000000000001, 0.105, 0.88, 0.906, 0.47300000000000003], 0.8577935222672064),
    (9, [0.684, 0.28600000000000003, 0.913, 0.518, 0.536, 0.6920000000000001, 0.105, 0.88, 0.906, 0.47300000000000003], 0.8577935222672064),
    (10, [0.684, 0.28600000000000003, 0.913, 0.518, 0.536, 0.6920000000000001, 0.105, 0.88, 0.906, 0.47300000000000003], 0.8577935222672064),
    (11, [0.684, 0.28600000000000003, 0.913, 0.518, 0.536, 0.6920000000000001, 0.105, 0.88, 0.906, 0.47300000000000003], 0.8577935222672064),
    (12, [0.925, 0.762, 0.58, 0.021, 0.621, 0.418, 0.775, 0.724, 0.372, 0.084], 0.8579217273954116),
    (13, [0.925, 0.762, 0.58, 0.021, 0.621, 0.418, 0.775, 0.724, 0.372, 0.084], 0.8579217273954116),
    (14, [0.925, 0.762, 0.58, 0.021, 0.621, 0.418, 0.775, 0.724, 0.372, 0.084], 0.8579217273954116),
    (15, [0.925, 0.762, 0.58, 0.021, 0.621, 0.418, 0.775, 0.724, 0.372, 0.084], 0.8579217273954116),
    (16, [0.925, 0.762, 0.58, 0.021, 0.621, 0.418, 0.775, 0.724, 0.372, 0.084], 0.8579217273954116),
    (17, [0.925, 0.762, 0.58, 0.021, 0.621, 0.418, 0.775, 0.724, 0.372, 0.084], 0.8579217273954116),
    (18, [0.925, 0.762, 0.58, 0.021, 0.621, 0.418, 0.775, 0.724, 0.372, 0.084], 0.8579217273954116),
    (19, [0.925, 0.762, 0.58, 0.021, 0.621, 0.418, 0.775, 0.724, 0.372, 0.084], 0.8579217273954116),
    (20, [0.925, 0.762, 0.58, 0.021, 0.621, 0.418, 0.775, 0.724, 0.372, 0.084], 0.8579217273954116),
    (21, [0.925, 0.762, 0.58, 0.021, 0.621, 0.418, 0.775, 0.724, 0.372, 0.084], 0.8579217273954116),
    (22, [0.925, 0.762, 0.58, 0.021, 0.621, 0.418, 0.775, 0.724, 0.372, 0.084], 0.8579217273954116),
    (23, [0.925, 0.762, 0.58, 0.021, 0.621, 0.418, 0.775, 0.724, 0.372, 0.084], 0.8579217273954116),
    (24, [0.925, 0.762, 0.58, 0.021, 0.621, 0.418, 0.775, 0.724, 0.372, 0.084], 0.8579217273954116),
    (25, [0.925, 0.762, 0.58, 0.021, 0.621, 0.418, 0.775, 0.724, 0.372, 0.084], 0.8579217273954116),
    (26, [0.925, 0.762, 0.58, 0.021, 0.621, 0.418, 0.775, 0.724, 0.372, 0.084], 0.8579217273954116),
    (27, [0.443, 0.244, 0.09, 0.304, 0.791, 0.423, 0.331, 0.737, 0.8280000000000001, 0.68], 0.8627935222672065),
    (28, [0.443, 0.244, 0.09, 0.304, 0.791, 0.423, 0.331, 0.737, 0.8280000000000001, 0.68], 0.8627935222672065),
    (29, [0.443, 0.244, 0.09, 0.304, 0.791, 0.423, 0.331, 0.737, 0.8280000000000001, 0.68], 0.8627935222672065),
    (30, [0.443, 0.244, 0.09, 0.304, 0.791, 0.423, 0.331, 0.737, 0.8280000000000001, 0.68], 0.8627935222672065),
    (31, [0.443, 0.244, 0.09, 0.304, 0.791, 0.423, 0.331, 0.737, 0.8280000000000001, 0.68], 0.8627935222672065),
    (32, [0.443, 0.244, 0.09, 0.304, 0.791, 0.423, 0.331, 0.737, 0.8280000000000001, 0.68], 0.8627935222672065),
    (33, [0.642, 0.847, 0.358, 0.153, 0.421, 0.451, 0.729, 0.994, 0.276, 0.168], 0.8677867746288799),
    (34, [0.642, 0.847, 0.358, 0.153, 0.421, 0.451, 0.729, 0.994, 0.276, 0.168], 0.8677867746288799),
    (35, [0.642, 0.847, 0.358, 0.153, 0.421, 0.451, 0.729, 0.994, 0.276, 0.168], 0.8677867746288799),
    (36, [0.642, 0.847, 0.358, 0.153, 0.421, 0.451, 0.729, 0.994, 0.276, 0.168], 0.8677867746288799),
    (37, [0.642, 0.847, 0.358, 0.153, 0.421, 0.451, 0.729, 0.994, 0.276, 0.168], 0.8677867746288799),
    (38, [0.642, 0.847, 0.358, 0.153, 0.421, 0.451, 0.729, 0.994, 0.276, 0.168], 0.8677867746288799),
    (39, [0.642, 0.847, 0.358, 0.153, 0.421, 0.451, 0.729, 0.994, 0.276, 0.168], 0.8677867746288799),
    (40, [0.642, 0.847, 0.358, 0.153, 0.421, 0.451, 0.729, 0.994, 0.276, 0.168], 0.8677867746288799),
    (41, [0.642, 0.847, 0.358, 0.153, 0.421, 0.451, 0.729, 0.994, 0.276, 0.168], 0.8677867746288799),
    (42, [0.642, 0.847, 0.358, 0.153, 0.421, 0.451, 0.729, 0.994, 0.276, 0.168], 0.8677867746288799),
    (43, [0.642, 0.847, 0.358, 0.153, 0.421, 0.451, 0.729, 0.994, 0.276, 0.168], 0.8677867746288799),
    (44, [0.642, 0.847, 0.358, 0.153, 0.421, 0.451, 0.729, 0.994, 0.276, 0.168], 0.8677867746288799),
    (45, [0.642, 0.847, 0.358, 0.153, 0.421, 0.451, 0.729, 0.994, 0.276, 0.168], 0.8677867746288799),
    (46, [0.642, 0.847, 0.358, 0.153, 0.421, 0.451, 0.729, 0.994, 0.276, 0.168], 0.8677867746288799),
    (47, [0.642, 0.847, 0.358, 0.153, 0.421, 0.451, 0.729, 0.994, 0.276, 0.168], 0.8677867746288799),
    (48, [0.642, 0.847, 0.358, 0.153, 0.421, 0.451, 0.729, 0.994, 0.276, 0.168], 0.8677867746288799),
    (49, [0.642, 0.847, 0.358, 0.153, 0.421, 0.451, 0.729, 0.994, 0.276, 0.168], 0.8677867746288799),
    (50, [0.642, 0.847, 0.358, 0.153, 0.421, 0.451, 0.729, 0.994, 0.276, 0.168], 0.8677867746288799),
    (51, [0.642, 0.847, 0.358, 0.153, 0.421, 0.451, 0.729, 0.994, 0.276, 0.168], 0.8677867746288799),
    (52, [0.642, 0.847, 0.358, 0.153, 0.421, 0.451, 0.729, 0.994, 0.276, 0.168], 0.8677867746288799),
    (53, [0.642, 0.847, 0.358, 0.153, 0.421, 0.451, 0.729, 0.994, 0.276, 0.168], 0.8677867746288799),
    (54, [0.642, 0.847, 0.358, 0.153, 0.421, 0.451, 0.729, 0.994, 0.276, 0.168], 0.8677867746288799),
]

