ranges of every chromosome : (0, 1)
    selection method is: LinearRankingSelection
    crossover method is: UniformCrossover
    pc: The probability of crossover: 1.000000
    pe: Gene exchange probability: 0.500000
    mutation method is: FlipBitBigMutation
    pm: The probability of mutation: 0.100000
    pbm: The probability of big mutation: 0.500000
    alpha: intensive factor: 0.800000
best_fit = [
    (0, [0.461, 0.26, 0.906, 0.966, 0.11900000000000001, 0.266, 0.171, 0.982, 0.754, 0.835], 0.8529217273954115),
    (1, [0.461, 0.26, 0.906, 0.966, 0.11900000000000001, 0.266, 0.171, 0.982, 0.754, 0.835], 0.8529217273954115),
    (2, [0.5630000000000001, 0.327, 0.156, 0.191, 0.8320000000000001, 0.069, 0.40700000000000003, 0.713, 0.48, 0.88], 0.8576585695006747),
    (3, [0.714, 0.209, 0.482, 0.031, 0.544, 0.493, 0.72, 0.753, 0.747, 0.811], 0.8577935222672064),
    (4, [0.714, 0.209, 0.482, 0.031, 0.544, 0.493, 0.72, 0.753, 0.747, 0.811], 0.8577935222672064),
    (5, [0.714, 0.209, 0.482, 0.031, 0.544, 0.493, 0.72, 0.753, 0.747, 0.811], 0.8577935222672064),
    (6, [0.714, 0.209, 0.482, 0.031, 0.544, 0.493, 0.72, 0.753, 0.747, 0.811], 0.8577935222672064),
    (7, [0.714, 0.209, 0.482, 0.031, 0.544, 0.493, 0.72, 0.753, 0.747, 0.811], 0.8577935222672064),
    (8, [0.714, 0.209, 0.482, 0.031, 0.544, 0.493, 0.72, 0.753, 0.747, 0.811], 0.8577935222672064),
    (9, [0.714, 0.209, 0.482, 0.031, 0.544, 0.493, 0.72, 0.753, 0.747, 0.811], 0.8577935222672064),
    (10, [0.714, 0.209, 0.482, 0.031, 0.544, 0.493, 0.72, 0.753, 0.747, 0.811], 0.8577935222672064),
    (11, [0.714, 0.209, 0.482, 0.031, 0.544, 0.493, 0.72, 0.753, 0.747, 0.811], 0.8577935222672064),
    (12, [0.714, 0.209, 0.482, 0.031, 0.544, 0.493, 0.72, 0.753, 0.747, 0.811], 0.8577935222672064),
    (13, [0.861, 0.902, 0.458, 0.578, 0.20800000000000002, 0.002, 0.063, 0.9590000000000001, 0.445, 0.113], 0.8579217273954116),
    (14, [0.651, 0.277, 0.9580000000000001, 0.395, 0.661, 0.40800000000000003, 0.269, 0.9540000000000001, 0.599, 0.2], 0.8626585695006748),
    (15, [0.618, 0.6970000000000001, 0.242, 0.089, 0.213, 0.297, 0.712, 0.608, 0.255, 0.40700000000000003], 0.8627867746288798),
    (16, [0.618, 0.6970000000000001, 0.242, 0.089, 0.213, 0.297, 0.712, 0.608, 0.255, 0.40700000000000003], 0.8627867746288798),
    (17, [0.618, 0.6970000000000001, 0.242, 0.089, 0.213, 0.297, 0.712, 0.608, 0.255, 0.40700000000000003], 0.8627867746288798),
    (18, [0.455, 0.252, 0.81, 0.376, 0.8160000000000001, 0.5740000000000001, 0.017, 0.807, 0.782, 0.515], 0.8629217273954115),
    (19, [0.455, 0.252, 0.81, 0.376, 0.8160000000000001, 0.5740000000000001, 0.017, 0.807, 0.782, 0.515], 0.8629217273954115),
    (20, [0.455, 0.252, 0.81, 0.376, 0.8160000000000001, 0.5740000000000001, 0.017, 0.807, 0.782, 0.515], 0.8629217273954115),
    (21, [0.455, 0.252, 0.81, 0.376, 0.8160000000000001, 0.5740000000000001, 0.017, 0.807, 0.782, 0.515], 0.8629217273954115),
    (22, [0.455, 0.252, 0.81, 0.376, 0.8160000000000001, 0.5740000000000001, 0.017, 0.807, 0.782, 0.515], 0.8629217273954115),
    (23, [0.455, 0.252, 0.81, 0.376, 0.8160000000000001, 0.5740000000000001, 0.017, 0.807, 0.782, 0.515], 0.8629217273954115),
    (24, [0.455, 0.252, 0.81, 0.376, 0.8160000000000001, 0.5740000000000001, 0.017, 0.807, 0.782, 0.515], 0.8629217273954115),
    (25, [0.455, 0.252, 0.81, 0.376, 0.8160000000000001, 0.5740000000000001, 0.017, 0.807, 0.782, 0.515], 0.8629217273954115),
    (26, [0.455, 0.252, 0.81, 0.376, 0.8160000000000001, 0.5740000000000001, 0.017, 0.807, 0.782, 0.515], 0.8629217273954115),
    (27, [0.455, 0.252, 0.81, 0.376, 0.8160000000000001, 0.5740000000000001, 0.017, 0.807, 0.782, 0.515], 0.8629217273954115),
    (28, [0.455, 0.252, 0.81, 0.376, 0.8160000000000001, 0.5740000000000001, 0.017, 0.807, 0.782, 0.515], 0.8629217273954115),
    (29, [0.455, 0.252, 0.81, 0.376, 0.8160000000000001, 0.5740000000000001, 0.017, 0.807, 0.782, 0.515], 0.8629217273954115),
    (30, [0.455, 0.252, 0.81, 0.376, 0.8160000000000001, 0.5740000000000001, 0.017, 0.807, 0.782, 0.515], 0.8629217273954115),
    (31, [0.455, 0.252, 0.81, 0.376, 0.8160000000000001, 0.5740000000000001, 0.017, 0.807, 0.782, 0.515], 0.8629217273954115),
    (32, [0.455, 0.252, 0.81, 0.376, 0.8160000000000001, 0.5740000000000001, 0.017, 0.807, 0.782, 0.515], 0.8629217273954115),
    (33, [0.455, 0.252, 0.81, 0.376, 0.8160000000000001, 0.5740000000000001, 0.017, 0.807, 0.782, 0.515], 0.8629217273954115),
    (34, [0.455, 0.252, 0.81, 0.376, 0.8160000000000001, 0.5740000000000001, 0.017, 0.807, 0.782, 0.515], 0.8629217273954115),
    (35, [0.455, 0.252, 0.81, 0.376, 0.8160000000000001, 0.5740000000000001, 0.017, 0.807, 0.782, 0.515], 0.8629217273954115),
    (36, [0.455, 0.252, 0.81, 0.376, 0.8160000000000001, 0.5740000000000001, 0.017, 0.807, 0.782, 0.515], 0.8629217273954115),
    (37, [0.455, 0.252, 0.81, 0.376, 0.8160000000000001, 0.5740000000000001, 0.017, 0.807, 0.782, 0.515], 0.8629217273954115),
    (38, [0.455, 0.252, 0.81, 0.376, 0.8160000000000001, 0.5740000000000001, 0.017, 0.807, 0.782, 0.515], 0.8629217273954115),
    (39, [0.455, 0.252, 0.81, 0.376, 0.8160000000000001, 0.5740000000000001, 0.017, 0.807, 0.782, 0.515], 0.8629217273954115),
    (40, [0.455, 0.252, 0.81, 0.376, 0.8160000000000001, 0.5740000000000001, 0.017, 0.807, 0.782, 0.515], 0.8629217273954115),
    (41, [0.455, 0.252, 0.81, 0.376, 0.8160000000000001, 0.5740000000000001, 0.017, 0.807, 0.782, 0.515], 0.8629217273954115),
    (42, [0.455, 0.252, 0.81, 0.376, 0.8160000000000001, 0.5740000000000001, 0.017, 0.807, 0.782, 0.515], 0.8629217273954115),
    (43, [0.455, 0.252, 0.81, 0.376, 0.8160000000000001, 0.5740000000000001, 0.017, 0.807, 0.782, 0.515], 0.8629217273954115),
    (44, [0.455, 0.252, 0.81, 0.376, 0.8160000000000001, 0.5740000000000001, 0.017, 0.807, 0.782, 0.515], 0.8629217273954115),
    (45, [0.455, 0.252, 0.81, 0.376, 0.8160000000000001, 0.5740000000000001, 0.017, 0.807, 0.782, 0.515], 0.8629217273954115),
    (46, [0.455, 0.252, 0.81, 0.376, 0.8160000000000001, 0.5740000000000001, 0.017, 0.807, 0.782, 0.515], 0.8629217273954115),
    (47, [0.455, 0.252, 0.81, 0.376, 0.8160000000000001, 0.5740000000000001, 0.017, 0.807, 0.782, 0.515], 0.8629217273954115),
    (48, [0.455, 0.252, 0.81, 0.376, 0.8160000000000001, 0.5740000000000001, 0.017, 0.807, 0.782, 0.515], 0.8629217273954115),
    (49, [0.455, 0.252, 0.81, 0.376, 0.8160000000000001, 0.5740000000000001, 0.017, 0.807, 0.782, 0.515], 0.8629217273954115),
    (50, [0.455, 0.252, 0.81, 0.376, 0.8160000000000001, 0.5740000000000001, 0.017, 0.807, 0.782, 0.515], 0.8629217273954115),
    (51, [0.455, 0.252, 0.81, 0.376, 0.8160000000000001, 0.5740000000000001, 0.017, 0.807, 0.782, 0.515], 0.8629217273954115),
    (52, [0.455, 0.252, 0.81, 0.376, 0.8160000000000001, 0.5740000000000001, 0.017, 0.807, 0.782, 0.515], 0.8629217273954115),
    (53, [0.455, 0.252, 0.81, 0.376, 0.8160000000000001, 0.5740000000000001, 0.017, 0.807, 0.782, 0.515], 0.8629217273954115),
    (54, [0.455, 0.252, 0.81, 0.376, 0.8160000000000001, 0.5740000000000001, 0.017, 0.807, 0.782, 0.515], 0.8629217273954115),
]

