ranges of every chromosome : (0, 1)
    selection method is: RouletteWheelSelection
    crossover method is: UniformCrossover
    pc: The probability of crossover: 1.000000
    pe: Gene exchange probability: 0.500000
    mutation method is: FlipBitBigMutation
    pm: The probability of mutation: 0.100000
    pbm: The probability of big mutation: 0.500000
    alpha: intensive factor: 0.600000
best_fit = [
    (0, [0.642, 0.319, 0.077, 0.40800000000000003, 0.297, 0.033, 0.787, 0.499, 0.9490000000000001, 0.801], 0.8575303643724697),
    (1, [0.642, 0.319, 0.077, 0.40800000000000003, 0.297, 0.033, 0.787, 0.499, 0.9490000000000001, 0.801], 0.8575303643724697),
    (2, [0.642, 0.319, 0.077, 0.40800000000000003, 0.297, 0.033, 0.787, 0.499, 0.9490000000000001, 0.801], 0.8575303643724697),
    (3, [0.744, 0.621, 0.672, 0.241, 0.674, 0.5740000000000001, 0.133, 0.804, 0.452, 0.233], 0.8576585695006747),
    (4, [0.653, 0.638, 0.2, 0.328, 0.396, 0.343, 0.736, 0.485, 0.326, 0.579], 0.8577867746288799),
    (5, [0.653, 0.638, 0.2, 0.328, 0.396, 0.343, 0.736, 0.485, 0.326, 0.579], 0.8577867746288799),
    (6, [0.653, 0.638, 0.2, 0.328, 0.396, 0.343, 0.736, 0.485, 0.326, 0.579], 0.8577867746288799),
    (7, [0.653, 0.638, 0.2, 0.328, 0.396, 0.343, 0.736, 0.485, 0.326, 0.579], 0.8577867746288799),
    (8, [0.905, 0.869, 0.41300000000000003, 0.136, 0.389, 0.453, 0.858, 0.889, 0.362, 0.039], 0.8630499325236167),
    (9, [0.905, 0.869, 0.41300000000000003, 0.136, 0.389, 0.453, 0.858, 0.889, 0.362, 0.039], 0.8630499325236167),
    (10, [0.905, 0.869, 0.41300000000000003, 0.136, 0.389, 0.453, 0.858, 0.889, 0.362, 0.039], 0.8630499325236167),
    (11, [0.905, 0.869, 0.41300000000000003, 0.136, 0.389, 0.453, 0.858, 0.889, 0.362, 0.039], 0.8630499325236167),
    (12, [0.905, 0.869, 0.41300000000000003, 0.136, 0.389, 0.453, 0.858, 0.889, 0.362, 0.039], 0.8630499325236167),
    (13, [0.905, 0.869, 0.41300000000000003, 0.136, 0.389, 0.453, 0.858, 0.889, 0.362, 0.039], 0.8630499325236167),
    (14, [0.905, 0.869, 0.41300000000000003, 0.136, 0.389, 0.453, 0.858, 0.889, 0.362, 0.039], 0.8630499325236167),
    (15, [0.905, 0.869, 0.41300000000000003, 0.136, 0.389, 0.453, 0.858, 0.889, 0.362, 0.039], 0.8630499325236167),
    (16, [0.905, 0.869, 0.41300000000000003, 0.136, 0.389, 0.453, 0.858, 0.889, 0.362, 0.039], 0.8630499325236167),
    (17, [0.905, 0.869, 0.41300000000000003, 0.136, 0.389, 0.453, 0.858, 0.889, 0.362, 0.039], 0.8630499325236167),
    (18, [0.905, 0.869, 0.41300000000000003, 0.136, 0.389, 0.453, 0.858, 0.889, 0.362, 0.039], 0.8630499325236167),
    (19, [0.905, 0.869, 0.41300000000000003, 0.136, 0.389, 0.453, 0.858, 0.889, 0.362, 0.039], 0.8630499325236167),
    (20, [0.905, 0.869, 0.41300000000000003, 0.136, 0.389, 0.453, 0.858, 0.889, 0.362, 0.039], 0.8630499325236167),
    (21, [0.905, 0.869, 0.41300000000000003, 0.136, 0.389, 0.453, 0.858, 0.889, 0.362, 0.039], 0.8630499325236167),
    (22, [0.905, 0.869, 0.41300000000000003, 0.136, 0.389, 0.453, 0.858, 0.889, 0.362, 0.039], 0.8630499325236167),
    (23, [0.905, 0.869, 0.41300000000000003, 0.136, 0.389, 0.453, 0.858, 0.889, 0.362, 0.039], 0.8630499325236167),
    (24, [0.905, 0.869, 0.41300000000000003, 0.136, 0.389, 0.453, 0.858, 0.889, 0.362, 0.039], 0.8630499325236167),
    (25, [0.905, 0.869, 0.41300000000000003, 0.136, 0.389, 0.453, 0.858, 0.889, 0.362, 0.039], 0.8630499325236167),
    (26, [0.905, 0.869, 0.41300000000000003, 0.136, 0.389, 0.453, 0.858, 0.889, 0.362, 0.039], 0.8630499325236167),
    (27, [0.905, 0.869, 0.41300000000000003, 0.136, 0.389, 0.453, 0.858, 0.889, 0.362, 0.039], 0.8630499325236167),
    (28, [0.905, 0.869, 0.41300000000000003, 0.136, 0.389, 0.453, 0.858, 0.889, 0.362, 0.039], 0.8630499325236167),
    (29, [0.905, 0.869, 0.41300000000000003, 0.136, 0.389, 0.453, 0.858, 0.889, 0.362, 0.039], 0.8630499325236167),
    (30, [0.905, 0.869, 0.41300000000000003, 0.136, 0.389, 0.453, 0.858, 0.889, 0.362, 0.039], 0.8630499325236167),
    (31, [0.905, 0.869, 0.41300000000000003, 0.136, 0.389, 0.453, 0.858, 0.889, 0.362, 0.039], 0.8630499325236167),
    (32, [0.905, 0.869, 0.41300000000000003, 0.136, 0.389, 0.453, 0.858, 0.889, 0.362, 0.039], 0.8630499325236167),
    (33, [0.905, 0.869, 0.41300000000000003, 0.136, 0.389, 0.453, 0.858, 0.889, 0.362, 0.039], 0.8630499325236167),
    (34, [0.905, 0.869, 0.41300000000000003, 0.136, 0.389, 0.453, 0.858, 0.889, 0.362, 0.039], 0.8630499325236167),
    (35, [0.905, 0.869, 0.41300000000000003, 0.136, 0.389, 0.453, 0.858, 0.889, 0.362, 0.039], 0.8630499325236167),
    (36, [0.905, 0.869, 0.41300000000000003, 0.136, 0.389, 0.453, 0.858, 0.889, 0.362, 0.039], 0.8630499325236167),
    (37, [0.905, 0.869, 0.41300000000000003, 0.136, 0.389, 0.453, 0.858, 0.889, 0.362, 0.039], 0.8630499325236167),
    (38, [0.905, 0.869, 0.41300000000000003, 0.136, 0.389, 0.453, 0.858, 0.889, 0.362, 0.039], 0.8630499325236167),
    (39, [0.905, 0.869, 0.41300000000000003, 0.136, 0.389, 0.453, 0.858, 0.889, 0.362, 0.039], 0.8630499325236167),
    (40, [0.905, 0.869, 0.41300000000000003, 0.136, 0.389, 0.453, 0.858, 0.889, 0.362, 0.039], 0.8630499325236167),
    (41, [0.905, 0.869, 0.41300000000000003, 0.136, 0.389, 0.453, 0.858, 0.889, 0.362, 0.039], 0.8630499325236167),
    (42, [0.905, 0.869, 0.41300000000000003, 0.136, 0.389, 0.453, 0.858, 0.889, 0.362, 0.039], 0.8630499325236167),
    (43, [0.905, 0.869, 0.41300000000000003, 0.136, 0.389, 0.453, 0.858, 0.889, 0.362, 0.039], 0.8630499325236167),
    (44, [0.905, 0.869, 0.41300000000000003, 0.136, 0.389, 0.453, 0.858, 0.889, 0.362, 0.039], 0.8630499325236167),
    (45, [0.905, 0.869, 0.41300000000000003, 0.136, 0.389, 0.453, 0.858, 0.889, 0.362, 0.039], 0.8630499325236167),
    (46, [0.905, 0.869, 0.41300000000000003, 0.136, 0.389, 0.453, 0.858, 0.889, 0.362, 0.039], 0.8630499325236167),
    (47, [0.905, 0.869, 0.41300000000000003, 0.136, 0.389, 0.453, 0.858, 0.889, 0.362, 0.039], 0.8630499325236167),
    (48, [0.905, 0.869, 0.41300000000000003, 0.136, 0.389, 0.453, 0.858, 0.889, 0.362, 0.039], 0.8630499325236167),
    (49, [0.905, 0.869, 0.41300000000000003, 0.136, 0.389, 0.453, 0.858, 0.889, 0.362, 0.039], 0.8630499325236167),
    (50, [0.905, 0.869, 0.41300000000000003, 0.136, 0.389, 0.453, 0.858, 0.889, 0.362, 0.039], 0.8630499325236167),
    (51, [0.905, 0.869, 0.41300000000000003, 0.136, 0.389, 0.453, 0.858, 0.889, 0.362, 0.039], 0.8630499325236167),
    (52, [0.905, 0.869, 0.41300000000000003, 0.136, 0.389, 0.453, 0.858, 0.889, 0.362, 0.039], 0.8630499325236167),
    (53, [0.905, 0.869, 0.41300000000000003, 0.136, 0.389, 0.453, 0.858, 0.889, 0.362, 0.039], 0.8630499325236167),
    (54, [0.905, 0.869, 0.41300000000000003, 0.136, 0.389, 0.453, 0.858, 0.889, 0.362, 0.039], 0.8630499325236167),
]

