ranges of every chromosome : (-1, 1)
    selection method is: LinearRankingSelection
    crossover method is: UniformCrossover
    pc: The probability of crossover: 1.000000
    pe: Gene exchange probability: 0.500000
    mutation method is: FlipBitBigMutation
    pm: The probability of mutation: 0.300000
    pbm: The probability of big mutation: 0.700000
    alpha: intensive factor: 0.600000
best_fit = [
    (0, [0.5609999999999999, 0.6100000000000001, 0.262, 0.19900000000000007, 0.889, -0.18199999999999994, -0.726, 0.40000000000000013, 0.28200000000000003, -0.02300000000000002], 0.8576585695006747),
    (1, [0.5609999999999999, 0.6100000000000001, 0.262, 0.19900000000000007, 0.889, -0.18199999999999994, -0.726, 0.40000000000000013, 0.28200000000000003, -0.02300000000000002], 0.8576585695006747),
    (2, [0.5609999999999999, 0.6100000000000001, 0.262, 0.19900000000000007, 0.889, -0.18199999999999994, -0.726, 0.40000000000000013, 0.28200000000000003, -0.02300000000000002], 0.8576585695006747),
    (3, [0.5609999999999999, 0.6100000000000001, 0.262, 0.19900000000000007, 0.889, -0.18199999999999994, -0.726, 0.40000000000000013, 0.28200000000000003, -0.02300000000000002], 0.8576585695006747),
    (4, [0.5609999999999999, 0.6100000000000001, 0.262, 0.19900000000000007, 0.889, -0.18199999999999994, -0.726, 0.40000000000000013, 0.28200000000000003, -0.02300000000000002], 0.8576585695006747),
    (5, [0.5609999999999999, 0.6100000000000001, 0.262, 0.19900000000000007, 0.889, -0.18199999999999994, -0.726, 0.40000000000000013, 0.28200000000000003, -0.02300000000000002], 0.8576585695006747),
    (6, [0.5609999999999999, 0.6100000000000001, 0.262, 0.19900000000000007, 0.889, -0.18199999999999994, -0.726, 0.40000000000000013, 0.28200000000000003, -0.02300000000000002], 0.8576585695006747),
    (7, [0.5609999999999999, 0.6100000000000001, 0.262, 0.19900000000000007, 0.889, -0.18199999999999994, -0.726, 0.40000000000000013, 0.28200000000000003, -0.02300000000000002], 0.8576585695006747),
    (8, [0.512, -0.266, -0.118, 0.3720000000000001, 0.8620000000000001, -0.826, 0.40700000000000003, -0.899, 0.935, 0.27500000000000013], 0.8576653171390014),
    (9, [0.512, -0.266, -0.118, 0.3720000000000001, 0.8620000000000001, -0.826, 0.40700000000000003, -0.899, 0.935, 0.27500000000000013], 0.8576653171390014),
    (10, [0.512, -0.266, -0.118, 0.3720000000000001, 0.8620000000000001, -0.826, 0.40700000000000003, -0.899, 0.935, 0.27500000000000013], 0.8576653171390014),
    (11, [0.512, -0.266, -0.118, 0.3720000000000001, 0.8620000000000001, -0.826, 0.40700000000000003, -0.899, 0.935, 0.27500000000000013], 0.8576653171390014),
    (12, [0.45999999999999996, 0.19199999999999995, -0.844, 0.30299999999999994, 0.861, 0.07400000000000007, 0.2510000000000001, -0.871, 0.8780000000000001, -0.33099999999999996], 0.8579217273954116),
    (13, [0.45999999999999996, 0.19199999999999995, -0.844, 0.30299999999999994, 0.861, 0.07400000000000007, 0.2510000000000001, -0.871, 0.8780000000000001, -0.33099999999999996], 0.8579217273954116),
    (14, [-0.7, 0.954, -0.355, 0.18399999999999994, -0.5429999999999999, 0.5760000000000001, 0.41300000000000003, 0.8, 0.30099999999999993, -0.10799999999999998], 0.862914979757085),
    (15, [-0.7, 0.954, -0.355, 0.18399999999999994, -0.5429999999999999, 0.5760000000000001, 0.41300000000000003, 0.8, 0.30099999999999993, -0.10799999999999998], 0.862914979757085),
    (16, [-0.7, 0.954, -0.355, 0.18399999999999994, -0.5429999999999999, 0.5760000000000001, 0.41300000000000003, 0.8, 0.30099999999999993, -0.10799999999999998], 0.862914979757085),
    (17, [-0.7, 0.954, -0.355, 0.18399999999999994, -0.5429999999999999, 0.5760000000000001, 0.41300000000000003, 0.8, 0.30099999999999993, -0.10799999999999998], 0.862914979757085),
    (18, [-0.7, 0.954, -0.355, 0.18399999999999994, -0.5429999999999999, 0.5760000000000001, 0.41300000000000003, 0.8, 0.30099999999999993, -0.10799999999999998], 0.862914979757085),
    (19, [-0.7, 0.954, -0.355, 0.18399999999999994, -0.5429999999999999, 0.5760000000000001, 0.41300000000000003, 0.8, 0.30099999999999993, -0.10799999999999998], 0.862914979757085),
    (20, [-0.7, 0.954, -0.355, 0.18399999999999994, -0.5429999999999999, 0.5760000000000001, 0.41300000000000003, 0.8, 0.30099999999999993, -0.10799999999999998], 0.862914979757085),
    (21, [-0.7, 0.954, -0.355, 0.18399999999999994, -0.5429999999999999, 0.5760000000000001, 0.41300000000000003, 0.8, 0.30099999999999993, -0.10799999999999998], 0.862914979757085),
    (22, [-0.7, 0.954, -0.355, 0.18399999999999994, -0.5429999999999999, 0.5760000000000001, 0.41300000000000003, 0.8, 0.30099999999999993, -0.10799999999999998], 0.862914979757085),
    (23, [-0.7, 0.954, -0.355, 0.18399999999999994, -0.5429999999999999, 0.5760000000000001, 0.41300000000000003, 0.8, 0.30099999999999993, -0.10799999999999998], 0.862914979757085),
    (24, [-0.7, 0.954, -0.355, 0.18399999999999994, -0.5429999999999999, 0.5760000000000001, 0.41300000000000003, 0.8, 0.30099999999999993, -0.10799999999999998], 0.862914979757085),
    (25, [-0.7, 0.954, -0.355, 0.18399999999999994, -0.5429999999999999, 0.5760000000000001, 0.41300000000000003, 0.8, 0.30099999999999993, -0.10799999999999998], 0.862914979757085),
    (26, [-0.7, 0.954, -0.355, 0.18399999999999994, -0.5429999999999999, 0.5760000000000001, 0.41300000000000003, 0.8, 0.30099999999999993, -0.10799999999999998], 0.862914979757085),
    (27, [-0.7, 0.954, -0.355, 0.18399999999999994, -0.5429999999999999, 0.5760000000000001, 0.41300000000000003, 0.8, 0.30099999999999993, -0.10799999999999998], 0.862914979757085),
    (28, [-0.7, 0.954, -0.355, 0.18399999999999994, -0.5429999999999999, 0.5760000000000001, 0.41300000000000003, 0.8, 0.30099999999999993, -0.10799999999999998], 0.862914979757085),
    (29, [-0.7, 0.954, -0.355, 0.18399999999999994, -0.5429999999999999, 0.5760000000000001, 0.41300000000000003, 0.8, 0.30099999999999993, -0.10799999999999998], 0.862914979757085),
    (30, [-0.7, 0.954, -0.355, 0.18399999999999994, -0.5429999999999999, 0.5760000000000001, 0.41300000000000003, 0.8, 0.30099999999999993, -0.10799999999999998], 0.862914979757085),
    (31, [-0.7, 0.954, -0.355, 0.18399999999999994, -0.5429999999999999, 0.5760000000000001, 0.41300000000000003, 0.8, 0.30099999999999993, -0.10799999999999998], 0.862914979757085),
    (32, [-0.7, 0.954, -0.355, 0.18399999999999994, -0.5429999999999999, 0.5760000000000001, 0.41300000000000003, 0.8, 0.30099999999999993, -0.10799999999999998], 0.862914979757085),
    (33, [0.8880000000000001, -0.885, -0.22799999999999998, 0.16199999999999992, 0.27900000000000014, -0.598, 0.724, 0.913, 0.31699999999999995, 0.6910000000000001], 0.8629217273954115),
    (34, [0.8880000000000001, -0.885, -0.22799999999999998, 0.16199999999999992, 0.27900000000000014, -0.598, 0.724, 0.913, 0.31699999999999995, 0.6910000000000001], 0.8629217273954115),
    (35, [0.8880000000000001, -0.885, -0.22799999999999998, 0.16199999999999992, 0.27900000000000014, -0.598, 0.724, 0.913, 0.31699999999999995, 0.6910000000000001], 0.8629217273954115),
    (36, [0.8880000000000001, -0.885, -0.22799999999999998, 0.16199999999999992, 0.27900000000000014, -0.598, 0.724, 0.913, 0.31699999999999995, 0.6910000000000001], 0.8629217273954115),
    (37, [0.8880000000000001, -0.885, -0.22799999999999998, 0.16199999999999992, 0.27900000000000014, -0.598, 0.724, 0.913, 0.31699999999999995, 0.6910000000000001], 0.8629217273954115),
    (38, [0.8880000000000001, -0.885, -0.22799999999999998, 0.16199999999999992, 0.27900000000000014, -0.598, 0.724, 0.913, 0.31699999999999995, 0.6910000000000001], 0.8629217273954115),
    (39, [0.8880000000000001, -0.885, -0.22799999999999998, 0.16199999999999992, 0.27900000000000014, -0.598, 0.724, 0.913, 0.31699999999999995, 0.6910000000000001], 0.8629217273954115),
    (40, [0.8880000000000001, -0.885, -0.22799999999999998, 0.16199999999999992, 0.27900000000000014, -0.598, 0.724, 0.913, 0.31699999999999995, 0.6910000000000001], 0.8629217273954115),
    (41, [0.8880000000000001, -0.885, -0.22799999999999998, 0.16199999999999992, 0.27900000000000014, -0.598, 0.724, 0.913, 0.31699999999999995, 0.6910000000000001], 0.8629217273954115),
    (42, [0.8880000000000001, -0.885, -0.22799999999999998, 0.16199999999999992, 0.27900000000000014, -0.598, 0.724, 0.913, 0.31699999999999995, 0.6910000000000001], 0.8629217273954115),
    (43, [0.8880000000000001, -0.885, -0.22799999999999998, 0.16199999999999992, 0.27900000000000014, -0.598, 0.724, 0.913, 0.31699999999999995, 0.6910000000000001], 0.8629217273954115),
    (44, [0.8880000000000001, -0.885, -0.22799999999999998, 0.16199999999999992, 0.27900000000000014, -0.598, 0.724, 0.913, 0.31699999999999995, 0.6910000000000001], 0.8629217273954115),
    (45, [0.8880000000000001, -0.885, -0.22799999999999998, 0.16199999999999992, 0.27900000000000014, -0.598, 0.724, 0.913, 0.31699999999999995, 0.6910000000000001], 0.8629217273954115),
    (46, [0.8880000000000001, -0.885, -0.22799999999999998, 0.16199999999999992, 0.27900000000000014, -0.598, 0.724, 0.913, 0.31699999999999995, 0.6910000000000001], 0.8629217273954115),
    (47, [0.8880000000000001, -0.885, -0.22799999999999998, 0.16199999999999992, 0.27900000000000014, -0.598, 0.724, 0.913, 0.31699999999999995, 0.6910000000000001], 0.8629217273954115),
    (48, [0.8880000000000001, -0.885, -0.22799999999999998, 0.16199999999999992, 0.27900000000000014, -0.598, 0.724, 0.913, 0.31699999999999995, 0.6910000000000001], 0.8629217273954115),
    (49, [0.8880000000000001, -0.885, -0.22799999999999998, 0.16199999999999992, 0.27900000000000014, -0.598, 0.724, 0.913, 0.31699999999999995, 0.6910000000000001], 0.8629217273954115),
    (50, [0.8880000000000001, -0.885, -0.22799999999999998, 0.16199999999999992, 0.27900000000000014, -0.598, 0.724, 0.913, 0.31699999999999995, 0.6910000000000001], 0.8629217273954115),
    (51, [0.8880000000000001, -0.885, -0.22799999999999998, 0.16199999999999992, 0.27900000000000014, -0.598, 0.724, 0.913, 0.31699999999999995, 0.6910000000000001], 0.8629217273954115),
    (52, [-0.46299999999999997, 0.5529999999999999, -0.379, 0.08499999999999996, 0.5489999999999999, 0.10099999999999998, -0.586, -0.723, -0.274, -0.027000000000000024], 0.8677867746288799),
    (53, [-0.46299999999999997, 0.5529999999999999, -0.379, 0.08499999999999996, 0.5489999999999999, 0.10099999999999998, -0.586, -0.723, -0.274, -0.027000000000000024], 0.8677867746288799),
    (54, [-0.46299999999999997, 0.5529999999999999, -0.379, 0.08499999999999996, 0.5489999999999999, 0.10099999999999998, -0.586, -0.723, -0.274, -0.027000000000000024], 0.8677867746288799),
]

