ranges of every chromosome : (-2, 2)
    selection method is: RouletteWheelSelection
    crossover method is: UniformCrossover
    pc: The probability of crossover: 1.000000
    pe: Gene exchange probability: 0.500000
    mutation method is: FlipBitBigMutation
    pm: The probability of mutation: 0.200000
    pbm: The probability of big mutation: 0.500000
    alpha: intensive factor: 0.750000
best_fit = [
    (0, [-1.017, 0.9239999999999999, 1.6059999999999999, 1.251, 0.41300000000000026, 0.556, 1.471, -0.46699999999999986, 0.899, 0.12199999999999989], 0.8581848852901484),
    (1, [-1.017, 0.9239999999999999, 1.6059999999999999, 1.251, 0.41300000000000026, 0.556, 1.471, -0.46699999999999986, 0.899, 0.12199999999999989], 0.8581848852901484),
    (2, [-1.017, 0.9239999999999999, 1.6059999999999999, 1.251, 0.41300000000000026, 0.556, 1.471, -0.46699999999999986, 0.899, 0.12199999999999989], 0.8581848852901484),
    (3, [-1.017, 0.9239999999999999, 1.6059999999999999, 1.251, 0.41300000000000026, 0.556, 1.471, -0.46699999999999986, 0.899, 0.12199999999999989], 0.8581848852901484),
    (4, [-1.017, 0.9239999999999999, 1.6059999999999999, 1.251, 0.41300000000000026, 0.556, 1.471, -0.46699999999999986, 0.899, 0.12199999999999989], 0.8581848852901484),
    (5, [-1.017, 0.9239999999999999, 1.6059999999999999, 1.251, 0.41300000000000026, 0.556, 1.471, -0.46699999999999986, 0.899, 0.12199999999999989], 0.8581848852901484),
    (6, [-1.017, 0.9239999999999999, 1.6059999999999999, 1.251, 0.41300000000000026, 0.556, 1.471, -0.46699999999999986, 0.899, 0.12199999999999989], 0.8581848852901484),
    (7, [-1.017, 0.9239999999999999, 1.6059999999999999, 1.251, 0.41300000000000026, 0.556, 1.471, -0.46699999999999986, 0.899, 0.12199999999999989], 0.8581848852901484),
    (8, [-1.017, 0.9239999999999999, 1.6059999999999999, 1.251, 0.41300000000000026, 0.556, 1.471, -0.46699999999999986, 0.899, 0.12199999999999989], 0.8581848852901484),
    (9, [-1.017, 0.9239999999999999, 1.6059999999999999, 1.251, 0.41300000000000026, 0.556, 1.471, -0.46699999999999986, 0.899, 0.12199999999999989], 0.8581848852901484),
    (10, [-1.017, 0.9239999999999999, 1.6059999999999999, 1.251, 0.41300000000000026, 0.556, 1.471, -0.46699999999999986, 0.899, 0.12199999999999989], 0.8581848852901484),
    (11, [-1.017, 0.9239999999999999, 1.6059999999999999, 1.251, 0.41300000000000026, 0.556, 1.471, -0.46699999999999986, 0.899, 0.12199999999999989], 0.8581848852901484),
    (12, [-1.017, 0.9239999999999999, 1.6059999999999999, 1.251, 0.41300000000000026, 0.556, 1.471, -0.46699999999999986, 0.899, 0.12199999999999989], 0.8581848852901484),
    (13, [-1.017, 0.9239999999999999, 1.6059999999999999, 1.251, 0.41300000000000026, 0.556, 1.471, -0.46699999999999986, 0.899, 0.12199999999999989], 0.8581848852901484),
    (14, [-1.017, 0.9239999999999999, 1.6059999999999999, 1.251, 0.41300000000000026, 0.556, 1.471, -0.46699999999999986, 0.899, 0.12199999999999989], 0.8581848852901484),
    (15, [-1.017, 0.9239999999999999, 1.6059999999999999, 1.251, 0.41300000000000026, 0.556, 1.471, -0.46699999999999986, 0.899, 0.12199999999999989], 0.8581848852901484),
    (16, [-1.017, 0.9239999999999999, 1.6059999999999999, 1.251, 0.41300000000000026, 0.556, 1.471, -0.46699999999999986, 0.899, 0.12199999999999989], 0.8581848852901484),
    (17, [-1.017, 0.9239999999999999, 1.6059999999999999, 1.251, 0.41300000000000026, 0.556, 1.471, -0.46699999999999986, 0.899, 0.12199999999999989], 0.8581848852901484),
    (18, [-1.017, 0.9239999999999999, 1.6059999999999999, 1.251, 0.41300000000000026, 0.556, 1.471, -0.46699999999999986, 0.899, 0.12199999999999989], 0.8581848852901484),
    (19, [-1.017, 0.9239999999999999, 1.6059999999999999, 1.251, 0.41300000000000026, 0.556, 1.471, -0.46699999999999986, 0.899, 0.12199999999999989], 0.8581848852901484),
    (20, [-1.017, 0.9239999999999999, 1.6059999999999999, 1.251, 0.41300000000000026, 0.556, 1.471, -0.46699999999999986, 0.899, 0.12199999999999989], 0.8581848852901484),
    (21, [-1.017, 0.9239999999999999, 1.6059999999999999, 1.251, 0.41300000000000026, 0.556, 1.471, -0.46699999999999986, 0.899, 0.12199999999999989], 0.8581848852901484),
    (22, [-1.017, 0.9239999999999999, 1.6059999999999999, 1.251, 0.41300000000000026, 0.556, 1.471, -0.46699999999999986, 0.899, 0.12199999999999989], 0.8581848852901484),
    (23, [-1.017, 0.9239999999999999, 1.6059999999999999, 1.251, 0.41300000000000026, 0.556, 1.471, -0.46699999999999986, 0.899, 0.12199999999999989], 0.8581848852901484),
    (24, [-1.017, 0.9239999999999999, 1.6059999999999999, 1.251, 0.41300000000000026, 0.556, 1.471, -0.46699999999999986, 0.899, 0.12199999999999989], 0.8581848852901484),
    (25, [-1.017, 0.9239999999999999, 1.6059999999999999, 1.251, 0.41300000000000026, 0.556, 1.471, -0.46699999999999986, 0.899, 0.12199999999999989], 0.8581848852901484),
    (26, [-1.017, 0.9239999999999999, 1.6059999999999999, 1.251, 0.41300000000000026, 0.556, 1.471, -0.46699999999999986, 0.899, 0.12199999999999989], 0.8581848852901484),
    (27, [-1.017, 0.9239999999999999, 1.6059999999999999, 1.251, 0.41300000000000026, 0.556, 1.471, -0.46699999999999986, 0.899, 0.12199999999999989], 0.8581848852901484),
    (28, [-1.017, 0.9239999999999999, 1.6059999999999999, 1.251, 0.41300000000000026, 0.556, 1.471, -0.46699999999999986, 0.899, 0.12199999999999989], 0.8581848852901484),
    (29, [-1.017, 0.9239999999999999, 1.6059999999999999, 1.251, 0.41300000000000026, 0.556, 1.471, -0.46699999999999986, 0.899, 0.12199999999999989], 0.8581848852901484),
    (30, [-1.017, 0.9239999999999999, 1.6059999999999999, 1.251, 0.41300000000000026, 0.556, 1.471, -0.46699999999999986, 0.899, 0.12199999999999989], 0.8581848852901484),
    (31, [-1.017, 0.9239999999999999, 1.6059999999999999, 1.251, 0.41300000000000026, 0.556, 1.471, -0.46699999999999986, 0.899, 0.12199999999999989], 0.8581848852901484),
    (32, [-1.017, 0.9239999999999999, 1.6059999999999999, 1.251, 0.41300000000000026, 0.556, 1.471, -0.46699999999999986, 0.899, 0.12199999999999989], 0.8581848852901484),
    (33, [0.7770000000000001, -1.0819999999999999, 0.923, 0.484, -0.736, 1.8730000000000002, -1.275, 1.1920000000000002, 0.8140000000000001, -1.888], 0.8631916329284751),
    (34, [0.7770000000000001, -1.0819999999999999, 0.923, 0.484, -0.736, 1.8730000000000002, -1.275, 1.1920000000000002, 0.8140000000000001, -1.888], 0.8631916329284751),
    (35, [0.7770000000000001, -1.0819999999999999, 0.923, 0.484, -0.736, 1.8730000000000002, -1.275, 1.1920000000000002, 0.8140000000000001, -1.888], 0.8631916329284751),
    (36, [0.7770000000000001, -1.0819999999999999, 0.923, 0.484, -0.736, 1.8730000000000002, -1.275, 1.1920000000000002, 0.8140000000000001, -1.888], 0.8631916329284751),
    (37, [0.8330000000000002, 1.1600000000000001, -0.76, -0.865, -0.897, -0.2749999999999999, -0.07800000000000007, 1.137, -1.1600000000000001, 0.5340000000000003], 0.8634412955465587),
    (38, [0.8330000000000002, 1.1600000000000001, -0.76, -0.865, -0.897, -0.2749999999999999, -0.07800000000000007, 1.137, -1.1600000000000001, 0.5340000000000003], 0.8634412955465587),
    (39, [0.8330000000000002, 1.1600000000000001, -0.76, -0.865, -0.897, -0.2749999999999999, -0.07800000000000007, 1.137, -1.1600000000000001, 0.5340000000000003], 0.8634412955465587),
    (40, [0.8330000000000002, 1.1600000000000001, -0.76, -0.865, -0.897, -0.2749999999999999, -0.07800000000000007, 1.137, -1.1600000000000001, 0.5340000000000003], 0.8634412955465587),
    (41, [0.8330000000000002, 1.1600000000000001, -0.76, -0.865, -0.897, -0.2749999999999999, -0.07800000000000007, 1.137, -1.1600000000000001, 0.5340000000000003], 0.8634412955465587),
    (42, [0.8330000000000002, 1.1600000000000001, -0.76, -0.865, -0.897, -0.2749999999999999, -0.07800000000000007, 1.137, -1.1600000000000001, 0.5340000000000003], 0.8634412955465587),
    (43, [0.8330000000000002, 1.1600000000000001, -0.76, -0.865, -0.897, -0.2749999999999999, -0.07800000000000007, 1.137, -1.1600000000000001, 0.5340000000000003], 0.8634412955465587),
    (44, [0.8330000000000002, 1.1600000000000001, -0.76, -0.865, -0.897, -0.2749999999999999, -0.07800000000000007, 1.137, -1.1600000000000001, 0.5340000000000003], 0.8634412955465587),
    (45, [0.8330000000000002, 1.1600000000000001, -0.76, -0.865, -0.897, -0.2749999999999999, -0.07800000000000007, 1.137, -1.1600000000000001, 0.5340000000000003], 0.8634412955465587),
    (46, [0.8330000000000002, 1.1600000000000001, -0.76, -0.865, -0.897, -0.2749999999999999, -0.07800000000000007, 1.137, -1.1600000000000001, 0.5340000000000003], 0.8634412955465587),
    (47, [0.8330000000000002, 1.1600000000000001, -0.76, -0.865, -0.897, -0.2749999999999999, -0.07800000000000007, 1.137, -1.1600000000000001, 0.5340000000000003], 0.8634412955465587),
    (48, [0.8330000000000002, 1.1600000000000001, -0.76, -0.865, -0.897, -0.2749999999999999, -0.07800000000000007, 1.137, -1.1600000000000001, 0.5340000000000003], 0.8634412955465587),
    (49, [0.8330000000000002, 1.1600000000000001, -0.76, -0.865, -0.897, -0.2749999999999999, -0.07800000000000007, 1.137, -1.1600000000000001, 0.5340000000000003], 0.8634412955465587),
    (50, [0.8330000000000002, 1.1600000000000001, -0.76, -0.865, -0.897, -0.2749999999999999, -0.07800000000000007, 1.137, -1.1600000000000001, 0.5340000000000003], 0.8634412955465587),
    (51, [0.8330000000000002, 1.1600000000000001, -0.76, -0.865, -0.897, -0.2749999999999999, -0.07800000000000007, 1.137, -1.1600000000000001, 0.5340000000000003], 0.8634412955465587),
    (52, [0.8330000000000002, 1.1600000000000001, -0.76, -0.865, -0.897, -0.2749999999999999, -0.07800000000000007, 1.137, -1.1600000000000001, 0.5340000000000003], 0.8634412955465587),
    (53, [0.8330000000000002, 1.1600000000000001, -0.76, -0.865, -0.897, -0.2749999999999999, -0.07800000000000007, 1.137, -1.1600000000000001, 0.5340000000000003], 0.8634412955465587),
    (54, [0.8330000000000002, 1.1600000000000001, -0.76, -0.865, -0.897, -0.2749999999999999, -0.07800000000000007, 1.137, -1.1600000000000001, 0.5340000000000003], 0.8634412955465587),
]

