ranges of every chromosome : (-1, 1)
    selection method is: LinearRankingSelection
    crossover method is: UniformCrossover
    pc: The probability of crossover: 1.000000
    pe: Gene exchange probability: 0.500000
    mutation method is: FlipBitBigMutation
    pm: The probability of mutation: 0.200000
    pbm: The probability of big mutation: 0.500000
    alpha: intensive factor: 0.750000
best_fit = [
    (0, [0.43399999999999994, 0.46399999999999997, -0.255, -0.32199999999999995, 0.381, 0.579, -0.984, 0.8640000000000001, -0.362, 0.19100000000000006], 0.8576585695006747),
    (1, [-0.30199999999999994, 0.661, 0.27100000000000013, 0.14100000000000001, -0.635, 0.08800000000000008, -0.492, -0.721, 0.22599999999999998, 0.1120000000000001], 0.8627867746288798),
    (2, [-0.30199999999999994, 0.661, 0.27100000000000013, 0.14100000000000001, -0.635, 0.08800000000000008, -0.492, -0.721, 0.22599999999999998, 0.1120000000000001], 0.8627867746288798),
    (3, [-0.30199999999999994, 0.661, 0.27100000000000013, 0.14100000000000001, -0.635, 0.08800000000000008, -0.492, -0.721, 0.22599999999999998, 0.1120000000000001], 0.8627867746288798),
    (4, [-0.30199999999999994, 0.661, 0.27100000000000013, 0.14100000000000001, -0.635, 0.08800000000000008, -0.492, -0.721, 0.22599999999999998, 0.1120000000000001], 0.8627867746288798),
    (5, [-0.30199999999999994, 0.661, 0.27100000000000013, 0.14100000000000001, -0.635, 0.08800000000000008, -0.492, -0.721, 0.22599999999999998, 0.1120000000000001], 0.8627867746288798),
    (6, [-0.30199999999999994, 0.661, 0.27100000000000013, 0.14100000000000001, -0.635, 0.08800000000000008, -0.492, -0.721, 0.22599999999999998, 0.1120000000000001], 0.8627867746288798),
    (7, [-0.30199999999999994, 0.661, 0.27100000000000013, 0.14100000000000001, -0.635, 0.08800000000000008, -0.492, -0.721, 0.22599999999999998, 0.1120000000000001], 0.8627867746288798),
    (8, [-0.30199999999999994, 0.661, 0.27100000000000013, 0.14100000000000001, -0.635, 0.08800000000000008, -0.492, -0.721, 0.22599999999999998, 0.1120000000000001], 0.8627867746288798),
    (9, [-0.30199999999999994, 0.661, 0.27100000000000013, 0.14100000000000001, -0.635, 0.08800000000000008, -0.492, -0.721, 0.22599999999999998, 0.1120000000000001], 0.8627867746288798),
    (10, [-0.30199999999999994, 0.661, 0.27100000000000013, 0.14100000000000001, -0.635, 0.08800000000000008, -0.492, -0.721, 0.22599999999999998, 0.1120000000000001], 0.8627867746288798),
    (11, [-0.30199999999999994, 0.661, 0.27100000000000013, 0.14100000000000001, -0.635, 0.08800000000000008, -0.492, -0.721, 0.22599999999999998, 0.1120000000000001], 0.8627867746288798),
    (12, [-0.30199999999999994, 0.661, 0.27100000000000013, 0.14100000000000001, -0.635, 0.08800000000000008, -0.492, -0.721, 0.22599999999999998, 0.1120000000000001], 0.8627867746288798),
    (13, [-0.30199999999999994, 0.661, 0.27100000000000013, 0.14100000000000001, -0.635, 0.08800000000000008, -0.492, -0.721, 0.22599999999999998, 0.1120000000000001], 0.8627867746288798),
    (14, [-0.30199999999999994, 0.661, 0.27100000000000013, 0.14100000000000001, -0.635, 0.08800000000000008, -0.492, -0.721, 0.22599999999999998, 0.1120000000000001], 0.8627867746288798),
    (15, [-0.30199999999999994, 0.661, 0.27100000000000013, 0.14100000000000001, -0.635, 0.08800000000000008, -0.492, -0.721, 0.22599999999999998, 0.1120000000000001], 0.8627867746288798),
    (16, [-0.30199999999999994, 0.661, 0.27100000000000013, 0.14100000000000001, -0.635, 0.08800000000000008, -0.492, -0.721, 0.22599999999999998, 0.1120000000000001], 0.8627867746288798),
    (17, [-0.30199999999999994, 0.661, 0.27100000000000013, 0.14100000000000001, -0.635, 0.08800000000000008, -0.492, -0.721, 0.22599999999999998, 0.1120000000000001], 0.8627867746288798),
    (18, [-0.30199999999999994, 0.661, 0.27100000000000013, 0.14100000000000001, -0.635, 0.08800000000000008, -0.492, -0.721, 0.22599999999999998, 0.1120000000000001], 0.8627867746288798),
    (19, [-0.30199999999999994, 0.661, 0.27100000000000013, 0.14100000000000001, -0.635, 0.08800000000000008, -0.492, -0.721, 0.22599999999999998, 0.1120000000000001], 0.8627867746288798),
    (20, [-0.30199999999999994, 0.661, 0.27100000000000013, 0.14100000000000001, -0.635, 0.08800000000000008, -0.492, -0.721, 0.22599999999999998, 0.1120000000000001], 0.8627867746288798),
    (21, [-0.30199999999999994, 0.661, 0.27100000000000013, 0.14100000000000001, -0.635, 0.08800000000000008, -0.492, -0.721, 0.22599999999999998, 0.1120000000000001], 0.8627867746288798),
    (22, [-0.30199999999999994, 0.661, 0.27100000000000013, 0.14100000000000001, -0.635, 0.08800000000000008, -0.492, -0.721, 0.22599999999999998, 0.1120000000000001], 0.8627867746288798),
    (23, [-0.30199999999999994, 0.661, 0.27100000000000013, 0.14100000000000001, -0.635, 0.08800000000000008, -0.492, -0.721, 0.22599999999999998, 0.1120000000000001], 0.8627867746288798),
    (24, [-0.30199999999999994, 0.661, 0.27100000000000013, 0.14100000000000001, -0.635, 0.08800000000000008, -0.492, -0.721, 0.22599999999999998, 0.1120000000000001], 0.8627867746288798),
    (25, [-0.30199999999999994, 0.661, 0.27100000000000013, 0.14100000000000001, -0.635, 0.08800000000000008, -0.492, -0.721, 0.22599999999999998, 0.1120000000000001], 0.8627867746288798),
    (26, [-0.30199999999999994, 0.661, 0.27100000000000013, 0.14100000000000001, -0.635, 0.08800000000000008, -0.492, -0.721, 0.22599999999999998, 0.1120000000000001], 0.8627867746288798),
    (27, [-0.30199999999999994, 0.661, 0.27100000000000013, 0.14100000000000001, -0.635, 0.08800000000000008, -0.492, -0.721, 0.22599999999999998, 0.1120000000000001], 0.8627867746288798),
    (28, [-0.30199999999999994, 0.661, 0.27100000000000013, 0.14100000000000001, -0.635, 0.08800000000000008, -0.492, -0.721, 0.22599999999999998, 0.1120000000000001], 0.8627867746288798),
    (29, [-0.30199999999999994, 0.661, 0.27100000000000013, 0.14100000000000001, -0.635, 0.08800000000000008, -0.492, -0.721, 0.22599999999999998, 0.1120000000000001], 0.8627867746288798),
    (30, [-0.30199999999999994, 0.661, 0.27100000000000013, 0.14100000000000001, -0.635, 0.08800000000000008, -0.492, -0.721, 0.22599999999999998, 0.1120000000000001], 0.8627867746288798),
    (31, [-0.30199999999999994, 0.661, 0.27100000000000013, 0.14100000000000001, -0.635, 0.08800000000000008, -0.492, -0.721, 0.22599999999999998, 0.1120000000000001], 0.8627867746288798),
    (32, [-0.30199999999999994, 0.661, 0.27100000000000013, 0.14100000000000001, -0.635, 0.08800000000000008, -0.492, -0.721, 0.22599999999999998, 0.1120000000000001], 0.8627867746288798),
    (33, [-0.30199999999999994, 0.661, 0.27100000000000013, 0.14100000000000001, -0.635, 0.08800000000000008, -0.492, -0.721, 0.22599999999999998, 0.1120000000000001], 0.8627867746288798),
    (34, [-0.30199999999999994, 0.661, 0.27100000000000013, 0.14100000000000001, -0.635, 0.08800000000000008, -0.492, -0.721, 0.22599999999999998, 0.1120000000000001], 0.8627867746288798),
    (35, [-0.963, 0.8029999999999999, -0.237, 0.2550000000000001, -0.10799999999999998, 0.10200000000000009, 0.7410000000000001, -0.33299999999999996, -0.33199999999999996, 0.45599999999999996], 0.8629217273954115),
    (36, [-0.963, 0.8029999999999999, -0.237, 0.2550000000000001, -0.10799999999999998, 0.10200000000000009, 0.7410000000000001, -0.33299999999999996, -0.33199999999999996, 0.45599999999999996], 0.8629217273954115),
    (37, [-0.963, 0.8029999999999999, -0.237, 0.2550000000000001, -0.10799999999999998, 0.10200000000000009, 0.7410000000000001, -0.33299999999999996, -0.33199999999999996, 0.45599999999999996], 0.8629217273954115),
    (38, [-0.963, 0.8029999999999999, -0.237, 0.2550000000000001, -0.10799999999999998, 0.10200000000000009, 0.7410000000000001, -0.33299999999999996, -0.33199999999999996, 0.45599999999999996], 0.8629217273954115),
    (39, [-0.963, 0.8029999999999999, -0.237, 0.2550000000000001, -0.10799999999999998, 0.10200000000000009, 0.7410000000000001, -0.33299999999999996, -0.33199999999999996, 0.45599999999999996], 0.8629217273954115),
    (40, [-0.963, 0.8029999999999999, -0.237, 0.2550000000000001, -0.10799999999999998, 0.10200000000000009, 0.7410000000000001, -0.33299999999999996, -0.33199999999999996, 0.45599999999999996], 0.8629217273954115),
    (41, [-0.963, 0.8029999999999999, -0.237, 0.2550000000000001, -0.10799999999999998, 0.10200000000000009, 0.7410000000000001, -0.33299999999999996, -0.33199999999999996, 0.45599999999999996], 0.8629217273954115),
    (42, [-0.963, 0.8029999999999999, -0.237, 0.2550000000000001, -0.10799999999999998, 0.10200000000000009, 0.7410000000000001, -0.33299999999999996, -0.33199999999999996, 0.45599999999999996], 0.8629217273954115),
    (43, [-0.963, 0.8029999999999999, -0.237, 0.2550000000000001, -0.10799999999999998, 0.10200000000000009, 0.7410000000000001, -0.33299999999999996, -0.33199999999999996, 0.45599999999999996], 0.8629217273954115),
    (44, [-0.963, 0.8029999999999999, -0.237, 0.2550000000000001, -0.10799999999999998, 0.10200000000000009, 0.7410000000000001, -0.33299999999999996, -0.33199999999999996, 0.45599999999999996], 0.8629217273954115),
    (45, [-0.963, 0.8029999999999999, -0.237, 0.2550000000000001, -0.10799999999999998, 0.10200000000000009, 0.7410000000000001, -0.33299999999999996, -0.33199999999999996, 0.45599999999999996], 0.8629217273954115),
    (46, [-0.963, 0.8029999999999999, -0.237, 0.2550000000000001, -0.10799999999999998, 0.10200000000000009, 0.7410000000000001, -0.33299999999999996, -0.33199999999999996, 0.45599999999999996], 0.8629217273954115),
    (47, [-0.963, 0.8029999999999999, -0.237, 0.2550000000000001, -0.10799999999999998, 0.10200000000000009, 0.7410000000000001, -0.33299999999999996, -0.33199999999999996, 0.45599999999999996], 0.8629217273954115),
    (48, [-0.963, 0.8029999999999999, -0.237, 0.2550000000000001, -0.10799999999999998, 0.10200000000000009, 0.7410000000000001, -0.33299999999999996, -0.33199999999999996, 0.45599999999999996], 0.8629217273954115),
    (49, [-0.963, 0.8029999999999999, -0.237, 0.2550000000000001, -0.10799999999999998, 0.10200000000000009, 0.7410000000000001, -0.33299999999999996, -0.33199999999999996, 0.45599999999999996], 0.8629217273954115),
    (50, [-0.963, 0.8029999999999999, -0.237, 0.2550000000000001, -0.10799999999999998, 0.10200000000000009, 0.7410000000000001, -0.33299999999999996, -0.33199999999999996, 0.45599999999999996], 0.8629217273954115),
    (51, [-0.963, 0.8029999999999999, -0.237, 0.2550000000000001, -0.10799999999999998, 0.10200000000000009, 0.7410000000000001, -0.33299999999999996, -0.33199999999999996, 0.45599999999999996], 0.8629217273954115),
    (52, [-0.963, 0.8029999999999999, -0.237, 0.2550000000000001, -0.10799999999999998, 0.10200000000000009, 0.7410000000000001, -0.33299999999999996, -0.33199999999999996, 0.45599999999999996], 0.8629217273954115),
    (53, [-0.963, 0.8029999999999999, -0.237, 0.2550000000000001, -0.10799999999999998, 0.10200000000000009, 0.7410000000000001, -0.33299999999999996, -0.33199999999999996, 0.45599999999999996], 0.8629217273954115),
    (54, [-0.963, 0.8029999999999999, -0.237, 0.2550000000000001, -0.10799999999999998, 0.10200000000000009, 0.7410000000000001, -0.33299999999999996, -0.33199999999999996, 0.45599999999999996], 0.8629217273954115),
]

