ranges of every chromosome : (0, 1)
    selection method is: RouletteWheelSelection
    crossover method is: UniformCrossover
    pc: The probability of crossover: 0.850000
    pe: Gene exchange probability: 0.500000
    mutation method is: FlipBitBigMutation
    pm: The probability of mutation: 0.100000
    pbm: The probability of big mutation: 0.500000
    alpha: intensive factor: 0.600000
best_fit = [
    (0, [0.304, 0.216, 0.921, 0.398, 0.386, 0.425, 0.9380000000000001, 0.843, 0.666, 0.168], 0.8576585695006747),
    (1, [0.304, 0.216, 0.921, 0.398, 0.386, 0.425, 0.9380000000000001, 0.843, 0.666, 0.168], 0.8576585695006747),
    (2, [0.304, 0.216, 0.921, 0.398, 0.386, 0.425, 0.9380000000000001, 0.843, 0.666, 0.168], 0.8576585695006747),
    (3, [0.304, 0.216, 0.921, 0.398, 0.386, 0.425, 0.9380000000000001, 0.843, 0.666, 0.168], 0.8576585695006747),
    (4, [0.622, 0.9590000000000001, 0.13, 0.309, 0.26, 0.5760000000000001, 0.481, 0.588, 0.305, 0.151], 0.8627867746288798),
    (5, [0.622, 0.9590000000000001, 0.13, 0.309, 0.26, 0.5760000000000001, 0.481, 0.588, 0.305, 0.151], 0.8627867746288798),
    (6, [0.622, 0.9590000000000001, 0.13, 0.309, 0.26, 0.5760000000000001, 0.481, 0.588, 0.305, 0.151], 0.8627867746288798),
    (7, [0.622, 0.9590000000000001, 0.13, 0.309, 0.26, 0.5760000000000001, 0.481, 0.588, 0.305, 0.151], 0.8627867746288798),
    (8, [0.622, 0.9590000000000001, 0.13, 0.309, 0.26, 0.5760000000000001, 0.481, 0.588, 0.305, 0.151], 0.8627867746288798),
    (9, [0.622, 0.9590000000000001, 0.13, 0.309, 0.26, 0.5760000000000001, 0.481, 0.588, 0.305, 0.151], 0.8627867746288798),
    (10, [0.622, 0.9590000000000001, 0.13, 0.309, 0.26, 0.5760000000000001, 0.481, 0.588, 0.305, 0.151], 0.8627867746288798),
    (11, [0.622, 0.9590000000000001, 0.13, 0.309, 0.26, 0.5760000000000001, 0.481, 0.588, 0.305, 0.151], 0.8627867746288798),
    (12, [0.622, 0.9590000000000001, 0.13, 0.309, 0.26, 0.5760000000000001, 0.481, 0.588, 0.305, 0.151], 0.8627867746288798),
    (13, [0.622, 0.9590000000000001, 0.13, 0.309, 0.26, 0.5760000000000001, 0.481, 0.588, 0.305, 0.151], 0.8627867746288798),
    (14, [0.622, 0.9590000000000001, 0.13, 0.309, 0.26, 0.5760000000000001, 0.481, 0.588, 0.305, 0.151], 0.8627867746288798),
    (15, [0.622, 0.9590000000000001, 0.13, 0.309, 0.26, 0.5760000000000001, 0.481, 0.588, 0.305, 0.151], 0.8627867746288798),
    (16, [0.622, 0.9590000000000001, 0.13, 0.309, 0.26, 0.5760000000000001, 0.481, 0.588, 0.305, 0.151], 0.8627867746288798),
    (17, [0.622, 0.9590000000000001, 0.13, 0.309, 0.26, 0.5760000000000001, 0.481, 0.588, 0.305, 0.151], 0.8627867746288798),
    (18, [0.622, 0.9590000000000001, 0.13, 0.309, 0.26, 0.5760000000000001, 0.481, 0.588, 0.305, 0.151], 0.8627867746288798),
    (19, [0.622, 0.9590000000000001, 0.13, 0.309, 0.26, 0.5760000000000001, 0.481, 0.588, 0.305, 0.151], 0.8627867746288798),
    (20, [0.622, 0.9590000000000001, 0.13, 0.309, 0.26, 0.5760000000000001, 0.481, 0.588, 0.305, 0.151], 0.8627867746288798),
    (21, [0.622, 0.9590000000000001, 0.13, 0.309, 0.26, 0.5760000000000001, 0.481, 0.588, 0.305, 0.151], 0.8627867746288798),
    (22, [0.622, 0.9590000000000001, 0.13, 0.309, 0.26, 0.5760000000000001, 0.481, 0.588, 0.305, 0.151], 0.8627867746288798),
    (23, [0.586, 0.308, 0.9540000000000001, 0.393, 0.9560000000000001, 0.47600000000000003, 0.301, 0.979, 0.6970000000000001, 0.092], 0.8629217273954115),
    (24, [0.586, 0.308, 0.9540000000000001, 0.393, 0.9560000000000001, 0.47600000000000003, 0.301, 0.979, 0.6970000000000001, 0.092], 0.8629217273954115),
    (25, [0.586, 0.308, 0.9540000000000001, 0.393, 0.9560000000000001, 0.47600000000000003, 0.301, 0.979, 0.6970000000000001, 0.092], 0.8629217273954115),
    (26, [0.586, 0.308, 0.9540000000000001, 0.393, 0.9560000000000001, 0.47600000000000003, 0.301, 0.979, 0.6970000000000001, 0.092], 0.8629217273954115),
    (27, [0.586, 0.308, 0.9540000000000001, 0.393, 0.9560000000000001, 0.47600000000000003, 0.301, 0.979, 0.6970000000000001, 0.092], 0.8629217273954115),
    (28, [0.586, 0.308, 0.9540000000000001, 0.393, 0.9560000000000001, 0.47600000000000003, 0.301, 0.979, 0.6970000000000001, 0.092], 0.8629217273954115),
    (29, [0.586, 0.308, 0.9540000000000001, 0.393, 0.9560000000000001, 0.47600000000000003, 0.301, 0.979, 0.6970000000000001, 0.092], 0.8629217273954115),
    (30, [0.586, 0.308, 0.9540000000000001, 0.393, 0.9560000000000001, 0.47600000000000003, 0.301, 0.979, 0.6970000000000001, 0.092], 0.8629217273954115),
    (31, [0.586, 0.308, 0.9540000000000001, 0.393, 0.9560000000000001, 0.47600000000000003, 0.301, 0.979, 0.6970000000000001, 0.092], 0.8629217273954115),
    (32, [0.586, 0.308, 0.9540000000000001, 0.393, 0.9560000000000001, 0.47600000000000003, 0.301, 0.979, 0.6970000000000001, 0.092], 0.8629217273954115),
    (33, [0.586, 0.308, 0.9540000000000001, 0.393, 0.9560000000000001, 0.47600000000000003, 0.301, 0.979, 0.6970000000000001, 0.092], 0.8629217273954115),
    (34, [0.586, 0.308, 0.9540000000000001, 0.393, 0.9560000000000001, 0.47600000000000003, 0.301, 0.979, 0.6970000000000001, 0.092], 0.8629217273954115),
    (35, [0.586, 0.308, 0.9540000000000001, 0.393, 0.9560000000000001, 0.47600000000000003, 0.301, 0.979, 0.6970000000000001, 0.092], 0.8629217273954115),
    (36, [0.586, 0.308, 0.9540000000000001, 0.393, 0.9560000000000001, 0.47600000000000003, 0.301, 0.979, 0.6970000000000001, 0.092], 0.8629217273954115),
    (37, [0.586, 0.308, 0.9540000000000001, 0.393, 0.9560000000000001, 0.47600000000000003, 0.301, 0.979, 0.6970000000000001, 0.092], 0.8629217273954115),
    (38, [0.586, 0.308, 0.9540000000000001, 0.393, 0.9560000000000001, 0.47600000000000003, 0.301, 0.979, 0.6970000000000001, 0.092], 0.8629217273954115),
    (39, [0.586, 0.308, 0.9540000000000001, 0.393, 0.9560000000000001, 0.47600000000000003, 0.301, 0.979, 0.6970000000000001, 0.092], 0.8629217273954115),
    (40, [0.586, 0.308, 0.9540000000000001, 0.393, 0.9560000000000001, 0.47600000000000003, 0.301, 0.979, 0.6970000000000001, 0.092], 0.8629217273954115),
    (41, [0.586, 0.308, 0.9540000000000001, 0.393, 0.9560000000000001, 0.47600000000000003, 0.301, 0.979, 0.6970000000000001, 0.092], 0.8629217273954115),
    (42, [0.586, 0.308, 0.9540000000000001, 0.393, 0.9560000000000001, 0.47600000000000003, 0.301, 0.979, 0.6970000000000001, 0.092], 0.8629217273954115),
    (43, [0.586, 0.308, 0.9540000000000001, 0.393, 0.9560000000000001, 0.47600000000000003, 0.301, 0.979, 0.6970000000000001, 0.092], 0.8629217273954115),
    (44, [0.586, 0.308, 0.9540000000000001, 0.393, 0.9560000000000001, 0.47600000000000003, 0.301, 0.979, 0.6970000000000001, 0.092], 0.8629217273954115),
    (45, [0.586, 0.308, 0.9540000000000001, 0.393, 0.9560000000000001, 0.47600000000000003, 0.301, 0.979, 0.6970000000000001, 0.092], 0.8629217273954115),
    (46, [0.586, 0.308, 0.9540000000000001, 0.393, 0.9560000000000001, 0.47600000000000003, 0.301, 0.979, 0.6970000000000001, 0.092], 0.8629217273954115),
    (47, [0.586, 0.308, 0.9540000000000001, 0.393, 0.9560000000000001, 0.47600000000000003, 0.301, 0.979, 0.6970000000000001, 0.092], 0.8629217273954115),
    (48, [0.586, 0.308, 0.9540000000000001, 0.393, 0.9560000000000001, 0.47600000000000003, 0.301, 0.979, 0.6970000000000001, 0.092], 0.8629217273954115),
    (49, [0.586, 0.308, 0.9540000000000001, 0.393, 0.9560000000000001, 0.47600000000000003, 0.301, 0.979, 0.6970000000000001, 0.092], 0.8629217273954115),
    (50, [0.586, 0.308, 0.9540000000000001, 0.393, 0.9560000000000001, 0.47600000000000003, 0.301, 0.979, 0.6970000000000001, 0.092], 0.8629217273954115),
    (51, [0.586, 0.308, 0.9540000000000001, 0.393, 0.9560000000000001, 0.47600000000000003, 0.301, 0.979, 0.6970000000000001, 0.092], 0.8629217273954115),
    (52, [0.586, 0.308, 0.9540000000000001, 0.393, 0.9560000000000001, 0.47600000000000003, 0.301, 0.979, 0.6970000000000001, 0.092], 0.8629217273954115),
    (53, [0.586, 0.308, 0.9540000000000001, 0.393, 0.9560000000000001, 0.47600000000000003, 0.301, 0.979, 0.6970000000000001, 0.092], 0.8629217273954115),
    (54, [0.586, 0.308, 0.9540000000000001, 0.393, 0.9560000000000001, 0.47600000000000003, 0.301, 0.979, 0.6970000000000001, 0.092], 0.8629217273954115),
]

