ranges of every chromosome : (-2, 2)
    selection method is: RouletteWheelSelection
    crossover method is: UniformCrossover
    pc: The probability of crossover: 0.700000
    pe: Gene exchange probability: 0.500000
    mutation method is: FlipBitBigMutation
    pm: The probability of mutation: 0.300000
    pbm: The probability of big mutation: 0.700000
    alpha: intensive factor: 0.600000
best_fit = [
    (0, [-0.9079999999999999, -1.113, 1.234, 0.9330000000000003, -0.8639999999999999, -1.3679999999999999, 1.0150000000000001, 1.1430000000000002, 0.8940000000000001, 1.1219999999999999], 0.8579217273954116),
    (1, [-0.9079999999999999, -1.113, 1.234, 0.9330000000000003, -0.8639999999999999, -1.3679999999999999, 1.0150000000000001, 1.1430000000000002, 0.8940000000000001, 1.1219999999999999], 0.8579217273954116),
    (2, [-1.2, -1.095, -1.546, 1.734, 1.3559999999999999, 0.7730000000000001, -1.0390000000000001, 1.2570000000000001, -1.189, -1.7530000000000001], 0.8581781376518218),
    (3, [-1.2, -1.095, -1.546, 1.734, 1.3559999999999999, 0.7730000000000001, -1.0390000000000001, 1.2570000000000001, -1.189, -1.7530000000000001], 0.8581781376518218),
    (4, [-1.2, -1.095, -1.546, 1.734, 1.3559999999999999, 0.7730000000000001, -1.0390000000000001, 1.2570000000000001, -1.189, -1.7530000000000001], 0.8581781376518218),
    (5, [-1.2, -1.095, -1.546, 1.734, 1.3559999999999999, 0.7730000000000001, -1.0390000000000001, 1.2570000000000001, -1.189, -1.7530000000000001], 0.8581781376518218),
    (6, [-1.2, -1.095, -1.546, 1.734, 1.3559999999999999, 0.7730000000000001, -1.0390000000000001, 1.2570000000000001, -1.189, -1.7530000000000001], 0.8581781376518218),
    (7, [1.626, -1.112, 0.08599999999999985, 1.5070000000000001, -0.942, -0.11699999999999999, 0.9540000000000002, -1.47, 1.8410000000000002, -0.405], 0.8676518218623481),
    (8, [1.626, -1.112, 0.08599999999999985, 1.5070000000000001, -0.942, -0.11699999999999999, 0.9540000000000002, -1.47, 1.8410000000000002, -0.405], 0.8676518218623481),
    (9, [1.626, -1.112, 0.08599999999999985, 1.5070000000000001, -0.942, -0.11699999999999999, 0.9540000000000002, -1.47, 1.8410000000000002, -0.405], 0.8676518218623481),
    (10, [1.626, -1.112, 0.08599999999999985, 1.5070000000000001, -0.942, -0.11699999999999999, 0.9540000000000002, -1.47, 1.8410000000000002, -0.405], 0.8676518218623481),
    (11, [1.626, -1.112, 0.08599999999999985, 1.5070000000000001, -0.942, -0.11699999999999999, 0.9540000000000002, -1.47, 1.8410000000000002, -0.405], 0.8676518218623481),
    (12, [1.626, -1.112, 0.08599999999999985, 1.5070000000000001, -0.942, -0.11699999999999999, 0.9540000000000002, -1.47, 1.8410000000000002, -0.405], 0.8676518218623481),
    (13, [1.626, -1.112, 0.08599999999999985, 1.5070000000000001, -0.942, -0.11699999999999999, 0.9540000000000002, -1.47, 1.8410000000000002, -0.405], 0.8676518218623481),
    (14, [1.626, -1.112, 0.08599999999999985, 1.5070000000000001, -0.942, -0.11699999999999999, 0.9540000000000002, -1.47, 1.8410000000000002, -0.405], 0.8676518218623481),
    (15, [1.626, -1.112, 0.08599999999999985, 1.5070000000000001, -0.942, -0.11699999999999999, 0.9540000000000002, -1.47, 1.8410000000000002, -0.405], 0.8676518218623481),
    (16, [1.626, -1.112, 0.08599999999999985, 1.5070000000000001, -0.942, -0.11699999999999999, 0.9540000000000002, -1.47, 1.8410000000000002, -0.405], 0.8676518218623481),
    (17, [1.626, -1.112, 0.08599999999999985, 1.5070000000000001, -0.942, -0.11699999999999999, 0.9540000000000002, -1.47, 1.8410000000000002, -0.405], 0.8676518218623481),
    (18, [1.626, -1.112, 0.08599999999999985, 1.5070000000000001, -0.942, -0.11699999999999999, 0.9540000000000002, -1.47, 1.8410000000000002, -0.405], 0.8676518218623481),
    (19, [1.626, -1.112, 0.08599999999999985, 1.5070000000000001, -0.942, -0.11699999999999999, 0.9540000000000002, -1.47, 1.8410000000000002, -0.405], 0.8676518218623481),
    (20, [1.626, -1.112, 0.08599999999999985, 1.5070000000000001, -0.942, -0.11699999999999999, 0.9540000000000002, -1.47, 1.8410000000000002, -0.405], 0.8676518218623481),
    (21, [1.626, -1.112, 0.08599999999999985, 1.5070000000000001, -0.942, -0.11699999999999999, 0.9540000000000002, -1.47, 1.8410000000000002, -0.405], 0.8676518218623481),
    (22, [1.626, -1.112, 0.08599999999999985, 1.5070000000000001, -0.942, -0.11699999999999999, 0.9540000000000002, -1.47, 1.8410000000000002, -0.405], 0.8676518218623481),
    (23, [1.626, -1.112, 0.08599999999999985, 1.5070000000000001, -0.942, -0.11699999999999999, 0.9540000000000002, -1.47, 1.8410000000000002, -0.405], 0.8676518218623481),
    (24, [1.626, -1.112, 0.08599999999999985, 1.5070000000000001, -0.942, -0.11699999999999999, 0.9540000000000002, -1.47, 1.8410000000000002, -0.405], 0.8676518218623481),
    (25, [1.626, -1.112, 0.08599999999999985, 1.5070000000000001, -0.942, -0.11699999999999999, 0.9540000000000002, -1.47, 1.8410000000000002, -0.405], 0.8676518218623481),
    (26, [1.626, -1.112, 0.08599999999999985, 1.5070000000000001, -0.942, -0.11699999999999999, 0.9540000000000002, -1.47, 1.8410000000000002, -0.405], 0.8676518218623481),
    (27, [1.626, -1.112, 0.08599999999999985, 1.5070000000000001, -0.942, -0.11699999999999999, 0.9540000000000002, -1.47, 1.8410000000000002, -0.405], 0.8676518218623481),
    (28, [1.626, -1.112, 0.08599999999999985, 1.5070000000000001, -0.942, -0.11699999999999999, 0.9540000000000002, -1.47, 1.8410000000000002, -0.405], 0.8676518218623481),
    (29, [1.626, -1.112, 0.08599999999999985, 1.5070000000000001, -0.942, -0.11699999999999999, 0.9540000000000002, -1.47, 1.8410000000000002, -0.405], 0.8676518218623481),
    (30, [1.626, -1.112, 0.08599999999999985, 1.5070000000000001, -0.942, -0.11699999999999999, 0.9540000000000002, -1.47, 1.8410000000000002, -0.405], 0.8676518218623481),
    (31, [1.626, -1.112, 0.08599999999999985, 1.5070000000000001, -0.942, -0.11699999999999999, 0.9540000000000002, -1.47, 1.8410000000000002, -0.405], 0.8676518218623481),
    (32, [1.626, -1.112, 0.08599999999999985, 1.5070000000000001, -0.942, -0.11699999999999999, 0.9540000000000002, -1.47, 1.8410000000000002, -0.405], 0.8676518218623481),
    (33, [1.626, -1.112, 0.08599999999999985, 1.5070000000000001, -0.942, -0.11699999999999999, 0.9540000000000002, -1.47, 1.8410000000000002, -0.405], 0.8676518218623481),
    (34, [1.626, -1.112, 0.08599999999999985, 1.5070000000000001, -0.942, -0.11699999999999999, 0.9540000000000002, -1.47, 1.8410000000000002, -0.405], 0.8676518218623481),
    (35, [1.626, -1.112, 0.08599999999999985, 1.5070000000000001, -0.942, -0.11699999999999999, 0.9540000000000002, -1.47, 1.8410000000000002, -0.405], 0.8676518218623481),
    (36, [1.626, -1.112, 0.08599999999999985, 1.5070000000000001, -0.942, -0.11699999999999999, 0.9540000000000002, -1.47, 1.8410000000000002, -0.405], 0.8676518218623481),
    (37, [1.626, -1.112, 0.08599999999999985, 1.5070000000000001, -0.942, -0.11699999999999999, 0.9540000000000002, -1.47, 1.8410000000000002, -0.405], 0.8676518218623481),
    (38, [1.626, -1.112, 0.08599999999999985, 1.5070000000000001, -0.942, -0.11699999999999999, 0.9540000000000002, -1.47, 1.8410000000000002, -0.405], 0.8676518218623481),
    (39, [1.626, -1.112, 0.08599999999999985, 1.5070000000000001, -0.942, -0.11699999999999999, 0.9540000000000002, -1.47, 1.8410000000000002, -0.405], 0.8676518218623481),
    (40, [1.626, -1.112, 0.08599999999999985, 1.5070000000000001, -0.942, -0.11699999999999999, 0.9540000000000002, -1.47, 1.8410000000000002, -0.405], 0.8676518218623481),
    (41, [1.626, -1.112, 0.08599999999999985, 1.5070000000000001, -0.942, -0.11699999999999999, 0.9540000000000002, -1.47, 1.8410000000000002, -0.405], 0.8676518218623481),
    (42, [1.626, -1.112, 0.08599999999999985, 1.5070000000000001, -0.942, -0.11699999999999999, 0.9540000000000002, -1.47, 1.8410000000000002, -0.405], 0.8676518218623481),
    (43, [1.626, -1.112, 0.08599999999999985, 1.5070000000000001, -0.942, -0.11699999999999999, 0.9540000000000002, -1.47, 1.8410000000000002, -0.405], 0.8676518218623481),
    (44, [1.626, -1.112, 0.08599999999999985, 1.5070000000000001, -0.942, -0.11699999999999999, 0.9540000000000002, -1.47, 1.8410000000000002, -0.405], 0.8676518218623481),
    (45, [1.626, -1.112, 0.08599999999999985, 1.5070000000000001, -0.942, -0.11699999999999999, 0.9540000000000002, -1.47, 1.8410000000000002, -0.405], 0.8676518218623481),
    (46, [1.626, -1.112, 0.08599999999999985, 1.5070000000000001, -0.942, -0.11699999999999999, 0.9540000000000002, -1.47, 1.8410000000000002, -0.405], 0.8676518218623481),
    (47, [1.626, -1.112, 0.08599999999999985, 1.5070000000000001, -0.942, -0.11699999999999999, 0.9540000000000002, -1.47, 1.8410000000000002, -0.405], 0.8676518218623481),
    (48, [1.626, -1.112, 0.08599999999999985, 1.5070000000000001, -0.942, -0.11699999999999999, 0.9540000000000002, -1.47, 1.8410000000000002, -0.405], 0.8676518218623481),
    (49, [1.626, -1.112, 0.08599999999999985, 1.5070000000000001, -0.942, -0.11699999999999999, 0.9540000000000002, -1.47, 1.8410000000000002, -0.405], 0.8676518218623481),
    (50, [1.626, -1.112, 0.08599999999999985, 1.5070000000000001, -0.942, -0.11699999999999999, 0.9540000000000002, -1.47, 1.8410000000000002, -0.405], 0.8676518218623481),
    (51, [1.626, -1.112, 0.08599999999999985, 1.5070000000000001, -0.942, -0.11699999999999999, 0.9540000000000002, -1.47, 1.8410000000000002, -0.405], 0.8676518218623481),
    (52, [1.626, -1.112, 0.08599999999999985, 1.5070000000000001, -0.942, -0.11699999999999999, 0.9540000000000002, -1.47, 1.8410000000000002, -0.405], 0.8676518218623481),
    (53, [1.626, -1.112, 0.08599999999999985, 1.5070000000000001, -0.942, -0.11699999999999999, 0.9540000000000002, -1.47, 1.8410000000000002, -0.405], 0.8676518218623481),
    (54, [1.626, -1.112, 0.08599999999999985, 1.5070000000000001, -0.942, -0.11699999999999999, 0.9540000000000002, -1.47, 1.8410000000000002, -0.405], 0.8676518218623481),
]

