ranges of every chromosome : (0, 1)
    selection method is: LinearRankingSelection
    crossover method is: UniformCrossover
    pc: The probability of crossover: 1.000000
    pe: Gene exchange probability: 0.500000
    mutation method is: FlipBitBigMutation
    pm: The probability of mutation: 0.100000
    pbm: The probability of big mutation: 0.500000
    alpha: intensive factor: 0.600000
best_fit = [
    (0, [0.992, 0.96, 0.506, 0.64, 0.367, 0.20700000000000002, 0.537, 0.41200000000000003, 0.535, 0.305], 0.8530566801619432),
    (1, [0.992, 0.96, 0.506, 0.64, 0.367, 0.20700000000000002, 0.537, 0.41200000000000003, 0.535, 0.305], 0.8530566801619432),
    (2, [0.992, 0.96, 0.506, 0.64, 0.367, 0.20700000000000002, 0.537, 0.41200000000000003, 0.535, 0.305], 0.8530566801619432),
    (3, [0.992, 0.96, 0.506, 0.64, 0.367, 0.20700000000000002, 0.537, 0.41200000000000003, 0.535, 0.305], 0.8530566801619432),
    (4, [0.992, 0.96, 0.506, 0.64, 0.367, 0.20700000000000002, 0.537, 0.41200000000000003, 0.535, 0.305], 0.8530566801619432),
    (5, [0.992, 0.96, 0.506, 0.64, 0.367, 0.20700000000000002, 0.537, 0.41200000000000003, 0.535, 0.305], 0.8530566801619432),
    (6, [0.623, 0.44, 0.248, 0.197, 0.531, 0.452, 0.794, 0.9, 0.339, 0.561], 0.8575303643724697),
    (7, [0.623, 0.44, 0.248, 0.197, 0.531, 0.452, 0.794, 0.9, 0.339, 0.561], 0.8575303643724697),
    (8, [0.333, 0.653, 0.277, 0.171, 0.8220000000000001, 0.7000000000000001, 0.15, 0.664, 0.309, 0.442], 0.8576585695006747),
    (9, [0.333, 0.653, 0.277, 0.171, 0.8220000000000001, 0.7000000000000001, 0.15, 0.664, 0.309, 0.442], 0.8576585695006747),
    (10, [0.333, 0.653, 0.277, 0.171, 0.8220000000000001, 0.7000000000000001, 0.15, 0.664, 0.309, 0.442], 0.8576585695006747),
    (11, [0.187, 0.964, 0.04, 0.132, 0.909, 0.179, 0.483, 0.904, 0.399, 0.267], 0.8577935222672064),
    (12, [0.928, 0.773, 0.076, 0.41500000000000004, 0.271, 0.393, 0.8, 0.851, 0.316, 0.232], 0.8580499325236166),
    (13, [0.928, 0.773, 0.076, 0.41500000000000004, 0.271, 0.393, 0.8, 0.851, 0.316, 0.232], 0.8580499325236166),
    (14, [0.639, 0.388, 0.534, 0.383, 0.332, 0.63, 0.9400000000000001, 0.912, 0.536, 0.255], 0.8626585695006748),
    (15, [0.639, 0.388, 0.534, 0.383, 0.332, 0.63, 0.9400000000000001, 0.912, 0.536, 0.255], 0.8626585695006748),
    (16, [0.639, 0.388, 0.534, 0.383, 0.332, 0.63, 0.9400000000000001, 0.912, 0.536, 0.255], 0.8626585695006748),
    (17, [0.639, 0.388, 0.534, 0.383, 0.332, 0.63, 0.9400000000000001, 0.912, 0.536, 0.255], 0.8626585695006748),
    (18, [0.639, 0.388, 0.534, 0.383, 0.332, 0.63, 0.9400000000000001, 0.912, 0.536, 0.255], 0.8626585695006748),
    (19, [0.639, 0.388, 0.534, 0.383, 0.332, 0.63, 0.9400000000000001, 0.912, 0.536, 0.255], 0.8626585695006748),
    (20, [0.639, 0.388, 0.534, 0.383, 0.332, 0.63, 0.9400000000000001, 0.912, 0.536, 0.255], 0.8626585695006748),
    (21, [0.639, 0.388, 0.534, 0.383, 0.332, 0.63, 0.9400000000000001, 0.912, 0.536, 0.255], 0.8626585695006748),
    (22, [0.639, 0.388, 0.534, 0.383, 0.332, 0.63, 0.9400000000000001, 0.912, 0.536, 0.255], 0.8626585695006748),
    (23, [0.639, 0.388, 0.534, 0.383, 0.332, 0.63, 0.9400000000000001, 0.912, 0.536, 0.255], 0.8626585695006748),
    (24, [0.639, 0.388, 0.534, 0.383, 0.332, 0.63, 0.9400000000000001, 0.912, 0.536, 0.255], 0.8626585695006748),
    (25, [0.639, 0.388, 0.534, 0.383, 0.332, 0.63, 0.9400000000000001, 0.912, 0.536, 0.255], 0.8626585695006748),
    (26, [0.639, 0.388, 0.534, 0.383, 0.332, 0.63, 0.9400000000000001, 0.912, 0.536, 0.255], 0.8626585695006748),
    (27, [0.639, 0.388, 0.534, 0.383, 0.332, 0.63, 0.9400000000000001, 0.912, 0.536, 0.255], 0.8626585695006748),
    (28, [0.639, 0.388, 0.534, 0.383, 0.332, 0.63, 0.9400000000000001, 0.912, 0.536, 0.255], 0.8626585695006748),
    (29, [0.639, 0.388, 0.534, 0.383, 0.332, 0.63, 0.9400000000000001, 0.912, 0.536, 0.255], 0.8626585695006748),
    (30, [0.639, 0.388, 0.534, 0.383, 0.332, 0.63, 0.9400000000000001, 0.912, 0.536, 0.255], 0.8626585695006748),
    (31, [0.639, 0.388, 0.534, 0.383, 0.332, 0.63, 0.9400000000000001, 0.912, 0.536, 0.255], 0.8626585695006748),
    (32, [0.639, 0.388, 0.534, 0.383, 0.332, 0.63, 0.9400000000000001, 0.912, 0.536, 0.255], 0.8626585695006748),
    (33, [0.639, 0.388, 0.534, 0.383, 0.332, 0.63, 0.9400000000000001, 0.912, 0.536, 0.255], 0.8626585695006748),
    (34, [0.639, 0.388, 0.534, 0.383, 0.332, 0.63, 0.9400000000000001, 0.912, 0.536, 0.255], 0.8626585695006748),
    (35, [0.639, 0.388, 0.534, 0.383, 0.332, 0.63, 0.9400000000000001, 0.912, 0.536, 0.255], 0.8626585695006748),
    (36, [0.639, 0.388, 0.534, 0.383, 0.332, 0.63, 0.9400000000000001, 0.912, 0.536, 0.255], 0.8626585695006748),
    (37, [0.639, 0.388, 0.534, 0.383, 0.332, 0.63, 0.9400000000000001, 0.912, 0.536, 0.255], 0.8626585695006748),
    (38, [0.639, 0.388, 0.534, 0.383, 0.332, 0.63, 0.9400000000000001, 0.912, 0.536, 0.255], 0.8626585695006748),
    (39, [0.639, 0.388, 0.534, 0.383, 0.332, 0.63, 0.9400000000000001, 0.912, 0.536, 0.255], 0.8626585695006748),
    (40, [0.639, 0.388, 0.534, 0.383, 0.332, 0.63, 0.9400000000000001, 0.912, 0.536, 0.255], 0.8626585695006748),
    (41, [0.639, 0.388, 0.534, 0.383, 0.332, 0.63, 0.9400000000000001, 0.912, 0.536, 0.255], 0.8626585695006748),
    (42, [0.639, 0.388, 0.534, 0.383, 0.332, 0.63, 0.9400000000000001, 0.912, 0.536, 0.255], 0.8626585695006748),
    (43, [0.639, 0.388, 0.534, 0.383, 0.332, 0.63, 0.9400000000000001, 0.912, 0.536, 0.255], 0.8626585695006748),
    (44, [0.639, 0.388, 0.534, 0.383, 0.332, 0.63, 0.9400000000000001, 0.912, 0.536, 0.255], 0.8626585695006748),
    (45, [0.639, 0.388, 0.534, 0.383, 0.332, 0.63, 0.9400000000000001, 0.912, 0.536, 0.255], 0.8626585695006748),
    (46, [0.639, 0.388, 0.534, 0.383, 0.332, 0.63, 0.9400000000000001, 0.912, 0.536, 0.255], 0.8626585695006748),
    (47, [0.639, 0.388, 0.534, 0.383, 0.332, 0.63, 0.9400000000000001, 0.912, 0.536, 0.255], 0.8626585695006748),
    (48, [0.639, 0.388, 0.534, 0.383, 0.332, 0.63, 0.9400000000000001, 0.912, 0.536, 0.255], 0.8626585695006748),
    (49, [0.639, 0.388, 0.534, 0.383, 0.332, 0.63, 0.9400000000000001, 0.912, 0.536, 0.255], 0.8626585695006748),
    (50, [0.639, 0.388, 0.534, 0.383, 0.332, 0.63, 0.9400000000000001, 0.912, 0.536, 0.255], 0.8626585695006748),
    (51, [0.639, 0.388, 0.534, 0.383, 0.332, 0.63, 0.9400000000000001, 0.912, 0.536, 0.255], 0.8626585695006748),
    (52, [0.639, 0.388, 0.534, 0.383, 0.332, 0.63, 0.9400000000000001, 0.912, 0.536, 0.255], 0.8626585695006748),
    (53, [0.639, 0.388, 0.534, 0.383, 0.332, 0.63, 0.9400000000000001, 0.912, 0.536, 0.255], 0.8626585695006748),
    (54, [0.639, 0.388, 0.534, 0.383, 0.332, 0.63, 0.9400000000000001, 0.912, 0.536, 0.255], 0.8626585695006748),
]

