ranges of every chromosome : (-1, 1)
    selection method is: TournamentSelection
    crossover method is: UniformCrossover
    pc: The probability of crossover: 0.700000
    pe: Gene exchange probability: 0.500000
    mutation method is: FlipBitBigMutation
    pm: The probability of mutation: 0.100000
    pbm: The probability of big mutation: 0.500000
    alpha: intensive factor: 0.800000
best_fit = [
    (0, [-0.583, 0.825, 0.43700000000000006, -0.0020000000000000018, -0.29799999999999993, -0.21599999999999997, 0.8220000000000001, 0.8140000000000001, 0.30800000000000005, 0.9279999999999999], 0.8577867746288799),
    (1, [-0.583, 0.825, 0.43700000000000006, -0.0020000000000000018, -0.29799999999999993, -0.21599999999999997, 0.8220000000000001, 0.8140000000000001, 0.30800000000000005, 0.9279999999999999], 0.8577867746288799),
    (2, [-0.583, 0.825, 0.43700000000000006, -0.0020000000000000018, -0.29799999999999993, -0.21599999999999997, 0.8220000000000001, 0.8140000000000001, 0.30800000000000005, 0.9279999999999999], 0.8577867746288799),
    (3, [-0.583, 0.825, 0.43700000000000006, -0.0020000000000000018, -0.29799999999999993, -0.21599999999999997, 0.8220000000000001, 0.8140000000000001, 0.30800000000000005, 0.9279999999999999], 0.8577867746288799),
    (4, [-0.583, 0.825, 0.43700000000000006, -0.0020000000000000018, -0.29799999999999993, -0.21599999999999997, 0.8220000000000001, 0.8140000000000001, 0.30800000000000005, 0.9279999999999999], 0.8577867746288799),
    (5, [-0.583, 0.825, 0.43700000000000006, -0.0020000000000000018, -0.29799999999999993, -0.21599999999999997, 0.8220000000000001, 0.8140000000000001, 0.30800000000000005, 0.9279999999999999], 0.8577867746288799),
    (6, [-0.583, 0.825, 0.43700000000000006, -0.0020000000000000018, -0.29799999999999993, -0.21599999999999997, 0.8220000000000001, 0.8140000000000001, 0.30800000000000005, 0.9279999999999999], 0.8577867746288799),
    (7, [-0.583, 0.825, 0.43700000000000006, -0.0020000000000000018, -0.29799999999999993, -0.21599999999999997, 0.8220000000000001, 0.8140000000000001, 0.30800000000000005, 0.9279999999999999], 0.8577867746288799),
    (8, [-0.583, 0.825, 0.43700000000000006, -0.0020000000000000018, -0.29799999999999993, -0.21599999999999997, 0.8220000000000001, 0.8140000000000001, 0.30800000000000005, 0.9279999999999999], 0.8577867746288799),
    (9, [-0.588, 0.254, -0.09699999999999998, 0.3800000000000001, 0.3820000000000001, -0.514, 0.4119999999999999, -0.985, -0.921, -0.0010000000000000009], 0.8577935222672064),
    (10, [0.633, 0.23399999999999999, 0.6160000000000001, 0.32899999999999996, 0.7270000000000001, 0.4950000000000001, 0.867, -0.633, 0.726, 0.369], 0.8579217273954116),
    (11, [0.633, 0.23399999999999999, 0.6160000000000001, 0.32899999999999996, 0.7270000000000001, 0.4950000000000001, 0.867, -0.633, 0.726, 0.369], 0.8579217273954116),
    (12, [0.4710000000000001, 0.565, -0.21399999999999997, -0.131, -0.22999999999999998, -0.274, 0.15700000000000003, 0.8220000000000001, 0.236, 0.0050000000000001155], 0.8580499325236166),
    (13, [0.4710000000000001, 0.565, -0.21399999999999997, -0.131, -0.22999999999999998, -0.274, 0.15700000000000003, 0.8220000000000001, 0.236, 0.0050000000000001155], 0.8580499325236166),
    (14, [0.4710000000000001, 0.565, -0.21399999999999997, -0.131, -0.22999999999999998, -0.274, 0.15700000000000003, 0.8220000000000001, 0.236, 0.0050000000000001155], 0.8580499325236166),
    (15, [0.4710000000000001, 0.565, -0.21399999999999997, -0.131, -0.22999999999999998, -0.274, 0.15700000000000003, 0.8220000000000001, 0.236, 0.0050000000000001155], 0.8580499325236166),
    (16, [0.4710000000000001, 0.565, -0.21399999999999997, -0.131, -0.22999999999999998, -0.274, 0.15700000000000003, 0.8220000000000001, 0.236, 0.0050000000000001155], 0.8580499325236166),
    (17, [0.4710000000000001, 0.565, -0.21399999999999997, -0.131, -0.22999999999999998, -0.274, 0.15700000000000003, 0.8220000000000001, 0.236, 0.0050000000000001155], 0.8580499325236166),
    (18, [0.935, 0.925, 0.42700000000000005, 0.131, -0.040000000000000036, -0.491, -0.829, 0.823, 0.32699999999999996, -0.919], 0.8629217273954115),
    (19, [0.935, 0.925, 0.42700000000000005, 0.131, -0.040000000000000036, -0.491, -0.829, 0.823, 0.32699999999999996, -0.919], 0.8629217273954115),
    (20, [0.935, 0.925, 0.42700000000000005, 0.131, -0.040000000000000036, -0.491, -0.829, 0.823, 0.32699999999999996, -0.919], 0.8629217273954115),
    (21, [0.935, 0.925, 0.42700000000000005, 0.131, -0.040000000000000036, -0.491, -0.829, 0.823, 0.32699999999999996, -0.919], 0.8629217273954115),
    (22, [0.935, 0.925, 0.42700000000000005, 0.131, -0.040000000000000036, -0.491, -0.829, 0.823, 0.32699999999999996, -0.919], 0.8629217273954115),
    (23, [0.935, 0.925, 0.42700000000000005, 0.131, -0.040000000000000036, -0.491, -0.829, 0.823, 0.32699999999999996, -0.919], 0.8629217273954115),
    (24, [0.935, 0.925, 0.42700000000000005, 0.131, -0.040000000000000036, -0.491, -0.829, 0.823, 0.32699999999999996, -0.919], 0.8629217273954115),
    (25, [0.935, 0.925, 0.42700000000000005, 0.131, -0.040000000000000036, -0.491, -0.829, 0.823, 0.32699999999999996, -0.919], 0.8629217273954115),
    (26, [0.935, 0.925, 0.42700000000000005, 0.131, -0.040000000000000036, -0.491, -0.829, 0.823, 0.32699999999999996, -0.919], 0.8629217273954115),
    (27, [0.935, 0.925, 0.42700000000000005, 0.131, -0.040000000000000036, -0.491, -0.829, 0.823, 0.32699999999999996, -0.919], 0.8629217273954115),
    (28, [0.935, 0.925, 0.42700000000000005, 0.131, -0.040000000000000036, -0.491, -0.829, 0.823, 0.32699999999999996, -0.919], 0.8629217273954115),
    (29, [0.935, 0.925, 0.42700000000000005, 0.131, -0.040000000000000036, -0.491, -0.829, 0.823, 0.32699999999999996, -0.919], 0.8629217273954115),
    (30, [0.935, 0.925, 0.42700000000000005, 0.131, -0.040000000000000036, -0.491, -0.829, 0.823, 0.32699999999999996, -0.919], 0.8629217273954115),
    (31, [0.935, 0.925, 0.42700000000000005, 0.131, -0.040000000000000036, -0.491, -0.829, 0.823, 0.32699999999999996, -0.919], 0.8629217273954115),
    (32, [0.935, 0.925, 0.42700000000000005, 0.131, -0.040000000000000036, -0.491, -0.829, 0.823, 0.32699999999999996, -0.919], 0.8629217273954115),
    (33, [0.935, 0.925, 0.42700000000000005, 0.131, -0.040000000000000036, -0.491, -0.829, 0.823, 0.32699999999999996, -0.919], 0.8629217273954115),
    (34, [0.935, 0.925, 0.42700000000000005, 0.131, -0.040000000000000036, -0.491, -0.829, 0.823, 0.32699999999999996, -0.919], 0.8629217273954115),
    (35, [0.935, 0.925, 0.42700000000000005, 0.131, -0.040000000000000036, -0.491, -0.829, 0.823, 0.32699999999999996, -0.919], 0.8629217273954115),
    (36, [0.935, 0.925, 0.42700000000000005, 0.131, -0.040000000000000036, -0.491, -0.829, 0.823, 0.32699999999999996, -0.919], 0.8629217273954115),
    (37, [0.935, 0.925, 0.42700000000000005, 0.131, -0.040000000000000036, -0.491, -0.829, 0.823, 0.32699999999999996, -0.919], 0.8629217273954115),
    (38, [0.935, 0.925, 0.42700000000000005, 0.131, -0.040000000000000036, -0.491, -0.829, 0.823, 0.32699999999999996, -0.919], 0.8629217273954115),
    (39, [0.935, 0.925, 0.42700000000000005, 0.131, -0.040000000000000036, -0.491, -0.829, 0.823, 0.32699999999999996, -0.919], 0.8629217273954115),
    (40, [0.935, 0.925, 0.42700000000000005, 0.131, -0.040000000000000036, -0.491, -0.829, 0.823, 0.32699999999999996, -0.919], 0.8629217273954115),
    (41, [0.935, 0.925, 0.42700000000000005, 0.131, -0.040000000000000036, -0.491, -0.829, 0.823, 0.32699999999999996, -0.919], 0.8629217273954115),
    (42, [0.935, 0.925, 0.42700000000000005, 0.131, -0.040000000000000036, -0.491, -0.829, 0.823, 0.32699999999999996, -0.919], 0.8629217273954115),
    (43, [0.935, 0.925, 0.42700000000000005, 0.131, -0.040000000000000036, -0.491, -0.829, 0.823, 0.32699999999999996, -0.919], 0.8629217273954115),
    (44, [0.935, 0.925, 0.42700000000000005, 0.131, -0.040000000000000036, -0.491, -0.829, 0.823, 0.32699999999999996, -0.919], 0.8629217273954115),
    (45, [0.935, 0.925, 0.42700000000000005, 0.131, -0.040000000000000036, -0.491, -0.829, 0.823, 0.32699999999999996, -0.919], 0.8629217273954115),
    (46, [0.935, 0.925, 0.42700000000000005, 0.131, -0.040000000000000036, -0.491, -0.829, 0.823, 0.32699999999999996, -0.919], 0.8629217273954115),
    (47, [0.935, 0.925, 0.42700000000000005, 0.131, -0.040000000000000036, -0.491, -0.829, 0.823, 0.32699999999999996, -0.919], 0.8629217273954115),
    (48, [0.935, 0.925, 0.42700000000000005, 0.131, -0.040000000000000036, -0.491, -0.829, 0.823, 0.32699999999999996, -0.919], 0.8629217273954115),
    (49, [0.935, 0.925, 0.42700000000000005, 0.131, -0.040000000000000036, -0.491, -0.829, 0.823, 0.32699999999999996, -0.919], 0.8629217273954115),
    (50, [0.935, 0.925, 0.42700000000000005, 0.131, -0.040000000000000036, -0.491, -0.829, 0.823, 0.32699999999999996, -0.919], 0.8629217273954115),
    (51, [0.935, 0.925, 0.42700000000000005, 0.131, -0.040000000000000036, -0.491, -0.829, 0.823, 0.32699999999999996, -0.919], 0.8629217273954115),
    (52, [0.935, 0.925, 0.42700000000000005, 0.131, -0.040000000000000036, -0.491, -0.829, 0.823, 0.32699999999999996, -0.919], 0.8629217273954115),
    (53, [0.935, 0.925, 0.42700000000000005, 0.131, -0.040000000000000036, -0.491, -0.829, 0.823, 0.32699999999999996, -0.919], 0.8629217273954115),
    (54, [0.935, 0.925, 0.42700000000000005, 0.131, -0.040000000000000036, -0.491, -0.829, 0.823, 0.32699999999999996, -0.919], 0.8629217273954115),
]

