ranges of every chromosome : (0, 1)
    selection method is: RouletteWheelSelection
    crossover method is: UniformCrossover
    pc: The probability of crossover: 0.850000
    pe: Gene exchange probability: 0.500000
    mutation method is: FlipBitBigMutation
    pm: The probability of mutation: 0.100000
    pbm: The probability of big mutation: 0.500000
    alpha: intensive factor: 0.800000
best_fit = [
    (0, [0.8310000000000001, 0.922, 0.275, 0.16, 0.289, 0.634, 0.686, 0.714, 0.319, 0.428], 0.8577867746288799),
    (1, [0.8310000000000001, 0.922, 0.275, 0.16, 0.289, 0.634, 0.686, 0.714, 0.319, 0.428], 0.8577867746288799),
    (2, [0.8310000000000001, 0.922, 0.275, 0.16, 0.289, 0.634, 0.686, 0.714, 0.319, 0.428], 0.8577867746288799),
    (3, [0.8310000000000001, 0.922, 0.275, 0.16, 0.289, 0.634, 0.686, 0.714, 0.319, 0.428], 0.8577867746288799),
    (4, [0.433, 0.262, 0.986, 0.34500000000000003, 0.8280000000000001, 0.28300000000000003, 0.233, 0.8210000000000001, 0.847, 0.159], 0.8577935222672064),
    (5, [0.433, 0.262, 0.986, 0.34500000000000003, 0.8280000000000001, 0.28300000000000003, 0.233, 0.8210000000000001, 0.847, 0.159], 0.8577935222672064),
    (6, [0.715, 0.291, 0.879, 0.171, 0.88, 0.23600000000000002, 0.229, 0.8140000000000001, 0.917, 0.3], 0.8626585695006748),
    (7, [0.715, 0.291, 0.879, 0.171, 0.88, 0.23600000000000002, 0.229, 0.8140000000000001, 0.917, 0.3], 0.8626585695006748),
    (8, [0.715, 0.291, 0.879, 0.171, 0.88, 0.23600000000000002, 0.229, 0.8140000000000001, 0.917, 0.3], 0.8626585695006748),
    (9, [0.715, 0.291, 0.879, 0.171, 0.88, 0.23600000000000002, 0.229, 0.8140000000000001, 0.917, 0.3], 0.8626585695006748),
    (10, [0.715, 0.291, 0.879, 0.171, 0.88, 0.23600000000000002, 0.229, 0.8140000000000001, 0.917, 0.3], 0.8626585695006748),
    (11, [0.715, 0.291, 0.879, 0.171, 0.88, 0.23600000000000002, 0.229, 0.8140000000000001, 0.917, 0.3], 0.8626585695006748),
    (12, [0.715, 0.291, 0.879, 0.171, 0.88, 0.23600000000000002, 0.229, 0.8140000000000001, 0.917, 0.3], 0.8626585695006748),
    (13, [0.715, 0.291, 0.879, 0.171, 0.88, 0.23600000000000002, 0.229, 0.8140000000000001, 0.917, 0.3], 0.8626585695006748),
    (14, [0.715, 0.291, 0.879, 0.171, 0.88, 0.23600000000000002, 0.229, 0.8140000000000001, 0.917, 0.3], 0.8626585695006748),
    (15, [0.715, 0.291, 0.879, 0.171, 0.88, 0.23600000000000002, 0.229, 0.8140000000000001, 0.917, 0.3], 0.8626585695006748),
    (16, [0.715, 0.291, 0.879, 0.171, 0.88, 0.23600000000000002, 0.229, 0.8140000000000001, 0.917, 0.3], 0.8626585695006748),
    (17, [0.715, 0.291, 0.879, 0.171, 0.88, 0.23600000000000002, 0.229, 0.8140000000000001, 0.917, 0.3], 0.8626585695006748),
    (18, [0.715, 0.291, 0.879, 0.171, 0.88, 0.23600000000000002, 0.229, 0.8140000000000001, 0.917, 0.3], 0.8626585695006748),
    (19, [0.715, 0.291, 0.879, 0.171, 0.88, 0.23600000000000002, 0.229, 0.8140000000000001, 0.917, 0.3], 0.8626585695006748),
    (20, [0.715, 0.291, 0.879, 0.171, 0.88, 0.23600000000000002, 0.229, 0.8140000000000001, 0.917, 0.3], 0.8626585695006748),
    (21, [0.614, 0.33, 0.317, 0.17, 0.849, 0.08700000000000001, 0.743, 0.931, 0.28, 0.10200000000000001], 0.8627867746288798),
    (22, [0.614, 0.33, 0.317, 0.17, 0.849, 0.08700000000000001, 0.743, 0.931, 0.28, 0.10200000000000001], 0.8627867746288798),
    (23, [0.614, 0.33, 0.317, 0.17, 0.849, 0.08700000000000001, 0.743, 0.931, 0.28, 0.10200000000000001], 0.8627867746288798),
    (24, [0.614, 0.33, 0.317, 0.17, 0.849, 0.08700000000000001, 0.743, 0.931, 0.28, 0.10200000000000001], 0.8627867746288798),
    (25, [0.614, 0.33, 0.317, 0.17, 0.849, 0.08700000000000001, 0.743, 0.931, 0.28, 0.10200000000000001], 0.8627867746288798),
    (26, [0.614, 0.33, 0.317, 0.17, 0.849, 0.08700000000000001, 0.743, 0.931, 0.28, 0.10200000000000001], 0.8627867746288798),
    (27, [0.614, 0.33, 0.317, 0.17, 0.849, 0.08700000000000001, 0.743, 0.931, 0.28, 0.10200000000000001], 0.8627867746288798),
    (28, [0.614, 0.33, 0.317, 0.17, 0.849, 0.08700000000000001, 0.743, 0.931, 0.28, 0.10200000000000001], 0.8627867746288798),
    (29, [0.614, 0.33, 0.317, 0.17, 0.849, 0.08700000000000001, 0.743, 0.931, 0.28, 0.10200000000000001], 0.8627867746288798),
    (30, [0.614, 0.33, 0.317, 0.17, 0.849, 0.08700000000000001, 0.743, 0.931, 0.28, 0.10200000000000001], 0.8627867746288798),
    (31, [0.614, 0.33, 0.317, 0.17, 0.849, 0.08700000000000001, 0.743, 0.931, 0.28, 0.10200000000000001], 0.8627867746288798),
    (32, [0.614, 0.33, 0.317, 0.17, 0.849, 0.08700000000000001, 0.743, 0.931, 0.28, 0.10200000000000001], 0.8627867746288798),
    (33, [0.614, 0.33, 0.317, 0.17, 0.849, 0.08700000000000001, 0.743, 0.931, 0.28, 0.10200000000000001], 0.8627867746288798),
    (34, [0.614, 0.33, 0.317, 0.17, 0.849, 0.08700000000000001, 0.743, 0.931, 0.28, 0.10200000000000001], 0.8627867746288798),
    (35, [0.614, 0.33, 0.317, 0.17, 0.849, 0.08700000000000001, 0.743, 0.931, 0.28, 0.10200000000000001], 0.8627867746288798),
    (36, [0.614, 0.33, 0.317, 0.17, 0.849, 0.08700000000000001, 0.743, 0.931, 0.28, 0.10200000000000001], 0.8627867746288798),
    (37, [0.614, 0.33, 0.317, 0.17, 0.849, 0.08700000000000001, 0.743, 0.931, 0.28, 0.10200000000000001], 0.8627867746288798),
    (38, [0.659, 0.642, 0.36, 0.14300000000000002, 0.495, 0.079, 0.726, 0.686, 0.281, 0.272], 0.8677867746288799),
    (39, [0.659, 0.642, 0.36, 0.14300000000000002, 0.495, 0.079, 0.726, 0.686, 0.281, 0.272], 0.8677867746288799),
    (40, [0.659, 0.642, 0.36, 0.14300000000000002, 0.495, 0.079, 0.726, 0.686, 0.281, 0.272], 0.8677867746288799),
    (41, [0.659, 0.642, 0.36, 0.14300000000000002, 0.495, 0.079, 0.726, 0.686, 0.281, 0.272], 0.8677867746288799),
    (42, [0.659, 0.642, 0.36, 0.14300000000000002, 0.495, 0.079, 0.726, 0.686, 0.281, 0.272], 0.8677867746288799),
    (43, [0.659, 0.642, 0.36, 0.14300000000000002, 0.495, 0.079, 0.726, 0.686, 0.281, 0.272], 0.8677867746288799),
    (44, [0.659, 0.642, 0.36, 0.14300000000000002, 0.495, 0.079, 0.726, 0.686, 0.281, 0.272], 0.8677867746288799),
    (45, [0.659, 0.642, 0.36, 0.14300000000000002, 0.495, 0.079, 0.726, 0.686, 0.281, 0.272], 0.8677867746288799),
    (46, [0.659, 0.642, 0.36, 0.14300000000000002, 0.495, 0.079, 0.726, 0.686, 0.281, 0.272], 0.8677867746288799),
    (47, [0.659, 0.642, 0.36, 0.14300000000000002, 0.495, 0.079, 0.726, 0.686, 0.281, 0.272], 0.8677867746288799),
    (48, [0.659, 0.642, 0.36, 0.14300000000000002, 0.495, 0.079, 0.726, 0.686, 0.281, 0.272], 0.8677867746288799),
    (49, [0.659, 0.642, 0.36, 0.14300000000000002, 0.495, 0.079, 0.726, 0.686, 0.281, 0.272], 0.8677867746288799),
    (50, [0.659, 0.642, 0.36, 0.14300000000000002, 0.495, 0.079, 0.726, 0.686, 0.281, 0.272], 0.8677867746288799),
    (51, [0.659, 0.642, 0.36, 0.14300000000000002, 0.495, 0.079, 0.726, 0.686, 0.281, 0.272], 0.8677867746288799),
    (52, [0.659, 0.642, 0.36, 0.14300000000000002, 0.495, 0.079, 0.726, 0.686, 0.281, 0.272], 0.8677867746288799),
    (53, [0.659, 0.642, 0.36, 0.14300000000000002, 0.495, 0.079, 0.726, 0.686, 0.281, 0.272], 0.8677867746288799),
    (54, [0.659, 0.642, 0.36, 0.14300000000000002, 0.495, 0.079, 0.726, 0.686, 0.281, 0.272], 0.8677867746288799),
]

