ranges of every chromosome : (-1, 1)
    selection method is: RouletteWheelSelection
    crossover method is: UniformCrossover
    pc: The probability of crossover: 0.850000
    pe: Gene exchange probability: 0.500000
    mutation method is: FlipBitBigMutation
    pm: The probability of mutation: 0.100000
    pbm: The probability of big mutation: 0.500000
    alpha: intensive factor: 0.800000
best_fit = [
    (0, [0.393, 0.919, -0.369, -0.008000000000000007, -0.987, 0.11499999999999999, 0.2889999999999999, 0.778, 0.27300000000000013, -0.21699999999999997], 0.8627867746288798),
    (1, [0.393, 0.919, -0.369, -0.008000000000000007, -0.987, 0.11499999999999999, 0.2889999999999999, 0.778, 0.27300000000000013, -0.21699999999999997], 0.8627867746288798),
    (2, [0.393, 0.919, -0.369, -0.008000000000000007, -0.987, 0.11499999999999999, 0.2889999999999999, 0.778, 0.27300000000000013, -0.21699999999999997], 0.8627867746288798),
    (3, [0.393, 0.919, -0.369, -0.008000000000000007, -0.987, 0.11499999999999999, 0.2889999999999999, 0.778, 0.27300000000000013, -0.21699999999999997], 0.8627867746288798),
    (4, [0.393, 0.919, -0.369, -0.008000000000000007, -0.987, 0.11499999999999999, 0.2889999999999999, 0.778, 0.27300000000000013, -0.21699999999999997], 0.8627867746288798),
    (5, [0.393, 0.919, -0.369, -0.008000000000000007, -0.987, 0.11499999999999999, 0.2889999999999999, 0.778, 0.27300000000000013, -0.21699999999999997], 0.8627867746288798),
    (6, [0.393, 0.919, -0.369, -0.008000000000000007, -0.987, 0.11499999999999999, 0.2889999999999999, 0.778, 0.27300000000000013, -0.21699999999999997], 0.8627867746288798),
    (7, [0.393, 0.919, -0.369, -0.008000000000000007, -0.987, 0.11499999999999999, 0.2889999999999999, 0.778, 0.27300000000000013, -0.21699999999999997], 0.8627867746288798),
    (8, [0.393, 0.919, -0.369, -0.008000000000000007, -0.987, 0.11499999999999999, 0.2889999999999999, 0.778, 0.27300000000000013, -0.21699999999999997], 0.8627867746288798),
    (9, [0.393, 0.919, -0.369, -0.008000000000000007, -0.987, 0.11499999999999999, 0.2889999999999999, 0.778, 0.27300000000000013, -0.21699999999999997], 0.8627867746288798),
    (10, [0.393, 0.919, -0.369, -0.008000000000000007, -0.987, 0.11499999999999999, 0.2889999999999999, 0.778, 0.27300000000000013, -0.21699999999999997], 0.8627867746288798),
    (11, [0.393, 0.919, -0.369, -0.008000000000000007, -0.987, 0.11499999999999999, 0.2889999999999999, 0.778, 0.27300000000000013, -0.21699999999999997], 0.8627867746288798),
    (12, [0.393, 0.919, -0.369, -0.008000000000000007, -0.987, 0.11499999999999999, 0.2889999999999999, 0.778, 0.27300000000000013, -0.21699999999999997], 0.8627867746288798),
    (13, [0.393, 0.919, -0.369, -0.008000000000000007, -0.987, 0.11499999999999999, 0.2889999999999999, 0.778, 0.27300000000000013, -0.21699999999999997], 0.8627867746288798),
    (14, [0.393, 0.919, -0.369, -0.008000000000000007, -0.987, 0.11499999999999999, 0.2889999999999999, 0.778, 0.27300000000000013, -0.21699999999999997], 0.8627867746288798),
    (15, [0.393, 0.919, -0.369, -0.008000000000000007, -0.987, 0.11499999999999999, 0.2889999999999999, 0.778, 0.27300000000000013, -0.21699999999999997], 0.8627867746288798),
    (16, [0.393, 0.919, -0.369, -0.008000000000000007, -0.987, 0.11499999999999999, 0.2889999999999999, 0.778, 0.27300000000000013, -0.21699999999999997], 0.8627867746288798),
    (17, [0.393, 0.919, -0.369, -0.008000000000000007, -0.987, 0.11499999999999999, 0.2889999999999999, 0.778, 0.27300000000000013, -0.21699999999999997], 0.8627867746288798),
    (18, [0.393, 0.919, -0.369, -0.008000000000000007, -0.987, 0.11499999999999999, 0.2889999999999999, 0.778, 0.27300000000000013, -0.21699999999999997], 0.8627867746288798),
    (19, [0.393, 0.919, -0.369, -0.008000000000000007, -0.987, 0.11499999999999999, 0.2889999999999999, 0.778, 0.27300000000000013, -0.21699999999999997], 0.8627867746288798),
    (20, [0.393, 0.919, -0.369, -0.008000000000000007, -0.987, 0.11499999999999999, 0.2889999999999999, 0.778, 0.27300000000000013, -0.21699999999999997], 0.8627867746288798),
    (21, [0.393, 0.919, -0.369, -0.008000000000000007, -0.987, 0.11499999999999999, 0.2889999999999999, 0.778, 0.27300000000000013, -0.21699999999999997], 0.8627867746288798),
    (22, [0.393, 0.919, -0.369, -0.008000000000000007, -0.987, 0.11499999999999999, 0.2889999999999999, 0.778, 0.27300000000000013, -0.21699999999999997], 0.8627867746288798),
    (23, [0.393, 0.919, -0.369, -0.008000000000000007, -0.987, 0.11499999999999999, 0.2889999999999999, 0.778, 0.27300000000000013, -0.21699999999999997], 0.8627867746288798),
    (24, [0.393, 0.919, -0.369, -0.008000000000000007, -0.987, 0.11499999999999999, 0.2889999999999999, 0.778, 0.27300000000000013, -0.21699999999999997], 0.8627867746288798),
    (25, [0.393, 0.919, -0.369, -0.008000000000000007, -0.987, 0.11499999999999999, 0.2889999999999999, 0.778, 0.27300000000000013, -0.21699999999999997], 0.8627867746288798),
    (26, [0.393, 0.919, -0.369, -0.008000000000000007, -0.987, 0.11499999999999999, 0.2889999999999999, 0.778, 0.27300000000000013, -0.21699999999999997], 0.8627867746288798),
    (27, [0.393, 0.919, -0.369, -0.008000000000000007, -0.987, 0.11499999999999999, 0.2889999999999999, 0.778, 0.27300000000000013, -0.21699999999999997], 0.8627867746288798),
    (28, [0.393, 0.919, -0.369, -0.008000000000000007, -0.987, 0.11499999999999999, 0.2889999999999999, 0.778, 0.27300000000000013, -0.21699999999999997], 0.8627867746288798),
    (29, [0.393, 0.919, -0.369, -0.008000000000000007, -0.987, 0.11499999999999999, 0.2889999999999999, 0.778, 0.27300000000000013, -0.21699999999999997], 0.8627867746288798),
    (30, [0.393, 0.919, -0.369, -0.008000000000000007, -0.987, 0.11499999999999999, 0.2889999999999999, 0.778, 0.27300000000000013, -0.21699999999999997], 0.8627867746288798),
    (31, [0.393, 0.919, -0.369, -0.008000000000000007, -0.987, 0.11499999999999999, 0.2889999999999999, 0.778, 0.27300000000000013, -0.21699999999999997], 0.8627867746288798),
    (32, [0.393, 0.919, -0.369, -0.008000000000000007, -0.987, 0.11499999999999999, 0.2889999999999999, 0.778, 0.27300000000000013, -0.21699999999999997], 0.8627867746288798),
    (33, [0.393, 0.919, -0.369, -0.008000000000000007, -0.987, 0.11499999999999999, 0.2889999999999999, 0.778, 0.27300000000000013, -0.21699999999999997], 0.8627867746288798),
    (34, [0.393, 0.919, -0.369, -0.008000000000000007, -0.987, 0.11499999999999999, 0.2889999999999999, 0.778, 0.27300000000000013, -0.21699999999999997], 0.8627867746288798),
    (35, [0.9810000000000001, 0.637, -0.268, 0.16399999999999992, 0.17599999999999993, -0.30999999999999994, 0.8640000000000001, -0.856, 0.278, 0.528], 0.8630499325236167),
    (36, [0.9810000000000001, 0.637, -0.268, 0.16399999999999992, 0.17599999999999993, -0.30999999999999994, 0.8640000000000001, -0.856, 0.278, 0.528], 0.8630499325236167),
    (37, [0.9810000000000001, 0.637, -0.268, 0.16399999999999992, 0.17599999999999993, -0.30999999999999994, 0.8640000000000001, -0.856, 0.278, 0.528], 0.8630499325236167),
    (38, [0.9810000000000001, 0.637, -0.268, 0.16399999999999992, 0.17599999999999993, -0.30999999999999994, 0.8640000000000001, -0.856, 0.278, 0.528], 0.8630499325236167),
    (39, [0.9810000000000001, 0.637, -0.268, 0.16399999999999992, 0.17599999999999993, -0.30999999999999994, 0.8640000000000001, -0.856, 0.278, 0.528], 0.8630499325236167),
    (40, [0.9810000000000001, 0.637, -0.268, 0.16399999999999992, 0.17599999999999993, -0.30999999999999994, 0.8640000000000001, -0.856, 0.278, 0.528], 0.8630499325236167),
    (41, [0.9810000000000001, 0.637, -0.268, 0.16399999999999992, 0.17599999999999993, -0.30999999999999994, 0.8640000000000001, -0.856, 0.278, 0.528], 0.8630499325236167),
    (42, [0.9810000000000001, 0.637, -0.268, 0.16399999999999992, 0.17599999999999993, -0.30999999999999994, 0.8640000000000001, -0.856, 0.278, 0.528], 0.8630499325236167),
    (43, [0.9810000000000001, 0.637, -0.268, 0.16399999999999992, 0.17599999999999993, -0.30999999999999994, 0.8640000000000001, -0.856, 0.278, 0.528], 0.8630499325236167),
    (44, [0.9810000000000001, 0.637, -0.268, 0.16399999999999992, 0.17599999999999993, -0.30999999999999994, 0.8640000000000001, -0.856, 0.278, 0.528], 0.8630499325236167),
    (45, [0.9810000000000001, 0.637, -0.268, 0.16399999999999992, 0.17599999999999993, -0.30999999999999994, 0.8640000000000001, -0.856, 0.278, 0.528], 0.8630499325236167),
    (46, [0.9810000000000001, 0.637, -0.268, 0.16399999999999992, 0.17599999999999993, -0.30999999999999994, 0.8640000000000001, -0.856, 0.278, 0.528], 0.8630499325236167),
    (47, [0.9810000000000001, 0.637, -0.268, 0.16399999999999992, 0.17599999999999993, -0.30999999999999994, 0.8640000000000001, -0.856, 0.278, 0.528], 0.8630499325236167),
    (48, [0.9810000000000001, 0.637, -0.268, 0.16399999999999992, 0.17599999999999993, -0.30999999999999994, 0.8640000000000001, -0.856, 0.278, 0.528], 0.8630499325236167),
    (49, [0.9810000000000001, 0.637, -0.268, 0.16399999999999992, 0.17599999999999993, -0.30999999999999994, 0.8640000000000001, -0.856, 0.278, 0.528], 0.8630499325236167),
    (50, [0.9810000000000001, 0.637, -0.268, 0.16399999999999992, 0.17599999999999993, -0.30999999999999994, 0.8640000000000001, -0.856, 0.278, 0.528], 0.8630499325236167),
    (51, [0.9810000000000001, 0.637, -0.268, 0.16399999999999992, 0.17599999999999993, -0.30999999999999994, 0.8640000000000001, -0.856, 0.278, 0.528], 0.8630499325236167),
    (52, [0.9810000000000001, 0.637, -0.268, 0.16399999999999992, 0.17599999999999993, -0.30999999999999994, 0.8640000000000001, -0.856, 0.278, 0.528], 0.8630499325236167),
    (53, [0.9810000000000001, 0.637, -0.268, 0.16399999999999992, 0.17599999999999993, -0.30999999999999994, 0.8640000000000001, -0.856, 0.278, 0.528], 0.8630499325236167),
    (54, [0.9810000000000001, 0.637, -0.268, 0.16399999999999992, 0.17599999999999993, -0.30999999999999994, 0.8640000000000001, -0.856, 0.278, 0.528], 0.8630499325236167),
]

