ranges of every chromosome : (-1, 1)
    selection method is: RouletteWheelSelection
    crossover method is: UniformCrossover
    pc: The probability of crossover: 0.700000
    pe: Gene exchange probability: 0.500000
    mutation method is: FlipBitBigMutation
    pm: The probability of mutation: 0.300000
    pbm: The probability of big mutation: 0.700000
    alpha: intensive factor: 0.600000
best_fit = [
    (0, [0.942, 0.825, -0.274, -0.358, -0.33599999999999997, -0.24, -0.7050000000000001, -0.8220000000000001, -0.382, 0.08200000000000007], 0.8527935222672065),
    (1, [0.942, 0.825, -0.274, -0.358, -0.33599999999999997, -0.24, -0.7050000000000001, -0.8220000000000001, -0.382, 0.08200000000000007], 0.8527935222672065),
    (2, [0.942, 0.825, -0.274, -0.358, -0.33599999999999997, -0.24, -0.7050000000000001, -0.8220000000000001, -0.382, 0.08200000000000007], 0.8527935222672065),
    (3, [-0.546, 0.9990000000000001, -0.261, -0.375, 0.375, 0.385, 0.6799999999999999, -0.7070000000000001, -0.351, -0.665], 0.8627867746288798),
    (4, [-0.546, 0.9990000000000001, -0.261, -0.375, 0.375, 0.385, 0.6799999999999999, -0.7070000000000001, -0.351, -0.665], 0.8627867746288798),
    (5, [-0.546, 0.9990000000000001, -0.261, -0.375, 0.375, 0.385, 0.6799999999999999, -0.7070000000000001, -0.351, -0.665], 0.8627867746288798),
    (6, [-0.546, 0.9990000000000001, -0.261, -0.375, 0.375, 0.385, 0.6799999999999999, -0.7070000000000001, -0.351, -0.665], 0.8627867746288798),
    (7, [-0.546, 0.9990000000000001, -0.261, -0.375, 0.375, 0.385, 0.6799999999999999, -0.7070000000000001, -0.351, -0.665], 0.8627867746288798),
    (8, [-0.546, 0.9990000000000001, -0.261, -0.375, 0.375, 0.385, 0.6799999999999999, -0.7070000000000001, -0.351, -0.665], 0.8627867746288798),
    (9, [-0.546, 0.9990000000000001, -0.261, -0.375, 0.375, 0.385, 0.6799999999999999, -0.7070000000000001, -0.351, -0.665], 0.8627867746288798),
    (10, [-0.546, 0.9990000000000001, -0.261, -0.375, 0.375, 0.385, 0.6799999999999999, -0.7070000000000001, -0.351, -0.665], 0.8627867746288798),
    (11, [-0.546, 0.9990000000000001, -0.261, -0.375, 0.375, 0.385, 0.6799999999999999, -0.7070000000000001, -0.351, -0.665], 0.8627867746288798),
    (12, [-0.546, 0.9990000000000001, -0.261, -0.375, 0.375, 0.385, 0.6799999999999999, -0.7070000000000001, -0.351, -0.665], 0.8627867746288798),
    (13, [-0.546, 0.9990000000000001, -0.261, -0.375, 0.375, 0.385, 0.6799999999999999, -0.7070000000000001, -0.351, -0.665], 0.8627867746288798),
    (14, [-0.546, 0.9990000000000001, -0.261, -0.375, 0.375, 0.385, 0.6799999999999999, -0.7070000000000001, -0.351, -0.665], 0.8627867746288798),
    (15, [-0.546, 0.9990000000000001, -0.261, -0.375, 0.375, 0.385, 0.6799999999999999, -0.7070000000000001, -0.351, -0.665], 0.8627867746288798),
    (16, [-0.546, 0.9990000000000001, -0.261, -0.375, 0.375, 0.385, 0.6799999999999999, -0.7070000000000001, -0.351, -0.665], 0.8627867746288798),
    (17, [-0.546, 0.9990000000000001, -0.261, -0.375, 0.375, 0.385, 0.6799999999999999, -0.7070000000000001, -0.351, -0.665], 0.8627867746288798),
    (18, [-0.546, 0.9990000000000001, -0.261, -0.375, 0.375, 0.385, 0.6799999999999999, -0.7070000000000001, -0.351, -0.665], 0.8627867746288798),
    (19, [-0.546, 0.9990000000000001, -0.261, -0.375, 0.375, 0.385, 0.6799999999999999, -0.7070000000000001, -0.351, -0.665], 0.8627867746288798),
    (20, [-0.546, 0.9990000000000001, -0.261, -0.375, 0.375, 0.385, 0.6799999999999999, -0.7070000000000001, -0.351, -0.665], 0.8627867746288798),
    (21, [-0.546, 0.9990000000000001, -0.261, -0.375, 0.375, 0.385, 0.6799999999999999, -0.7070000000000001, -0.351, -0.665], 0.8627867746288798),
    (22, [-0.546, 0.9990000000000001, -0.261, -0.375, 0.375, 0.385, 0.6799999999999999, -0.7070000000000001, -0.351, -0.665], 0.8627867746288798),
    (23, [0.512, 0.7050000000000001, -0.31999999999999995, 0.14700000000000002, 0.671, -0.592, -0.973, -0.913, 0.29800000000000004, -0.40900000000000003], 0.8677867746288799),
    (24, [0.512, 0.7050000000000001, -0.31999999999999995, 0.14700000000000002, 0.671, -0.592, -0.973, -0.913, 0.29800000000000004, -0.40900000000000003], 0.8677867746288799),
    (25, [0.512, 0.7050000000000001, -0.31999999999999995, 0.14700000000000002, 0.671, -0.592, -0.973, -0.913, 0.29800000000000004, -0.40900000000000003], 0.8677867746288799),
    (26, [0.512, 0.7050000000000001, -0.31999999999999995, 0.14700000000000002, 0.671, -0.592, -0.973, -0.913, 0.29800000000000004, -0.40900000000000003], 0.8677867746288799),
    (27, [0.512, 0.7050000000000001, -0.31999999999999995, 0.14700000000000002, 0.671, -0.592, -0.973, -0.913, 0.29800000000000004, -0.40900000000000003], 0.8677867746288799),
    (28, [0.512, 0.7050000000000001, -0.31999999999999995, 0.14700000000000002, 0.671, -0.592, -0.973, -0.913, 0.29800000000000004, -0.40900000000000003], 0.8677867746288799),
    (29, [0.512, 0.7050000000000001, -0.31999999999999995, 0.14700000000000002, 0.671, -0.592, -0.973, -0.913, 0.29800000000000004, -0.40900000000000003], 0.8677867746288799),
    (30, [0.512, 0.7050000000000001, -0.31999999999999995, 0.14700000000000002, 0.671, -0.592, -0.973, -0.913, 0.29800000000000004, -0.40900000000000003], 0.8677867746288799),
    (31, [0.512, 0.7050000000000001, -0.31999999999999995, 0.14700000000000002, 0.671, -0.592, -0.973, -0.913, 0.29800000000000004, -0.40900000000000003], 0.8677867746288799),
    (32, [0.512, 0.7050000000000001, -0.31999999999999995, 0.14700000000000002, 0.671, -0.592, -0.973, -0.913, 0.29800000000000004, -0.40900000000000003], 0.8677867746288799),
    (33, [0.512, 0.7050000000000001, -0.31999999999999995, 0.14700000000000002, 0.671, -0.592, -0.973, -0.913, 0.29800000000000004, -0.40900000000000003], 0.8677867746288799),
    (34, [0.512, 0.7050000000000001, -0.31999999999999995, 0.14700000000000002, 0.671, -0.592, -0.973, -0.913, 0.29800000000000004, -0.40900000000000003], 0.8677867746288799),
    (35, [0.512, 0.7050000000000001, -0.31999999999999995, 0.14700000000000002, 0.671, -0.592, -0.973, -0.913, 0.29800000000000004, -0.40900000000000003], 0.8677867746288799),
    (36, [0.512, 0.7050000000000001, -0.31999999999999995, 0.14700000000000002, 0.671, -0.592, -0.973, -0.913, 0.29800000000000004, -0.40900000000000003], 0.8677867746288799),
    (37, [0.512, 0.7050000000000001, -0.31999999999999995, 0.14700000000000002, 0.671, -0.592, -0.973, -0.913, 0.29800000000000004, -0.40900000000000003], 0.8677867746288799),
    (38, [0.512, 0.7050000000000001, -0.31999999999999995, 0.14700000000000002, 0.671, -0.592, -0.973, -0.913, 0.29800000000000004, -0.40900000000000003], 0.8677867746288799),
    (39, [0.512, 0.7050000000000001, -0.31999999999999995, 0.14700000000000002, 0.671, -0.592, -0.973, -0.913, 0.29800000000000004, -0.40900000000000003], 0.8677867746288799),
    (40, [0.512, 0.7050000000000001, -0.31999999999999995, 0.14700000000000002, 0.671, -0.592, -0.973, -0.913, 0.29800000000000004, -0.40900000000000003], 0.8677867746288799),
    (41, [0.512, 0.7050000000000001, -0.31999999999999995, 0.14700000000000002, 0.671, -0.592, -0.973, -0.913, 0.29800000000000004, -0.40900000000000003], 0.8677867746288799),
    (42, [0.512, 0.7050000000000001, -0.31999999999999995, 0.14700000000000002, 0.671, -0.592, -0.973, -0.913, 0.29800000000000004, -0.40900000000000003], 0.8677867746288799),
    (43, [0.512, 0.7050000000000001, -0.31999999999999995, 0.14700000000000002, 0.671, -0.592, -0.973, -0.913, 0.29800000000000004, -0.40900000000000003], 0.8677867746288799),
    (44, [0.512, 0.7050000000000001, -0.31999999999999995, 0.14700000000000002, 0.671, -0.592, -0.973, -0.913, 0.29800000000000004, -0.40900000000000003], 0.8677867746288799),
    (45, [0.512, 0.7050000000000001, -0.31999999999999995, 0.14700000000000002, 0.671, -0.592, -0.973, -0.913, 0.29800000000000004, -0.40900000000000003], 0.8677867746288799),
    (46, [0.512, 0.7050000000000001, -0.31999999999999995, 0.14700000000000002, 0.671, -0.592, -0.973, -0.913, 0.29800000000000004, -0.40900000000000003], 0.8677867746288799),
    (47, [0.512, 0.7050000000000001, -0.31999999999999995, 0.14700000000000002, 0.671, -0.592, -0.973, -0.913, 0.29800000000000004, -0.40900000000000003], 0.8677867746288799),
    (48, [0.512, 0.7050000000000001, -0.31999999999999995, 0.14700000000000002, 0.671, -0.592, -0.973, -0.913, 0.29800000000000004, -0.40900000000000003], 0.8677867746288799),
    (49, [0.512, 0.7050000000000001, -0.31999999999999995, 0.14700000000000002, 0.671, -0.592, -0.973, -0.913, 0.29800000000000004, -0.40900000000000003], 0.8677867746288799),
    (50, [0.512, 0.7050000000000001, -0.31999999999999995, 0.14700000000000002, 0.671, -0.592, -0.973, -0.913, 0.29800000000000004, -0.40900000000000003], 0.8677867746288799),
    (51, [0.512, 0.7050000000000001, -0.31999999999999995, 0.14700000000000002, 0.671, -0.592, -0.973, -0.913, 0.29800000000000004, -0.40900000000000003], 0.8677867746288799),
    (52, [0.512, 0.7050000000000001, -0.31999999999999995, 0.14700000000000002, 0.671, -0.592, -0.973, -0.913, 0.29800000000000004, -0.40900000000000003], 0.8677867746288799),
    (53, [0.512, 0.7050000000000001, -0.31999999999999995, 0.14700000000000002, 0.671, -0.592, -0.973, -0.913, 0.29800000000000004, -0.40900000000000003], 0.8677867746288799),
    (54, [0.512, 0.7050000000000001, -0.31999999999999995, 0.14700000000000002, 0.671, -0.592, -0.973, -0.913, 0.29800000000000004, -0.40900000000000003], 0.8677867746288799),
]

