ranges of every chromosome : (-2, 2)
    selection method is: RouletteWheelSelection
    crossover method is: UniformCrossover
    pc: The probability of crossover: 0.850000
    pe: Gene exchange probability: 0.500000
    mutation method is: FlipBitBigMutation
    pm: The probability of mutation: 0.100000
    pbm: The probability of big mutation: 0.500000
    alpha: intensive factor: 0.800000
best_fit = [
    (0, [-0.9849999999999999, -1.004, 0.43699999999999983, 0.5289999999999999, 0.8239999999999998, -0.353, -0.9019999999999999, -0.6890000000000001, 1.2840000000000003, 0.6619999999999999], 0.8533130904183537),
    (1, [-0.849, -1.123, -1.944, -1.141, -1.112, -0.32899999999999996, -0.15999999999999992, -1.109, -1.2, 0.7210000000000001], 0.8580499325236166),
    (2, [-0.849, -1.123, -1.944, -1.141, -1.112, -0.32899999999999996, -0.15999999999999992, -1.109, -1.2, 0.7210000000000001], 0.8580499325236166),
    (3, [-0.849, -1.123, -1.944, -1.141, -1.112, -0.32899999999999996, -0.15999999999999992, -1.109, -1.2, 0.7210000000000001], 0.8580499325236166),
    (4, [-0.849, -1.123, -1.944, -1.141, -1.112, -0.32899999999999996, -0.15999999999999992, -1.109, -1.2, 0.7210000000000001], 0.8580499325236166),
    (5, [-0.849, -1.123, -1.944, -1.141, -1.112, -0.32899999999999996, -0.15999999999999992, -1.109, -1.2, 0.7210000000000001], 0.8580499325236166),
    (6, [-0.849, -1.123, -1.944, -1.141, -1.112, -0.32899999999999996, -0.15999999999999992, -1.109, -1.2, 0.7210000000000001], 0.8580499325236166),
    (7, [-0.849, -1.123, -1.944, -1.141, -1.112, -0.32899999999999996, -0.15999999999999992, -1.109, -1.2, 0.7210000000000001], 0.8580499325236166),
    (8, [-0.849, -1.123, -1.944, -1.141, -1.112, -0.32899999999999996, -0.15999999999999992, -1.109, -1.2, 0.7210000000000001], 0.8580499325236166),
    (9, [-0.849, -1.123, -1.944, -1.141, -1.112, -0.32899999999999996, -0.15999999999999992, -1.109, -1.2, 0.7210000000000001], 0.8580499325236166),
    (10, [-0.849, -1.123, -1.944, -1.141, -1.112, -0.32899999999999996, -0.15999999999999992, -1.109, -1.2, 0.7210000000000001], 0.8580499325236166),
    (11, [-0.849, -1.123, -1.944, -1.141, -1.112, -0.32899999999999996, -0.15999999999999992, -1.109, -1.2, 0.7210000000000001], 0.8580499325236166),
    (12, [-0.849, -1.123, -1.944, -1.141, -1.112, -0.32899999999999996, -0.15999999999999992, -1.109, -1.2, 0.7210000000000001], 0.8580499325236166),
    (13, [-0.849, -1.123, -1.944, -1.141, -1.112, -0.32899999999999996, -0.15999999999999992, -1.109, -1.2, 0.7210000000000001], 0.8580499325236166),
    (14, [1.238, 0.8820000000000001, 1.7690000000000001, -1.893, 1.3860000000000001, 0.7560000000000002, 0.8970000000000002, -1.369, 1.487, 0.3330000000000002], 0.8733130904183536),
    (15, [1.238, 0.8820000000000001, 1.7690000000000001, -1.893, 1.3860000000000001, 0.7560000000000002, 0.8970000000000002, -1.369, 1.487, 0.3330000000000002], 0.8733130904183536),
    (16, [1.238, 0.8820000000000001, 1.7690000000000001, -1.893, 1.3860000000000001, 0.7560000000000002, 0.8970000000000002, -1.369, 1.487, 0.3330000000000002], 0.8733130904183536),
    (17, [1.238, 0.8820000000000001, 1.7690000000000001, -1.893, 1.3860000000000001, 0.7560000000000002, 0.8970000000000002, -1.369, 1.487, 0.3330000000000002], 0.8733130904183536),
    (18, [1.238, 0.8820000000000001, 1.7690000000000001, -1.893, 1.3860000000000001, 0.7560000000000002, 0.8970000000000002, -1.369, 1.487, 0.3330000000000002], 0.8733130904183536),
    (19, [1.238, 0.8820000000000001, 1.7690000000000001, -1.893, 1.3860000000000001, 0.7560000000000002, 0.8970000000000002, -1.369, 1.487, 0.3330000000000002], 0.8733130904183536),
    (20, [1.238, 0.8820000000000001, 1.7690000000000001, -1.893, 1.3860000000000001, 0.7560000000000002, 0.8970000000000002, -1.369, 1.487, 0.3330000000000002], 0.8733130904183536),
    (21, [1.238, 0.8820000000000001, 1.7690000000000001, -1.893, 1.3860000000000001, 0.7560000000000002, 0.8970000000000002, -1.369, 1.487, 0.3330000000000002], 0.8733130904183536),
    (22, [1.238, 0.8820000000000001, 1.7690000000000001, -1.893, 1.3860000000000001, 0.7560000000000002, 0.8970000000000002, -1.369, 1.487, 0.3330000000000002], 0.8733130904183536),
    (23, [1.238, 0.8820000000000001, 1.7690000000000001, -1.893, 1.3860000000000001, 0.7560000000000002, 0.8970000000000002, -1.369, 1.487, 0.3330000000000002], 0.8733130904183536),
    (24, [1.238, 0.8820000000000001, 1.7690000000000001, -1.893, 1.3860000000000001, 0.7560000000000002, 0.8970000000000002, -1.369, 1.487, 0.3330000000000002], 0.8733130904183536),
    (25, [1.238, 0.8820000000000001, 1.7690000000000001, -1.893, 1.3860000000000001, 0.7560000000000002, 0.8970000000000002, -1.369, 1.487, 0.3330000000000002], 0.8733130904183536),
    (26, [1.238, 0.8820000000000001, 1.7690000000000001, -1.893, 1.3860000000000001, 0.7560000000000002, 0.8970000000000002, -1.369, 1.487, 0.3330000000000002], 0.8733130904183536),
    (27, [1.238, 0.8820000000000001, 1.7690000000000001, -1.893, 1.3860000000000001, 0.7560000000000002, 0.8970000000000002, -1.369, 1.487, 0.3330000000000002], 0.8733130904183536),
    (28, [1.238, 0.8820000000000001, 1.7690000000000001, -1.893, 1.3860000000000001, 0.7560000000000002, 0.8970000000000002, -1.369, 1.487, 0.3330000000000002], 0.8733130904183536),
    (29, [1.238, 0.8820000000000001, 1.7690000000000001, -1.893, 1.3860000000000001, 0.7560000000000002, 0.8970000000000002, -1.369, 1.487, 0.3330000000000002], 0.8733130904183536),
    (30, [1.238, 0.8820000000000001, 1.7690000000000001, -1.893, 1.3860000000000001, 0.7560000000000002, 0.8970000000000002, -1.369, 1.487, 0.3330000000000002], 0.8733130904183536),
    (31, [1.238, 0.8820000000000001, 1.7690000000000001, -1.893, 1.3860000000000001, 0.7560000000000002, 0.8970000000000002, -1.369, 1.487, 0.3330000000000002], 0.8733130904183536),
    (32, [1.238, 0.8820000000000001, 1.7690000000000001, -1.893, 1.3860000000000001, 0.7560000000000002, 0.8970000000000002, -1.369, 1.487, 0.3330000000000002], 0.8733130904183536),
    (33, [1.238, 0.8820000000000001, 1.7690000000000001, -1.893, 1.3860000000000001, 0.7560000000000002, 0.8970000000000002, -1.369, 1.487, 0.3330000000000002], 0.8733130904183536),
    (34, [1.238, 0.8820000000000001, 1.7690000000000001, -1.893, 1.3860000000000001, 0.7560000000000002, 0.8970000000000002, -1.369, 1.487, 0.3330000000000002], 0.8733130904183536),
    (35, [1.238, 0.8820000000000001, 1.7690000000000001, -1.893, 1.3860000000000001, 0.7560000000000002, 0.8970000000000002, -1.369, 1.487, 0.3330000000000002], 0.8733130904183536),
    (36, [1.238, 0.8820000000000001, 1.7690000000000001, -1.893, 1.3860000000000001, 0.7560000000000002, 0.8970000000000002, -1.369, 1.487, 0.3330000000000002], 0.8733130904183536),
    (37, [1.238, 0.8820000000000001, 1.7690000000000001, -1.893, 1.3860000000000001, 0.7560000000000002, 0.8970000000000002, -1.369, 1.487, 0.3330000000000002], 0.8733130904183536),
    (38, [1.238, 0.8820000000000001, 1.7690000000000001, -1.893, 1.3860000000000001, 0.7560000000000002, 0.8970000000000002, -1.369, 1.487, 0.3330000000000002], 0.8733130904183536),
    (39, [1.238, 0.8820000000000001, 1.7690000000000001, -1.893, 1.3860000000000001, 0.7560000000000002, 0.8970000000000002, -1.369, 1.487, 0.3330000000000002], 0.8733130904183536),
    (40, [1.238, 0.8820000000000001, 1.7690000000000001, -1.893, 1.3860000000000001, 0.7560000000000002, 0.8970000000000002, -1.369, 1.487, 0.3330000000000002], 0.8733130904183536),
    (41, [1.238, 0.8820000000000001, 1.7690000000000001, -1.893, 1.3860000000000001, 0.7560000000000002, 0.8970000000000002, -1.369, 1.487, 0.3330000000000002], 0.8733130904183536),
    (42, [1.238, 0.8820000000000001, 1.7690000000000001, -1.893, 1.3860000000000001, 0.7560000000000002, 0.8970000000000002, -1.369, 1.487, 0.3330000000000002], 0.8733130904183536),
    (43, [1.238, 0.8820000000000001, 1.7690000000000001, -1.893, 1.3860000000000001, 0.7560000000000002, 0.8970000000000002, -1.369, 1.487, 0.3330000000000002], 0.8733130904183536),
    (44, [1.238, 0.8820000000000001, 1.7690000000000001, -1.893, 1.3860000000000001, 0.7560000000000002, 0.8970000000000002, -1.369, 1.487, 0.3330000000000002], 0.8733130904183536),
    (45, [1.238, 0.8820000000000001, 1.7690000000000001, -1.893, 1.3860000000000001, 0.7560000000000002, 0.8970000000000002, -1.369, 1.487, 0.3330000000000002], 0.8733130904183536),
    (46, [1.238, 0.8820000000000001, 1.7690000000000001, -1.893, 1.3860000000000001, 0.7560000000000002, 0.8970000000000002, -1.369, 1.487, 0.3330000000000002], 0.8733130904183536),
    (47, [1.238, 0.8820000000000001, 1.7690000000000001, -1.893, 1.3860000000000001, 0.7560000000000002, 0.8970000000000002, -1.369, 1.487, 0.3330000000000002], 0.8733130904183536),
    (48, [1.238, 0.8820000000000001, 1.7690000000000001, -1.893, 1.3860000000000001, 0.7560000000000002, 0.8970000000000002, -1.369, 1.487, 0.3330000000000002], 0.8733130904183536),
    (49, [1.238, 0.8820000000000001, 1.7690000000000001, -1.893, 1.3860000000000001, 0.7560000000000002, 0.8970000000000002, -1.369, 1.487, 0.3330000000000002], 0.8733130904183536),
    (50, [1.238, 0.8820000000000001, 1.7690000000000001, -1.893, 1.3860000000000001, 0.7560000000000002, 0.8970000000000002, -1.369, 1.487, 0.3330000000000002], 0.8733130904183536),
    (51, [1.238, 0.8820000000000001, 1.7690000000000001, -1.893, 1.3860000000000001, 0.7560000000000002, 0.8970000000000002, -1.369, 1.487, 0.3330000000000002], 0.8733130904183536),
    (52, [1.238, 0.8820000000000001, 1.7690000000000001, -1.893, 1.3860000000000001, 0.7560000000000002, 0.8970000000000002, -1.369, 1.487, 0.3330000000000002], 0.8733130904183536),
    (53, [1.238, 0.8820000000000001, 1.7690000000000001, -1.893, 1.3860000000000001, 0.7560000000000002, 0.8970000000000002, -1.369, 1.487, 0.3330000000000002], 0.8733130904183536),
    (54, [1.238, 0.8820000000000001, 1.7690000000000001, -1.893, 1.3860000000000001, 0.7560000000000002, 0.8970000000000002, -1.369, 1.487, 0.3330000000000002], 0.8733130904183536),
]

