ranges of every chromosome : (0, 1)
    selection method is: RouletteWheelSelection
    crossover method is: UniformCrossover
    pc: The probability of crossover: 0.700000
    pe: Gene exchange probability: 0.500000
    mutation method is: FlipBitBigMutation
    pm: The probability of mutation: 0.100000
    pbm: The probability of big mutation: 0.500000
    alpha: intensive factor: 0.600000
best_fit = [
    (0, [0.529, 0.248, 0.466, 0.428, 0.584, 0.495, 0.786, 0.712, 0.655, 0.056], 0.8577935222672064),
    (1, [0.893, 0.8280000000000001, 0.317, 0.216, 0.5680000000000001, 0.535, 0.41600000000000004, 0.649, 0.341, 0.733], 0.8630499325236167),
    (2, [0.893, 0.8280000000000001, 0.317, 0.216, 0.5680000000000001, 0.535, 0.41600000000000004, 0.649, 0.341, 0.733], 0.8630499325236167),
    (3, [0.893, 0.8280000000000001, 0.317, 0.216, 0.5680000000000001, 0.535, 0.41600000000000004, 0.649, 0.341, 0.733], 0.8630499325236167),
    (4, [0.893, 0.8280000000000001, 0.317, 0.216, 0.5680000000000001, 0.535, 0.41600000000000004, 0.649, 0.341, 0.733], 0.8630499325236167),
    (5, [0.893, 0.8280000000000001, 0.317, 0.216, 0.5680000000000001, 0.535, 0.41600000000000004, 0.649, 0.341, 0.733], 0.8630499325236167),
    (6, [0.893, 0.8280000000000001, 0.317, 0.216, 0.5680000000000001, 0.535, 0.41600000000000004, 0.649, 0.341, 0.733], 0.8630499325236167),
    (7, [0.893, 0.8280000000000001, 0.317, 0.216, 0.5680000000000001, 0.535, 0.41600000000000004, 0.649, 0.341, 0.733], 0.8630499325236167),
    (8, [0.893, 0.8280000000000001, 0.317, 0.216, 0.5680000000000001, 0.535, 0.41600000000000004, 0.649, 0.341, 0.733], 0.8630499325236167),
    (9, [0.893, 0.8280000000000001, 0.317, 0.216, 0.5680000000000001, 0.535, 0.41600000000000004, 0.649, 0.341, 0.733], 0.8630499325236167),
    (10, [0.893, 0.8280000000000001, 0.317, 0.216, 0.5680000000000001, 0.535, 0.41600000000000004, 0.649, 0.341, 0.733], 0.8630499325236167),
    (11, [0.893, 0.8280000000000001, 0.317, 0.216, 0.5680000000000001, 0.535, 0.41600000000000004, 0.649, 0.341, 0.733], 0.8630499325236167),
    (12, [0.893, 0.8280000000000001, 0.317, 0.216, 0.5680000000000001, 0.535, 0.41600000000000004, 0.649, 0.341, 0.733], 0.8630499325236167),
    (13, [0.893, 0.8280000000000001, 0.317, 0.216, 0.5680000000000001, 0.535, 0.41600000000000004, 0.649, 0.341, 0.733], 0.8630499325236167),
    (14, [0.893, 0.8280000000000001, 0.317, 0.216, 0.5680000000000001, 0.535, 0.41600000000000004, 0.649, 0.341, 0.733], 0.8630499325236167),
    (15, [0.893, 0.8280000000000001, 0.317, 0.216, 0.5680000000000001, 0.535, 0.41600000000000004, 0.649, 0.341, 0.733], 0.8630499325236167),
    (16, [0.893, 0.8280000000000001, 0.317, 0.216, 0.5680000000000001, 0.535, 0.41600000000000004, 0.649, 0.341, 0.733], 0.8630499325236167),
    (17, [0.893, 0.8280000000000001, 0.317, 0.216, 0.5680000000000001, 0.535, 0.41600000000000004, 0.649, 0.341, 0.733], 0.8630499325236167),
    (18, [0.893, 0.8280000000000001, 0.317, 0.216, 0.5680000000000001, 0.535, 0.41600000000000004, 0.649, 0.341, 0.733], 0.8630499325236167),
    (19, [0.893, 0.8280000000000001, 0.317, 0.216, 0.5680000000000001, 0.535, 0.41600000000000004, 0.649, 0.341, 0.733], 0.8630499325236167),
    (20, [0.893, 0.8280000000000001, 0.317, 0.216, 0.5680000000000001, 0.535, 0.41600000000000004, 0.649, 0.341, 0.733], 0.8630499325236167),
    (21, [0.893, 0.8280000000000001, 0.317, 0.216, 0.5680000000000001, 0.535, 0.41600000000000004, 0.649, 0.341, 0.733], 0.8630499325236167),
    (22, [0.893, 0.8280000000000001, 0.317, 0.216, 0.5680000000000001, 0.535, 0.41600000000000004, 0.649, 0.341, 0.733], 0.8630499325236167),
    (23, [0.893, 0.8280000000000001, 0.317, 0.216, 0.5680000000000001, 0.535, 0.41600000000000004, 0.649, 0.341, 0.733], 0.8630499325236167),
    (24, [0.893, 0.8280000000000001, 0.317, 0.216, 0.5680000000000001, 0.535, 0.41600000000000004, 0.649, 0.341, 0.733], 0.8630499325236167),
    (25, [0.893, 0.8280000000000001, 0.317, 0.216, 0.5680000000000001, 0.535, 0.41600000000000004, 0.649, 0.341, 0.733], 0.8630499325236167),
    (26, [0.893, 0.8280000000000001, 0.317, 0.216, 0.5680000000000001, 0.535, 0.41600000000000004, 0.649, 0.341, 0.733], 0.8630499325236167),
    (27, [0.893, 0.8280000000000001, 0.317, 0.216, 0.5680000000000001, 0.535, 0.41600000000000004, 0.649, 0.341, 0.733], 0.8630499325236167),
    (28, [0.893, 0.8280000000000001, 0.317, 0.216, 0.5680000000000001, 0.535, 0.41600000000000004, 0.649, 0.341, 0.733], 0.8630499325236167),
    (29, [0.893, 0.8280000000000001, 0.317, 0.216, 0.5680000000000001, 0.535, 0.41600000000000004, 0.649, 0.341, 0.733], 0.8630499325236167),
    (30, [0.893, 0.8280000000000001, 0.317, 0.216, 0.5680000000000001, 0.535, 0.41600000000000004, 0.649, 0.341, 0.733], 0.8630499325236167),
    (31, [0.893, 0.8280000000000001, 0.317, 0.216, 0.5680000000000001, 0.535, 0.41600000000000004, 0.649, 0.341, 0.733], 0.8630499325236167),
    (32, [0.893, 0.8280000000000001, 0.317, 0.216, 0.5680000000000001, 0.535, 0.41600000000000004, 0.649, 0.341, 0.733], 0.8630499325236167),
    (33, [0.893, 0.8280000000000001, 0.317, 0.216, 0.5680000000000001, 0.535, 0.41600000000000004, 0.649, 0.341, 0.733], 0.8630499325236167),
    (34, [0.893, 0.8280000000000001, 0.317, 0.216, 0.5680000000000001, 0.535, 0.41600000000000004, 0.649, 0.341, 0.733], 0.8630499325236167),
    (35, [0.893, 0.8280000000000001, 0.317, 0.216, 0.5680000000000001, 0.535, 0.41600000000000004, 0.649, 0.341, 0.733], 0.8630499325236167),
    (36, [0.893, 0.8280000000000001, 0.317, 0.216, 0.5680000000000001, 0.535, 0.41600000000000004, 0.649, 0.341, 0.733], 0.8630499325236167),
    (37, [0.893, 0.8280000000000001, 0.317, 0.216, 0.5680000000000001, 0.535, 0.41600000000000004, 0.649, 0.341, 0.733], 0.8630499325236167),
    (38, [0.893, 0.8280000000000001, 0.317, 0.216, 0.5680000000000001, 0.535, 0.41600000000000004, 0.649, 0.341, 0.733], 0.8630499325236167),
    (39, [0.893, 0.8280000000000001, 0.317, 0.216, 0.5680000000000001, 0.535, 0.41600000000000004, 0.649, 0.341, 0.733], 0.8630499325236167),
    (40, [0.893, 0.8280000000000001, 0.317, 0.216, 0.5680000000000001, 0.535, 0.41600000000000004, 0.649, 0.341, 0.733], 0.8630499325236167),
    (41, [0.893, 0.8280000000000001, 0.317, 0.216, 0.5680000000000001, 0.535, 0.41600000000000004, 0.649, 0.341, 0.733], 0.8630499325236167),
    (42, [0.893, 0.8280000000000001, 0.317, 0.216, 0.5680000000000001, 0.535, 0.41600000000000004, 0.649, 0.341, 0.733], 0.8630499325236167),
    (43, [0.893, 0.8280000000000001, 0.317, 0.216, 0.5680000000000001, 0.535, 0.41600000000000004, 0.649, 0.341, 0.733], 0.8630499325236167),
    (44, [0.893, 0.8280000000000001, 0.317, 0.216, 0.5680000000000001, 0.535, 0.41600000000000004, 0.649, 0.341, 0.733], 0.8630499325236167),
    (45, [0.893, 0.8280000000000001, 0.317, 0.216, 0.5680000000000001, 0.535, 0.41600000000000004, 0.649, 0.341, 0.733], 0.8630499325236167),
    (46, [0.893, 0.8280000000000001, 0.317, 0.216, 0.5680000000000001, 0.535, 0.41600000000000004, 0.649, 0.341, 0.733], 0.8630499325236167),
    (47, [0.893, 0.8280000000000001, 0.317, 0.216, 0.5680000000000001, 0.535, 0.41600000000000004, 0.649, 0.341, 0.733], 0.8630499325236167),
    (48, [0.893, 0.8280000000000001, 0.317, 0.216, 0.5680000000000001, 0.535, 0.41600000000000004, 0.649, 0.341, 0.733], 0.8630499325236167),
    (49, [0.893, 0.8280000000000001, 0.317, 0.216, 0.5680000000000001, 0.535, 0.41600000000000004, 0.649, 0.341, 0.733], 0.8630499325236167),
    (50, [0.893, 0.8280000000000001, 0.317, 0.216, 0.5680000000000001, 0.535, 0.41600000000000004, 0.649, 0.341, 0.733], 0.8630499325236167),
    (51, [0.893, 0.8280000000000001, 0.317, 0.216, 0.5680000000000001, 0.535, 0.41600000000000004, 0.649, 0.341, 0.733], 0.8630499325236167),
    (52, [0.893, 0.8280000000000001, 0.317, 0.216, 0.5680000000000001, 0.535, 0.41600000000000004, 0.649, 0.341, 0.733], 0.8630499325236167),
    (53, [0.893, 0.8280000000000001, 0.317, 0.216, 0.5680000000000001, 0.535, 0.41600000000000004, 0.649, 0.341, 0.733], 0.8630499325236167),
    (54, [0.893, 0.8280000000000001, 0.317, 0.216, 0.5680000000000001, 0.535, 0.41600000000000004, 0.649, 0.341, 0.733], 0.8630499325236167),
]

