ranges of every chromosome : (-1, 1)
    selection method is: RouletteWheelSelection
    crossover method is: UniformCrossover
    pc: The probability of crossover: 0.850000
    pe: Gene exchange probability: 0.700000
    mutation method is: FlipBitBigMutation
    pm: The probability of mutation: 0.100000
    pbm: The probability of big mutation: 0.500000
    alpha: intensive factor: 0.600000
best_fit = [
    (0, [-0.471, -0.256, -0.040000000000000036, 0.375, -0.487, 0.41700000000000004, 0.050999999999999934, 0.5800000000000001, 0.817, 0.667], 0.8577935222672064),
    (1, [-0.471, -0.256, -0.040000000000000036, 0.375, -0.487, 0.41700000000000004, 0.050999999999999934, 0.5800000000000001, 0.817, 0.667], 0.8577935222672064),
    (2, [-0.471, -0.256, -0.040000000000000036, 0.375, -0.487, 0.41700000000000004, 0.050999999999999934, 0.5800000000000001, 0.817, 0.667], 0.8577935222672064),
    (3, [-0.471, -0.256, -0.040000000000000036, 0.375, -0.487, 0.41700000000000004, 0.050999999999999934, 0.5800000000000001, 0.817, 0.667], 0.8577935222672064),
    (4, [-0.471, -0.256, -0.040000000000000036, 0.375, -0.487, 0.41700000000000004, 0.050999999999999934, 0.5800000000000001, 0.817, 0.667], 0.8577935222672064),
    (5, [-0.471, -0.256, -0.040000000000000036, 0.375, -0.487, 0.41700000000000004, 0.050999999999999934, 0.5800000000000001, 0.817, 0.667], 0.8577935222672064),
    (6, [-0.471, -0.256, -0.040000000000000036, 0.375, -0.487, 0.41700000000000004, 0.050999999999999934, 0.5800000000000001, 0.817, 0.667], 0.8577935222672064),
    (7, [-0.471, -0.256, -0.040000000000000036, 0.375, -0.487, 0.41700000000000004, 0.050999999999999934, 0.5800000000000001, 0.817, 0.667], 0.8577935222672064),
    (8, [-0.471, -0.256, -0.040000000000000036, 0.375, -0.487, 0.41700000000000004, 0.050999999999999934, 0.5800000000000001, 0.817, 0.667], 0.8577935222672064),
    (9, [-0.471, -0.256, -0.040000000000000036, 0.375, -0.487, 0.41700000000000004, 0.050999999999999934, 0.5800000000000001, 0.817, 0.667], 0.8577935222672064),
    (10, [-0.471, -0.256, -0.040000000000000036, 0.375, -0.487, 0.41700000000000004, 0.050999999999999934, 0.5800000000000001, 0.817, 0.667], 0.8577935222672064),
    (11, [-0.471, -0.256, -0.040000000000000036, 0.375, -0.487, 0.41700000000000004, 0.050999999999999934, 0.5800000000000001, 0.817, 0.667], 0.8577935222672064),
    (12, [-0.471, -0.256, -0.040000000000000036, 0.375, -0.487, 0.41700000000000004, 0.050999999999999934, 0.5800000000000001, 0.817, 0.667], 0.8577935222672064),
    (13, [-0.471, -0.256, -0.040000000000000036, 0.375, -0.487, 0.41700000000000004, 0.050999999999999934, 0.5800000000000001, 0.817, 0.667], 0.8577935222672064),
    (14, [-0.471, -0.256, -0.040000000000000036, 0.375, -0.487, 0.41700000000000004, 0.050999999999999934, 0.5800000000000001, 0.817, 0.667], 0.8577935222672064),
    (15, [-0.471, -0.256, -0.040000000000000036, 0.375, -0.487, 0.41700000000000004, 0.050999999999999934, 0.5800000000000001, 0.817, 0.667], 0.8577935222672064),
    (16, [-0.471, -0.256, -0.040000000000000036, 0.375, -0.487, 0.41700000000000004, 0.050999999999999934, 0.5800000000000001, 0.817, 0.667], 0.8577935222672064),
    (17, [-0.471, -0.256, -0.040000000000000036, 0.375, -0.487, 0.41700000000000004, 0.050999999999999934, 0.5800000000000001, 0.817, 0.667], 0.8577935222672064),
    (18, [-0.471, -0.256, -0.040000000000000036, 0.375, -0.487, 0.41700000000000004, 0.050999999999999934, 0.5800000000000001, 0.817, 0.667], 0.8577935222672064),
    (19, [-0.471, -0.256, -0.040000000000000036, 0.375, -0.487, 0.41700000000000004, 0.050999999999999934, 0.5800000000000001, 0.817, 0.667], 0.8577935222672064),
    (20, [-0.471, -0.256, -0.040000000000000036, 0.375, -0.487, 0.41700000000000004, 0.050999999999999934, 0.5800000000000001, 0.817, 0.667], 0.8577935222672064),
    (21, [-0.471, -0.256, -0.040000000000000036, 0.375, -0.487, 0.41700000000000004, 0.050999999999999934, 0.5800000000000001, 0.817, 0.667], 0.8577935222672064),
    (22, [-0.982, -0.958, 0.9239999999999999, -0.17499999999999993, -0.253, -0.594, -0.356, -0.6699999999999999, 0.627, 0.923], 0.8630499325236167),
    (23, [-0.982, -0.958, 0.9239999999999999, -0.17499999999999993, -0.253, -0.594, -0.356, -0.6699999999999999, 0.627, 0.923], 0.8630499325236167),
    (24, [-0.982, -0.958, 0.9239999999999999, -0.17499999999999993, -0.253, -0.594, -0.356, -0.6699999999999999, 0.627, 0.923], 0.8630499325236167),
    (25, [-0.982, -0.958, 0.9239999999999999, -0.17499999999999993, -0.253, -0.594, -0.356, -0.6699999999999999, 0.627, 0.923], 0.8630499325236167),
    (26, [-0.982, -0.958, 0.9239999999999999, -0.17499999999999993, -0.253, -0.594, -0.356, -0.6699999999999999, 0.627, 0.923], 0.8630499325236167),
    (27, [-0.982, -0.958, 0.9239999999999999, -0.17499999999999993, -0.253, -0.594, -0.356, -0.6699999999999999, 0.627, 0.923], 0.8630499325236167),
    (28, [-0.982, -0.958, 0.9239999999999999, -0.17499999999999993, -0.253, -0.594, -0.356, -0.6699999999999999, 0.627, 0.923], 0.8630499325236167),
    (29, [-0.982, -0.958, 0.9239999999999999, -0.17499999999999993, -0.253, -0.594, -0.356, -0.6699999999999999, 0.627, 0.923], 0.8630499325236167),
    (30, [-0.982, -0.958, 0.9239999999999999, -0.17499999999999993, -0.253, -0.594, -0.356, -0.6699999999999999, 0.627, 0.923], 0.8630499325236167),
    (31, [-0.982, -0.958, 0.9239999999999999, -0.17499999999999993, -0.253, -0.594, -0.356, -0.6699999999999999, 0.627, 0.923], 0.8630499325236167),
    (32, [-0.982, -0.958, 0.9239999999999999, -0.17499999999999993, -0.253, -0.594, -0.356, -0.6699999999999999, 0.627, 0.923], 0.8630499325236167),
    (33, [-0.982, -0.958, 0.9239999999999999, -0.17499999999999993, -0.253, -0.594, -0.356, -0.6699999999999999, 0.627, 0.923], 0.8630499325236167),
    (34, [-0.982, -0.958, 0.9239999999999999, -0.17499999999999993, -0.253, -0.594, -0.356, -0.6699999999999999, 0.627, 0.923], 0.8630499325236167),
    (35, [-0.982, -0.958, 0.9239999999999999, -0.17499999999999993, -0.253, -0.594, -0.356, -0.6699999999999999, 0.627, 0.923], 0.8630499325236167),
    (36, [-0.982, -0.958, 0.9239999999999999, -0.17499999999999993, -0.253, -0.594, -0.356, -0.6699999999999999, 0.627, 0.923], 0.8630499325236167),
    (37, [-0.982, -0.958, 0.9239999999999999, -0.17499999999999993, -0.253, -0.594, -0.356, -0.6699999999999999, 0.627, 0.923], 0.8630499325236167),
    (38, [-0.982, -0.958, 0.9239999999999999, -0.17499999999999993, -0.253, -0.594, -0.356, -0.6699999999999999, 0.627, 0.923], 0.8630499325236167),
    (39, [-0.982, -0.958, 0.9239999999999999, -0.17499999999999993, -0.253, -0.594, -0.356, -0.6699999999999999, 0.627, 0.923], 0.8630499325236167),
    (40, [-0.982, -0.958, 0.9239999999999999, -0.17499999999999993, -0.253, -0.594, -0.356, -0.6699999999999999, 0.627, 0.923], 0.8630499325236167),
    (41, [-0.982, -0.958, 0.9239999999999999, -0.17499999999999993, -0.253, -0.594, -0.356, -0.6699999999999999, 0.627, 0.923], 0.8630499325236167),
    (42, [-0.982, -0.958, 0.9239999999999999, -0.17499999999999993, -0.253, -0.594, -0.356, -0.6699999999999999, 0.627, 0.923], 0.8630499325236167),
    (43, [-0.982, -0.958, 0.9239999999999999, -0.17499999999999993, -0.253, -0.594, -0.356, -0.6699999999999999, 0.627, 0.923], 0.8630499325236167),
    (44, [-0.982, -0.958, 0.9239999999999999, -0.17499999999999993, -0.253, -0.594, -0.356, -0.6699999999999999, 0.627, 0.923], 0.8630499325236167),
    (45, [-0.982, -0.958, 0.9239999999999999, -0.17499999999999993, -0.253, -0.594, -0.356, -0.6699999999999999, 0.627, 0.923], 0.8630499325236167),
    (46, [-0.982, -0.958, 0.9239999999999999, -0.17499999999999993, -0.253, -0.594, -0.356, -0.6699999999999999, 0.627, 0.923], 0.8630499325236167),
    (47, [-0.982, -0.958, 0.9239999999999999, -0.17499999999999993, -0.253, -0.594, -0.356, -0.6699999999999999, 0.627, 0.923], 0.8630499325236167),
    (48, [-0.982, -0.958, 0.9239999999999999, -0.17499999999999993, -0.253, -0.594, -0.356, -0.6699999999999999, 0.627, 0.923], 0.8630499325236167),
    (49, [-0.982, -0.958, 0.9239999999999999, -0.17499999999999993, -0.253, -0.594, -0.356, -0.6699999999999999, 0.627, 0.923], 0.8630499325236167),
    (50, [-0.982, -0.958, 0.9239999999999999, -0.17499999999999993, -0.253, -0.594, -0.356, -0.6699999999999999, 0.627, 0.923], 0.8630499325236167),
    (51, [-0.982, -0.958, 0.9239999999999999, -0.17499999999999993, -0.253, -0.594, -0.356, -0.6699999999999999, 0.627, 0.923], 0.8630499325236167),
    (52, [-0.982, -0.958, 0.9239999999999999, -0.17499999999999993, -0.253, -0.594, -0.356, -0.6699999999999999, 0.627, 0.923], 0.8630499325236167),
    (53, [-0.982, -0.958, 0.9239999999999999, -0.17499999999999993, -0.253, -0.594, -0.356, -0.6699999999999999, 0.627, 0.923], 0.8630499325236167),
    (54, [-0.982, -0.958, 0.9239999999999999, -0.17499999999999993, -0.253, -0.594, -0.356, -0.6699999999999999, 0.627, 0.923], 0.8630499325236167),
]

