ranges of every chromosome : (-2, 2)
    selection method is: TournamentSelection
    crossover method is: UniformCrossover
    pc: The probability of crossover: 1.000000
    pe: Gene exchange probability: 0.500000
    mutation method is: FlipBitBigMutation
    pm: The probability of mutation: 0.100000
    pbm: The probability of big mutation: 0.500000
    alpha: intensive factor: 0.600000
best_fit = [
    (0, [0.9689999999999999, 1.955, 1.1550000000000002, -0.768, -0.51, -0.5189999999999999, -1.759, -1.2469999999999999, 0.28200000000000003, -1.545], 0.6188663967611336),
    (1, [0.9689999999999999, 1.955, 1.1550000000000002, -0.768, -0.51, -0.5189999999999999, -1.759, -1.2469999999999999, 0.28200000000000003, -1.545], 0.6188663967611336),
    (2, [0.9689999999999999, 1.955, 1.1550000000000002, -0.768, -0.51, -0.5189999999999999, -1.759, -1.2469999999999999, 0.28200000000000003, -1.545], 0.6188663967611336),
    (3, [0.9689999999999999, 1.955, 1.1550000000000002, -0.768, -0.51, -0.5189999999999999, -1.759, -1.2469999999999999, 0.28200000000000003, -1.545], 0.6188663967611336),
    (4, [0.9689999999999999, 1.955, 1.1550000000000002, -0.768, -0.51, -0.5189999999999999, -1.759, -1.2469999999999999, 0.28200000000000003, -1.545], 0.6188663967611336),
    (5, [0.9689999999999999, 1.955, 1.1550000000000002, -0.768, -0.51, -0.5189999999999999, -1.759, -1.2469999999999999, 0.28200000000000003, -1.545], 0.6188663967611336),
    (6, [0.9689999999999999, 1.955, 1.1550000000000002, -0.768, -0.51, -0.5189999999999999, -1.759, -1.2469999999999999, 0.28200000000000003, -1.545], 0.6188663967611336),
    (7, [0.9689999999999999, 1.955, 1.1550000000000002, -0.768, -0.51, -0.5189999999999999, -1.759, -1.2469999999999999, 0.28200000000000003, -1.545], 0.6188663967611336),
    (8, [0.9689999999999999, 1.955, 1.1550000000000002, -0.768, -0.51, -0.5189999999999999, -1.759, -1.2469999999999999, 0.28200000000000003, -1.545], 0.6188663967611336),
    (9, [1.1630000000000003, -1.96, 1.388, -0.627, 1.71, 0.565, -1.766, 0.9410000000000003, 0.887, 1.798], 0.6190013495276653),
    (10, [1.1630000000000003, -1.96, 1.388, -0.627, 1.71, 0.565, -1.766, 0.9410000000000003, 0.887, 1.798], 0.6190013495276653),
    (11, [1.1630000000000003, -1.96, 1.388, -0.627, 1.71, 0.565, -1.766, 0.9410000000000003, 0.887, 1.798], 0.6190013495276653),
    (12, [1.1630000000000003, -1.96, 1.388, -0.627, 1.71, 0.565, -1.766, 0.9410000000000003, 0.887, 1.798], 0.6190013495276653),
    (13, [1.1630000000000003, -1.96, 1.388, -0.627, 1.71, 0.565, -1.766, 0.9410000000000003, 0.887, 1.798], 0.6190013495276653),
    (14, [1.1630000000000003, -1.96, 1.388, -0.627, 1.71, 0.565, -1.766, 0.9410000000000003, 0.887, 1.798], 0.6190013495276653),
    (15, [1.1630000000000003, -1.96, 1.388, -0.627, 1.71, 0.565, -1.766, 0.9410000000000003, 0.887, 1.798], 0.6190013495276653),
    (16, [1.1630000000000003, -1.96, 1.388, -0.627, 1.71, 0.565, -1.766, 0.9410000000000003, 0.887, 1.798], 0.6190013495276653),
    (17, [1.1630000000000003, -1.96, 1.388, -0.627, 1.71, 0.565, -1.766, 0.9410000000000003, 0.887, 1.798], 0.6190013495276653),
    (18, [1.1630000000000003, -1.96, 1.388, -0.627, 1.71, 0.565, -1.766, 0.9410000000000003, 0.887, 1.798], 0.6190013495276653),
    (19, [1.1630000000000003, -1.96, 1.388, -0.627, 1.71, 0.565, -1.766, 0.9410000000000003, 0.887, 1.798], 0.6190013495276653),
    (20, [1.1630000000000003, -1.96, 1.388, -0.627, 1.71, 0.565, -1.766, 0.9410000000000003, 0.887, 1.798], 0.6190013495276653),
    (21, [1.1630000000000003, -1.96, 1.388, -0.627, 1.71, 0.565, -1.766, 0.9410000000000003, 0.887, 1.798], 0.6190013495276653),
    (22, [1.1630000000000003, -1.96, 1.388, -0.627, 1.71, 0.565, -1.766, 0.9410000000000003, 0.887, 1.798], 0.6190013495276653),
    (23, [1.1630000000000003, -1.96, 1.388, -0.627, 1.71, 0.565, -1.766, 0.9410000000000003, 0.887, 1.798], 0.6190013495276653),
    (24, [1.1630000000000003, -1.96, 1.388, -0.627, 1.71, 0.565, -1.766, 0.9410000000000003, 0.887, 1.798], 0.6190013495276653),
    (25, [1.1630000000000003, -1.96, 1.388, -0.627, 1.71, 0.565, -1.766, 0.9410000000000003, 0.887, 1.798], 0.6190013495276653),
    (26, [1.1630000000000003, -1.96, 1.388, -0.627, 1.71, 0.565, -1.766, 0.9410000000000003, 0.887, 1.798], 0.6190013495276653),
    (27, [1.1630000000000003, -1.96, 1.388, -0.627, 1.71, 0.565, -1.766, 0.9410000000000003, 0.887, 1.798], 0.6190013495276653),
    (28, [1.1630000000000003, -1.96, 1.388, -0.627, 1.71, 0.565, -1.766, 0.9410000000000003, 0.887, 1.798], 0.6190013495276653),
    (29, [1.1630000000000003, -1.96, 1.388, -0.627, 1.71, 0.565, -1.766, 0.9410000000000003, 0.887, 1.798], 0.6190013495276653),
    (30, [1.1630000000000003, -1.96, 1.388, -0.627, 1.71, 0.565, -1.766, 0.9410000000000003, 0.887, 1.798], 0.6190013495276653),
    (31, [1.1630000000000003, -1.96, 1.388, -0.627, 1.71, 0.565, -1.766, 0.9410000000000003, 0.887, 1.798], 0.6190013495276653),
    (32, [1.1630000000000003, -1.96, 1.388, -0.627, 1.71, 0.565, -1.766, 0.9410000000000003, 0.887, 1.798], 0.6190013495276653),
    (33, [1.1630000000000003, -1.96, 1.388, -0.627, 1.71, 0.565, -1.766, 0.9410000000000003, 0.887, 1.798], 0.6190013495276653),
    (34, [1.1630000000000003, -1.96, 1.388, -0.627, 1.71, 0.565, -1.766, 0.9410000000000003, 0.887, 1.798], 0.6190013495276653),
    (35, [1.1630000000000003, -1.96, 1.388, -0.627, 1.71, 0.565, -1.766, 0.9410000000000003, 0.887, 1.798], 0.6190013495276653),
    (36, [-1.147, -0.20399999999999996, 1.4580000000000002, 0.6520000000000001, 1.5780000000000003, 0.56, 0.508, -1.409, 0.7840000000000003, 1.5420000000000003], 0.6192645074224021),
    (37, [-1.147, -0.20399999999999996, 1.4580000000000002, 0.6520000000000001, 1.5780000000000003, 0.56, 0.508, -1.409, 0.7840000000000003, 1.5420000000000003], 0.6192645074224021),
    (38, [-1.147, -0.20399999999999996, 1.4580000000000002, 0.6520000000000001, 1.5780000000000003, 0.56, 0.508, -1.409, 0.7840000000000003, 1.5420000000000003], 0.6192645074224021),
    (39, [-1.147, -0.20399999999999996, 1.4580000000000002, 0.6520000000000001, 1.5780000000000003, 0.56, 0.508, -1.409, 0.7840000000000003, 1.5420000000000003], 0.6192645074224021),
    (40, [-1.147, -0.20399999999999996, 1.4580000000000002, 0.6520000000000001, 1.5780000000000003, 0.56, 0.508, -1.409, 0.7840000000000003, 1.5420000000000003], 0.6192645074224021),
    (41, [-1.147, -0.20399999999999996, 1.4580000000000002, 0.6520000000000001, 1.5780000000000003, 0.56, 0.508, -1.409, 0.7840000000000003, 1.5420000000000003], 0.6192645074224021),
    (42, [-1.147, -0.20399999999999996, 1.4580000000000002, 0.6520000000000001, 1.5780000000000003, 0.56, 0.508, -1.409, 0.7840000000000003, 1.5420000000000003], 0.6192645074224021),
    (43, [-1.147, -0.20399999999999996, 1.4580000000000002, 0.6520000000000001, 1.5780000000000003, 0.56, 0.508, -1.409, 0.7840000000000003, 1.5420000000000003], 0.6192645074224021),
    (44, [-1.147, -0.20399999999999996, 1.4580000000000002, 0.6520000000000001, 1.5780000000000003, 0.56, 0.508, -1.409, 0.7840000000000003, 1.5420000000000003], 0.6192645074224021),
    (45, [-1.147, -0.20399999999999996, 1.4580000000000002, 0.6520000000000001, 1.5780000000000003, 0.56, 0.508, -1.409, 0.7840000000000003, 1.5420000000000003], 0.6192645074224021),
    (46, [0.9700000000000002, 0.923, -1.263, 1.2680000000000002, 1.585, -0.42799999999999994, 1.7160000000000002, 1.892, 1.738, -1.835], 0.6193927125506073),
    (47, [0.9700000000000002, 0.923, -1.263, 1.2680000000000002, 1.585, -0.42799999999999994, 1.7160000000000002, 1.892, 1.738, -1.835], 0.6193927125506073),
    (48, [0.9700000000000002, 0.923, -1.263, 1.2680000000000002, 1.585, -0.42799999999999994, 1.7160000000000002, 1.892, 1.738, -1.835], 0.6193927125506073),
    (49, [0.9700000000000002, 0.923, -1.263, 1.2680000000000002, 1.585, -0.42799999999999994, 1.7160000000000002, 1.892, 1.738, -1.835], 0.6193927125506073),
    (50, [0.9700000000000002, 0.923, -1.263, 1.2680000000000002, 1.585, -0.42799999999999994, 1.7160000000000002, 1.892, 1.738, -1.835], 0.6193927125506073),
    (51, [0.9700000000000002, 0.923, -1.263, 1.2680000000000002, 1.585, -0.42799999999999994, 1.7160000000000002, 1.892, 1.738, -1.835], 0.6193927125506073),
    (52, [0.9700000000000002, 0.923, -1.263, 1.2680000000000002, 1.585, -0.42799999999999994, 1.7160000000000002, 1.892, 1.738, -1.835], 0.6193927125506073),
    (53, [0.9700000000000002, 0.923, -1.263, 1.2680000000000002, 1.585, -0.42799999999999994, 1.7160000000000002, 1.892, 1.738, -1.835], 0.6193927125506073),
    (54, [0.9700000000000002, 0.923, -1.263, 1.2680000000000002, 1.585, -0.42799999999999994, 1.7160000000000002, 1.892, 1.738, -1.835], 0.6193927125506073),
    (55, [0.9700000000000002, 0.923, -1.263, 1.2680000000000002, 1.585, -0.42799999999999994, 1.7160000000000002, 1.892, 1.738, -1.835], 0.6193927125506073),
    (56, [0.9700000000000002, 0.923, -1.263, 1.2680000000000002, 1.585, -0.42799999999999994, 1.7160000000000002, 1.892, 1.738, -1.835], 0.6193927125506073),
    (57, [0.9700000000000002, 0.923, -1.263, 1.2680000000000002, 1.585, -0.42799999999999994, 1.7160000000000002, 1.892, 1.738, -1.835], 0.6193927125506073),
    (58, [0.9700000000000002, 0.923, -1.263, 1.2680000000000002, 1.585, -0.42799999999999994, 1.7160000000000002, 1.892, 1.738, -1.835], 0.6193927125506073),
    (59, [0.9700000000000002, 0.923, -1.263, 1.2680000000000002, 1.585, -0.42799999999999994, 1.7160000000000002, 1.892, 1.738, -1.835], 0.6193927125506073),
    (60, [-0.865, -1.2069999999999999, -0.512, -1.282, 0.45599999999999996, 0.39300000000000024, -1.766, -1.299, 1.5750000000000002, 1.5140000000000002], 0.6246491228070175),
    (61, [-0.865, -1.2069999999999999, -0.512, -1.282, 0.45599999999999996, 0.39300000000000024, -1.766, -1.299, 1.5750000000000002, 1.5140000000000002], 0.6246491228070175),
    (62, [-0.865, -1.2069999999999999, -0.512, -1.282, 0.45599999999999996, 0.39300000000000024, -1.766, -1.299, 1.5750000000000002, 1.5140000000000002], 0.6246491228070175),
    (63, [-0.865, -1.2069999999999999, -0.512, -1.282, 0.45599999999999996, 0.39300000000000024, -1.766, -1.299, 1.5750000000000002, 1.5140000000000002], 0.6246491228070175),
    (64, [-0.865, -1.2069999999999999, -0.512, -1.282, 0.45599999999999996, 0.39300000000000024, -1.766, -1.299, 1.5750000000000002, 1.5140000000000002], 0.6246491228070175),
    (65, [-0.865, -1.2069999999999999, -0.512, -1.282, 0.45599999999999996, 0.39300000000000024, -1.766, -1.299, 1.5750000000000002, 1.5140000000000002], 0.6246491228070175),
    (66, [-0.865, -1.2069999999999999, -0.512, -1.282, 0.45599999999999996, 0.39300000000000024, -1.766, -1.299, 1.5750000000000002, 1.5140000000000002], 0.6246491228070175),
    (67, [-0.865, -1.2069999999999999, -0.512, -1.282, 0.45599999999999996, 0.39300000000000024, -1.766, -1.299, 1.5750000000000002, 1.5140000000000002], 0.6246491228070175),
    (68, [-0.865, -1.2069999999999999, -0.512, -1.282, 0.45599999999999996, 0.39300000000000024, -1.766, -1.299, 1.5750000000000002, 1.5140000000000002], 0.6246491228070175),
    (69, [-0.865, -1.2069999999999999, -0.512, -1.282, 0.45599999999999996, 0.39300000000000024, -1.766, -1.299, 1.5750000000000002, 1.5140000000000002], 0.6246491228070175),
    (70, [-0.865, -1.2069999999999999, -0.512, -1.282, 0.45599999999999996, 0.39300000000000024, -1.766, -1.299, 1.5750000000000002, 1.5140000000000002], 0.6246491228070175),
    (71, [-0.865, -1.2069999999999999, -0.512, -1.282, 0.45599999999999996, 0.39300000000000024, -1.766, -1.299, 1.5750000000000002, 1.5140000000000002], 0.6246491228070175),
    (72, [-0.865, -1.2069999999999999, -0.512, -1.282, 0.45599999999999996, 0.39300000000000024, -1.766, -1.299, 1.5750000000000002, 1.5140000000000002], 0.6246491228070175),
    (73, [-0.865, -1.2069999999999999, -0.512, -1.282, 0.45599999999999996, 0.39300000000000024, -1.766, -1.299, 1.5750000000000002, 1.5140000000000002], 0.6246491228070175),
    (74, [-0.865, -1.2069999999999999, -0.512, -1.282, 0.45599999999999996, 0.39300000000000024, -1.766, -1.299, 1.5750000000000002, 1.5140000000000002], 0.6246491228070175),
    (75, [-0.865, -1.2069999999999999, -0.512, -1.282, 0.45599999999999996, 0.39300000000000024, -1.766, -1.299, 1.5750000000000002, 1.5140000000000002], 0.6246491228070175),
    (76, [-0.865, -1.2069999999999999, -0.512, -1.282, 0.45599999999999996, 0.39300000000000024, -1.766, -1.299, 1.5750000000000002, 1.5140000000000002], 0.6246491228070175),
    (77, [-0.865, -1.2069999999999999, -0.512, -1.282, 0.45599999999999996, 0.39300000000000024, -1.766, -1.299, 1.5750000000000002, 1.5140000000000002], 0.6246491228070175),
    (78, [-0.865, -1.2069999999999999, -0.512, -1.282, 0.45599999999999996, 0.39300000000000024, -1.766, -1.299, 1.5750000000000002, 1.5140000000000002], 0.6246491228070175),
    (79, [-0.865, -1.2069999999999999, -0.512, -1.282, 0.45599999999999996, 0.39300000000000024, -1.766, -1.299, 1.5750000000000002, 1.5140000000000002], 0.6246491228070175),
    (80, [-0.865, -1.2069999999999999, -0.512, -1.282, 0.45599999999999996, 0.39300000000000024, -1.766, -1.299, 1.5750000000000002, 1.5140000000000002], 0.6246491228070175),
    (81, [-0.865, -1.2069999999999999, -0.512, -1.282, 0.45599999999999996, 0.39300000000000024, -1.766, -1.299, 1.5750000000000002, 1.5140000000000002], 0.6246491228070175),
    (82, [-0.865, -1.2069999999999999, -0.512, -1.282, 0.45599999999999996, 0.39300000000000024, -1.766, -1.299, 1.5750000000000002, 1.5140000000000002], 0.6246491228070175),
    (83, [-0.865, -1.2069999999999999, -0.512, -1.282, 0.45599999999999996, 0.39300000000000024, -1.766, -1.299, 1.5750000000000002, 1.5140000000000002], 0.6246491228070175),
    (84, [-0.865, -1.2069999999999999, -0.512, -1.282, 0.45599999999999996, 0.39300000000000024, -1.766, -1.299, 1.5750000000000002, 1.5140000000000002], 0.6246491228070175),
    (85, [-0.865, -1.2069999999999999, -0.512, -1.282, 0.45599999999999996, 0.39300000000000024, -1.766, -1.299, 1.5750000000000002, 1.5140000000000002], 0.6246491228070175),
    (86, [-0.865, -1.2069999999999999, -0.512, -1.282, 0.45599999999999996, 0.39300000000000024, -1.766, -1.299, 1.5750000000000002, 1.5140000000000002], 0.6246491228070175),
    (87, [-0.865, -1.2069999999999999, -0.512, -1.282, 0.45599999999999996, 0.39300000000000024, -1.766, -1.299, 1.5750000000000002, 1.5140000000000002], 0.6246491228070175),
    (88, [-0.865, -1.2069999999999999, -0.512, -1.282, 0.45599999999999996, 0.39300000000000024, -1.766, -1.299, 1.5750000000000002, 1.5140000000000002], 0.6246491228070175),
    (89, [-0.865, -1.2069999999999999, -0.512, -1.282, 0.45599999999999996, 0.39300000000000024, -1.766, -1.299, 1.5750000000000002, 1.5140000000000002], 0.6246491228070175),
    (90, [-0.865, -1.2069999999999999, -0.512, -1.282, 0.45599999999999996, 0.39300000000000024, -1.766, -1.299, 1.5750000000000002, 1.5140000000000002], 0.6246491228070175),
    (91, [-0.865, -1.2069999999999999, -0.512, -1.282, 0.45599999999999996, 0.39300000000000024, -1.766, -1.299, 1.5750000000000002, 1.5140000000000002], 0.6246491228070175),
    (92, [-0.865, -1.2069999999999999, -0.512, -1.282, 0.45599999999999996, 0.39300000000000024, -1.766, -1.299, 1.5750000000000002, 1.5140000000000002], 0.6246491228070175),
    (93, [-0.865, -1.2069999999999999, -0.512, -1.282, 0.45599999999999996, 0.39300000000000024, -1.766, -1.299, 1.5750000000000002, 1.5140000000000002], 0.6246491228070175),
    (94, [-0.865, -1.2069999999999999, -0.512, -1.282, 0.45599999999999996, 0.39300000000000024, -1.766, -1.299, 1.5750000000000002, 1.5140000000000002], 0.6246491228070175),
    (95, [-0.865, -1.2069999999999999, -0.512, -1.282, 0.45599999999999996, 0.39300000000000024, -1.766, -1.299, 1.5750000000000002, 1.5140000000000002], 0.6246491228070175),
    (96, [-1.121, 1.685, -0.9430000000000001, -0.6839999999999999, 1.096, 0.35199999999999987, 1.508, 0.6080000000000001, -0.591, 0.6859999999999999], 0.6289946018893388),
    (97, [-1.121, 1.685, -0.9430000000000001, -0.6839999999999999, 1.096, 0.35199999999999987, 1.508, 0.6080000000000001, -0.591, 0.6859999999999999], 0.6289946018893388),
    (98, [-1.121, 1.685, -0.9430000000000001, -0.6839999999999999, 1.096, 0.35199999999999987, 1.508, 0.6080000000000001, -0.591, 0.6859999999999999], 0.6289946018893388),
    (99, [-1.121, 1.685, -0.9430000000000001, -0.6839999999999999, 1.096, 0.35199999999999987, 1.508, 0.6080000000000001, -0.591, 0.6859999999999999], 0.6289946018893388),
    (100, [-1.121, 1.685, -0.9430000000000001, -0.6839999999999999, 1.096, 0.35199999999999987, 1.508, 0.6080000000000001, -0.591, 0.6859999999999999], 0.6289946018893388),
    (101, [-1.121, 1.685, -0.9430000000000001, -0.6839999999999999, 1.096, 0.35199999999999987, 1.508, 0.6080000000000001, -0.591, 0.6859999999999999], 0.6289946018893388),
    (102, [-1.121, 1.685, -0.9430000000000001, -0.6839999999999999, 1.096, 0.35199999999999987, 1.508, 0.6080000000000001, -0.591, 0.6859999999999999], 0.6289946018893388),
    (103, [-1.121, 1.685, -0.9430000000000001, -0.6839999999999999, 1.096, 0.35199999999999987, 1.508, 0.6080000000000001, -0.591, 0.6859999999999999], 0.6289946018893388),
    (104, [-1.121, 1.685, -0.9430000000000001, -0.6839999999999999, 1.096, 0.35199999999999987, 1.508, 0.6080000000000001, -0.591, 0.6859999999999999], 0.6289946018893388),
    (105, [-1.121, 1.685, -0.9430000000000001, -0.6839999999999999, 1.096, 0.35199999999999987, 1.508, 0.6080000000000001, -0.591, 0.6859999999999999], 0.6289946018893388),
    (106, [-1.121, 1.685, -0.9430000000000001, -0.6839999999999999, 1.096, 0.35199999999999987, 1.508, 0.6080000000000001, -0.591, 0.6859999999999999], 0.6289946018893388),
    (107, [-1.121, 1.685, -0.9430000000000001, -0.6839999999999999, 1.096, 0.35199999999999987, 1.508, 0.6080000000000001, -0.591, 0.6859999999999999], 0.6289946018893388),
    (108, [-1.121, 1.685, -0.9430000000000001, -0.6839999999999999, 1.096, 0.35199999999999987, 1.508, 0.6080000000000001, -0.591, 0.6859999999999999], 0.6289946018893388),
    (109, [-1.121, 1.685, -0.9430000000000001, -0.6839999999999999, 1.096, 0.35199999999999987, 1.508, 0.6080000000000001, -0.591, 0.6859999999999999], 0.6289946018893388),
    (110, [-1.121, 1.685, -0.9430000000000001, -0.6839999999999999, 1.096, 0.35199999999999987, 1.508, 0.6080000000000001, -0.591, 0.6859999999999999], 0.6289946018893388),
    (111, [-1.121, 1.685, -0.9430000000000001, -0.6839999999999999, 1.096, 0.35199999999999987, 1.508, 0.6080000000000001, -0.591, 0.6859999999999999], 0.6289946018893388),
    (112, [-1.121, 1.685, -0.9430000000000001, -0.6839999999999999, 1.096, 0.35199999999999987, 1.508, 0.6080000000000001, -0.591, 0.6859999999999999], 0.6289946018893388),
    (113, [-1.121, 1.685, -0.9430000000000001, -0.6839999999999999, 1.096, 0.35199999999999987, 1.508, 0.6080000000000001, -0.591, 0.6859999999999999], 0.6289946018893388),
    (114, [-1.121, 1.685, -0.9430000000000001, -0.6839999999999999, 1.096, 0.35199999999999987, 1.508, 0.6080000000000001, -0.591, 0.6859999999999999], 0.6289946018893388),
    (115, [-1.121, 1.685, -0.9430000000000001, -0.6839999999999999, 1.096, 0.35199999999999987, 1.508, 0.6080000000000001, -0.591, 0.6859999999999999], 0.6289946018893388),
    (116, [-1.121, 1.685, -0.9430000000000001, -0.6839999999999999, 1.096, 0.35199999999999987, 1.508, 0.6080000000000001, -0.591, 0.6859999999999999], 0.6289946018893388),
    (117, [-1.121, 1.685, -0.9430000000000001, -0.6839999999999999, 1.096, 0.35199999999999987, 1.508, 0.6080000000000001, -0.591, 0.6859999999999999], 0.6289946018893388),
    (118, [-1.121, 1.685, -0.9430000000000001, -0.6839999999999999, 1.096, 0.35199999999999987, 1.508, 0.6080000000000001, -0.591, 0.6859999999999999], 0.6289946018893388),
    (119, [-1.121, 1.685, -0.9430000000000001, -0.6839999999999999, 1.096, 0.35199999999999987, 1.508, 0.6080000000000001, -0.591, 0.6859999999999999], 0.6289946018893388),
    (120, [-1.121, 1.685, -0.9430000000000001, -0.6839999999999999, 1.096, 0.35199999999999987, 1.508, 0.6080000000000001, -0.591, 0.6859999999999999], 0.6289946018893388),
    (121, [-1.121, 1.685, -0.9430000000000001, -0.6839999999999999, 1.096, 0.35199999999999987, 1.508, 0.6080000000000001, -0.591, 0.6859999999999999], 0.6289946018893388),
    (122, [-1.121, 1.685, -0.9430000000000001, -0.6839999999999999, 1.096, 0.35199999999999987, 1.508, 0.6080000000000001, -0.591, 0.6859999999999999], 0.6289946018893388),
    (123, [-1.121, 1.685, -0.9430000000000001, -0.6839999999999999, 1.096, 0.35199999999999987, 1.508, 0.6080000000000001, -0.591, 0.6859999999999999], 0.6289946018893388),
    (124, [-1.121, 1.685, -0.9430000000000001, -0.6839999999999999, 1.096, 0.35199999999999987, 1.508, 0.6080000000000001, -0.591, 0.6859999999999999], 0.6289946018893388),
    (125, [-1.121, 1.685, -0.9430000000000001, -0.6839999999999999, 1.096, 0.35199999999999987, 1.508, 0.6080000000000001, -0.591, 0.6859999999999999], 0.6289946018893388),
    (126, [-1.121, 1.685, -0.9430000000000001, -0.6839999999999999, 1.096, 0.35199999999999987, 1.508, 0.6080000000000001, -0.591, 0.6859999999999999], 0.6289946018893388),
    (127, [-1.121, 1.685, -0.9430000000000001, -0.6839999999999999, 1.096, 0.35199999999999987, 1.508, 0.6080000000000001, -0.591, 0.6859999999999999], 0.6289946018893388),
    (128, [-1.121, 1.685, -0.9430000000000001, -0.6839999999999999, 1.096, 0.35199999999999987, 1.508, 0.6080000000000001, -0.591, 0.6859999999999999], 0.6289946018893388),
    (129, [-1.121, 1.685, -0.9430000000000001, -0.6839999999999999, 1.096, 0.35199999999999987, 1.508, 0.6080000000000001, -0.591, 0.6859999999999999], 0.6289946018893388),
    (130, [-1.121, 1.685, -0.9430000000000001, -0.6839999999999999, 1.096, 0.35199999999999987, 1.508, 0.6080000000000001, -0.591, 0.6859999999999999], 0.6289946018893388),
    (131, [-1.121, 1.685, -0.9430000000000001, -0.6839999999999999, 1.096, 0.35199999999999987, 1.508, 0.6080000000000001, -0.591, 0.6859999999999999], 0.6289946018893388),
    (132, [-1.121, 1.685, -0.9430000000000001, -0.6839999999999999, 1.096, 0.35199999999999987, 1.508, 0.6080000000000001, -0.591, 0.6859999999999999], 0.6289946018893388),
    (133, [-1.121, 1.685, -0.9430000000000001, -0.6839999999999999, 1.096, 0.35199999999999987, 1.508, 0.6080000000000001, -0.591, 0.6859999999999999], 0.6289946018893388),
    (134, [-1.121, 1.685, -0.9430000000000001, -0.6839999999999999, 1.096, 0.35199999999999987, 1.508, 0.6080000000000001, -0.591, 0.6859999999999999], 0.6289946018893388),
    (135, [-1.121, 1.685, -0.9430000000000001, -0.6839999999999999, 1.096, 0.35199999999999987, 1.508, 0.6080000000000001, -0.591, 0.6859999999999999], 0.6289946018893388),
    (136, [-1.121, 1.685, -0.9430000000000001, -0.6839999999999999, 1.096, 0.35199999999999987, 1.508, 0.6080000000000001, -0.591, 0.6859999999999999], 0.6289946018893388),
    (137, [-1.121, 1.685, -0.9430000000000001, -0.6839999999999999, 1.096, 0.35199999999999987, 1.508, 0.6080000000000001, -0.591, 0.6859999999999999], 0.6289946018893388),
    (138, [-1.121, 1.685, -0.9430000000000001, -0.6839999999999999, 1.096, 0.35199999999999987, 1.508, 0.6080000000000001, -0.591, 0.6859999999999999], 0.6289946018893388),
    (139, [-1.121, 1.685, -0.9430000000000001, -0.6839999999999999, 1.096, 0.35199999999999987, 1.508, 0.6080000000000001, -0.591, 0.6859999999999999], 0.6289946018893388),
    (140, [-1.121, 1.685, -0.9430000000000001, -0.6839999999999999, 1.096, 0.35199999999999987, 1.508, 0.6080000000000001, -0.591, 0.6859999999999999], 0.6289946018893388),
    (141, [-1.121, 1.685, -0.9430000000000001, -0.6839999999999999, 1.096, 0.35199999999999987, 1.508, 0.6080000000000001, -0.591, 0.6859999999999999], 0.6289946018893388),
    (142, [-1.121, 1.685, -0.9430000000000001, -0.6839999999999999, 1.096, 0.35199999999999987, 1.508, 0.6080000000000001, -0.591, 0.6859999999999999], 0.6289946018893388),
    (143, [-1.121, 1.685, -0.9430000000000001, -0.6839999999999999, 1.096, 0.35199999999999987, 1.508, 0.6080000000000001, -0.591, 0.6859999999999999], 0.6289946018893388),
    (144, [-1.121, 1.685, -0.9430000000000001, -0.6839999999999999, 1.096, 0.35199999999999987, 1.508, 0.6080000000000001, -0.591, 0.6859999999999999], 0.6289946018893388),
    (145, [-1.121, 1.685, -0.9430000000000001, -0.6839999999999999, 1.096, 0.35199999999999987, 1.508, 0.6080000000000001, -0.591, 0.6859999999999999], 0.6289946018893388),
    (146, [-1.121, 1.685, -0.9430000000000001, -0.6839999999999999, 1.096, 0.35199999999999987, 1.508, 0.6080000000000001, -0.591, 0.6859999999999999], 0.6289946018893388),
    (147, [-1.121, 1.685, -0.9430000000000001, -0.6839999999999999, 1.096, 0.35199999999999987, 1.508, 0.6080000000000001, -0.591, 0.6859999999999999], 0.6289946018893388),
    (148, [-1.121, 1.685, -0.9430000000000001, -0.6839999999999999, 1.096, 0.35199999999999987, 1.508, 0.6080000000000001, -0.591, 0.6859999999999999], 0.6289946018893388),
    (149, [-1.121, 1.685, -0.9430000000000001, -0.6839999999999999, 1.096, 0.35199999999999987, 1.508, 0.6080000000000001, -0.591, 0.6859999999999999], 0.6289946018893388),
    (150, [-1.121, 1.685, -0.9430000000000001, -0.6839999999999999, 1.096, 0.35199999999999987, 1.508, 0.6080000000000001, -0.591, 0.6859999999999999], 0.6289946018893388),
    (151, [-1.121, 1.685, -0.9430000000000001, -0.6839999999999999, 1.096, 0.35199999999999987, 1.508, 0.6080000000000001, -0.591, 0.6859999999999999], 0.6289946018893388),
    (152, [-1.121, 1.685, -0.9430000000000001, -0.6839999999999999, 1.096, 0.35199999999999987, 1.508, 0.6080000000000001, -0.591, 0.6859999999999999], 0.6289946018893388),
    (153, [-1.121, 1.685, -0.9430000000000001, -0.6839999999999999, 1.096, 0.35199999999999987, 1.508, 0.6080000000000001, -0.591, 0.6859999999999999], 0.6289946018893388),
    (154, [-1.121, 1.685, -0.9430000000000001, -0.6839999999999999, 1.096, 0.35199999999999987, 1.508, 0.6080000000000001, -0.591, 0.6859999999999999], 0.6289946018893388),
    (155, [-1.121, 1.685, -0.9430000000000001, -0.6839999999999999, 1.096, 0.35199999999999987, 1.508, 0.6080000000000001, -0.591, 0.6859999999999999], 0.6289946018893388),
    (156, [-1.121, 1.685, -0.9430000000000001, -0.6839999999999999, 1.096, 0.35199999999999987, 1.508, 0.6080000000000001, -0.591, 0.6859999999999999], 0.6289946018893388),
    (157, [-1.121, 1.685, -0.9430000000000001, -0.6839999999999999, 1.096, 0.35199999999999987, 1.508, 0.6080000000000001, -0.591, 0.6859999999999999], 0.6289946018893388),
    (158, [-1.121, 1.685, -0.9430000000000001, -0.6839999999999999, 1.096, 0.35199999999999987, 1.508, 0.6080000000000001, -0.591, 0.6859999999999999], 0.6289946018893388),
    (159, [-1.121, 1.685, -0.9430000000000001, -0.6839999999999999, 1.096, 0.35199999999999987, 1.508, 0.6080000000000001, -0.591, 0.6859999999999999], 0.6289946018893388),
    (160, [-1.121, 1.685, -0.9430000000000001, -0.6839999999999999, 1.096, 0.35199999999999987, 1.508, 0.6080000000000001, -0.591, 0.6859999999999999], 0.6289946018893388),
    (161, [-1.121, 1.685, -0.9430000000000001, -0.6839999999999999, 1.096, 0.35199999999999987, 1.508, 0.6080000000000001, -0.591, 0.6859999999999999], 0.6289946018893388),
    (162, [-1.121, 1.685, -0.9430000000000001, -0.6839999999999999, 1.096, 0.35199999999999987, 1.508, 0.6080000000000001, -0.591, 0.6859999999999999], 0.6289946018893388),
    (163, [-1.121, 1.685, -0.9430000000000001, -0.6839999999999999, 1.096, 0.35199999999999987, 1.508, 0.6080000000000001, -0.591, 0.6859999999999999], 0.6289946018893388),
    (164, [-1.121, 1.685, -0.9430000000000001, -0.6839999999999999, 1.096, 0.35199999999999987, 1.508, 0.6080000000000001, -0.591, 0.6859999999999999], 0.6289946018893388),
    (165, [-1.121, 1.685, -0.9430000000000001, -0.6839999999999999, 1.096, 0.35199999999999987, 1.508, 0.6080000000000001, -0.591, 0.6859999999999999], 0.6289946018893388),
    (166, [-1.121, 1.685, -0.9430000000000001, -0.6839999999999999, 1.096, 0.35199999999999987, 1.508, 0.6080000000000001, -0.591, 0.6859999999999999], 0.6289946018893388),
    (167, [-1.121, 1.685, -0.9430000000000001, -0.6839999999999999, 1.096, 0.35199999999999987, 1.508, 0.6080000000000001, -0.591, 0.6859999999999999], 0.6289946018893388),
    (168, [-1.121, 1.685, -0.9430000000000001, -0.6839999999999999, 1.096, 0.35199999999999987, 1.508, 0.6080000000000001, -0.591, 0.6859999999999999], 0.6289946018893388),
    (169, [-1.121, 1.685, -0.9430000000000001, -0.6839999999999999, 1.096, 0.35199999999999987, 1.508, 0.6080000000000001, -0.591, 0.6859999999999999], 0.6289946018893388),
    (170, [-1.121, 1.685, -0.9430000000000001, -0.6839999999999999, 1.096, 0.35199999999999987, 1.508, 0.6080000000000001, -0.591, 0.6859999999999999], 0.6289946018893388),
    (171, [-1.121, 1.685, -0.9430000000000001, -0.6839999999999999, 1.096, 0.35199999999999987, 1.508, 0.6080000000000001, -0.591, 0.6859999999999999], 0.6289946018893388),
    (172, [-1.121, 1.685, -0.9430000000000001, -0.6839999999999999, 1.096, 0.35199999999999987, 1.508, 0.6080000000000001, -0.591, 0.6859999999999999], 0.6289946018893388),
    (173, [-1.121, 1.685, -0.9430000000000001, -0.6839999999999999, 1.096, 0.35199999999999987, 1.508, 0.6080000000000001, -0.591, 0.6859999999999999], 0.6289946018893388),
    (174, [-1.121, 1.685, -0.9430000000000001, -0.6839999999999999, 1.096, 0.35199999999999987, 1.508, 0.6080000000000001, -0.591, 0.6859999999999999], 0.6289946018893388),
    (175, [-1.121, 1.685, -0.9430000000000001, -0.6839999999999999, 1.096, 0.35199999999999987, 1.508, 0.6080000000000001, -0.591, 0.6859999999999999], 0.6289946018893388),
    (176, [-1.121, 1.685, -0.9430000000000001, -0.6839999999999999, 1.096, 0.35199999999999987, 1.508, 0.6080000000000001, -0.591, 0.6859999999999999], 0.6289946018893388),
    (177, [-1.121, 1.685, -0.9430000000000001, -0.6839999999999999, 1.096, 0.35199999999999987, 1.508, 0.6080000000000001, -0.591, 0.6859999999999999], 0.6289946018893388),
    (178, [-1.121, 1.685, -0.9430000000000001, -0.6839999999999999, 1.096, 0.35199999999999987, 1.508, 0.6080000000000001, -0.591, 0.6859999999999999], 0.6289946018893388),
    (179, [-1.121, 1.685, -0.9430000000000001, -0.6839999999999999, 1.096, 0.35199999999999987, 1.508, 0.6080000000000001, -0.591, 0.6859999999999999], 0.6289946018893388),
    (180, [-1.121, 1.685, -0.9430000000000001, -0.6839999999999999, 1.096, 0.35199999999999987, 1.508, 0.6080000000000001, -0.591, 0.6859999999999999], 0.6289946018893388),
    (181, [1.0300000000000002, 1.7320000000000002, 1.624, -0.6399999999999999, -1.37, -0.5309999999999999, 1.9170000000000003, -0.4829999999999999, -0.5720000000000001, 1.815], 0.6396558704453441),
    (182, [1.0300000000000002, 1.7320000000000002, 1.624, -0.6399999999999999, -1.37, -0.5309999999999999, 1.9170000000000003, -0.4829999999999999, -0.5720000000000001, 1.815], 0.6396558704453441),
    (183, [1.0300000000000002, 1.7320000000000002, 1.624, -0.6399999999999999, -1.37, -0.5309999999999999, 1.9170000000000003, -0.4829999999999999, -0.5720000000000001, 1.815], 0.6396558704453441),
    (184, [1.0300000000000002, 1.7320000000000002, 1.624, -0.6399999999999999, -1.37, -0.5309999999999999, 1.9170000000000003, -0.4829999999999999, -0.5720000000000001, 1.815], 0.6396558704453441),
    (185, [1.0300000000000002, 1.7320000000000002, 1.624, -0.6399999999999999, -1.37, -0.5309999999999999, 1.9170000000000003, -0.4829999999999999, -0.5720000000000001, 1.815], 0.6396558704453441),
    (186, [1.0300000000000002, 1.7320000000000002, 1.624, -0.6399999999999999, -1.37, -0.5309999999999999, 1.9170000000000003, -0.4829999999999999, -0.5720000000000001, 1.815], 0.6396558704453441),
    (187, [1.0300000000000002, 1.7320000000000002, 1.624, -0.6399999999999999, -1.37, -0.5309999999999999, 1.9170000000000003, -0.4829999999999999, -0.5720000000000001, 1.815], 0.6396558704453441),
    (188, [1.0300000000000002, 1.7320000000000002, 1.624, -0.6399999999999999, -1.37, -0.5309999999999999, 1.9170000000000003, -0.4829999999999999, -0.5720000000000001, 1.815], 0.6396558704453441),
    (189, [1.0300000000000002, 1.7320000000000002, 1.624, -0.6399999999999999, -1.37, -0.5309999999999999, 1.9170000000000003, -0.4829999999999999, -0.5720000000000001, 1.815], 0.6396558704453441),
    (190, [1.0300000000000002, 1.7320000000000002, 1.624, -0.6399999999999999, -1.37, -0.5309999999999999, 1.9170000000000003, -0.4829999999999999, -0.5720000000000001, 1.815], 0.6396558704453441),
    (191, [1.0300000000000002, 1.7320000000000002, 1.624, -0.6399999999999999, -1.37, -0.5309999999999999, 1.9170000000000003, -0.4829999999999999, -0.5720000000000001, 1.815], 0.6396558704453441),
    (192, [1.0300000000000002, 1.7320000000000002, 1.624, -0.6399999999999999, -1.37, -0.5309999999999999, 1.9170000000000003, -0.4829999999999999, -0.5720000000000001, 1.815], 0.6396558704453441),
    (193, [1.0300000000000002, 1.7320000000000002, 1.624, -0.6399999999999999, -1.37, -0.5309999999999999, 1.9170000000000003, -0.4829999999999999, -0.5720000000000001, 1.815], 0.6396558704453441),
    (194, [1.0300000000000002, 1.7320000000000002, 1.624, -0.6399999999999999, -1.37, -0.5309999999999999, 1.9170000000000003, -0.4829999999999999, -0.5720000000000001, 1.815], 0.6396558704453441),
    (195, [1.0300000000000002, 1.7320000000000002, 1.624, -0.6399999999999999, -1.37, -0.5309999999999999, 1.9170000000000003, -0.4829999999999999, -0.5720000000000001, 1.815], 0.6396558704453441),
    (196, [1.0300000000000002, 1.7320000000000002, 1.624, -0.6399999999999999, -1.37, -0.5309999999999999, 1.9170000000000003, -0.4829999999999999, -0.5720000000000001, 1.815], 0.6396558704453441),
    (197, [1.0300000000000002, 1.7320000000000002, 1.624, -0.6399999999999999, -1.37, -0.5309999999999999, 1.9170000000000003, -0.4829999999999999, -0.5720000000000001, 1.815], 0.6396558704453441),
    (198, [1.0300000000000002, 1.7320000000000002, 1.624, -0.6399999999999999, -1.37, -0.5309999999999999, 1.9170000000000003, -0.4829999999999999, -0.5720000000000001, 1.815], 0.6396558704453441),
    (199, [1.0300000000000002, 1.7320000000000002, 1.624, -0.6399999999999999, -1.37, -0.5309999999999999, 1.9170000000000003, -0.4829999999999999, -0.5720000000000001, 1.815], 0.6396558704453441),
    (200, [1.0300000000000002, 1.7320000000000002, 1.624, -0.6399999999999999, -1.37, -0.5309999999999999, 1.9170000000000003, -0.4829999999999999, -0.5720000000000001, 1.815], 0.6396558704453441),
    (201, [1.0300000000000002, 1.7320000000000002, 1.624, -0.6399999999999999, -1.37, -0.5309999999999999, 1.9170000000000003, -0.4829999999999999, -0.5720000000000001, 1.815], 0.6396558704453441),
    (202, [1.0300000000000002, 1.7320000000000002, 1.624, -0.6399999999999999, -1.37, -0.5309999999999999, 1.9170000000000003, -0.4829999999999999, -0.5720000000000001, 1.815], 0.6396558704453441),
    (203, [1.0300000000000002, 1.7320000000000002, 1.624, -0.6399999999999999, -1.37, -0.5309999999999999, 1.9170000000000003, -0.4829999999999999, -0.5720000000000001, 1.815], 0.6396558704453441),
    (204, [1.0300000000000002, 1.7320000000000002, 1.624, -0.6399999999999999, -1.37, -0.5309999999999999, 1.9170000000000003, -0.4829999999999999, -0.5720000000000001, 1.815], 0.6396558704453441),
    (205, [1.0300000000000002, 1.7320000000000002, 1.624, -0.6399999999999999, -1.37, -0.5309999999999999, 1.9170000000000003, -0.4829999999999999, -0.5720000000000001, 1.815], 0.6396558704453441),
    (206, [1.0300000000000002, 1.7320000000000002, 1.624, -0.6399999999999999, -1.37, -0.5309999999999999, 1.9170000000000003, -0.4829999999999999, -0.5720000000000001, 1.815], 0.6396558704453441),
    (207, [1.0300000000000002, 1.7320000000000002, 1.624, -0.6399999999999999, -1.37, -0.5309999999999999, 1.9170000000000003, -0.4829999999999999, -0.5720000000000001, 1.815], 0.6396558704453441),
    (208, [1.0300000000000002, 1.7320000000000002, 1.624, -0.6399999999999999, -1.37, -0.5309999999999999, 1.9170000000000003, -0.4829999999999999, -0.5720000000000001, 1.815], 0.6396558704453441),
    (209, [1.0300000000000002, 1.7320000000000002, 1.624, -0.6399999999999999, -1.37, -0.5309999999999999, 1.9170000000000003, -0.4829999999999999, -0.5720000000000001, 1.815], 0.6396558704453441),
    (210, [1.0300000000000002, 1.7320000000000002, 1.624, -0.6399999999999999, -1.37, -0.5309999999999999, 1.9170000000000003, -0.4829999999999999, -0.5720000000000001, 1.815], 0.6396558704453441),
    (211, [1.0300000000000002, 1.7320000000000002, 1.624, -0.6399999999999999, -1.37, -0.5309999999999999, 1.9170000000000003, -0.4829999999999999, -0.5720000000000001, 1.815], 0.6396558704453441),
    (212, [1.0300000000000002, 1.7320000000000002, 1.624, -0.6399999999999999, -1.37, -0.5309999999999999, 1.9170000000000003, -0.4829999999999999, -0.5720000000000001, 1.815], 0.6396558704453441),
    (213, [1.0300000000000002, 1.7320000000000002, 1.624, -0.6399999999999999, -1.37, -0.5309999999999999, 1.9170000000000003, -0.4829999999999999, -0.5720000000000001, 1.815], 0.6396558704453441),
    (214, [1.0300000000000002, 1.7320000000000002, 1.624, -0.6399999999999999, -1.37, -0.5309999999999999, 1.9170000000000003, -0.4829999999999999, -0.5720000000000001, 1.815], 0.6396558704453441),
    (215, [1.0300000000000002, 1.7320000000000002, 1.624, -0.6399999999999999, -1.37, -0.5309999999999999, 1.9170000000000003, -0.4829999999999999, -0.5720000000000001, 1.815], 0.6396558704453441),
    (216, [1.0300000000000002, 1.7320000000000002, 1.624, -0.6399999999999999, -1.37, -0.5309999999999999, 1.9170000000000003, -0.4829999999999999, -0.5720000000000001, 1.815], 0.6396558704453441),
    (217, [1.0300000000000002, 1.7320000000000002, 1.624, -0.6399999999999999, -1.37, -0.5309999999999999, 1.9170000000000003, -0.4829999999999999, -0.5720000000000001, 1.815], 0.6396558704453441),
    (218, [1.0300000000000002, 1.7320000000000002, 1.624, -0.6399999999999999, -1.37, -0.5309999999999999, 1.9170000000000003, -0.4829999999999999, -0.5720000000000001, 1.815], 0.6396558704453441),
    (219, [1.0300000000000002, 1.7320000000000002, 1.624, -0.6399999999999999, -1.37, -0.5309999999999999, 1.9170000000000003, -0.4829999999999999, -0.5720000000000001, 1.815], 0.6396558704453441),
    (220, [1.0300000000000002, 1.7320000000000002, 1.624, -0.6399999999999999, -1.37, -0.5309999999999999, 1.9170000000000003, -0.4829999999999999, -0.5720000000000001, 1.815], 0.6396558704453441),
    (221, [1.0300000000000002, 1.7320000000000002, 1.624, -0.6399999999999999, -1.37, -0.5309999999999999, 1.9170000000000003, -0.4829999999999999, -0.5720000000000001, 1.815], 0.6396558704453441),
    (222, [1.0300000000000002, 1.7320000000000002, 1.624, -0.6399999999999999, -1.37, -0.5309999999999999, 1.9170000000000003, -0.4829999999999999, -0.5720000000000001, 1.815], 0.6396558704453441),
    (223, [1.0300000000000002, 1.7320000000000002, 1.624, -0.6399999999999999, -1.37, -0.5309999999999999, 1.9170000000000003, -0.4829999999999999, -0.5720000000000001, 1.815], 0.6396558704453441),
    (224, [1.0300000000000002, 1.7320000000000002, 1.624, -0.6399999999999999, -1.37, -0.5309999999999999, 1.9170000000000003, -0.4829999999999999, -0.5720000000000001, 1.815], 0.6396558704453441),
    (225, [1.0300000000000002, 1.7320000000000002, 1.624, -0.6399999999999999, -1.37, -0.5309999999999999, 1.9170000000000003, -0.4829999999999999, -0.5720000000000001, 1.815], 0.6396558704453441),
    (226, [1.0300000000000002, 1.7320000000000002, 1.624, -0.6399999999999999, -1.37, -0.5309999999999999, 1.9170000000000003, -0.4829999999999999, -0.5720000000000001, 1.815], 0.6396558704453441),
    (227, [1.0300000000000002, 1.7320000000000002, 1.624, -0.6399999999999999, -1.37, -0.5309999999999999, 1.9170000000000003, -0.4829999999999999, -0.5720000000000001, 1.815], 0.6396558704453441),
    (228, [1.0300000000000002, 1.7320000000000002, 1.624, -0.6399999999999999, -1.37, -0.5309999999999999, 1.9170000000000003, -0.4829999999999999, -0.5720000000000001, 1.815], 0.6396558704453441),
    (229, [1.0300000000000002, 1.7320000000000002, 1.624, -0.6399999999999999, -1.37, -0.5309999999999999, 1.9170000000000003, -0.4829999999999999, -0.5720000000000001, 1.815], 0.6396558704453441),
    (230, [1.0300000000000002, 1.7320000000000002, 1.624, -0.6399999999999999, -1.37, -0.5309999999999999, 1.9170000000000003, -0.4829999999999999, -0.5720000000000001, 1.815], 0.6396558704453441),
    (231, [1.0300000000000002, 1.7320000000000002, 1.624, -0.6399999999999999, -1.37, -0.5309999999999999, 1.9170000000000003, -0.4829999999999999, -0.5720000000000001, 1.815], 0.6396558704453441),
    (232, [1.0300000000000002, 1.7320000000000002, 1.624, -0.6399999999999999, -1.37, -0.5309999999999999, 1.9170000000000003, -0.4829999999999999, -0.5720000000000001, 1.815], 0.6396558704453441),
    (233, [1.0300000000000002, 1.7320000000000002, 1.624, -0.6399999999999999, -1.37, -0.5309999999999999, 1.9170000000000003, -0.4829999999999999, -0.5720000000000001, 1.815], 0.6396558704453441),
    (234, [1.0300000000000002, 1.7320000000000002, 1.624, -0.6399999999999999, -1.37, -0.5309999999999999, 1.9170000000000003, -0.4829999999999999, -0.5720000000000001, 1.815], 0.6396558704453441),
    (235, [1.0300000000000002, 1.7320000000000002, 1.624, -0.6399999999999999, -1.37, -0.5309999999999999, 1.9170000000000003, -0.4829999999999999, -0.5720000000000001, 1.815], 0.6396558704453441),
    (236, [1.0300000000000002, 1.7320000000000002, 1.624, -0.6399999999999999, -1.37, -0.5309999999999999, 1.9170000000000003, -0.4829999999999999, -0.5720000000000001, 1.815], 0.6396558704453441),
    (237, [1.0300000000000002, 1.7320000000000002, 1.624, -0.6399999999999999, -1.37, -0.5309999999999999, 1.9170000000000003, -0.4829999999999999, -0.5720000000000001, 1.815], 0.6396558704453441),
    (238, [1.0300000000000002, 1.7320000000000002, 1.624, -0.6399999999999999, -1.37, -0.5309999999999999, 1.9170000000000003, -0.4829999999999999, -0.5720000000000001, 1.815], 0.6396558704453441),
    (239, [1.0300000000000002, 1.7320000000000002, 1.624, -0.6399999999999999, -1.37, -0.5309999999999999, 1.9170000000000003, -0.4829999999999999, -0.5720000000000001, 1.815], 0.6396558704453441),
    (240, [1.0300000000000002, 1.7320000000000002, 1.624, -0.6399999999999999, -1.37, -0.5309999999999999, 1.9170000000000003, -0.4829999999999999, -0.5720000000000001, 1.815], 0.6396558704453441),
    (241, [1.0300000000000002, 1.7320000000000002, 1.624, -0.6399999999999999, -1.37, -0.5309999999999999, 1.9170000000000003, -0.4829999999999999, -0.5720000000000001, 1.815], 0.6396558704453441),
    (242, [1.0300000000000002, 1.7320000000000002, 1.624, -0.6399999999999999, -1.37, -0.5309999999999999, 1.9170000000000003, -0.4829999999999999, -0.5720000000000001, 1.815], 0.6396558704453441),
    (243, [1.0300000000000002, 1.7320000000000002, 1.624, -0.6399999999999999, -1.37, -0.5309999999999999, 1.9170000000000003, -0.4829999999999999, -0.5720000000000001, 1.815], 0.6396558704453441),
    (244, [1.0300000000000002, 1.7320000000000002, 1.624, -0.6399999999999999, -1.37, -0.5309999999999999, 1.9170000000000003, -0.4829999999999999, -0.5720000000000001, 1.815], 0.6396558704453441),
    (245, [1.0300000000000002, 1.7320000000000002, 1.624, -0.6399999999999999, -1.37, -0.5309999999999999, 1.9170000000000003, -0.4829999999999999, -0.5720000000000001, 1.815], 0.6396558704453441),
    (246, [1.0300000000000002, 1.7320000000000002, 1.624, -0.6399999999999999, -1.37, -0.5309999999999999, 1.9170000000000003, -0.4829999999999999, -0.5720000000000001, 1.815], 0.6396558704453441),
    (247, [1.0300000000000002, 1.7320000000000002, 1.624, -0.6399999999999999, -1.37, -0.5309999999999999, 1.9170000000000003, -0.4829999999999999, -0.5720000000000001, 1.815], 0.6396558704453441),
    (248, [1.0300000000000002, 1.7320000000000002, 1.624, -0.6399999999999999, -1.37, -0.5309999999999999, 1.9170000000000003, -0.4829999999999999, -0.5720000000000001, 1.815], 0.6396558704453441),
    (249, [1.0300000000000002, 1.7320000000000002, 1.624, -0.6399999999999999, -1.37, -0.5309999999999999, 1.9170000000000003, -0.4829999999999999, -0.5720000000000001, 1.815], 0.6396558704453441),
    (250, [1.0300000000000002, 1.7320000000000002, 1.624, -0.6399999999999999, -1.37, -0.5309999999999999, 1.9170000000000003, -0.4829999999999999, -0.5720000000000001, 1.815], 0.6396558704453441),
    (251, [1.0300000000000002, 1.7320000000000002, 1.624, -0.6399999999999999, -1.37, -0.5309999999999999, 1.9170000000000003, -0.4829999999999999, -0.5720000000000001, 1.815], 0.6396558704453441),
    (252, [1.0300000000000002, 1.7320000000000002, 1.624, -0.6399999999999999, -1.37, -0.5309999999999999, 1.9170000000000003, -0.4829999999999999, -0.5720000000000001, 1.815], 0.6396558704453441),
    (253, [1.0300000000000002, 1.7320000000000002, 1.624, -0.6399999999999999, -1.37, -0.5309999999999999, 1.9170000000000003, -0.4829999999999999, -0.5720000000000001, 1.815], 0.6396558704453441),
    (254, [1.0300000000000002, 1.7320000000000002, 1.624, -0.6399999999999999, -1.37, -0.5309999999999999, 1.9170000000000003, -0.4829999999999999, -0.5720000000000001, 1.815], 0.6396558704453441),
    (255, [1.0300000000000002, 1.7320000000000002, 1.624, -0.6399999999999999, -1.37, -0.5309999999999999, 1.9170000000000003, -0.4829999999999999, -0.5720000000000001, 1.815], 0.6396558704453441),
    (256, [1.0300000000000002, 1.7320000000000002, 1.624, -0.6399999999999999, -1.37, -0.5309999999999999, 1.9170000000000003, -0.4829999999999999, -0.5720000000000001, 1.815], 0.6396558704453441),
    (257, [1.0300000000000002, 1.7320000000000002, 1.624, -0.6399999999999999, -1.37, -0.5309999999999999, 1.9170000000000003, -0.4829999999999999, -0.5720000000000001, 1.815], 0.6396558704453441),
    (258, [1.0300000000000002, 1.7320000000000002, 1.624, -0.6399999999999999, -1.37, -0.5309999999999999, 1.9170000000000003, -0.4829999999999999, -0.5720000000000001, 1.815], 0.6396558704453441),
    (259, [1.0300000000000002, 1.7320000000000002, 1.624, -0.6399999999999999, -1.37, -0.5309999999999999, 1.9170000000000003, -0.4829999999999999, -0.5720000000000001, 1.815], 0.6396558704453441),
    (260, [1.0300000000000002, 1.7320000000000002, 1.624, -0.6399999999999999, -1.37, -0.5309999999999999, 1.9170000000000003, -0.4829999999999999, -0.5720000000000001, 1.815], 0.6396558704453441),
    (261, [1.0300000000000002, 1.7320000000000002, 1.624, -0.6399999999999999, -1.37, -0.5309999999999999, 1.9170000000000003, -0.4829999999999999, -0.5720000000000001, 1.815], 0.6396558704453441),
    (262, [1.0300000000000002, 1.7320000000000002, 1.624, -0.6399999999999999, -1.37, -0.5309999999999999, 1.9170000000000003, -0.4829999999999999, -0.5720000000000001, 1.815], 0.6396558704453441),
    (263, [1.0300000000000002, 1.7320000000000002, 1.624, -0.6399999999999999, -1.37, -0.5309999999999999, 1.9170000000000003, -0.4829999999999999, -0.5720000000000001, 1.815], 0.6396558704453441),
    (264, [1.0300000000000002, 1.7320000000000002, 1.624, -0.6399999999999999, -1.37, -0.5309999999999999, 1.9170000000000003, -0.4829999999999999, -0.5720000000000001, 1.815], 0.6396558704453441),
    (265, [1.0300000000000002, 1.7320000000000002, 1.624, -0.6399999999999999, -1.37, -0.5309999999999999, 1.9170000000000003, -0.4829999999999999, -0.5720000000000001, 1.815], 0.6396558704453441),
    (266, [1.0300000000000002, 1.7320000000000002, 1.624, -0.6399999999999999, -1.37, -0.5309999999999999, 1.9170000000000003, -0.4829999999999999, -0.5720000000000001, 1.815], 0.6396558704453441),
    (267, [1.0300000000000002, 1.7320000000000002, 1.624, -0.6399999999999999, -1.37, -0.5309999999999999, 1.9170000000000003, -0.4829999999999999, -0.5720000000000001, 1.815], 0.6396558704453441),
    (268, [1.0300000000000002, 1.7320000000000002, 1.624, -0.6399999999999999, -1.37, -0.5309999999999999, 1.9170000000000003, -0.4829999999999999, -0.5720000000000001, 1.815], 0.6396558704453441),
    (269, [1.0300000000000002, 1.7320000000000002, 1.624, -0.6399999999999999, -1.37, -0.5309999999999999, 1.9170000000000003, -0.4829999999999999, -0.5720000000000001, 1.815], 0.6396558704453441),
    (270, [1.0300000000000002, 1.7320000000000002, 1.624, -0.6399999999999999, -1.37, -0.5309999999999999, 1.9170000000000003, -0.4829999999999999, -0.5720000000000001, 1.815], 0.6396558704453441),
    (271, [1.0300000000000002, 1.7320000000000002, 1.624, -0.6399999999999999, -1.37, -0.5309999999999999, 1.9170000000000003, -0.4829999999999999, -0.5720000000000001, 1.815], 0.6396558704453441),
    (272, [1.0300000000000002, 1.7320000000000002, 1.624, -0.6399999999999999, -1.37, -0.5309999999999999, 1.9170000000000003, -0.4829999999999999, -0.5720000000000001, 1.815], 0.6396558704453441),
    (273, [1.0300000000000002, 1.7320000000000002, 1.624, -0.6399999999999999, -1.37, -0.5309999999999999, 1.9170000000000003, -0.4829999999999999, -0.5720000000000001, 1.815], 0.6396558704453441),
    (274, [1.0300000000000002, 1.7320000000000002, 1.624, -0.6399999999999999, -1.37, -0.5309999999999999, 1.9170000000000003, -0.4829999999999999, -0.5720000000000001, 1.815], 0.6396558704453441),
    (275, [1.0300000000000002, 1.7320000000000002, 1.624, -0.6399999999999999, -1.37, -0.5309999999999999, 1.9170000000000003, -0.4829999999999999, -0.5720000000000001, 1.815], 0.6396558704453441),
    (276, [1.0300000000000002, 1.7320000000000002, 1.624, -0.6399999999999999, -1.37, -0.5309999999999999, 1.9170000000000003, -0.4829999999999999, -0.5720000000000001, 1.815], 0.6396558704453441),
    (277, [1.0300000000000002, 1.7320000000000002, 1.624, -0.6399999999999999, -1.37, -0.5309999999999999, 1.9170000000000003, -0.4829999999999999, -0.5720000000000001, 1.815], 0.6396558704453441),
    (278, [1.0300000000000002, 1.7320000000000002, 1.624, -0.6399999999999999, -1.37, -0.5309999999999999, 1.9170000000000003, -0.4829999999999999, -0.5720000000000001, 1.815], 0.6396558704453441),
    (279, [1.0300000000000002, 1.7320000000000002, 1.624, -0.6399999999999999, -1.37, -0.5309999999999999, 1.9170000000000003, -0.4829999999999999, -0.5720000000000001, 1.815], 0.6396558704453441),
    (280, [1.0300000000000002, 1.7320000000000002, 1.624, -0.6399999999999999, -1.37, -0.5309999999999999, 1.9170000000000003, -0.4829999999999999, -0.5720000000000001, 1.815], 0.6396558704453441),
    (281, [1.0300000000000002, 1.7320000000000002, 1.624, -0.6399999999999999, -1.37, -0.5309999999999999, 1.9170000000000003, -0.4829999999999999, -0.5720000000000001, 1.815], 0.6396558704453441),
    (282, [1.0300000000000002, 1.7320000000000002, 1.624, -0.6399999999999999, -1.37, -0.5309999999999999, 1.9170000000000003, -0.4829999999999999, -0.5720000000000001, 1.815], 0.6396558704453441),
    (283, [1.0300000000000002, 1.7320000000000002, 1.624, -0.6399999999999999, -1.37, -0.5309999999999999, 1.9170000000000003, -0.4829999999999999, -0.5720000000000001, 1.815], 0.6396558704453441),
    (284, [1.0300000000000002, 1.7320000000000002, 1.624, -0.6399999999999999, -1.37, -0.5309999999999999, 1.9170000000000003, -0.4829999999999999, -0.5720000000000001, 1.815], 0.6396558704453441),
    (285, [1.0300000000000002, 1.7320000000000002, 1.624, -0.6399999999999999, -1.37, -0.5309999999999999, 1.9170000000000003, -0.4829999999999999, -0.5720000000000001, 1.815], 0.6396558704453441),
    (286, [1.0300000000000002, 1.7320000000000002, 1.624, -0.6399999999999999, -1.37, -0.5309999999999999, 1.9170000000000003, -0.4829999999999999, -0.5720000000000001, 1.815], 0.6396558704453441),
    (287, [1.0300000000000002, 1.7320000000000002, 1.624, -0.6399999999999999, -1.37, -0.5309999999999999, 1.9170000000000003, -0.4829999999999999, -0.5720000000000001, 1.815], 0.6396558704453441),
    (288, [1.0300000000000002, 1.7320000000000002, 1.624, -0.6399999999999999, -1.37, -0.5309999999999999, 1.9170000000000003, -0.4829999999999999, -0.5720000000000001, 1.815], 0.6396558704453441),
    (289, [1.0300000000000002, 1.7320000000000002, 1.624, -0.6399999999999999, -1.37, -0.5309999999999999, 1.9170000000000003, -0.4829999999999999, -0.5720000000000001, 1.815], 0.6396558704453441),
    (290, [1.0300000000000002, 1.7320000000000002, 1.624, -0.6399999999999999, -1.37, -0.5309999999999999, 1.9170000000000003, -0.4829999999999999, -0.5720000000000001, 1.815], 0.6396558704453441),
    (291, [1.0300000000000002, 1.7320000000000002, 1.624, -0.6399999999999999, -1.37, -0.5309999999999999, 1.9170000000000003, -0.4829999999999999, -0.5720000000000001, 1.815], 0.6396558704453441),
    (292, [1.0300000000000002, 1.7320000000000002, 1.624, -0.6399999999999999, -1.37, -0.5309999999999999, 1.9170000000000003, -0.4829999999999999, -0.5720000000000001, 1.815], 0.6396558704453441),
    (293, [1.0300000000000002, 1.7320000000000002, 1.624, -0.6399999999999999, -1.37, -0.5309999999999999, 1.9170000000000003, -0.4829999999999999, -0.5720000000000001, 1.815], 0.6396558704453441),
    (294, [1.0300000000000002, 1.7320000000000002, 1.624, -0.6399999999999999, -1.37, -0.5309999999999999, 1.9170000000000003, -0.4829999999999999, -0.5720000000000001, 1.815], 0.6396558704453441),
    (295, [1.0300000000000002, 1.7320000000000002, 1.624, -0.6399999999999999, -1.37, -0.5309999999999999, 1.9170000000000003, -0.4829999999999999, -0.5720000000000001, 1.815], 0.6396558704453441),
    (296, [1.0300000000000002, 1.7320000000000002, 1.624, -0.6399999999999999, -1.37, -0.5309999999999999, 1.9170000000000003, -0.4829999999999999, -0.5720000000000001, 1.815], 0.6396558704453441),
    (297, [1.0300000000000002, 1.7320000000000002, 1.624, -0.6399999999999999, -1.37, -0.5309999999999999, 1.9170000000000003, -0.4829999999999999, -0.5720000000000001, 1.815], 0.6396558704453441),
    (298, [1.0300000000000002, 1.7320000000000002, 1.624, -0.6399999999999999, -1.37, -0.5309999999999999, 1.9170000000000003, -0.4829999999999999, -0.5720000000000001, 1.815], 0.6396558704453441),
    (299, [1.0300000000000002, 1.7320000000000002, 1.624, -0.6399999999999999, -1.37, -0.5309999999999999, 1.9170000000000003, -0.4829999999999999, -0.5720000000000001, 1.815], 0.6396558704453441),
]

