ranges of every chromosome : (-2, 2)
    selection method is: TournamentSelection
    crossover method is: UniformCrossover
    pc: The probability of crossover: 1.000000
    pe: Gene exchange probability: 0.500000
    mutation method is: FlipBitBigMutation
    pm: The probability of mutation: 0.100000
    pbm: The probability of big mutation: 0.500000
    alpha: intensive factor: 0.600000
best_fit = [
    (0, [0.5489999999999999, -0.16500000000000004, -0.127, -1.665, -0.776, 1.778, 1.056, -1.1139999999999999, -1.597, 1.7850000000000001], 0.5741497975708503),
    (1, [1.209, 1.166, -1.047, -1.37, 1.8970000000000002, -0.2509999999999999, -1.4609999999999999, 1.1350000000000002, -1.189, 1.0260000000000002], 0.5780904183535763),
    (2, [1.209, 1.166, -1.047, -1.37, 1.8970000000000002, -0.2509999999999999, -1.4609999999999999, 1.1350000000000002, -1.189, 1.0260000000000002], 0.5780904183535763),
    (3, [1.209, 1.166, -1.047, -1.37, 1.8970000000000002, -0.2509999999999999, -1.4609999999999999, 1.1350000000000002, -1.189, 1.0260000000000002], 0.5780904183535763),
    (4, [1.209, 1.166, -1.047, -1.37, 1.8970000000000002, -0.2509999999999999, -1.4609999999999999, 1.1350000000000002, -1.189, 1.0260000000000002], 0.5780904183535763),
    (5, [1.209, 1.166, -1.047, -1.37, 1.8970000000000002, -0.2509999999999999, -1.4609999999999999, 1.1350000000000002, -1.189, 1.0260000000000002], 0.5780904183535763),
    (6, [1.209, 1.166, -1.047, -1.37, 1.8970000000000002, -0.2509999999999999, -1.4609999999999999, 1.1350000000000002, -1.189, 1.0260000000000002], 0.5780904183535763),
    (7, [1.209, 1.166, -1.047, -1.37, 1.8970000000000002, -0.2509999999999999, -1.4609999999999999, 1.1350000000000002, -1.189, 1.0260000000000002], 0.5780904183535763),
    (8, [1.209, 1.166, -1.047, -1.37, 1.8970000000000002, -0.2509999999999999, -1.4609999999999999, 1.1350000000000002, -1.189, 1.0260000000000002], 0.5780904183535763),
    (9, [0.9809999999999999, 0.8620000000000001, 0.4950000000000001, 0.6659999999999999, 0.21099999999999985, -1.836, 1.0939999999999999, -0.01200000000000001, -1.492, -1.189], 0.5879622132253711),
    (10, [0.9809999999999999, 0.8620000000000001, 0.4950000000000001, 0.6659999999999999, 0.21099999999999985, -1.836, 1.0939999999999999, -0.01200000000000001, -1.492, -1.189], 0.5879622132253711),
    (11, [0.9809999999999999, 0.8620000000000001, 0.4950000000000001, 0.6659999999999999, 0.21099999999999985, -1.836, 1.0939999999999999, -0.01200000000000001, -1.492, -1.189], 0.5879622132253711),
    (12, [0.9809999999999999, 0.8620000000000001, 0.4950000000000001, 0.6659999999999999, 0.21099999999999985, -1.836, 1.0939999999999999, -0.01200000000000001, -1.492, -1.189], 0.5879622132253711),
    (13, [0.9809999999999999, 0.8620000000000001, 0.4950000000000001, 0.6659999999999999, 0.21099999999999985, -1.836, 1.0939999999999999, -0.01200000000000001, -1.492, -1.189], 0.5879622132253711),
    (14, [0.9809999999999999, 0.8620000000000001, 0.4950000000000001, 0.6659999999999999, 0.21099999999999985, -1.836, 1.0939999999999999, -0.01200000000000001, -1.492, -1.189], 0.5879622132253711),
    (15, [0.9809999999999999, 0.8620000000000001, 0.4950000000000001, 0.6659999999999999, 0.21099999999999985, -1.836, 1.0939999999999999, -0.01200000000000001, -1.492, -1.189], 0.5879622132253711),
    (16, [0.9809999999999999, 0.8620000000000001, 0.4950000000000001, 0.6659999999999999, 0.21099999999999985, -1.836, 1.0939999999999999, -0.01200000000000001, -1.492, -1.189], 0.5879622132253711),
    (17, [0.9809999999999999, 0.8620000000000001, 0.4950000000000001, 0.6659999999999999, 0.21099999999999985, -1.836, 1.0939999999999999, -0.01200000000000001, -1.492, -1.189], 0.5879622132253711),
    (18, [0.9809999999999999, 0.8620000000000001, 0.4950000000000001, 0.6659999999999999, 0.21099999999999985, -1.836, 1.0939999999999999, -0.01200000000000001, -1.492, -1.189], 0.5879622132253711),
    (19, [0.9809999999999999, 0.8620000000000001, 0.4950000000000001, 0.6659999999999999, 0.21099999999999985, -1.836, 1.0939999999999999, -0.01200000000000001, -1.492, -1.189], 0.5879622132253711),
    (20, [0.9809999999999999, 0.8620000000000001, 0.4950000000000001, 0.6659999999999999, 0.21099999999999985, -1.836, 1.0939999999999999, -0.01200000000000001, -1.492, -1.189], 0.5879622132253711),
    (21, [0.9809999999999999, 0.8620000000000001, 0.4950000000000001, 0.6659999999999999, 0.21099999999999985, -1.836, 1.0939999999999999, -0.01200000000000001, -1.492, -1.189], 0.5879622132253711),
    (22, [0.9809999999999999, 0.8620000000000001, 0.4950000000000001, 0.6659999999999999, 0.21099999999999985, -1.836, 1.0939999999999999, -0.01200000000000001, -1.492, -1.189], 0.5879622132253711),
    (23, [0.9809999999999999, 0.8620000000000001, 0.4950000000000001, 0.6659999999999999, 0.21099999999999985, -1.836, 1.0939999999999999, -0.01200000000000001, -1.492, -1.189], 0.5879622132253711),
    (24, [0.9809999999999999, 0.8620000000000001, 0.4950000000000001, 0.6659999999999999, 0.21099999999999985, -1.836, 1.0939999999999999, -0.01200000000000001, -1.492, -1.189], 0.5879622132253711),
    (25, [0.9809999999999999, 0.8620000000000001, 0.4950000000000001, 0.6659999999999999, 0.21099999999999985, -1.836, 1.0939999999999999, -0.01200000000000001, -1.492, -1.189], 0.5879622132253711),
    (26, [0.9809999999999999, 0.8620000000000001, 0.4950000000000001, 0.6659999999999999, 0.21099999999999985, -1.836, 1.0939999999999999, -0.01200000000000001, -1.492, -1.189], 0.5879622132253711),
    (27, [0.9809999999999999, 0.8620000000000001, 0.4950000000000001, 0.6659999999999999, 0.21099999999999985, -1.836, 1.0939999999999999, -0.01200000000000001, -1.492, -1.189], 0.5879622132253711),
    (28, [0.9809999999999999, 0.8620000000000001, 0.4950000000000001, 0.6659999999999999, 0.21099999999999985, -1.836, 1.0939999999999999, -0.01200000000000001, -1.492, -1.189], 0.5879622132253711),
    (29, [0.9809999999999999, 0.8620000000000001, 0.4950000000000001, 0.6659999999999999, 0.21099999999999985, -1.836, 1.0939999999999999, -0.01200000000000001, -1.492, -1.189], 0.5879622132253711),
    (30, [0.9809999999999999, 0.8620000000000001, 0.4950000000000001, 0.6659999999999999, 0.21099999999999985, -1.836, 1.0939999999999999, -0.01200000000000001, -1.492, -1.189], 0.5879622132253711),
    (31, [0.9809999999999999, 0.8620000000000001, 0.4950000000000001, 0.6659999999999999, 0.21099999999999985, -1.836, 1.0939999999999999, -0.01200000000000001, -1.492, -1.189], 0.5879622132253711),
    (32, [0.9809999999999999, 0.8620000000000001, 0.4950000000000001, 0.6659999999999999, 0.21099999999999985, -1.836, 1.0939999999999999, -0.01200000000000001, -1.492, -1.189], 0.5879622132253711),
    (33, [0.9809999999999999, 0.8620000000000001, 0.4950000000000001, 0.6659999999999999, 0.21099999999999985, -1.836, 1.0939999999999999, -0.01200000000000001, -1.492, -1.189], 0.5879622132253711),
    (34, [0.9809999999999999, 0.8620000000000001, 0.4950000000000001, 0.6659999999999999, 0.21099999999999985, -1.836, 1.0939999999999999, -0.01200000000000001, -1.492, -1.189], 0.5879622132253711),
    (35, [0.9809999999999999, 0.8620000000000001, 0.4950000000000001, 0.6659999999999999, 0.21099999999999985, -1.836, 1.0939999999999999, -0.01200000000000001, -1.492, -1.189], 0.5879622132253711),
    (36, [0.9809999999999999, 0.8620000000000001, 0.4950000000000001, 0.6659999999999999, 0.21099999999999985, -1.836, 1.0939999999999999, -0.01200000000000001, -1.492, -1.189], 0.5879622132253711),
    (37, [0.9809999999999999, 0.8620000000000001, 0.4950000000000001, 0.6659999999999999, 0.21099999999999985, -1.836, 1.0939999999999999, -0.01200000000000001, -1.492, -1.189], 0.5879622132253711),
    (38, [0.9809999999999999, 0.8620000000000001, 0.4950000000000001, 0.6659999999999999, 0.21099999999999985, -1.836, 1.0939999999999999, -0.01200000000000001, -1.492, -1.189], 0.5879622132253711),
    (39, [0.9809999999999999, 0.8620000000000001, 0.4950000000000001, 0.6659999999999999, 0.21099999999999985, -1.836, 1.0939999999999999, -0.01200000000000001, -1.492, -1.189], 0.5879622132253711),
    (40, [0.9809999999999999, 0.8620000000000001, 0.4950000000000001, 0.6659999999999999, 0.21099999999999985, -1.836, 1.0939999999999999, -0.01200000000000001, -1.492, -1.189], 0.5879622132253711),
    (41, [0.9809999999999999, 0.8620000000000001, 0.4950000000000001, 0.6659999999999999, 0.21099999999999985, -1.836, 1.0939999999999999, -0.01200000000000001, -1.492, -1.189], 0.5879622132253711),
    (42, [0.9809999999999999, 0.8620000000000001, 0.4950000000000001, 0.6659999999999999, 0.21099999999999985, -1.836, 1.0939999999999999, -0.01200000000000001, -1.492, -1.189], 0.5879622132253711),
    (43, [0.9809999999999999, 0.8620000000000001, 0.4950000000000001, 0.6659999999999999, 0.21099999999999985, -1.836, 1.0939999999999999, -0.01200000000000001, -1.492, -1.189], 0.5879622132253711),
    (44, [0.9809999999999999, 0.8620000000000001, 0.4950000000000001, 0.6659999999999999, 0.21099999999999985, -1.836, 1.0939999999999999, -0.01200000000000001, -1.492, -1.189], 0.5879622132253711),
    (45, [1.391, -1.381, 0.6350000000000002, 0.6070000000000002, -1.952, 1.1800000000000002, -0.8220000000000001, -1.233, 1.8290000000000002, -0.2789999999999999], 0.5940080971659919),
    (46, [1.391, -1.381, 0.6350000000000002, 0.6070000000000002, -1.952, 1.1800000000000002, -0.8220000000000001, -1.233, 1.8290000000000002, -0.2789999999999999], 0.5940080971659919),
    (47, [1.391, -1.381, 0.6350000000000002, 0.6070000000000002, -1.952, 1.1800000000000002, -0.8220000000000001, -1.233, 1.8290000000000002, -0.2789999999999999], 0.5940080971659919),
    (48, [-0.593, -0.726, -0.131, 0.16700000000000026, 0.935, -0.702, -1.421, -0.5609999999999999, -1.263, 1.6920000000000002], 0.6023009446693657),
    (49, [-0.593, -0.726, -0.131, 0.16700000000000026, 0.935, -0.702, -1.421, -0.5609999999999999, -1.263, 1.6920000000000002], 0.6023009446693657),
    (50, [-0.593, -0.726, -0.131, 0.16700000000000026, 0.935, -0.702, -1.421, -0.5609999999999999, -1.263, 1.6920000000000002], 0.6023009446693657),
    (51, [-0.593, -0.726, -0.131, 0.16700000000000026, 0.935, -0.702, -1.421, -0.5609999999999999, -1.263, 1.6920000000000002], 0.6023009446693657),
    (52, [-0.593, -0.726, -0.131, 0.16700000000000026, 0.935, -0.702, -1.421, -0.5609999999999999, -1.263, 1.6920000000000002], 0.6023009446693657),
    (53, [-0.593, -0.726, -0.131, 0.16700000000000026, 0.935, -0.702, -1.421, -0.5609999999999999, -1.263, 1.6920000000000002], 0.6023009446693657),
    (54, [-0.593, -0.726, -0.131, 0.16700000000000026, 0.935, -0.702, -1.421, -0.5609999999999999, -1.263, 1.6920000000000002], 0.6023009446693657),
    (55, [-0.593, -0.726, -0.131, 0.16700000000000026, 0.935, -0.702, -1.421, -0.5609999999999999, -1.263, 1.6920000000000002], 0.6023009446693657),
    (56, [-0.593, -0.726, -0.131, 0.16700000000000026, 0.935, -0.702, -1.421, -0.5609999999999999, -1.263, 1.6920000000000002], 0.6023009446693657),
    (57, [-0.593, -0.726, -0.131, 0.16700000000000026, 0.935, -0.702, -1.421, -0.5609999999999999, -1.263, 1.6920000000000002], 0.6023009446693657),
    (58, [-0.593, -0.726, -0.131, 0.16700000000000026, 0.935, -0.702, -1.421, -0.5609999999999999, -1.263, 1.6920000000000002], 0.6023009446693657),
    (59, [-0.593, -0.726, -0.131, 0.16700000000000026, 0.935, -0.702, -1.421, -0.5609999999999999, -1.263, 1.6920000000000002], 0.6023009446693657),
    (60, [-0.593, -0.726, -0.131, 0.16700000000000026, 0.935, -0.702, -1.421, -0.5609999999999999, -1.263, 1.6920000000000002], 0.6023009446693657),
    (61, [-0.593, -0.726, -0.131, 0.16700000000000026, 0.935, -0.702, -1.421, -0.5609999999999999, -1.263, 1.6920000000000002], 0.6023009446693657),
    (62, [-0.593, -0.726, -0.131, 0.16700000000000026, 0.935, -0.702, -1.421, -0.5609999999999999, -1.263, 1.6920000000000002], 0.6023009446693657),
    (63, [-0.593, -0.726, -0.131, 0.16700000000000026, 0.935, -0.702, -1.421, -0.5609999999999999, -1.263, 1.6920000000000002], 0.6023009446693657),
    (64, [-0.593, -0.726, -0.131, 0.16700000000000026, 0.935, -0.702, -1.421, -0.5609999999999999, -1.263, 1.6920000000000002], 0.6023009446693657),
    (65, [-0.593, -0.726, -0.131, 0.16700000000000026, 0.935, -0.702, -1.421, -0.5609999999999999, -1.263, 1.6920000000000002], 0.6023009446693657),
    (66, [-0.593, -0.726, -0.131, 0.16700000000000026, 0.935, -0.702, -1.421, -0.5609999999999999, -1.263, 1.6920000000000002], 0.6023009446693657),
    (67, [-0.593, -0.726, -0.131, 0.16700000000000026, 0.935, -0.702, -1.421, -0.5609999999999999, -1.263, 1.6920000000000002], 0.6023009446693657),
    (68, [-0.593, -0.726, -0.131, 0.16700000000000026, 0.935, -0.702, -1.421, -0.5609999999999999, -1.263, 1.6920000000000002], 0.6023009446693657),
    (69, [-0.593, -0.726, -0.131, 0.16700000000000026, 0.935, -0.702, -1.421, -0.5609999999999999, -1.263, 1.6920000000000002], 0.6023009446693657),
    (70, [-0.593, -0.726, -0.131, 0.16700000000000026, 0.935, -0.702, -1.421, -0.5609999999999999, -1.263, 1.6920000000000002], 0.6023009446693657),
    (71, [-0.593, -0.726, -0.131, 0.16700000000000026, 0.935, -0.702, -1.421, -0.5609999999999999, -1.263, 1.6920000000000002], 0.6023009446693657),
    (72, [-0.593, -0.726, -0.131, 0.16700000000000026, 0.935, -0.702, -1.421, -0.5609999999999999, -1.263, 1.6920000000000002], 0.6023009446693657),
    (73, [-0.593, -0.726, -0.131, 0.16700000000000026, 0.935, -0.702, -1.421, -0.5609999999999999, -1.263, 1.6920000000000002], 0.6023009446693657),
    (74, [-0.593, -0.726, -0.131, 0.16700000000000026, 0.935, -0.702, -1.421, -0.5609999999999999, -1.263, 1.6920000000000002], 0.6023009446693657),
    (75, [-0.593, -0.726, -0.131, 0.16700000000000026, 0.935, -0.702, -1.421, -0.5609999999999999, -1.263, 1.6920000000000002], 0.6023009446693657),
    (76, [-0.593, -0.726, -0.131, 0.16700000000000026, 0.935, -0.702, -1.421, -0.5609999999999999, -1.263, 1.6920000000000002], 0.6023009446693657),
    (77, [-0.593, -0.726, -0.131, 0.16700000000000026, 0.935, -0.702, -1.421, -0.5609999999999999, -1.263, 1.6920000000000002], 0.6023009446693657),
    (78, [-0.593, -0.726, -0.131, 0.16700000000000026, 0.935, -0.702, -1.421, -0.5609999999999999, -1.263, 1.6920000000000002], 0.6023009446693657),
    (79, [-0.593, -0.726, -0.131, 0.16700000000000026, 0.935, -0.702, -1.421, -0.5609999999999999, -1.263, 1.6920000000000002], 0.6023009446693657),
    (80, [-0.593, -0.726, -0.131, 0.16700000000000026, 0.935, -0.702, -1.421, -0.5609999999999999, -1.263, 1.6920000000000002], 0.6023009446693657),
    (81, [-0.593, -0.726, -0.131, 0.16700000000000026, 0.935, -0.702, -1.421, -0.5609999999999999, -1.263, 1.6920000000000002], 0.6023009446693657),
    (82, [-0.593, -0.726, -0.131, 0.16700000000000026, 0.935, -0.702, -1.421, -0.5609999999999999, -1.263, 1.6920000000000002], 0.6023009446693657),
    (83, [-0.593, -0.726, -0.131, 0.16700000000000026, 0.935, -0.702, -1.421, -0.5609999999999999, -1.263, 1.6920000000000002], 0.6023009446693657),
    (84, [-0.593, -0.726, -0.131, 0.16700000000000026, 0.935, -0.702, -1.421, -0.5609999999999999, -1.263, 1.6920000000000002], 0.6023009446693657),
    (85, [-0.593, -0.726, -0.131, 0.16700000000000026, 0.935, -0.702, -1.421, -0.5609999999999999, -1.263, 1.6920000000000002], 0.6023009446693657),
    (86, [-0.593, -0.726, -0.131, 0.16700000000000026, 0.935, -0.702, -1.421, -0.5609999999999999, -1.263, 1.6920000000000002], 0.6023009446693657),
    (87, [-0.593, -0.726, -0.131, 0.16700000000000026, 0.935, -0.702, -1.421, -0.5609999999999999, -1.263, 1.6920000000000002], 0.6023009446693657),
    (88, [-0.593, -0.726, -0.131, 0.16700000000000026, 0.935, -0.702, -1.421, -0.5609999999999999, -1.263, 1.6920000000000002], 0.6023009446693657),
    (89, [-0.593, -0.726, -0.131, 0.16700000000000026, 0.935, -0.702, -1.421, -0.5609999999999999, -1.263, 1.6920000000000002], 0.6023009446693657),
    (90, [-0.593, -0.726, -0.131, 0.16700000000000026, 0.935, -0.702, -1.421, -0.5609999999999999, -1.263, 1.6920000000000002], 0.6023009446693657),
    (91, [-0.593, -0.726, -0.131, 0.16700000000000026, 0.935, -0.702, -1.421, -0.5609999999999999, -1.263, 1.6920000000000002], 0.6023009446693657),
    (92, [-0.593, -0.726, -0.131, 0.16700000000000026, 0.935, -0.702, -1.421, -0.5609999999999999, -1.263, 1.6920000000000002], 0.6023009446693657),
    (93, [-0.593, -0.726, -0.131, 0.16700000000000026, 0.935, -0.702, -1.421, -0.5609999999999999, -1.263, 1.6920000000000002], 0.6023009446693657),
    (94, [-0.593, -0.726, -0.131, 0.16700000000000026, 0.935, -0.702, -1.421, -0.5609999999999999, -1.263, 1.6920000000000002], 0.6023009446693657),
    (95, [-0.593, -0.726, -0.131, 0.16700000000000026, 0.935, -0.702, -1.421, -0.5609999999999999, -1.263, 1.6920000000000002], 0.6023009446693657),
    (96, [-0.593, -0.726, -0.131, 0.16700000000000026, 0.935, -0.702, -1.421, -0.5609999999999999, -1.263, 1.6920000000000002], 0.6023009446693657),
    (97, [-0.593, -0.726, -0.131, 0.16700000000000026, 0.935, -0.702, -1.421, -0.5609999999999999, -1.263, 1.6920000000000002], 0.6023009446693657),
    (98, [-0.593, -0.726, -0.131, 0.16700000000000026, 0.935, -0.702, -1.421, -0.5609999999999999, -1.263, 1.6920000000000002], 0.6023009446693657),
    (99, [-0.593, -0.726, -0.131, 0.16700000000000026, 0.935, -0.702, -1.421, -0.5609999999999999, -1.263, 1.6920000000000002], 0.6023009446693657),
    (100, [-0.593, -0.726, -0.131, 0.16700000000000026, 0.935, -0.702, -1.421, -0.5609999999999999, -1.263, 1.6920000000000002], 0.6023009446693657),
    (101, [-0.593, -0.726, -0.131, 0.16700000000000026, 0.935, -0.702, -1.421, -0.5609999999999999, -1.263, 1.6920000000000002], 0.6023009446693657),
    (102, [-0.593, -0.726, -0.131, 0.16700000000000026, 0.935, -0.702, -1.421, -0.5609999999999999, -1.263, 1.6920000000000002], 0.6023009446693657),
    (103, [-0.593, -0.726, -0.131, 0.16700000000000026, 0.935, -0.702, -1.421, -0.5609999999999999, -1.263, 1.6920000000000002], 0.6023009446693657),
    (104, [-0.593, -0.726, -0.131, 0.16700000000000026, 0.935, -0.702, -1.421, -0.5609999999999999, -1.263, 1.6920000000000002], 0.6023009446693657),
    (105, [-0.593, -0.726, -0.131, 0.16700000000000026, 0.935, -0.702, -1.421, -0.5609999999999999, -1.263, 1.6920000000000002], 0.6023009446693657),
    (106, [-0.593, -0.726, -0.131, 0.16700000000000026, 0.935, -0.702, -1.421, -0.5609999999999999, -1.263, 1.6920000000000002], 0.6023009446693657),
    (107, [-0.593, -0.726, -0.131, 0.16700000000000026, 0.935, -0.702, -1.421, -0.5609999999999999, -1.263, 1.6920000000000002], 0.6023009446693657),
    (108, [-0.593, -0.726, -0.131, 0.16700000000000026, 0.935, -0.702, -1.421, -0.5609999999999999, -1.263, 1.6920000000000002], 0.6023009446693657),
    (109, [-0.593, -0.726, -0.131, 0.16700000000000026, 0.935, -0.702, -1.421, -0.5609999999999999, -1.263, 1.6920000000000002], 0.6023009446693657),
    (110, [-0.593, -0.726, -0.131, 0.16700000000000026, 0.935, -0.702, -1.421, -0.5609999999999999, -1.263, 1.6920000000000002], 0.6023009446693657),
    (111, [-0.593, -0.726, -0.131, 0.16700000000000026, 0.935, -0.702, -1.421, -0.5609999999999999, -1.263, 1.6920000000000002], 0.6023009446693657),
    (112, [-0.593, -0.726, -0.131, 0.16700000000000026, 0.935, -0.702, -1.421, -0.5609999999999999, -1.263, 1.6920000000000002], 0.6023009446693657),
    (113, [-0.593, -0.726, -0.131, 0.16700000000000026, 0.935, -0.702, -1.421, -0.5609999999999999, -1.263, 1.6920000000000002], 0.6023009446693657),
    (114, [-0.593, -0.726, -0.131, 0.16700000000000026, 0.935, -0.702, -1.421, -0.5609999999999999, -1.263, 1.6920000000000002], 0.6023009446693657),
    (115, [-0.593, -0.726, -0.131, 0.16700000000000026, 0.935, -0.702, -1.421, -0.5609999999999999, -1.263, 1.6920000000000002], 0.6023009446693657),
    (116, [-0.593, -0.726, -0.131, 0.16700000000000026, 0.935, -0.702, -1.421, -0.5609999999999999, -1.263, 1.6920000000000002], 0.6023009446693657),
    (117, [-0.593, -0.726, -0.131, 0.16700000000000026, 0.935, -0.702, -1.421, -0.5609999999999999, -1.263, 1.6920000000000002], 0.6023009446693657),
    (118, [-0.593, -0.726, -0.131, 0.16700000000000026, 0.935, -0.702, -1.421, -0.5609999999999999, -1.263, 1.6920000000000002], 0.6023009446693657),
    (119, [-0.593, -0.726, -0.131, 0.16700000000000026, 0.935, -0.702, -1.421, -0.5609999999999999, -1.263, 1.6920000000000002], 0.6023009446693657),
    (120, [-0.593, -0.726, -0.131, 0.16700000000000026, 0.935, -0.702, -1.421, -0.5609999999999999, -1.263, 1.6920000000000002], 0.6023009446693657),
    (121, [-0.593, -0.726, -0.131, 0.16700000000000026, 0.935, -0.702, -1.421, -0.5609999999999999, -1.263, 1.6920000000000002], 0.6023009446693657),
    (122, [-0.593, -0.726, -0.131, 0.16700000000000026, 0.935, -0.702, -1.421, -0.5609999999999999, -1.263, 1.6920000000000002], 0.6023009446693657),
    (123, [-0.593, -0.726, -0.131, 0.16700000000000026, 0.935, -0.702, -1.421, -0.5609999999999999, -1.263, 1.6920000000000002], 0.6023009446693657),
    (124, [-0.593, -0.726, -0.131, 0.16700000000000026, 0.935, -0.702, -1.421, -0.5609999999999999, -1.263, 1.6920000000000002], 0.6023009446693657),
    (125, [-0.593, -0.726, -0.131, 0.16700000000000026, 0.935, -0.702, -1.421, -0.5609999999999999, -1.263, 1.6920000000000002], 0.6023009446693657),
    (126, [-0.593, -0.726, -0.131, 0.16700000000000026, 0.935, -0.702, -1.421, -0.5609999999999999, -1.263, 1.6920000000000002], 0.6023009446693657),
    (127, [-0.593, -0.726, -0.131, 0.16700000000000026, 0.935, -0.702, -1.421, -0.5609999999999999, -1.263, 1.6920000000000002], 0.6023009446693657),
    (128, [-0.593, -0.726, -0.131, 0.16700000000000026, 0.935, -0.702, -1.421, -0.5609999999999999, -1.263, 1.6920000000000002], 0.6023009446693657),
    (129, [-0.593, -0.726, -0.131, 0.16700000000000026, 0.935, -0.702, -1.421, -0.5609999999999999, -1.263, 1.6920000000000002], 0.6023009446693657),
    (130, [-0.593, -0.726, -0.131, 0.16700000000000026, 0.935, -0.702, -1.421, -0.5609999999999999, -1.263, 1.6920000000000002], 0.6023009446693657),
    (131, [-0.593, -0.726, -0.131, 0.16700000000000026, 0.935, -0.702, -1.421, -0.5609999999999999, -1.263, 1.6920000000000002], 0.6023009446693657),
    (132, [-0.593, -0.726, -0.131, 0.16700000000000026, 0.935, -0.702, -1.421, -0.5609999999999999, -1.263, 1.6920000000000002], 0.6023009446693657),
    (133, [-0.593, -0.726, -0.131, 0.16700000000000026, 0.935, -0.702, -1.421, -0.5609999999999999, -1.263, 1.6920000000000002], 0.6023009446693657),
    (134, [-0.593, -0.726, -0.131, 0.16700000000000026, 0.935, -0.702, -1.421, -0.5609999999999999, -1.263, 1.6920000000000002], 0.6023009446693657),
    (135, [-0.593, -0.726, -0.131, 0.16700000000000026, 0.935, -0.702, -1.421, -0.5609999999999999, -1.263, 1.6920000000000002], 0.6023009446693657),
    (136, [-0.593, -0.726, -0.131, 0.16700000000000026, 0.935, -0.702, -1.421, -0.5609999999999999, -1.263, 1.6920000000000002], 0.6023009446693657),
    (137, [-0.593, -0.726, -0.131, 0.16700000000000026, 0.935, -0.702, -1.421, -0.5609999999999999, -1.263, 1.6920000000000002], 0.6023009446693657),
    (138, [-0.593, -0.726, -0.131, 0.16700000000000026, 0.935, -0.702, -1.421, -0.5609999999999999, -1.263, 1.6920000000000002], 0.6023009446693657),
    (139, [-0.593, -0.726, -0.131, 0.16700000000000026, 0.935, -0.702, -1.421, -0.5609999999999999, -1.263, 1.6920000000000002], 0.6023009446693657),
    (140, [-0.593, -0.726, -0.131, 0.16700000000000026, 0.935, -0.702, -1.421, -0.5609999999999999, -1.263, 1.6920000000000002], 0.6023009446693657),
    (141, [-0.593, -0.726, -0.131, 0.16700000000000026, 0.935, -0.702, -1.421, -0.5609999999999999, -1.263, 1.6920000000000002], 0.6023009446693657),
    (142, [-0.593, -0.726, -0.131, 0.16700000000000026, 0.935, -0.702, -1.421, -0.5609999999999999, -1.263, 1.6920000000000002], 0.6023009446693657),
    (143, [-0.593, -0.726, -0.131, 0.16700000000000026, 0.935, -0.702, -1.421, -0.5609999999999999, -1.263, 1.6920000000000002], 0.6023009446693657),
    (144, [-0.593, -0.726, -0.131, 0.16700000000000026, 0.935, -0.702, -1.421, -0.5609999999999999, -1.263, 1.6920000000000002], 0.6023009446693657),
    (145, [-0.593, -0.726, -0.131, 0.16700000000000026, 0.935, -0.702, -1.421, -0.5609999999999999, -1.263, 1.6920000000000002], 0.6023009446693657),
    (146, [-0.593, -0.726, -0.131, 0.16700000000000026, 0.935, -0.702, -1.421, -0.5609999999999999, -1.263, 1.6920000000000002], 0.6023009446693657),
    (147, [-0.593, -0.726, -0.131, 0.16700000000000026, 0.935, -0.702, -1.421, -0.5609999999999999, -1.263, 1.6920000000000002], 0.6023009446693657),
    (148, [-0.593, -0.726, -0.131, 0.16700000000000026, 0.935, -0.702, -1.421, -0.5609999999999999, -1.263, 1.6920000000000002], 0.6023009446693657),
    (149, [-0.593, -0.726, -0.131, 0.16700000000000026, 0.935, -0.702, -1.421, -0.5609999999999999, -1.263, 1.6920000000000002], 0.6023009446693657),
    (150, [-0.593, -0.726, -0.131, 0.16700000000000026, 0.935, -0.702, -1.421, -0.5609999999999999, -1.263, 1.6920000000000002], 0.6023009446693657),
    (151, [-0.593, -0.726, -0.131, 0.16700000000000026, 0.935, -0.702, -1.421, -0.5609999999999999, -1.263, 1.6920000000000002], 0.6023009446693657),
    (152, [-0.593, -0.726, -0.131, 0.16700000000000026, 0.935, -0.702, -1.421, -0.5609999999999999, -1.263, 1.6920000000000002], 0.6023009446693657),
    (153, [-0.593, -0.726, -0.131, 0.16700000000000026, 0.935, -0.702, -1.421, -0.5609999999999999, -1.263, 1.6920000000000002], 0.6023009446693657),
    (154, [-0.593, -0.726, -0.131, 0.16700000000000026, 0.935, -0.702, -1.421, -0.5609999999999999, -1.263, 1.6920000000000002], 0.6023009446693657),
    (155, [-0.593, -0.726, -0.131, 0.16700000000000026, 0.935, -0.702, -1.421, -0.5609999999999999, -1.263, 1.6920000000000002], 0.6023009446693657),
    (156, [-0.593, -0.726, -0.131, 0.16700000000000026, 0.935, -0.702, -1.421, -0.5609999999999999, -1.263, 1.6920000000000002], 0.6023009446693657),
    (157, [-0.593, -0.726, -0.131, 0.16700000000000026, 0.935, -0.702, -1.421, -0.5609999999999999, -1.263, 1.6920000000000002], 0.6023009446693657),
    (158, [-0.593, -0.726, -0.131, 0.16700000000000026, 0.935, -0.702, -1.421, -0.5609999999999999, -1.263, 1.6920000000000002], 0.6023009446693657),
    (159, [-0.593, -0.726, -0.131, 0.16700000000000026, 0.935, -0.702, -1.421, -0.5609999999999999, -1.263, 1.6920000000000002], 0.6023009446693657),
    (160, [-0.593, -0.726, -0.131, 0.16700000000000026, 0.935, -0.702, -1.421, -0.5609999999999999, -1.263, 1.6920000000000002], 0.6023009446693657),
    (161, [-0.593, -0.726, -0.131, 0.16700000000000026, 0.935, -0.702, -1.421, -0.5609999999999999, -1.263, 1.6920000000000002], 0.6023009446693657),
    (162, [-0.593, -0.726, -0.131, 0.16700000000000026, 0.935, -0.702, -1.421, -0.5609999999999999, -1.263, 1.6920000000000002], 0.6023009446693657),
    (163, [-0.593, -0.726, -0.131, 0.16700000000000026, 0.935, -0.702, -1.421, -0.5609999999999999, -1.263, 1.6920000000000002], 0.6023009446693657),
    (164, [-0.593, -0.726, -0.131, 0.16700000000000026, 0.935, -0.702, -1.421, -0.5609999999999999, -1.263, 1.6920000000000002], 0.6023009446693657),
    (165, [-0.593, -0.726, -0.131, 0.16700000000000026, 0.935, -0.702, -1.421, -0.5609999999999999, -1.263, 1.6920000000000002], 0.6023009446693657),
    (166, [-0.593, -0.726, -0.131, 0.16700000000000026, 0.935, -0.702, -1.421, -0.5609999999999999, -1.263, 1.6920000000000002], 0.6023009446693657),
    (167, [-0.593, -0.726, -0.131, 0.16700000000000026, 0.935, -0.702, -1.421, -0.5609999999999999, -1.263, 1.6920000000000002], 0.6023009446693657),
    (168, [-0.593, -0.726, -0.131, 0.16700000000000026, 0.935, -0.702, -1.421, -0.5609999999999999, -1.263, 1.6920000000000002], 0.6023009446693657),
    (169, [-0.593, -0.726, -0.131, 0.16700000000000026, 0.935, -0.702, -1.421, -0.5609999999999999, -1.263, 1.6920000000000002], 0.6023009446693657),
    (170, [-0.593, -0.726, -0.131, 0.16700000000000026, 0.935, -0.702, -1.421, -0.5609999999999999, -1.263, 1.6920000000000002], 0.6023009446693657),
    (171, [-0.593, -0.726, -0.131, 0.16700000000000026, 0.935, -0.702, -1.421, -0.5609999999999999, -1.263, 1.6920000000000002], 0.6023009446693657),
    (172, [-0.593, -0.726, -0.131, 0.16700000000000026, 0.935, -0.702, -1.421, -0.5609999999999999, -1.263, 1.6920000000000002], 0.6023009446693657),
    (173, [-0.593, -0.726, -0.131, 0.16700000000000026, 0.935, -0.702, -1.421, -0.5609999999999999, -1.263, 1.6920000000000002], 0.6023009446693657),
    (174, [-0.593, -0.726, -0.131, 0.16700000000000026, 0.935, -0.702, -1.421, -0.5609999999999999, -1.263, 1.6920000000000002], 0.6023009446693657),
    (175, [-0.593, -0.726, -0.131, 0.16700000000000026, 0.935, -0.702, -1.421, -0.5609999999999999, -1.263, 1.6920000000000002], 0.6023009446693657),
    (176, [-0.593, -0.726, -0.131, 0.16700000000000026, 0.935, -0.702, -1.421, -0.5609999999999999, -1.263, 1.6920000000000002], 0.6023009446693657),
    (177, [-0.593, -0.726, -0.131, 0.16700000000000026, 0.935, -0.702, -1.421, -0.5609999999999999, -1.263, 1.6920000000000002], 0.6023009446693657),
    (178, [-0.593, -0.726, -0.131, 0.16700000000000026, 0.935, -0.702, -1.421, -0.5609999999999999, -1.263, 1.6920000000000002], 0.6023009446693657),
    (179, [-0.593, -0.726, -0.131, 0.16700000000000026, 0.935, -0.702, -1.421, -0.5609999999999999, -1.263, 1.6920000000000002], 0.6023009446693657),
    (180, [-0.593, -0.726, -0.131, 0.16700000000000026, 0.935, -0.702, -1.421, -0.5609999999999999, -1.263, 1.6920000000000002], 0.6023009446693657),
    (181, [-0.593, -0.726, -0.131, 0.16700000000000026, 0.935, -0.702, -1.421, -0.5609999999999999, -1.263, 1.6920000000000002], 0.6023009446693657),
    (182, [-0.593, -0.726, -0.131, 0.16700000000000026, 0.935, -0.702, -1.421, -0.5609999999999999, -1.263, 1.6920000000000002], 0.6023009446693657),
    (183, [-0.9259999999999999, -0.9470000000000001, -0.45199999999999996, 0.7840000000000003, 1.274, 1.9060000000000001, 1.2320000000000002, -1.827, -1.393, -0.776], 0.6034817813765182),
    (184, [-0.9259999999999999, -0.9470000000000001, -0.45199999999999996, 0.7840000000000003, 1.274, 1.9060000000000001, 1.2320000000000002, -1.827, -1.393, -0.776], 0.6034817813765182),
    (185, [-0.9259999999999999, -0.9470000000000001, -0.45199999999999996, 0.7840000000000003, 1.274, 1.9060000000000001, 1.2320000000000002, -1.827, -1.393, -0.776], 0.6034817813765182),
    (186, [-0.9259999999999999, -0.9470000000000001, -0.45199999999999996, 0.7840000000000003, 1.274, 1.9060000000000001, 1.2320000000000002, -1.827, -1.393, -0.776], 0.6034817813765182),
    (187, [-0.9259999999999999, -0.9470000000000001, -0.45199999999999996, 0.7840000000000003, 1.274, 1.9060000000000001, 1.2320000000000002, -1.827, -1.393, -0.776], 0.6034817813765182),
    (188, [-0.9259999999999999, -0.9470000000000001, -0.45199999999999996, 0.7840000000000003, 1.274, 1.9060000000000001, 1.2320000000000002, -1.827, -1.393, -0.776], 0.6034817813765182),
    (189, [-0.9259999999999999, -0.9470000000000001, -0.45199999999999996, 0.7840000000000003, 1.274, 1.9060000000000001, 1.2320000000000002, -1.827, -1.393, -0.776], 0.6034817813765182),
    (190, [-0.9259999999999999, -0.9470000000000001, -0.45199999999999996, 0.7840000000000003, 1.274, 1.9060000000000001, 1.2320000000000002, -1.827, -1.393, -0.776], 0.6034817813765182),
    (191, [-0.9259999999999999, -0.9470000000000001, -0.45199999999999996, 0.7840000000000003, 1.274, 1.9060000000000001, 1.2320000000000002, -1.827, -1.393, -0.776], 0.6034817813765182),
    (192, [-0.9259999999999999, -0.9470000000000001, -0.45199999999999996, 0.7840000000000003, 1.274, 1.9060000000000001, 1.2320000000000002, -1.827, -1.393, -0.776], 0.6034817813765182),
    (193, [-0.9259999999999999, -0.9470000000000001, -0.45199999999999996, 0.7840000000000003, 1.274, 1.9060000000000001, 1.2320000000000002, -1.827, -1.393, -0.776], 0.6034817813765182),
    (194, [-0.9259999999999999, -0.9470000000000001, -0.45199999999999996, 0.7840000000000003, 1.274, 1.9060000000000001, 1.2320000000000002, -1.827, -1.393, -0.776], 0.6034817813765182),
    (195, [-0.9259999999999999, -0.9470000000000001, -0.45199999999999996, 0.7840000000000003, 1.274, 1.9060000000000001, 1.2320000000000002, -1.827, -1.393, -0.776], 0.6034817813765182),
    (196, [-0.9259999999999999, -0.9470000000000001, -0.45199999999999996, 0.7840000000000003, 1.274, 1.9060000000000001, 1.2320000000000002, -1.827, -1.393, -0.776], 0.6034817813765182),
    (197, [-0.9259999999999999, -0.9470000000000001, -0.45199999999999996, 0.7840000000000003, 1.274, 1.9060000000000001, 1.2320000000000002, -1.827, -1.393, -0.776], 0.6034817813765182),
    (198, [-0.9259999999999999, -0.9470000000000001, -0.45199999999999996, 0.7840000000000003, 1.274, 1.9060000000000001, 1.2320000000000002, -1.827, -1.393, -0.776], 0.6034817813765182),
    (199, [-0.9259999999999999, -0.9470000000000001, -0.45199999999999996, 0.7840000000000003, 1.274, 1.9060000000000001, 1.2320000000000002, -1.827, -1.393, -0.776], 0.6034817813765182),
    (200, [-0.9259999999999999, -0.9470000000000001, -0.45199999999999996, 0.7840000000000003, 1.274, 1.9060000000000001, 1.2320000000000002, -1.827, -1.393, -0.776], 0.6034817813765182),
    (201, [-0.9259999999999999, -0.9470000000000001, -0.45199999999999996, 0.7840000000000003, 1.274, 1.9060000000000001, 1.2320000000000002, -1.827, -1.393, -0.776], 0.6034817813765182),
    (202, [-0.9259999999999999, -0.9470000000000001, -0.45199999999999996, 0.7840000000000003, 1.274, 1.9060000000000001, 1.2320000000000002, -1.827, -1.393, -0.776], 0.6034817813765182),
    (203, [-0.9259999999999999, -0.9470000000000001, -0.45199999999999996, 0.7840000000000003, 1.274, 1.9060000000000001, 1.2320000000000002, -1.827, -1.393, -0.776], 0.6034817813765182),
    (204, [-0.9259999999999999, -0.9470000000000001, -0.45199999999999996, 0.7840000000000003, 1.274, 1.9060000000000001, 1.2320000000000002, -1.827, -1.393, -0.776], 0.6034817813765182),
    (205, [-0.9259999999999999, -0.9470000000000001, -0.45199999999999996, 0.7840000000000003, 1.274, 1.9060000000000001, 1.2320000000000002, -1.827, -1.393, -0.776], 0.6034817813765182),
    (206, [-0.9259999999999999, -0.9470000000000001, -0.45199999999999996, 0.7840000000000003, 1.274, 1.9060000000000001, 1.2320000000000002, -1.827, -1.393, -0.776], 0.6034817813765182),
    (207, [-0.9259999999999999, -0.9470000000000001, -0.45199999999999996, 0.7840000000000003, 1.274, 1.9060000000000001, 1.2320000000000002, -1.827, -1.393, -0.776], 0.6034817813765182),
    (208, [-0.9259999999999999, -0.9470000000000001, -0.45199999999999996, 0.7840000000000003, 1.274, 1.9060000000000001, 1.2320000000000002, -1.827, -1.393, -0.776], 0.6034817813765182),
    (209, [-0.9259999999999999, -0.9470000000000001, -0.45199999999999996, 0.7840000000000003, 1.274, 1.9060000000000001, 1.2320000000000002, -1.827, -1.393, -0.776], 0.6034817813765182),
    (210, [-0.9259999999999999, -0.9470000000000001, -0.45199999999999996, 0.7840000000000003, 1.274, 1.9060000000000001, 1.2320000000000002, -1.827, -1.393, -0.776], 0.6034817813765182),
    (211, [-0.9259999999999999, -0.9470000000000001, -0.45199999999999996, 0.7840000000000003, 1.274, 1.9060000000000001, 1.2320000000000002, -1.827, -1.393, -0.776], 0.6034817813765182),
    (212, [-0.9259999999999999, -0.9470000000000001, -0.45199999999999996, 0.7840000000000003, 1.274, 1.9060000000000001, 1.2320000000000002, -1.827, -1.393, -0.776], 0.6034817813765182),
    (213, [-0.9259999999999999, -0.9470000000000001, -0.45199999999999996, 0.7840000000000003, 1.274, 1.9060000000000001, 1.2320000000000002, -1.827, -1.393, -0.776], 0.6034817813765182),
    (214, [-0.9259999999999999, -0.9470000000000001, -0.45199999999999996, 0.7840000000000003, 1.274, 1.9060000000000001, 1.2320000000000002, -1.827, -1.393, -0.776], 0.6034817813765182),
    (215, [-0.9259999999999999, -0.9470000000000001, -0.45199999999999996, 0.7840000000000003, 1.274, 1.9060000000000001, 1.2320000000000002, -1.827, -1.393, -0.776], 0.6034817813765182),
    (216, [-0.9259999999999999, -0.9470000000000001, -0.45199999999999996, 0.7840000000000003, 1.274, 1.9060000000000001, 1.2320000000000002, -1.827, -1.393, -0.776], 0.6034817813765182),
    (217, [-0.9259999999999999, -0.9470000000000001, -0.45199999999999996, 0.7840000000000003, 1.274, 1.9060000000000001, 1.2320000000000002, -1.827, -1.393, -0.776], 0.6034817813765182),
    (218, [-0.9259999999999999, -0.9470000000000001, -0.45199999999999996, 0.7840000000000003, 1.274, 1.9060000000000001, 1.2320000000000002, -1.827, -1.393, -0.776], 0.6034817813765182),
    (219, [-0.9259999999999999, -0.9470000000000001, -0.45199999999999996, 0.7840000000000003, 1.274, 1.9060000000000001, 1.2320000000000002, -1.827, -1.393, -0.776], 0.6034817813765182),
    (220, [-0.9259999999999999, -0.9470000000000001, -0.45199999999999996, 0.7840000000000003, 1.274, 1.9060000000000001, 1.2320000000000002, -1.827, -1.393, -0.776], 0.6034817813765182),
    (221, [-0.9259999999999999, -0.9470000000000001, -0.45199999999999996, 0.7840000000000003, 1.274, 1.9060000000000001, 1.2320000000000002, -1.827, -1.393, -0.776], 0.6034817813765182),
    (222, [-0.9259999999999999, -0.9470000000000001, -0.45199999999999996, 0.7840000000000003, 1.274, 1.9060000000000001, 1.2320000000000002, -1.827, -1.393, -0.776], 0.6034817813765182),
    (223, [-0.9259999999999999, -0.9470000000000001, -0.45199999999999996, 0.7840000000000003, 1.274, 1.9060000000000001, 1.2320000000000002, -1.827, -1.393, -0.776], 0.6034817813765182),
    (224, [-0.9259999999999999, -0.9470000000000001, -0.45199999999999996, 0.7840000000000003, 1.274, 1.9060000000000001, 1.2320000000000002, -1.827, -1.393, -0.776], 0.6034817813765182),
    (225, [-0.9259999999999999, -0.9470000000000001, -0.45199999999999996, 0.7840000000000003, 1.274, 1.9060000000000001, 1.2320000000000002, -1.827, -1.393, -0.776], 0.6034817813765182),
    (226, [-0.9259999999999999, -0.9470000000000001, -0.45199999999999996, 0.7840000000000003, 1.274, 1.9060000000000001, 1.2320000000000002, -1.827, -1.393, -0.776], 0.6034817813765182),
    (227, [-0.9259999999999999, -0.9470000000000001, -0.45199999999999996, 0.7840000000000003, 1.274, 1.9060000000000001, 1.2320000000000002, -1.827, -1.393, -0.776], 0.6034817813765182),
    (228, [-0.9259999999999999, -0.9470000000000001, -0.45199999999999996, 0.7840000000000003, 1.274, 1.9060000000000001, 1.2320000000000002, -1.827, -1.393, -0.776], 0.6034817813765182),
    (229, [-0.9259999999999999, -0.9470000000000001, -0.45199999999999996, 0.7840000000000003, 1.274, 1.9060000000000001, 1.2320000000000002, -1.827, -1.393, -0.776], 0.6034817813765182),
    (230, [-0.9259999999999999, -0.9470000000000001, -0.45199999999999996, 0.7840000000000003, 1.274, 1.9060000000000001, 1.2320000000000002, -1.827, -1.393, -0.776], 0.6034817813765182),
    (231, [-0.9259999999999999, -0.9470000000000001, -0.45199999999999996, 0.7840000000000003, 1.274, 1.9060000000000001, 1.2320000000000002, -1.827, -1.393, -0.776], 0.6034817813765182),
    (232, [-0.9259999999999999, -0.9470000000000001, -0.45199999999999996, 0.7840000000000003, 1.274, 1.9060000000000001, 1.2320000000000002, -1.827, -1.393, -0.776], 0.6034817813765182),
    (233, [-0.9259999999999999, -0.9470000000000001, -0.45199999999999996, 0.7840000000000003, 1.274, 1.9060000000000001, 1.2320000000000002, -1.827, -1.393, -0.776], 0.6034817813765182),
    (234, [-0.9259999999999999, -0.9470000000000001, -0.45199999999999996, 0.7840000000000003, 1.274, 1.9060000000000001, 1.2320000000000002, -1.827, -1.393, -0.776], 0.6034817813765182),
    (235, [-0.9259999999999999, -0.9470000000000001, -0.45199999999999996, 0.7840000000000003, 1.274, 1.9060000000000001, 1.2320000000000002, -1.827, -1.393, -0.776], 0.6034817813765182),
    (236, [-0.9259999999999999, -0.9470000000000001, -0.45199999999999996, 0.7840000000000003, 1.274, 1.9060000000000001, 1.2320000000000002, -1.827, -1.393, -0.776], 0.6034817813765182),
    (237, [-0.9259999999999999, -0.9470000000000001, -0.45199999999999996, 0.7840000000000003, 1.274, 1.9060000000000001, 1.2320000000000002, -1.827, -1.393, -0.776], 0.6034817813765182),
    (238, [-0.9259999999999999, -0.9470000000000001, -0.45199999999999996, 0.7840000000000003, 1.274, 1.9060000000000001, 1.2320000000000002, -1.827, -1.393, -0.776], 0.6034817813765182),
    (239, [-0.9259999999999999, -0.9470000000000001, -0.45199999999999996, 0.7840000000000003, 1.274, 1.9060000000000001, 1.2320000000000002, -1.827, -1.393, -0.776], 0.6034817813765182),
    (240, [-0.9259999999999999, -0.9470000000000001, -0.45199999999999996, 0.7840000000000003, 1.274, 1.9060000000000001, 1.2320000000000002, -1.827, -1.393, -0.776], 0.6034817813765182),
    (241, [-0.9259999999999999, -0.9470000000000001, -0.45199999999999996, 0.7840000000000003, 1.274, 1.9060000000000001, 1.2320000000000002, -1.827, -1.393, -0.776], 0.6034817813765182),
    (242, [-0.9259999999999999, -0.9470000000000001, -0.45199999999999996, 0.7840000000000003, 1.274, 1.9060000000000001, 1.2320000000000002, -1.827, -1.393, -0.776], 0.6034817813765182),
    (243, [-0.9259999999999999, -0.9470000000000001, -0.45199999999999996, 0.7840000000000003, 1.274, 1.9060000000000001, 1.2320000000000002, -1.827, -1.393, -0.776], 0.6034817813765182),
    (244, [-0.9259999999999999, -0.9470000000000001, -0.45199999999999996, 0.7840000000000003, 1.274, 1.9060000000000001, 1.2320000000000002, -1.827, -1.393, -0.776], 0.6034817813765182),
    (245, [-0.9259999999999999, -0.9470000000000001, -0.45199999999999996, 0.7840000000000003, 1.274, 1.9060000000000001, 1.2320000000000002, -1.827, -1.393, -0.776], 0.6034817813765182),
    (246, [-0.9259999999999999, -0.9470000000000001, -0.45199999999999996, 0.7840000000000003, 1.274, 1.9060000000000001, 1.2320000000000002, -1.827, -1.393, -0.776], 0.6034817813765182),
    (247, [-0.9259999999999999, -0.9470000000000001, -0.45199999999999996, 0.7840000000000003, 1.274, 1.9060000000000001, 1.2320000000000002, -1.827, -1.393, -0.776], 0.6034817813765182),
    (248, [-0.9259999999999999, -0.9470000000000001, -0.45199999999999996, 0.7840000000000003, 1.274, 1.9060000000000001, 1.2320000000000002, -1.827, -1.393, -0.776], 0.6034817813765182),
    (249, [-0.9259999999999999, -0.9470000000000001, -0.45199999999999996, 0.7840000000000003, 1.274, 1.9060000000000001, 1.2320000000000002, -1.827, -1.393, -0.776], 0.6034817813765182),
    (250, [-0.9259999999999999, -0.9470000000000001, -0.45199999999999996, 0.7840000000000003, 1.274, 1.9060000000000001, 1.2320000000000002, -1.827, -1.393, -0.776], 0.6034817813765182),
    (251, [-0.9259999999999999, -0.9470000000000001, -0.45199999999999996, 0.7840000000000003, 1.274, 1.9060000000000001, 1.2320000000000002, -1.827, -1.393, -0.776], 0.6034817813765182),
    (252, [-0.9259999999999999, -0.9470000000000001, -0.45199999999999996, 0.7840000000000003, 1.274, 1.9060000000000001, 1.2320000000000002, -1.827, -1.393, -0.776], 0.6034817813765182),
    (253, [-0.9259999999999999, -0.9470000000000001, -0.45199999999999996, 0.7840000000000003, 1.274, 1.9060000000000001, 1.2320000000000002, -1.827, -1.393, -0.776], 0.6034817813765182),
    (254, [-0.9259999999999999, -0.9470000000000001, -0.45199999999999996, 0.7840000000000003, 1.274, 1.9060000000000001, 1.2320000000000002, -1.827, -1.393, -0.776], 0.6034817813765182),
    (255, [-0.9259999999999999, -0.9470000000000001, -0.45199999999999996, 0.7840000000000003, 1.274, 1.9060000000000001, 1.2320000000000002, -1.827, -1.393, -0.776], 0.6034817813765182),
    (256, [-0.9259999999999999, -0.9470000000000001, -0.45199999999999996, 0.7840000000000003, 1.274, 1.9060000000000001, 1.2320000000000002, -1.827, -1.393, -0.776], 0.6034817813765182),
    (257, [-0.9259999999999999, -0.9470000000000001, -0.45199999999999996, 0.7840000000000003, 1.274, 1.9060000000000001, 1.2320000000000002, -1.827, -1.393, -0.776], 0.6034817813765182),
    (258, [-0.9259999999999999, -0.9470000000000001, -0.45199999999999996, 0.7840000000000003, 1.274, 1.9060000000000001, 1.2320000000000002, -1.827, -1.393, -0.776], 0.6034817813765182),
    (259, [-0.9259999999999999, -0.9470000000000001, -0.45199999999999996, 0.7840000000000003, 1.274, 1.9060000000000001, 1.2320000000000002, -1.827, -1.393, -0.776], 0.6034817813765182),
    (260, [-0.9259999999999999, -0.9470000000000001, -0.45199999999999996, 0.7840000000000003, 1.274, 1.9060000000000001, 1.2320000000000002, -1.827, -1.393, -0.776], 0.6034817813765182),
    (261, [-0.9259999999999999, -0.9470000000000001, -0.45199999999999996, 0.7840000000000003, 1.274, 1.9060000000000001, 1.2320000000000002, -1.827, -1.393, -0.776], 0.6034817813765182),
    (262, [-0.9259999999999999, -0.9470000000000001, -0.45199999999999996, 0.7840000000000003, 1.274, 1.9060000000000001, 1.2320000000000002, -1.827, -1.393, -0.776], 0.6034817813765182),
    (263, [-0.9259999999999999, -0.9470000000000001, -0.45199999999999996, 0.7840000000000003, 1.274, 1.9060000000000001, 1.2320000000000002, -1.827, -1.393, -0.776], 0.6034817813765182),
    (264, [-0.9259999999999999, -0.9470000000000001, -0.45199999999999996, 0.7840000000000003, 1.274, 1.9060000000000001, 1.2320000000000002, -1.827, -1.393, -0.776], 0.6034817813765182),
    (265, [-0.9259999999999999, -0.9470000000000001, -0.45199999999999996, 0.7840000000000003, 1.274, 1.9060000000000001, 1.2320000000000002, -1.827, -1.393, -0.776], 0.6034817813765182),
    (266, [-0.9259999999999999, -0.9470000000000001, -0.45199999999999996, 0.7840000000000003, 1.274, 1.9060000000000001, 1.2320000000000002, -1.827, -1.393, -0.776], 0.6034817813765182),
    (267, [-0.9259999999999999, -0.9470000000000001, -0.45199999999999996, 0.7840000000000003, 1.274, 1.9060000000000001, 1.2320000000000002, -1.827, -1.393, -0.776], 0.6034817813765182),
    (268, [-0.9259999999999999, -0.9470000000000001, -0.45199999999999996, 0.7840000000000003, 1.274, 1.9060000000000001, 1.2320000000000002, -1.827, -1.393, -0.776], 0.6034817813765182),
    (269, [-0.9259999999999999, -0.9470000000000001, -0.45199999999999996, 0.7840000000000003, 1.274, 1.9060000000000001, 1.2320000000000002, -1.827, -1.393, -0.776], 0.6034817813765182),
    (270, [-0.9259999999999999, -0.9470000000000001, -0.45199999999999996, 0.7840000000000003, 1.274, 1.9060000000000001, 1.2320000000000002, -1.827, -1.393, -0.776], 0.6034817813765182),
    (271, [-0.9259999999999999, -0.9470000000000001, -0.45199999999999996, 0.7840000000000003, 1.274, 1.9060000000000001, 1.2320000000000002, -1.827, -1.393, -0.776], 0.6034817813765182),
    (272, [-0.9259999999999999, -0.9470000000000001, -0.45199999999999996, 0.7840000000000003, 1.274, 1.9060000000000001, 1.2320000000000002, -1.827, -1.393, -0.776], 0.6034817813765182),
    (273, [-0.9259999999999999, -0.9470000000000001, -0.45199999999999996, 0.7840000000000003, 1.274, 1.9060000000000001, 1.2320000000000002, -1.827, -1.393, -0.776], 0.6034817813765182),
    (274, [-0.9259999999999999, -0.9470000000000001, -0.45199999999999996, 0.7840000000000003, 1.274, 1.9060000000000001, 1.2320000000000002, -1.827, -1.393, -0.776], 0.6034817813765182),
    (275, [-0.9259999999999999, -0.9470000000000001, -0.45199999999999996, 0.7840000000000003, 1.274, 1.9060000000000001, 1.2320000000000002, -1.827, -1.393, -0.776], 0.6034817813765182),
    (276, [-0.9259999999999999, -0.9470000000000001, -0.45199999999999996, 0.7840000000000003, 1.274, 1.9060000000000001, 1.2320000000000002, -1.827, -1.393, -0.776], 0.6034817813765182),
    (277, [-0.9259999999999999, -0.9470000000000001, -0.45199999999999996, 0.7840000000000003, 1.274, 1.9060000000000001, 1.2320000000000002, -1.827, -1.393, -0.776], 0.6034817813765182),
    (278, [-0.9259999999999999, -0.9470000000000001, -0.45199999999999996, 0.7840000000000003, 1.274, 1.9060000000000001, 1.2320000000000002, -1.827, -1.393, -0.776], 0.6034817813765182),
    (279, [-0.9259999999999999, -0.9470000000000001, -0.45199999999999996, 0.7840000000000003, 1.274, 1.9060000000000001, 1.2320000000000002, -1.827, -1.393, -0.776], 0.6034817813765182),
    (280, [-0.9259999999999999, -0.9470000000000001, -0.45199999999999996, 0.7840000000000003, 1.274, 1.9060000000000001, 1.2320000000000002, -1.827, -1.393, -0.776], 0.6034817813765182),
    (281, [-0.9259999999999999, -0.9470000000000001, -0.45199999999999996, 0.7840000000000003, 1.274, 1.9060000000000001, 1.2320000000000002, -1.827, -1.393, -0.776], 0.6034817813765182),
    (282, [-0.9259999999999999, -0.9470000000000001, -0.45199999999999996, 0.7840000000000003, 1.274, 1.9060000000000001, 1.2320000000000002, -1.827, -1.393, -0.776], 0.6034817813765182),
    (283, [-0.9259999999999999, -0.9470000000000001, -0.45199999999999996, 0.7840000000000003, 1.274, 1.9060000000000001, 1.2320000000000002, -1.827, -1.393, -0.776], 0.6034817813765182),
    (284, [-0.9259999999999999, -0.9470000000000001, -0.45199999999999996, 0.7840000000000003, 1.274, 1.9060000000000001, 1.2320000000000002, -1.827, -1.393, -0.776], 0.6034817813765182),
    (285, [-0.9259999999999999, -0.9470000000000001, -0.45199999999999996, 0.7840000000000003, 1.274, 1.9060000000000001, 1.2320000000000002, -1.827, -1.393, -0.776], 0.6034817813765182),
    (286, [-0.9259999999999999, -0.9470000000000001, -0.45199999999999996, 0.7840000000000003, 1.274, 1.9060000000000001, 1.2320000000000002, -1.827, -1.393, -0.776], 0.6034817813765182),
    (287, [-0.9259999999999999, -0.9470000000000001, -0.45199999999999996, 0.7840000000000003, 1.274, 1.9060000000000001, 1.2320000000000002, -1.827, -1.393, -0.776], 0.6034817813765182),
    (288, [-0.9259999999999999, -0.9470000000000001, -0.45199999999999996, 0.7840000000000003, 1.274, 1.9060000000000001, 1.2320000000000002, -1.827, -1.393, -0.776], 0.6034817813765182),
    (289, [-0.9259999999999999, -0.9470000000000001, -0.45199999999999996, 0.7840000000000003, 1.274, 1.9060000000000001, 1.2320000000000002, -1.827, -1.393, -0.776], 0.6034817813765182),
    (290, [-0.9259999999999999, -0.9470000000000001, -0.45199999999999996, 0.7840000000000003, 1.274, 1.9060000000000001, 1.2320000000000002, -1.827, -1.393, -0.776], 0.6034817813765182),
    (291, [-0.9259999999999999, -0.9470000000000001, -0.45199999999999996, 0.7840000000000003, 1.274, 1.9060000000000001, 1.2320000000000002, -1.827, -1.393, -0.776], 0.6034817813765182),
    (292, [-0.9259999999999999, -0.9470000000000001, -0.45199999999999996, 0.7840000000000003, 1.274, 1.9060000000000001, 1.2320000000000002, -1.827, -1.393, -0.776], 0.6034817813765182),
    (293, [-0.9259999999999999, -0.9470000000000001, -0.45199999999999996, 0.7840000000000003, 1.274, 1.9060000000000001, 1.2320000000000002, -1.827, -1.393, -0.776], 0.6034817813765182),
    (294, [-0.9259999999999999, -0.9470000000000001, -0.45199999999999996, 0.7840000000000003, 1.274, 1.9060000000000001, 1.2320000000000002, -1.827, -1.393, -0.776], 0.6034817813765182),
    (295, [-0.9259999999999999, -0.9470000000000001, -0.45199999999999996, 0.7840000000000003, 1.274, 1.9060000000000001, 1.2320000000000002, -1.827, -1.393, -0.776], 0.6034817813765182),
    (296, [-0.9259999999999999, -0.9470000000000001, -0.45199999999999996, 0.7840000000000003, 1.274, 1.9060000000000001, 1.2320000000000002, -1.827, -1.393, -0.776], 0.6034817813765182),
    (297, [-0.9259999999999999, -0.9470000000000001, -0.45199999999999996, 0.7840000000000003, 1.274, 1.9060000000000001, 1.2320000000000002, -1.827, -1.393, -0.776], 0.6034817813765182),
    (298, [-0.9259999999999999, -0.9470000000000001, -0.45199999999999996, 0.7840000000000003, 1.274, 1.9060000000000001, 1.2320000000000002, -1.827, -1.393, -0.776], 0.6034817813765182),
    (299, [-0.9259999999999999, -0.9470000000000001, -0.45199999999999996, 0.7840000000000003, 1.274, 1.9060000000000001, 1.2320000000000002, -1.827, -1.393, -0.776], 0.6034817813765182),
]

